ccopy_reg
_reconstructor
p0
(cnetworkx.classes.graph
Graph
p1
c__builtin__
object
p2
Ntp3
Rp4
(dp5
S'node'
p6
(dp7
I0
(dp8
S'pos_x'
p9
F0.9474951006146528
sS'pos_y'
p10
F0.16784392548799087
ssI1
(dp11
g9
F0.9256949323970964
sg10
F0.16608329312559367
ssI2
(dp12
g9
F0.35977123250488874
sg10
F0.2520282179478417
ssI3
(dp13
g9
F0.3174794664130517
sg10
F0.3265679355586667
ssI4
(dp14
g9
F0.33277396259936176
sg10
F0.21210028085081623
ssI5
(dp15
g9
F0.7784248983698071
sg10
F0.03952593203974686
ssI6
(dp16
g9
F0.30037502505759084
sg10
F0.12774210721226809
ssI7
(dp17
g9
F0.039764082397211964
sg10
F0.2991100194703813
ssI8
(dp18
g9
F0.17499455863816482
sg10
F0.8888177542630845
ssI9
(dp19
g9
F0.7552699180366815
sg10
F0.2167780553387345
ssI10
(dp20
g9
F0.1465943620265152
sg10
F0.1890140585330925
ssI11
(dp21
g9
F0.005568424319523313
sg10
F0.05122730859381752
ssI12
(dp22
g9
F0.5748228026740123
sg10
F0.9244551658334363
ssI13
(dp23
g9
F0.9133927317953568
sg10
F0.15380720099059786
ssI14
(dp24
g9
F0.4429431478291205
sg10
F0.7554991698542775
ssI15
(dp25
g9
F0.6516973028095017
sg10
F0.9844367404832293
ssI16
(dp26
g9
F0.6510254998131805
sg10
F0.2999045435002341
ssI17
(dp27
g9
F0.555765720820804
sg10
F0.13806838811484334
ssI18
(dp28
g9
F0.13051934464111947
sg10
F0.9713954027889535
ssI19
(dp29
g9
F0.012804530355064125
sg10
F0.5953481695961392
ssI20
(dp30
g9
F0.25057821918996925
sg10
F0.16403539109470122
ssI21
(dp31
g9
F0.0034202994079405302
sg10
F0.38000536695971776
ssI22
(dp32
g9
F0.001079764586894627
sg10
F0.4365756535032925
ssI23
(dp33
g9
F0.23118667278933702
sg10
F0.6857469850241221
ssI24
(dp34
g9
F0.011187241506087853
sg10
F0.11888038683993452
ssI25
(dp35
g9
F0.6996442989825312
sg10
F0.34285937634255315
ssI26
(dp36
g9
F0.5872690004725636
sg10
F0.6381734062140544
ssI27
(dp37
g9
F0.7095848589510626
sg10
F0.02209718848402009
ssI28
(dp38
g9
F0.8033621063002793
sg10
F0.5264964889942448
ssI29
(dp39
g9
F0.6029411561157347
sg10
F0.5240262665632758
ssI30
(dp40
g9
F0.21627477338194656
sg10
F0.11075070870049775
ssI31
(dp41
g9
F0.9274887799607584
sg10
F0.0034117443066964404
ssI32
(dp42
g9
F0.41583217386312477
sg10
F0.30271016756517755
ssI33
(dp43
g9
F0.22322551022027137
sg10
F0.5423437959769355
ssI34
(dp44
g9
F0.7552835264023593
sg10
F0.03371530371180309
ssI35
(dp45
g9
F0.3250797621477014
sg10
F0.3689949324791061
ssI36
(dp46
g9
F0.17247351165619684
sg10
F0.026682891601100378
ssI37
(dp47
g9
F0.46677462185064245
sg10
F0.5073195860301689
ssI38
(dp48
g9
F0.39969579359921037
sg10
F0.5000202249976398
ssI39
(dp49
g9
F0.053520752934854476
sg10
F0.053160240756012445
ssI40
(dp50
g9
F0.1764998381822378
sg10
F0.35147684257612943
ssI41
(dp51
g9
F0.11973208270839131
sg10
F0.3178732060261211
ssI42
(dp52
g9
F0.5120558035875644
sg10
F0.5977006291382959
ssI43
(dp53
g9
F0.3914135396474232
sg10
F0.6314453901216861
ssI44
(dp54
g9
F0.8481829997637049
sg10
F0.5341739892570818
ssI45
(dp55
g9
F0.23102465184527188
sg10
F0.9042524796164082
ssI46
(dp56
g9
F0.8177639446827284
sg10
F0.16846463545675383
ssI47
(dp57
g9
F0.5855552594048559
sg10
F0.4505791186772069
ssI48
(dp58
g9
F0.048328279283029185
sg10
F0.47670265699996395
ssI49
(dp59
g9
F0.7614542236879195
sg10
F0.4016288843552065
ssI50
(dp60
g9
F0.22656140798880908
sg10
F0.23061991108772517
ssI51
(dp61
g9
F0.1480290768078536
sg10
F0.6798804252809207
ssI52
(dp62
g9
F0.43005561995178
sg10
F0.13070223591235708
ssI53
(dp63
g9
F0.4814737827928872
sg10
F0.8142190691079298
ssI54
(dp64
g9
F0.44847648808052065
sg10
F0.3334567628487808
ssI55
(dp65
g9
F0.16274652050382998
sg10
F0.1418208836693592
ssI56
(dp66
g9
F0.5410077026505444
sg10
F0.3243124903524798
ssI57
(dp67
g9
F0.8967080157954138
sg10
F0.7833175052084231
ssI58
(dp68
g9
F0.45965770483582336
sg10
F0.04802152333391596
ssI59
(dp69
g9
F0.5445807062700048
sg10
F0.29830471289615335
ssI60
(dp70
g9
F0.6647954672174354
sg10
F0.5338595308292835
ssI61
(dp71
g9
F0.6010391681252952
sg10
F0.1959808564579777
ssI62
(dp72
g9
F0.04269145892404402
sg10
F0.1518124774423708
ssI63
(dp73
g9
F0.31224462414893894
sg10
F0.5678435357087588
ssI64
(dp74
g9
F0.6518609918175746
sg10
F0.8211470066798255
ssI65
(dp75
g9
F0.5106244231920742
sg10
F0.8808446511027619
ssI66
(dp76
g9
F0.20351070717940123
sg10
F0.459845969068435
ssI67
(dp77
g9
F0.8999553208749032
sg10
F0.20385856595125829
ssI68
(dp78
g9
F0.6703706997329094
sg10
F0.6560639789685938
ssI69
(dp79
g9
F0.7685810844787546
sg10
F0.24649266893825683
ssI70
(dp80
g9
F0.8935090853876363
sg10
F0.07096881179759995
ssI71
(dp81
g9
F0.24186908892159376
sg10
F0.5481527499999183
ssI72
(dp82
g9
F0.9852015828110608
sg10
F0.07816837961651857
ssI73
(dp83
g9
F0.2686678840931306
sg10
F0.7610549737948179
ssI74
(dp84
g9
F0.7444491804514197
sg10
F0.8800399218585638
ssI75
(dp85
g9
F0.32363068016541163
sg10
F0.3626377738387587
ssI76
(dp86
g9
F0.9445046021065083
sg10
F0.8916286090896696
ssI77
(dp87
g9
F0.9612171448452634
sg10
F0.1348033696537212
ssI78
(dp88
g9
F0.8069008431703069
sg10
F0.7946912733895342
ssI79
(dp89
g9
F0.6585526075213457
sg10
F0.4653507991569852
ssI80
(dp90
g9
F0.8238260973256463
sg10
F0.9973603914999553
ssI81
(dp91
g9
F0.3655015843636982
sg10
F0.03339819298128377
ssI82
(dp92
g9
F0.9455852651031603
sg10
F0.38506423091346464
ssI83
(dp93
g9
F0.7730213322499451
sg10
F0.9189438511606287
ssI84
(dp94
g9
F0.8086276209453267
sg10
F0.15070826270359183
ssI85
(dp95
g9
F0.7500784705331396
sg10
F0.16567232085753836
ssI86
(dp96
g9
F0.03696794291789118
sg10
F0.6472207484490139
ssI87
(dp97
g9
F0.9129822105710944
sg10
F0.30763298344305
ssI88
(dp98
g9
F0.20492459708616628
sg10
F0.07795341461117045
ssI89
(dp99
g9
F0.7611556962112136
sg10
F0.24007725712625594
ssI90
(dp100
g9
F0.0964460560494722
sg10
F0.8526894366128963
ssI91
(dp101
g9
F0.16922785396558448
sg10
F0.5696184799145846
ssI92
(dp102
g9
F0.3970230244588995
sg10
F0.004358191457461302
ssI93
(dp103
g9
F0.5423306247532563
sg10
F0.8066579341205474
ssI94
(dp104
g9
F0.1394047480328383
sg10
F0.15441185052233075
ssI95
(dp105
g9
F0.6965588699976345
sg10
F0.31803311175486604
ssI96
(dp106
g9
F0.8159791333422631
sg10
F0.9153945307827736
ssI97
(dp107
g9
F0.8382092068233212
sg10
F0.6514102702736813
ssI98
(dp108
g9
F0.2324875324214496
sg10
F0.06612113127168617
ssI99
(dp109
g9
F0.1384173167387328
sg10
F0.39934062299839934
sssS'node_dict_factory'
p110
c__builtin__
dict
p111
sS'edge_attr_dict_factory'
p112
g111
sS'edge'
p113
(dp114
I0
(dp115
sI1
(dp116
sI2
(dp117
sI3
(dp118
sI4
(dp119
sI5
(dp120
sI6
(dp121
sI7
(dp122
sI8
(dp123
sI9
(dp124
sI10
(dp125
sI11
(dp126
sI12
(dp127
sI13
(dp128
sI14
(dp129
sI15
(dp130
sI16
(dp131
sI17
(dp132
sI18
(dp133
sI19
(dp134
sI20
(dp135
sI21
(dp136
sI22
(dp137
sI23
(dp138
sI24
(dp139
sI25
(dp140
sI26
(dp141
sI27
(dp142
sI28
(dp143
sI29
(dp144
sI30
(dp145
sI31
(dp146
sI32
(dp147
sI33
(dp148
sI34
(dp149
sI35
(dp150
sI36
(dp151
sI37
(dp152
sI38
(dp153
sI39
(dp154
sI40
(dp155
sI41
(dp156
sI42
(dp157
sI43
(dp158
sI44
(dp159
sI45
(dp160
sI46
(dp161
sI47
(dp162
sI48
(dp163
sI49
(dp164
sI50
(dp165
sI51
(dp166
sI52
(dp167
sI53
(dp168
sI54
(dp169
sI55
(dp170
sI56
(dp171
sI57
(dp172
sI58
(dp173
sI59
(dp174
sI60
(dp175
sI61
(dp176
sI62
(dp177
sI63
(dp178
sI64
(dp179
sI65
(dp180
sI66
(dp181
sI67
(dp182
sI68
(dp183
sI69
(dp184
sI70
(dp185
sI71
(dp186
sI72
(dp187
sI73
(dp188
sI74
(dp189
sI75
(dp190
sI76
(dp191
sI77
(dp192
sI78
(dp193
sI79
(dp194
sI80
(dp195
sI81
(dp196
sI82
(dp197
sI83
(dp198
sI84
(dp199
sI85
(dp200
sI86
(dp201
sI87
(dp202
sI88
(dp203
sI89
(dp204
sI90
(dp205
sI91
(dp206
sI92
(dp207
sI93
(dp208
sI94
(dp209
sI95
(dp210
sI96
(dp211
sI97
(dp212
sI98
(dp213
sI99
(dp214
ssS'graph'
p215
(dp216
sS'adjlist_dict_factory'
p217
g111
sS'adj'
p218
g114
sb.