ccopy_reg
_reconstructor
p0
(cnetworkx.classes.graph
Graph
p1
c__builtin__
object
p2
Ntp3
Rp4
(dp5
S'node'
p6
(dp7
I0
(dp8
S'pos_x'
p9
F0.5170873191323448
sS'pos_y'
p10
F0.3146358478750598
ssI1
(dp11
g9
F0.9906825756245162
sg10
F0.9857642397427809
ssI2
(dp12
g9
F0.13916940683990553
sg10
F0.6424472126307399
ssI3
(dp13
g9
F0.3578170345981506
sg10
F0.21818907790544506
ssI4
(dp14
g9
F0.11980476826351882
sg10
F0.9422362158929457
ssI5
(dp15
g9
F0.021420250095375182
sg10
F0.8378483484905878
ssI6
(dp16
g9
F0.8950889273855059
sg10
F0.8601487978379155
ssI7
(dp17
g9
F0.8019123568084282
sg10
F0.3263140972677434
ssI8
(dp18
g9
F0.1184557309194948
sg10
F0.08741358986766379
ssI9
(dp19
g9
F0.9946486583694568
sg10
F0.9125052861663329
ssI10
(dp20
g9
F0.8256282470996706
sg10
F0.00960902800801533
ssI11
(dp21
g9
F0.8485693149238558
sg10
F0.29171152447553816
ssI12
(dp22
g9
F0.03998060519913571
sg10
F0.14753294155568708
ssI13
(dp23
g9
F0.8384490023875002
sg10
F0.45910572503472813
ssI14
(dp24
g9
F0.19102405425993874
sg10
F0.5784744193659083
ssI15
(dp25
g9
F0.5424447015710944
sg10
F0.9392240649155719
ssI16
(dp26
g9
F0.06796218949248356
sg10
F0.20451415483565227
ssI17
(dp27
g9
F0.9089551722539841
sg10
F0.2988925635818743
ssI18
(dp28
g9
F0.46750439868744054
sg10
F0.7932294733130321
ssI19
(dp29
g9
F0.12282036393520068
sg10
F0.5965354270725468
ssI20
(dp30
g9
F0.3723601141425872
sg10
F0.17455046505379013
ssI21
(dp31
g9
F0.3684960599867816
sg10
F0.4409021824672873
ssI22
(dp32
g9
F0.49069018156692046
sg10
F0.5968702742970752
ssI23
(dp33
g9
F0.8160423238118983
sg10
F0.7524823459827937
ssI24
(dp34
g9
F0.44852130491311304
sg10
F0.9893901200482488
ssI25
(dp35
g9
F0.20053469869783214
sg10
F0.8757314535117967
ssI26
(dp36
g9
F0.15090968066304722
sg10
F0.7335052906304758
ssI27
(dp37
g9
F0.730651453000264
sg10
F0.6283924124158125
ssI28
(dp38
g9
F0.22396562744005932
sg10
F0.6243289725248822
ssI29
(dp39
g9
F0.036149834791263324
sg10
F0.33801818129394834
ssI30
(dp40
g9
F0.2628787378262861
sg10
F0.9628937666885378
ssI31
(dp41
g9
F0.33580572550532906
sg10
F0.20614819318544841
ssI32
(dp42
g9
F0.23022879267842522
sg10
F0.687587490666776
ssI33
(dp43
g9
F0.28242809067734187
sg10
F0.3180275218256041
ssI34
(dp44
g9
F0.9586631390054129
sg10
F0.7020186829453815
ssI35
(dp45
g9
F0.8205556853674459
sg10
F0.9343764550927315
ssI36
(dp46
g9
F0.09154424643232828
sg10
F0.34442213680069744
ssI37
(dp47
g9
F0.789468758324907
sg10
F0.07868456546055558
ssI38
(dp48
g9
F0.6353018454684672
sg10
F0.13545052323747142
ssI39
(dp49
g9
F0.15127347458091045
sg10
F0.002328891760008278
ssI40
(dp50
g9
F0.8570114104366153
sg10
F0.21358237142489023
ssI41
(dp51
g9
F0.19806355460626635
sg10
F0.17706137949246392
ssI42
(dp52
g9
F0.3656522644735912
sg10
F0.6515702616279866
ssI43
(dp53
g9
F0.5618927214540648
sg10
F0.9297311486474982
ssI44
(dp54
g9
F0.3635800842996564
sg10
F0.6870038112157717
ssI45
(dp55
g9
F0.3165734372318928
sg10
F0.059516986550656625
ssI46
(dp56
g9
F0.6026351321398485
sg10
F0.46532519439078757
ssI47
(dp57
g9
F0.16868988389316175
sg10
F0.6678437706774292
ssI48
(dp58
g9
F0.7534709258464798
sg10
F0.9925613239133533
ssI49
(dp59
g9
F0.7248926013758621
sg10
F0.4408267359277257
ssI50
(dp60
g9
F0.84583443325992
sg10
F0.47213759151696744
ssI51
(dp61
g9
F0.9612836827864502
sg10
F0.5059057773248842
ssI52
(dp62
g9
F0.9856897155992557
sg10
F0.22279394142151365
ssI53
(dp63
g9
F0.6436112412283118
sg10
F0.7684717636378535
ssI54
(dp64
g9
F0.4943177169346282
sg10
F0.24559579273183607
ssI55
(dp65
g9
F0.7643409728834588
sg10
F0.9715610954265234
ssI56
(dp66
g9
F0.01247853002826993
sg10
F0.21122120908281772
ssI57
(dp67
g9
F0.4866539088299331
sg10
F0.3945006068666165
ssI58
(dp68
g9
F0.8742003300236465
sg10
F0.327861365055927
ssI59
(dp69
g9
F0.022712311439176514
sg10
F0.6017671324829846
ssI60
(dp70
g9
F0.20384783763914227
sg10
F0.4179405017601546
ssI61
(dp71
g9
F0.6556301121000265
sg10
F0.6163244072531495
ssI62
(dp72
g9
F0.2150699358076813
sg10
F0.2960050390607457
ssI63
(dp73
g9
F0.5815905092619633
sg10
F0.5672309332295103
ssI64
(dp74
g9
F0.22036424217109452
sg10
F0.08776539813353923
ssI65
(dp75
g9
F0.9156949367578079
sg10
F0.8599646998389757
ssI66
(dp76
g9
F0.9545485873460184
sg10
F0.5429721658274853
ssI67
(dp77
g9
F0.6640531735863002
sg10
F0.8455747867815834
ssI68
(dp78
g9
F0.702023543191861
sg10
F0.8434370308276004
ssI69
(dp79
g9
F0.07078333291462258
sg10
F0.41476789545751247
ssI70
(dp80
g9
F0.7806981479692041
sg10
F0.8163880288169115
ssI71
(dp81
g9
F0.9210481412187256
sg10
F0.75775838505885
ssI72
(dp82
g9
F0.9782693923087229
sg10
F0.5484249410664976
ssI73
(dp83
g9
F0.6552180653103887
sg10
F0.7527758239036525
ssI74
(dp84
g9
F0.1267570950672693
sg10
F0.9017125110850022
ssI75
(dp85
g9
F0.5587562506442235
sg10
F0.650569625437158
ssI76
(dp86
g9
F0.7944971901358533
sg10
F0.6127214968760235
ssI77
(dp87
g9
F0.4744261696536838
sg10
F0.6800483318401567
ssI78
(dp88
g9
F0.6728342644981068
sg10
F0.5115825528909452
ssI79
(dp89
g9
F0.42851714811023456
sg10
F0.2112778094740434
ssI80
(dp90
g9
F0.42865787892248597
sg10
F0.1265945869644295
ssI81
(dp91
g9
F0.31857426403845834
sg10
F0.21679655155017907
ssI82
(dp92
g9
F0.32801478965766506
sg10
F0.40554354204681087
ssI83
(dp93
g9
F0.013910951672302163
sg10
F0.9487108604662438
ssI84
(dp94
g9
F0.7612144371978601
sg10
F0.8824795558835737
ssI85
(dp95
g9
F0.028751666004465437
sg10
F0.03250793844678146
ssI86
(dp96
g9
F0.055926173184934536
sg10
F0.5963622554467355
ssI87
(dp97
g9
F0.5655545307780697
sg10
F0.9723736362110195
ssI88
(dp98
g9
F0.6383828615542825
sg10
F0.1869402536335466
ssI89
(dp99
g9
F0.3833505302711
sg10
F0.999735227072811
ssI90
(dp100
g9
F0.3256557727554451
sg10
F0.5736966443148921
ssI91
(dp101
g9
F0.8028355917475244
sg10
F0.01303595844505101
ssI92
(dp102
g9
F0.24515545150409512
sg10
F0.18729932573522678
ssI93
(dp103
g9
F0.45072720679293987
sg10
F0.037053818231587154
ssI94
(dp104
g9
F0.5054132159416304
sg10
F0.002294769247653927
ssI95
(dp105
g9
F0.13853519651351365
sg10
F0.3260546882255816
ssI96
(dp106
g9
F0.10376137514861394
sg10
F0.561283551002369
ssI97
(dp107
g9
F0.4574855577161653
sg10
F0.6504769093940662
ssI98
(dp108
g9
F0.2436261849389708
sg10
F0.4010175219381118
ssI99
(dp109
g9
F0.6444988148195222
sg10
F0.24194231229411978
sssS'node_dict_factory'
p110
c__builtin__
dict
p111
sS'edge_attr_dict_factory'
p112
g111
sS'edge'
p113
(dp114
I0
(dp115
sI1
(dp116
sI2
(dp117
sI3
(dp118
sI4
(dp119
sI5
(dp120
sI6
(dp121
sI7
(dp122
sI8
(dp123
sI9
(dp124
sI10
(dp125
sI11
(dp126
sI12
(dp127
sI13
(dp128
sI14
(dp129
sI15
(dp130
sI16
(dp131
sI17
(dp132
sI18
(dp133
sI19
(dp134
sI20
(dp135
sI21
(dp136
sI22
(dp137
sI23
(dp138
sI24
(dp139
sI25
(dp140
sI26
(dp141
sI27
(dp142
sI28
(dp143
sI29
(dp144
sI30
(dp145
sI31
(dp146
sI32
(dp147
sI33
(dp148
sI34
(dp149
sI35
(dp150
sI36
(dp151
sI37
(dp152
sI38
(dp153
sI39
(dp154
sI40
(dp155
sI41
(dp156
sI42
(dp157
sI43
(dp158
sI44
(dp159
sI45
(dp160
sI46
(dp161
sI47
(dp162
sI48
(dp163
sI49
(dp164
sI50
(dp165
sI51
(dp166
sI52
(dp167
sI53
(dp168
sI54
(dp169
sI55
(dp170
sI56
(dp171
sI57
(dp172
sI58
(dp173
sI59
(dp174
sI60
(dp175
sI61
(dp176
sI62
(dp177
sI63
(dp178
sI64
(dp179
sI65
(dp180
sI66
(dp181
sI67
(dp182
sI68
(dp183
sI69
(dp184
sI70
(dp185
sI71
(dp186
sI72
(dp187
sI73
(dp188
sI74
(dp189
sI75
(dp190
sI76
(dp191
sI77
(dp192
sI78
(dp193
sI79
(dp194
sI80
(dp195
sI81
(dp196
sI82
(dp197
sI83
(dp198
sI84
(dp199
sI85
(dp200
sI86
(dp201
sI87
(dp202
sI88
(dp203
sI89
(dp204
sI90
(dp205
sI91
(dp206
sI92
(dp207
sI93
(dp208
sI94
(dp209
sI95
(dp210
sI96
(dp211
sI97
(dp212
sI98
(dp213
sI99
(dp214
ssS'graph'
p215
(dp216
sS'adjlist_dict_factory'
p217
g111
sS'adj'
p218
g114
sb.