ccopy_reg
_reconstructor
p0
(cnetworkx.classes.graph
Graph
p1
c__builtin__
object
p2
Ntp3
Rp4
(dp5
S'node'
p6
(dp7
I0
(dp8
S'pos_x'
p9
F0.5816269044291925
sS'pos_y'
p10
F0.8411098841217534
ssI1
(dp11
g9
F0.9094666637274668
sg10
F0.6757881840000678
ssI2
(dp12
g9
F0.007392768831377183
sg10
F0.9993563774466936
ssI3
(dp13
g9
F0.5160095231428213
sg10
F0.29857676436034564
ssI4
(dp14
g9
F0.22720416772380836
sg10
F0.6570988682555011
ssI5
(dp15
g9
F0.6536342585829689
sg10
F0.47852658850283813
ssI6
(dp16
g9
F0.48078337368243396
sg10
F0.33693364752395405
ssI7
(dp17
g9
F0.5010816344899667
sg10
F0.7232516717133572
ssI8
(dp18
g9
F0.6081129541268827
sg10
F0.07692991059674559
ssI9
(dp19
g9
F0.6224460675724757
sg10
F0.9703524359763837
ssI10
(dp20
g9
F0.3140261877439988
sg10
F0.042670005932138655
ssI11
(dp21
g9
F0.955477849723007
sg10
F0.20559425308335977
ssI12
(dp22
g9
F0.044896250003794935
sg10
F0.2869693468072543
ssI13
(dp23
g9
F0.6324393590598587
sg10
F0.6701580433801829
ssI14
(dp24
g9
F0.643981502889302
sg10
F0.3735832274050961
ssI15
(dp25
g9
F0.42089154971257947
sg10
F0.9146317678211546
ssI16
(dp26
g9
F0.46811817011873336
sg10
F0.6014139998790627
ssI17
(dp27
g9
F0.9505050435488749
sg10
F0.27769059972818155
ssI18
(dp28
g9
F0.9352598032378512
sg10
F0.3995831093018076
ssI19
(dp29
g9
F0.5998336265598725
sg10
F0.4466453763711773
ssI20
(dp30
g9
F0.3013109382897253
sg10
F0.776132107164818
ssI21
(dp31
g9
F0.8120982492285762
sg10
F0.9022835450978117
ssI22
(dp32
g9
F0.7015477626978301
sg10
F0.17594412035107798
ssI23
(dp33
g9
F0.0880043127016682
sg10
F0.6690312795084147
ssI24
(dp34
g9
F0.16071335783802043
sg10
F0.6333856717325586
ssI25
(dp35
g9
F0.7041358926538027
sg10
F0.7217712780386237
ssI26
(dp36
g9
F0.1603163981793384
sg10
F0.28692940542652656
ssI27
(dp37
g9
F0.4587775560552534
sg10
F0.9323110810310592
ssI28
(dp38
g9
F0.6770420199956708
sg10
F0.9595233509410168
ssI29
(dp39
g9
F0.8381474426688812
sg10
F0.04140947581463417
ssI30
(dp40
g9
F0.24594973325916747
sg10
F0.5171963932770958
ssI31
(dp41
g9
F0.6150859910270885
sg10
F0.3149492388207754
ssI32
(dp42
g9
F0.03559788969847921
sg10
F0.16797554558003014
ssI33
(dp43
g9
F0.8572950539480004
sg10
F0.12610328111846303
ssI34
(dp44
g9
F0.6711528890524414
sg10
F0.7484384253357369
ssI35
(dp45
g9
F0.4014441975172446
sg10
F0.40959123622461013
ssI36
(dp46
g9
F0.8993915448563444
sg10
F0.303116756521999
ssI37
(dp47
g9
F0.6794169491189759
sg10
F0.8574991897126559
ssI38
(dp48
g9
F0.8054962697538848
sg10
F0.4397320312548849
ssI39
(dp49
g9
F0.5073435289351783
sg10
F0.23383156775977976
ssI40
(dp50
g9
F0.7492339620597906
sg10
F0.32271355078841557
ssI41
(dp51
g9
F0.30128294323065274
sg10
F0.4081560972645134
ssI42
(dp52
g9
F0.1597969118373409
sg10
F0.4877588883026527
ssI43
(dp53
g9
F0.4364858533112769
sg10
F0.23540914367383992
ssI44
(dp54
g9
F0.26393150784192265
sg10
F0.822849978438721
ssI45
(dp55
g9
F0.6875419815207056
sg10
F0.7232153697685212
ssI46
(dp56
g9
F0.5055615487707007
sg10
F0.8513476633868859
ssI47
(dp57
g9
F0.8736174214976208
sg10
F0.8112858262575489
ssI48
(dp58
g9
F0.41510425621647895
sg10
F0.45068904802370313
ssI49
(dp59
g9
F0.9818805235112359
sg10
F0.38241141041879056
ssI50
(dp60
g9
F0.46885252979984227
sg10
F0.48221006979392556
ssI51
(dp61
g9
F0.802980233663103
sg10
F0.6412342827367505
ssI52
(dp62
g9
F0.6586998294807931
sg10
F0.3469021163103261
ssI53
(dp63
g9
F0.7467857713633215
sg10
F0.605707306028458
ssI54
(dp64
g9
F0.04159466770505316
sg10
F0.2253140707886674
ssI55
(dp65
g9
F0.2715745570996534
sg10
F0.018786602316437473
ssI56
(dp66
g9
F0.6907570386445515
sg10
F0.828369395011592
ssI57
(dp67
g9
F0.6845163979091101
sg10
F0.695869476392049
ssI58
(dp68
g9
F0.6331974939475512
sg10
F0.2952656438389998
ssI59
(dp69
g9
F0.6561370600067732
sg10
F0.21755915693425543
ssI60
(dp70
g9
F0.5668386886540057
sg10
F0.953862823802428
ssI61
(dp71
g9
F0.8785587293838237
sg10
F0.40199927992685003
ssI62
(dp72
g9
F0.8914844345587467
sg10
F0.09234291576136078
ssI63
(dp73
g9
F0.5846230888641398
sg10
F0.7594577798143307
ssI64
(dp74
g9
F0.20221002032228808
sg10
F0.3995798920116962
ssI65
(dp75
g9
F0.1236136742235171
sg10
F0.5972694140752979
ssI66
(dp76
g9
F0.685014587834661
sg10
F0.8869063913867241
ssI67
(dp77
g9
F0.9074771043148713
sg10
F0.6011384891860543
ssI68
(dp78
g9
F0.20131283251701138
sg10
F0.23385079079504556
ssI69
(dp79
g9
F0.5811798202297864
sg10
F0.7407121558969378
ssI70
(dp80
g9
F0.7622816721871245
sg10
F0.5188583666776587
ssI71
(dp81
g9
F0.12989338105381898
sg10
F0.7046425909672126
ssI72
(dp82
g9
F0.6251935873862229
sg10
F0.1558655817242931
ssI73
(dp83
g9
F0.6039726877830068
sg10
F0.8395603478528104
ssI74
(dp84
g9
F0.7531491333903079
sg10
F0.4252193460029937
ssI75
(dp85
g9
F0.017751908589544674
sg10
F0.16690502674518004
ssI76
(dp86
g9
F0.7285091333964188
sg10
F0.18809435307454903
ssI77
(dp87
g9
F0.09797724298227906
sg10
F0.31082758928772924
ssI78
(dp88
g9
F0.00622708938492067
sg10
F0.7033886459998763
ssI79
(dp89
g9
F0.6370298553270896
sg10
F0.6600583407595536
ssI80
(dp90
g9
F0.5705757800048371
sg10
F0.34148992647789733
ssI81
(dp91
g9
F0.5096742208464485
sg10
F0.7120956196779072
ssI82
(dp92
g9
F0.11752707594623069
sg10
F0.5086785582861202
ssI83
(dp93
g9
F0.5300362875420767
sg10
F0.5607884123301002
ssI84
(dp94
g9
F0.6381449848933893
sg10
F0.24923655538927525
ssI85
(dp95
g9
F0.8385871958752691
sg10
F0.8456435389844115
ssI86
(dp96
g9
F0.9022648807740693
sg10
F0.05219881476565613
ssI87
(dp97
g9
F0.343664610205647
sg10
F0.20257314239026458
ssI88
(dp98
g9
F0.8523650304475172
sg10
F0.8997785134111299
ssI89
(dp99
g9
F0.9693022889502984
sg10
F0.7333042704871592
ssI90
(dp100
g9
F0.8068531376461251
sg10
F0.4515801209691954
ssI91
(dp101
g9
F0.44821295938483563
sg10
F0.791573844876624
ssI92
(dp102
g9
F0.7842892056401934
sg10
F0.2649061541956723
ssI93
(dp103
g9
F0.7897819887455373
sg10
F0.8889597931099408
ssI94
(dp104
g9
F0.3513101719243904
sg10
F0.6762861504036457
ssI95
(dp105
g9
F0.5519996283746301
sg10
F0.0756715411743113
ssI96
(dp106
g9
F0.6564374451946391
sg10
F0.13484581115924088
ssI97
(dp107
g9
F0.8790081059035073
sg10
F0.3602667691933201
ssI98
(dp108
g9
F0.3769625483915201
sg10
F0.7096476915296257
ssI99
(dp109
g9
F0.28189891212149876
sg10
F0.1407377734560159
sssS'node_dict_factory'
p110
c__builtin__
dict
p111
sS'edge_attr_dict_factory'
p112
g111
sS'edge'
p113
(dp114
I0
(dp115
sI1
(dp116
sI2
(dp117
sI3
(dp118
sI4
(dp119
sI5
(dp120
sI6
(dp121
sI7
(dp122
sI8
(dp123
sI9
(dp124
sI10
(dp125
sI11
(dp126
sI12
(dp127
sI13
(dp128
sI14
(dp129
sI15
(dp130
sI16
(dp131
sI17
(dp132
sI18
(dp133
sI19
(dp134
sI20
(dp135
sI21
(dp136
sI22
(dp137
sI23
(dp138
sI24
(dp139
sI25
(dp140
sI26
(dp141
sI27
(dp142
sI28
(dp143
sI29
(dp144
sI30
(dp145
sI31
(dp146
sI32
(dp147
sI33
(dp148
sI34
(dp149
sI35
(dp150
sI36
(dp151
sI37
(dp152
sI38
(dp153
sI39
(dp154
sI40
(dp155
sI41
(dp156
sI42
(dp157
sI43
(dp158
sI44
(dp159
sI45
(dp160
sI46
(dp161
sI47
(dp162
sI48
(dp163
sI49
(dp164
sI50
(dp165
sI51
(dp166
sI52
(dp167
sI53
(dp168
sI54
(dp169
sI55
(dp170
sI56
(dp171
sI57
(dp172
sI58
(dp173
sI59
(dp174
sI60
(dp175
sI61
(dp176
sI62
(dp177
sI63
(dp178
sI64
(dp179
sI65
(dp180
sI66
(dp181
sI67
(dp182
sI68
(dp183
sI69
(dp184
sI70
(dp185
sI71
(dp186
sI72
(dp187
sI73
(dp188
sI74
(dp189
sI75
(dp190
sI76
(dp191
sI77
(dp192
sI78
(dp193
sI79
(dp194
sI80
(dp195
sI81
(dp196
sI82
(dp197
sI83
(dp198
sI84
(dp199
sI85
(dp200
sI86
(dp201
sI87
(dp202
sI88
(dp203
sI89
(dp204
sI90
(dp205
sI91
(dp206
sI92
(dp207
sI93
(dp208
sI94
(dp209
sI95
(dp210
sI96
(dp211
sI97
(dp212
sI98
(dp213
sI99
(dp214
ssS'graph'
p215
(dp216
sS'adjlist_dict_factory'
p217
g111
sS'adj'
p218
g114
sb.