ccopy_reg
_reconstructor
p0
(cnetworkx.classes.graph
Graph
p1
c__builtin__
object
p2
Ntp3
Rp4
(dp5
S'node'
p6
(dp7
I0
(dp8
S'pos_x'
p9
F0.07130512892843832
sS'pos_y'
p10
F0.5707748842212766
ssI1
(dp11
g9
F0.18258699372915654
sg10
F0.04795017256494627
ssI2
(dp12
g9
F0.7267970336193561
sg10
F0.09827169295250415
ssI3
(dp13
g9
F0.5689397977567798
sg10
F0.23653712323315257
ssI4
(dp14
g9
F0.9188799654323813
sg10
F0.6091273599038435
ssI5
(dp15
g9
F0.5557737785744553
sg10
F0.47642674434404464
ssI6
(dp16
g9
F0.5847495398883585
sg10
F0.2554791265877203
ssI7
(dp17
g9
F0.115010370339657
sg10
F0.4097285732243273
ssI8
(dp18
g9
F0.9645525366542006
sg10
F0.5937240909815489
ssI9
(dp19
g9
F0.3236109345191356
sg10
F0.7344898727508855
ssI10
(dp20
g9
F0.44030061213406424
sg10
F0.5392309827996612
ssI11
(dp21
g9
F0.5114411711423198
sg10
F0.6045213518778706
ssI12
(dp22
g9
F0.6069531376027674
sg10
F0.8002547933578907
ssI13
(dp23
g9
F0.47391630955918973
sg10
F0.8870862084664473
ssI14
(dp24
g9
F0.35219480115725643
sg10
F0.49354476786686396
ssI15
(dp25
g9
F0.9844912338189988
sg10
F0.9564559587282058
ssI16
(dp26
g9
F0.4785491471016644
sg10
F0.8494738345315862
ssI17
(dp27
g9
F0.5195657434557275
sg10
F0.9649347769595523
ssI18
(dp28
g9
F0.3326786644413098
sg10
F0.49898698798732266
ssI19
(dp29
g9
F0.11130064878141377
sg10
F0.5039108323511806
ssI20
(dp30
g9
F0.41078333677024315
sg10
F0.956802361608108
ssI21
(dp31
g9
F0.552939942338477
sg10
F0.9798024432300314
ssI22
(dp32
g9
F0.19188406144801695
sg10
F0.3569951966635795
ssI23
(dp33
g9
F0.640654434850302
sg10
F0.1517877119916956
ssI24
(dp34
g9
F0.5616649198783519
sg10
F0.3199981196899675
ssI25
(dp35
g9
F0.41972572701099753
sg10
F0.5997255342419171
ssI26
(dp36
g9
F0.23660506833886874
sg10
F0.7483834610677897
ssI27
(dp37
g9
F0.42079531095162426
sg10
F0.6260911660492915
ssI28
(dp38
g9
F0.8012935394854077
sg10
F0.3619432910665584
ssI29
(dp39
g9
F0.3978086744114069
sg10
F0.04652390481085189
ssI30
(dp40
g9
F0.702449921904882
sg10
F0.47181704666382807
ssI31
(dp41
g9
F0.6925034184656689
sg10
F0.6883035942569131
ssI32
(dp42
g9
F0.2047785078381702
sg10
F0.6900285243403321
ssI33
(dp43
g9
F0.22672137694636885
sg10
F0.22975136769955096
ssI34
(dp44
g9
F0.8312592294787333
sg10
F0.4630756751125771
ssI35
(dp45
g9
F0.4889730437799674
sg10
F0.04085976520096146
ssI36
(dp46
g9
F0.8436982847906349
sg10
F0.9518857294397559
ssI37
(dp47
g9
F0.07755338699586067
sg10
F0.45317292517072194
ssI38
(dp48
g9
F0.14179614828799525
sg10
F0.47148510710595426
ssI39
(dp49
g9
F0.16802842427900833
sg10
F0.49295545892976544
ssI40
(dp50
g9
F0.8506481369271378
sg10
F0.6608839470120751
ssI41
(dp51
g9
F0.6991404801863297
sg10
F0.477788369778406
ssI42
(dp52
g9
F0.2875182768047916
sg10
F0.12583914181612232
ssI43
(dp53
g9
F0.1313615915765325
sg10
F0.2054666521467765
ssI44
(dp54
g9
F0.5976134128486795
sg10
F0.29839606083114356
ssI45
(dp55
g9
F0.8094929077427878
sg10
F0.9749932420326538
ssI46
(dp56
g9
F0.6119759371480299
sg10
F0.6100970333490524
ssI47
(dp57
g9
F0.1428361170935234
sg10
F0.2911553878219275
ssI48
(dp58
g9
F0.7005377369326891
sg10
F0.6491209538871506
ssI49
(dp59
g9
F0.8568503128906239
sg10
F0.5813442566119539
ssI50
(dp60
g9
F0.15204894539160962
sg10
F0.07774045771491478
ssI51
(dp61
g9
F0.003393221349395681
sg10
F0.7680717953073256
ssI52
(dp62
g9
F0.1584378952705977
sg10
F0.8624549200997457
ssI53
(dp63
g9
F0.046874032106362984
sg10
F0.9561314091440042
ssI54
(dp64
g9
F0.02489268869109451
sg10
F0.42612113782225025
ssI55
(dp65
g9
F0.47561945991932586
sg10
F0.1299455347539904
ssI56
(dp66
g9
F0.10972533372503401
sg10
F0.44353623405151765
ssI57
(dp67
g9
F0.8416040706503475
sg10
F0.9394846154944619
ssI58
(dp68
g9
F0.7142778199980824
sg10
F0.4455706701385014
ssI59
(dp69
g9
F0.547812392526709
sg10
F0.46671139852281707
ssI60
(dp70
g9
F0.39818101651948856
sg10
F0.7428432824654299
ssI61
(dp71
g9
F0.13627459224183658
sg10
F0.5263947253890813
ssI62
(dp72
g9
F0.7119149342143773
sg10
F0.11805351628772331
ssI63
(dp73
g9
F0.151712271102742
sg10
F0.705333756132616
ssI64
(dp74
g9
F0.08540717730627456
sg10
F0.864270732748479
ssI65
(dp75
g9
F0.2847161258326447
sg10
F0.9429053212433943
ssI66
(dp76
g9
F0.6766448251353678
sg10
F0.7023775270723311
ssI67
(dp77
g9
F0.31789468961281453
sg10
F0.2283062454877247
ssI68
(dp78
g9
F0.0574444488397704
sg10
F0.21311247560345137
ssI69
(dp79
g9
F0.12866894282847285
sg10
F0.5563464104389061
ssI70
(dp80
g9
F0.4892598375106393
sg10
F0.2055565180943475
ssI71
(dp81
g9
F0.8600043349579661
sg10
F0.7185745655333557
ssI72
(dp82
g9
F0.8577417751066876
sg10
F0.03875705267883334
ssI73
(dp83
g9
F0.01937338170456382
sg10
F0.08169127941165455
ssI74
(dp84
g9
F0.17262437543685571
sg10
F0.7892139528843024
ssI75
(dp85
g9
F0.5016671565345234
sg10
F0.5645435790277342
ssI76
(dp86
g9
F0.6168189876809789
sg10
F0.6856287224233122
ssI77
(dp87
g9
F0.656193292890753
sg10
F0.4872952704746867
ssI78
(dp88
g9
F0.9331821061881421
sg10
F0.8221298165931259
ssI79
(dp89
g9
F0.10427120819649194
sg10
F0.8484341076498373
ssI80
(dp90
g9
F0.5559645090368457
sg10
F0.8004207825335612
ssI81
(dp91
g9
F0.31445472238845196
sg10
F0.35816283609968114
ssI82
(dp92
g9
F0.5522430901624976
sg10
F0.7385362669297856
ssI83
(dp93
g9
F0.43752709547404134
sg10
F0.481077625546943
ssI84
(dp94
g9
F0.08890199223344852
sg10
F0.7557451431549945
ssI85
(dp95
g9
F0.6387319032746127
sg10
F0.8443890686890574
ssI86
(dp96
g9
F0.8342648672378946
sg10
F0.8533187786873488
ssI87
(dp97
g9
F0.4352213804098166
sg10
F0.7467209641372029
ssI88
(dp98
g9
F0.7816565969571391
sg10
F0.9662102010245084
ssI89
(dp99
g9
F0.6718672958075182
sg10
F0.348918330141754
ssI90
(dp100
g9
F0.5991107041698299
sg10
F0.2193532391452413
ssI91
(dp101
g9
F0.31916662417285113
sg10
F0.8491382390089387
ssI92
(dp102
g9
F0.33332779755887865
sg10
F0.4913205790544992
ssI93
(dp103
g9
F0.754710172862081
sg10
F0.8353960084961106
ssI94
(dp104
g9
F0.10309847822000573
sg10
F0.719438380490697
ssI95
(dp105
g9
F0.12294476006177657
sg10
F0.08041107202204789
ssI96
(dp106
g9
F0.6762764106363497
sg10
F0.5106621238730269
ssI97
(dp107
g9
F0.5127476064000062
sg10
F0.4072784677755993
ssI98
(dp108
g9
F0.6835447899600521
sg10
F0.9034597031606434
ssI99
(dp109
g9
F0.23369943933956883
sg10
F0.7613652865925715
sssS'node_dict_factory'
p110
c__builtin__
dict
p111
sS'edge_attr_dict_factory'
p112
g111
sS'edge'
p113
(dp114
I0
(dp115
sI1
(dp116
sI2
(dp117
sI3
(dp118
sI4
(dp119
sI5
(dp120
sI6
(dp121
sI7
(dp122
sI8
(dp123
sI9
(dp124
sI10
(dp125
sI11
(dp126
sI12
(dp127
sI13
(dp128
sI14
(dp129
sI15
(dp130
sI16
(dp131
sI17
(dp132
sI18
(dp133
sI19
(dp134
sI20
(dp135
sI21
(dp136
sI22
(dp137
sI23
(dp138
sI24
(dp139
sI25
(dp140
sI26
(dp141
sI27
(dp142
sI28
(dp143
sI29
(dp144
sI30
(dp145
sI31
(dp146
sI32
(dp147
sI33
(dp148
sI34
(dp149
sI35
(dp150
sI36
(dp151
sI37
(dp152
sI38
(dp153
sI39
(dp154
sI40
(dp155
sI41
(dp156
sI42
(dp157
sI43
(dp158
sI44
(dp159
sI45
(dp160
sI46
(dp161
sI47
(dp162
sI48
(dp163
sI49
(dp164
sI50
(dp165
sI51
(dp166
sI52
(dp167
sI53
(dp168
sI54
(dp169
sI55
(dp170
sI56
(dp171
sI57
(dp172
sI58
(dp173
sI59
(dp174
sI60
(dp175
sI61
(dp176
sI62
(dp177
sI63
(dp178
sI64
(dp179
sI65
(dp180
sI66
(dp181
sI67
(dp182
sI68
(dp183
sI69
(dp184
sI70
(dp185
sI71
(dp186
sI72
(dp187
sI73
(dp188
sI74
(dp189
sI75
(dp190
sI76
(dp191
sI77
(dp192
sI78
(dp193
sI79
(dp194
sI80
(dp195
sI81
(dp196
sI82
(dp197
sI83
(dp198
sI84
(dp199
sI85
(dp200
sI86
(dp201
sI87
(dp202
sI88
(dp203
sI89
(dp204
sI90
(dp205
sI91
(dp206
sI92
(dp207
sI93
(dp208
sI94
(dp209
sI95
(dp210
sI96
(dp211
sI97
(dp212
sI98
(dp213
sI99
(dp214
ssS'graph'
p215
(dp216
sS'adjlist_dict_factory'
p217
g111
sS'adj'
p218
g114
sb.