ccopy_reg
_reconstructor
p0
(cnetworkx.classes.graph
Graph
p1
c__builtin__
object
p2
Ntp3
Rp4
(dp5
S'node'
p6
(dp7
I0
(dp8
S'pos_x'
p9
F0.9167750072012549
sS'pos_y'
p10
F0.08455681894105471
ssI1
(dp11
g9
F0.01897656553044269
sg10
F0.026964084614508277
ssI2
(dp12
g9
F0.8802890686334334
sg10
F0.6501033070316318
ssI3
(dp13
g9
F0.3426629808879206
sg10
F0.5840485161164986
ssI4
(dp14
g9
F0.475542586202403
sg10
F0.8241290407662295
ssI5
(dp15
g9
F0.3303173761849326
sg10
F0.6159913280608408
ssI6
(dp16
g9
F0.8685929996620578
sg10
F0.24400658189189628
ssI7
(dp17
g9
F0.2748026939582665
sg10
F0.539798376653697
ssI8
(dp18
g9
F0.2776018268966205
sg10
F0.7872853096073211
ssI9
(dp19
g9
F0.40569450944380037
sg10
F0.6361672347502424
ssI10
(dp20
g9
F0.677578246999833
sg10
F0.1322209487401359
ssI11
(dp21
g9
F0.169900348994394
sg10
F0.38304410624529084
ssI12
(dp22
g9
F0.8995889754034546
sg10
F0.01789552253625959
ssI13
(dp23
g9
F0.6111569920101276
sg10
F0.7404823630744544
ssI14
(dp24
g9
F0.6197749500922566
sg10
F0.8141916720457435
ssI15
(dp25
g9
F0.2077074323027458
sg10
F0.6672258186509914
ssI16
(dp26
g9
F0.42584397860181245
sg10
F0.8196915905080537
ssI17
(dp27
g9
F0.777682013322588
sg10
F0.1367328956326891
ssI18
(dp28
g9
F0.9221211654849978
sg10
F0.11087860644386616
ssI19
(dp29
g9
F0.2488489653576793
sg10
F0.16935298081586592
ssI20
(dp30
g9
F0.15527941238265675
sg10
F0.44210209088728536
ssI21
(dp31
g9
F0.7953572445353547
sg10
F0.2583718277622201
ssI22
(dp32
g9
F0.2392578178507513
sg10
F0.6871187825056633
ssI23
(dp33
g9
F0.6593988202058704
sg10
F0.9034750446178097
ssI24
(dp34
g9
F0.7509996244035486
sg10
F0.6442170996178593
ssI25
(dp35
g9
F0.6046519639130675
sg10
F0.27067498083534225
ssI26
(dp36
g9
F0.8498697693457571
sg10
F0.12187740660519286
ssI27
(dp37
g9
F0.3697676727672974
sg10
F0.009100967958290185
ssI28
(dp38
g9
F0.4392629851703942
sg10
F0.6287049056566729
ssI29
(dp39
g9
F0.7667001471009502
sg10
F0.20962641211792732
ssI30
(dp40
g9
F0.6497618822849036
sg10
F0.6508864594580137
ssI31
(dp41
g9
F0.838605052653574
sg10
F0.21310272604207448
ssI32
(dp42
g9
F0.8362611968044779
sg10
F0.05462367633393017
ssI33
(dp43
g9
F0.36085003238311475
sg10
F0.611157673558374
ssI34
(dp44
g9
F0.4299276315240306
sg10
F0.24356559947299805
ssI35
(dp45
g9
F0.3238131319061588
sg10
F0.3088754234124499
ssI36
(dp46
g9
F0.8205741951329242
sg10
F0.3928929234864751
ssI37
(dp47
g9
F0.8141939189046893
sg10
F0.1981473064076763
ssI38
(dp48
g9
F0.5142466665250887
sg10
F0.30705166305452314
ssI39
(dp49
g9
F0.12264466049724809
sg10
F0.6215454251814578
ssI40
(dp50
g9
F0.44050408662664964
sg10
F0.01275617465760659
ssI41
(dp51
g9
F0.9869905438608524
sg10
F0.3474877734481675
ssI42
(dp52
g9
F0.07317345907898032
sg10
F0.1155529708648192
ssI43
(dp53
g9
F0.6377137411391101
sg10
F0.08895055249223127
ssI44
(dp54
g9
F0.9109255449265334
sg10
F0.06485838257170917
ssI45
(dp55
g9
F0.8662842573104392
sg10
F0.12683759895078717
ssI46
(dp56
g9
F0.8273933614455099
sg10
F0.12418381224609742
ssI47
(dp57
g9
F0.8577200390572797
sg10
F0.8116166386560758
ssI48
(dp58
g9
F0.5713816241732299
sg10
F0.3063603798199719
ssI49
(dp59
g9
F0.4034433725658597
sg10
F0.8021944575984454
ssI50
(dp60
g9
F0.15038401554540026
sg10
F0.4287012478378077
ssI51
(dp61
g9
F0.02489073323821389
sg10
F0.44649080205284775
ssI52
(dp62
g9
F0.8130563855843959
sg10
F0.6111315233412418
ssI53
(dp63
g9
F0.32654483897186115
sg10
F0.07168851317869362
ssI54
(dp64
g9
F0.6835489635256017
sg10
F0.8015545011411819
ssI55
(dp65
g9
F0.09243346965981447
sg10
F0.014353913529648099
ssI56
(dp66
g9
F0.740512711459468
sg10
F0.7762290225439512
ssI57
(dp67
g9
F0.543732543191092
sg10
F0.8007303146908388
ssI58
(dp68
g9
F0.8750092536942298
sg10
F0.7029217767870721
ssI59
(dp69
g9
F0.6957426203752491
sg10
F0.6417240907657502
ssI60
(dp70
g9
F0.27379878649695466
sg10
F0.029486672125670688
ssI61
(dp71
g9
F0.15008380074088568
sg10
F0.6008065180139102
ssI62
(dp72
g9
F0.8967843834364433
sg10
F0.5859765868867721
ssI63
(dp73
g9
F0.9727032396715799
sg10
F0.19998400259886595
ssI64
(dp74
g9
F0.9479958125685107
sg10
F0.1882514093667138
ssI65
(dp75
g9
F0.4420361471870927
sg10
F0.4275209578817871
ssI66
(dp76
g9
F0.7877642092794146
sg10
F0.7843597532471784
ssI67
(dp77
g9
F0.7083156233688142
sg10
F0.33251966875187344
ssI68
(dp78
g9
F0.02062079657349758
sg10
F0.03151102332257827
ssI69
(dp79
g9
F0.8961993641213973
sg10
F0.09395723821782953
ssI70
(dp80
g9
F0.1897832665327841
sg10
F0.8687144324085126
ssI71
(dp81
g9
F0.7898032854092836
sg10
F0.19624682804070848
ssI72
(dp82
g9
F0.6559616466023309
sg10
F0.8351607938944922
ssI73
(dp83
g9
F0.23004982806437058
sg10
F0.3237569133233188
ssI74
(dp84
g9
F0.8896599456206243
sg10
F0.46598590731969625
ssI75
(dp85
g9
F0.2512175785741272
sg10
F0.3261030902654345
ssI76
(dp86
g9
F0.21747490538643688
sg10
F0.11207215463805487
ssI77
(dp87
g9
F0.6646318564995117
sg10
F0.7006891005912074
ssI78
(dp88
g9
F0.9758512047399913
sg10
F0.5785757902239819
ssI79
(dp89
g9
F0.9386321396043189
sg10
F0.7804384613271148
ssI80
(dp90
g9
F0.22471757969243267
sg10
F0.16566126234733725
ssI81
(dp91
g9
F0.6353334279605616
sg10
F0.805763334241944
ssI82
(dp92
g9
F0.03174646016154559
sg10
F0.336817650510455
ssI83
(dp93
g9
F0.5508584988656642
sg10
F0.6294599223091754
ssI84
(dp94
g9
F0.28834697621435745
sg10
F0.6630883601888954
ssI85
(dp95
g9
F0.21761851313241765
sg10
F0.4856016844876925
ssI86
(dp96
g9
F0.30493741995706225
sg10
F0.06879583810807455
ssI87
(dp97
g9
F0.975879239995504
sg10
F0.36229460132682667
ssI88
(dp98
g9
F0.1101297461802031
sg10
F0.9089898445283263
ssI89
(dp99
g9
F0.8740000892225246
sg10
F0.8294391225360226
ssI90
(dp100
g9
F0.1311918642925224
sg10
F0.051934367741700904
ssI91
(dp101
g9
F0.4345561844915422
sg10
F0.10974076807361455
ssI92
(dp102
g9
F0.27124370255530506
sg10
F0.6502517414265228
ssI93
(dp103
g9
F0.3320397140631913
sg10
F0.6157179492160911
ssI94
(dp104
g9
F0.5504661331485768
sg10
F0.7018036816541665
ssI95
(dp105
g9
F0.6919325392671345
sg10
F0.3762397181132666
ssI96
(dp106
g9
F0.1610352149899511
sg10
F0.9963851489371456
ssI97
(dp107
g9
F0.10894591056484781
sg10
F0.7168460245406837
ssI98
(dp108
g9
F0.4159868569376852
sg10
F0.26756415455852123
ssI99
(dp109
g9
F0.1680967795677356
sg10
F0.7151632426908863
sssS'node_dict_factory'
p110
c__builtin__
dict
p111
sS'edge_attr_dict_factory'
p112
g111
sS'edge'
p113
(dp114
I0
(dp115
sI1
(dp116
sI2
(dp117
sI3
(dp118
sI4
(dp119
sI5
(dp120
sI6
(dp121
sI7
(dp122
sI8
(dp123
sI9
(dp124
sI10
(dp125
sI11
(dp126
sI12
(dp127
sI13
(dp128
sI14
(dp129
sI15
(dp130
sI16
(dp131
sI17
(dp132
sI18
(dp133
sI19
(dp134
sI20
(dp135
sI21
(dp136
sI22
(dp137
sI23
(dp138
sI24
(dp139
sI25
(dp140
sI26
(dp141
sI27
(dp142
sI28
(dp143
sI29
(dp144
sI30
(dp145
sI31
(dp146
sI32
(dp147
sI33
(dp148
sI34
(dp149
sI35
(dp150
sI36
(dp151
sI37
(dp152
sI38
(dp153
sI39
(dp154
sI40
(dp155
sI41
(dp156
sI42
(dp157
sI43
(dp158
sI44
(dp159
sI45
(dp160
sI46
(dp161
sI47
(dp162
sI48
(dp163
sI49
(dp164
sI50
(dp165
sI51
(dp166
sI52
(dp167
sI53
(dp168
sI54
(dp169
sI55
(dp170
sI56
(dp171
sI57
(dp172
sI58
(dp173
sI59
(dp174
sI60
(dp175
sI61
(dp176
sI62
(dp177
sI63
(dp178
sI64
(dp179
sI65
(dp180
sI66
(dp181
sI67
(dp182
sI68
(dp183
sI69
(dp184
sI70
(dp185
sI71
(dp186
sI72
(dp187
sI73
(dp188
sI74
(dp189
sI75
(dp190
sI76
(dp191
sI77
(dp192
sI78
(dp193
sI79
(dp194
sI80
(dp195
sI81
(dp196
sI82
(dp197
sI83
(dp198
sI84
(dp199
sI85
(dp200
sI86
(dp201
sI87
(dp202
sI88
(dp203
sI89
(dp204
sI90
(dp205
sI91
(dp206
sI92
(dp207
sI93
(dp208
sI94
(dp209
sI95
(dp210
sI96
(dp211
sI97
(dp212
sI98
(dp213
sI99
(dp214
ssS'graph'
p215
(dp216
sS'adjlist_dict_factory'
p217
g111
sS'adj'
p218
g114
sb.