ccopy_reg
_reconstructor
p0
(cnetworkx.classes.graph
Graph
p1
c__builtin__
object
p2
Ntp3
Rp4
(dp5
S'node'
p6
(dp7
I0
(dp8
S'pos_x'
p9
F0.7021504727058488
sS'pos_y'
p10
F0.4829973342120578
ssI1
(dp11
g9
F0.5760516170167383
sg10
F0.22199686131758944
ssI2
(dp12
g9
F0.4634439898573328
sg10
F0.8595154721204121
ssI3
(dp13
g9
F0.6575147369644251
sg10
F0.3192661168946309
ssI4
(dp14
g9
F0.1645620636647016
sg10
F0.10418223579956098
ssI5
(dp15
g9
F0.71386466391251
sg10
F0.12613984864869876
ssI6
(dp16
g9
F0.8022301901222121
sg10
F0.7681135259877501
ssI7
(dp17
g9
F0.3694728410888829
sg10
F0.2500924567149291
ssI8
(dp18
g9
F0.9739968964579387
sg10
F0.06973776460662018
ssI9
(dp19
g9
F0.10626612448929973
sg10
F0.07132300604571795
ssI10
(dp20
g9
F0.17494829835390557
sg10
F0.7832425706943298
ssI11
(dp21
g9
F0.8699600152454137
sg10
F0.15264080181631778
ssI12
(dp22
g9
F0.5828942932833819
sg10
F0.2185235058706686
ssI13
(dp23
g9
F0.49482456657495466
sg10
F0.7034657728971955
ssI14
(dp24
g9
F0.785157389498004
sg10
F0.3989375265774626
ssI15
(dp25
g9
F0.9232020039611033
sg10
F0.8118185494573555
ssI16
(dp26
g9
F0.5471660962617675
sg10
F0.6642139006235224
ssI17
(dp27
g9
F0.474837924049306
sg10
F0.795249982925968
ssI18
(dp28
g9
F0.8863332573671914
sg10
F0.7550436949472508
ssI19
(dp29
g9
F0.5378974539393613
sg10
F0.2794451065726805
ssI20
(dp30
g9
F0.5575872189386792
sg10
F0.5851187110910236
ssI21
(dp31
g9
F0.3835088019583057
sg10
F0.7916498287699765
ssI22
(dp32
g9
F0.9069607127861878
sg10
F0.8736770707562718
ssI23
(dp33
g9
F0.048625900642417674
sg10
F0.15595656051268536
ssI24
(dp34
g9
F0.8064309055332379
sg10
F0.9886000066591434
ssI25
(dp35
g9
F0.6787409628808145
sg10
F0.7630864973954621
ssI26
(dp36
g9
F0.3781602607349901
sg10
F0.011075224891837543
ssI27
(dp37
g9
F0.8141821233893243
sg10
F0.44783438596388025
ssI28
(dp38
g9
F0.8749226924635422
sg10
F0.6131154748024273
ssI29
(dp39
g9
F0.2856777825575034
sg10
F0.685222809242368
ssI30
(dp40
g9
F0.57589705389417
sg10
F0.5738513375895787
ssI31
(dp41
g9
F0.7260268913825889
sg10
F0.14918696877460413
ssI32
(dp42
g9
F0.3699526086202414
sg10
F0.04552030866283818
ssI33
(dp43
g9
F0.061475688875332835
sg10
F0.4900132127514416
ssI34
(dp44
g9
F0.8832270000749831
sg10
F0.17597469482572436
ssI35
(dp45
g9
F0.22187569507633365
sg10
F0.6716878525098972
ssI36
(dp46
g9
F0.9557945279946637
sg10
F0.6334279748934327
ssI37
(dp47
g9
F0.5783219900472842
sg10
F0.611463733032062
ssI38
(dp48
g9
F0.2435855924072794
sg10
F0.15336916212714424
ssI39
(dp49
g9
F0.09322696610627157
sg10
F0.2296924085860409
ssI40
(dp50
g9
F0.32533914246349993
sg10
F0.1606002156053924
ssI41
(dp51
g9
F0.6705039612020329
sg10
F0.03201823272563786
ssI42
(dp52
g9
F0.6888139479369693
sg10
F0.6457191512434729
ssI43
(dp53
g9
F0.31202351028215736
sg10
F0.14566579620473608
ssI44
(dp54
g9
F0.29675273822580583
sg10
F0.13302357287534494
ssI45
(dp55
g9
F0.3585063699156217
sg10
F0.9392785739301996
ssI46
(dp56
g9
F0.7553746470996012
sg10
F0.08479670197400757
ssI47
(dp57
g9
F0.9823646075947211
sg10
F0.3955842516567174
ssI48
(dp58
g9
F0.9451531225134848
sg10
F0.867247504091334
ssI49
(dp59
g9
F0.4988345003830684
sg10
F0.3189377005595203
ssI50
(dp60
g9
F0.9908616311738344
sg10
F0.12117651175866995
ssI51
(dp61
g9
F0.8880697329980021
sg10
F0.8981263758693775
ssI52
(dp62
g9
F0.7526757171814915
sg10
F0.8248702323387788
ssI53
(dp63
g9
F0.6352877562006575
sg10
F0.6273346201258598
ssI54
(dp64
g9
F0.606414267059599
sg10
F0.4143029037574498
ssI55
(dp65
g9
F0.3834090771281802
sg10
F0.7213720747745137
ssI56
(dp66
g9
F0.6718176868572293
sg10
F0.35056201734650605
ssI57
(dp67
g9
F0.38068994541165546
sg10
F0.4954704586226253
ssI58
(dp68
g9
F0.8624821891398375
sg10
F0.21809473953596226
ssI59
(dp69
g9
F0.3004529975067569
sg10
F0.687980392925091
ssI60
(dp70
g9
F0.6516056873294443
sg10
F0.8619183294351372
ssI61
(dp71
g9
F0.6596103855870665
sg10
F0.8768550637245541
ssI62
(dp72
g9
F0.003204926645725359
sg10
F0.6060758155720419
ssI63
(dp73
g9
F0.3149153465318285
sg10
F0.27882904256079344
ssI64
(dp74
g9
F0.44750179625264097
sg10
F0.38290008163695743
ssI65
(dp75
g9
F0.3437750704713253
sg10
F0.7161856206080205
ssI66
(dp76
g9
F0.571309737442311
sg10
F0.004048400432870913
ssI67
(dp77
g9
F0.2886915712776692
sg10
F0.8354355279057518
ssI68
(dp78
g9
F0.4959709918540961
sg10
F0.4573154021446256
ssI69
(dp79
g9
F0.12157479688965
sg10
F0.27706962692825654
ssI70
(dp80
g9
F0.7895790906754804
sg10
F0.9686888960696817
ssI71
(dp81
g9
F0.4018097937377486
sg10
F0.8808254305507907
ssI72
(dp82
g9
F0.19321478784505064
sg10
F0.6947070539877721
ssI73
(dp83
g9
F0.5425525878007291
sg10
F0.2472118141634022
ssI74
(dp84
g9
F0.4329638078215735
sg10
F0.8843111660473509
ssI75
(dp85
g9
F0.41908406456291514
sg10
F0.17542652407799775
ssI76
(dp86
g9
F0.06799583096827944
sg10
F0.9096173438239785
ssI77
(dp87
g9
F0.3193047158553757
sg10
F0.33719745012868596
ssI78
(dp88
g9
F0.5479420213744581
sg10
F0.5381499580414795
ssI79
(dp89
g9
F0.4626801770066391
sg10
F0.6429603912372509
ssI80
(dp90
g9
F0.42131915564696565
sg10
F0.2524144402285925
ssI81
(dp91
g9
F0.9185187065303103
sg10
F0.6324670621905722
ssI82
(dp92
g9
F0.6828720422964963
sg10
F0.5920718486719055
ssI83
(dp93
g9
F0.3329109780976609
sg10
F0.6867275282540706
ssI84
(dp94
g9
F0.8283146620856942
sg10
F0.4735104645464575
ssI85
(dp95
g9
F0.7584762314681
sg10
F0.43121872980946074
ssI86
(dp96
g9
F0.4945110566122036
sg10
F0.4570490828348067
ssI87
(dp97
g9
F0.7572123722726548
sg10
F0.6661932284742624
ssI88
(dp98
g9
F0.310105999292259
sg10
F0.018767998440123113
ssI89
(dp99
g9
F0.2568254715166136
sg10
F0.7719942317765758
ssI90
(dp100
g9
F0.46059750017310275
sg10
F0.7507225300638123
ssI91
(dp101
g9
F0.4629164260675803
sg10
F0.4261468875693595
ssI92
(dp102
g9
F0.7553626638429409
sg10
F0.6633619785661669
ssI93
(dp103
g9
F0.5550563753080546
sg10
F0.22474122427534593
ssI94
(dp104
g9
F0.2596893379508245
sg10
F0.2067824925360654
ssI95
(dp105
g9
F0.4904114661589041
sg10
F0.21942515296799392
ssI96
(dp106
g9
F0.5057023130126788
sg10
F0.6338734027018202
ssI97
(dp107
g9
F0.8760923662269068
sg10
F0.6848306374642353
ssI98
(dp108
g9
F0.7936256458619416
sg10
F0.8261490000521109
ssI99
(dp109
g9
F0.42980168656891593
sg10
F0.8738913043202562
sssS'node_dict_factory'
p110
c__builtin__
dict
p111
sS'edge_attr_dict_factory'
p112
g111
sS'edge'
p113
(dp114
I0
(dp115
sI1
(dp116
sI2
(dp117
sI3
(dp118
sI4
(dp119
sI5
(dp120
sI6
(dp121
sI7
(dp122
sI8
(dp123
sI9
(dp124
sI10
(dp125
sI11
(dp126
sI12
(dp127
sI13
(dp128
sI14
(dp129
sI15
(dp130
sI16
(dp131
sI17
(dp132
sI18
(dp133
sI19
(dp134
sI20
(dp135
sI21
(dp136
sI22
(dp137
sI23
(dp138
sI24
(dp139
sI25
(dp140
sI26
(dp141
sI27
(dp142
sI28
(dp143
sI29
(dp144
sI30
(dp145
sI31
(dp146
sI32
(dp147
sI33
(dp148
sI34
(dp149
sI35
(dp150
sI36
(dp151
sI37
(dp152
sI38
(dp153
sI39
(dp154
sI40
(dp155
sI41
(dp156
sI42
(dp157
sI43
(dp158
sI44
(dp159
sI45
(dp160
sI46
(dp161
sI47
(dp162
sI48
(dp163
sI49
(dp164
sI50
(dp165
sI51
(dp166
sI52
(dp167
sI53
(dp168
sI54
(dp169
sI55
(dp170
sI56
(dp171
sI57
(dp172
sI58
(dp173
sI59
(dp174
sI60
(dp175
sI61
(dp176
sI62
(dp177
sI63
(dp178
sI64
(dp179
sI65
(dp180
sI66
(dp181
sI67
(dp182
sI68
(dp183
sI69
(dp184
sI70
(dp185
sI71
(dp186
sI72
(dp187
sI73
(dp188
sI74
(dp189
sI75
(dp190
sI76
(dp191
sI77
(dp192
sI78
(dp193
sI79
(dp194
sI80
(dp195
sI81
(dp196
sI82
(dp197
sI83
(dp198
sI84
(dp199
sI85
(dp200
sI86
(dp201
sI87
(dp202
sI88
(dp203
sI89
(dp204
sI90
(dp205
sI91
(dp206
sI92
(dp207
sI93
(dp208
sI94
(dp209
sI95
(dp210
sI96
(dp211
sI97
(dp212
sI98
(dp213
sI99
(dp214
ssS'graph'
p215
(dp216
sS'adjlist_dict_factory'
p217
g111
sS'adj'
p218
g114
sb.