ccopy_reg
_reconstructor
p0
(cnetworkx.classes.graph
Graph
p1
c__builtin__
object
p2
Ntp3
Rp4
(dp5
S'node'
p6
(dp7
I0
(dp8
S'pos_x'
p9
F0.9858438068777531
sS'pos_y'
p10
F0.9930657326303945
ssI1
(dp11
g9
F0.13038215655168128
sg10
F0.738395345204246
ssI2
(dp12
g9
F0.669819371020223
sg10
F0.81003463744277
ssI3
(dp13
g9
F0.027302938540465393
sg10
F0.727139431665454
ssI4
(dp14
g9
F0.16374083055009314
sg10
F0.9480486090611159
ssI5
(dp15
g9
F0.5963217686485964
sg10
F0.7256763583855631
ssI6
(dp16
g9
F0.9041742425356633
sg10
F0.010100956327391941
ssI7
(dp17
g9
F0.8963036084370716
sg10
F0.27944597773690827
ssI8
(dp18
g9
F0.08554345450240974
sg10
F0.9572688130768654
ssI9
(dp19
g9
F0.40150416019168034
sg10
F0.7809744819412976
ssI10
(dp20
g9
F0.7463250318559131
sg10
F0.6814132158171716
ssI11
(dp21
g9
F0.7515548713982112
sg10
F0.7642766537380433
ssI12
(dp22
g9
F0.49769955074791106
sg10
F0.3442086167022096
ssI13
(dp23
g9
F0.8554322507909701
sg10
F0.06654888438568829
ssI14
(dp24
g9
F0.4880643138318941
sg10
F0.09249594099722547
ssI15
(dp25
g9
F0.758025179945396
sg10
F0.31857202551210884
ssI16
(dp26
g9
F0.9784657324039469
sg10
F0.4078859927362021
ssI17
(dp27
g9
F0.720064097205606
sg10
F0.6456990042815081
ssI18
(dp28
g9
F0.45327118624108087
sg10
F0.19449451516154181
ssI19
(dp29
g9
F0.03005402035303406
sg10
F0.6510585643777267
ssI20
(dp30
g9
F0.4456446211464703
sg10
F0.39915268442761587
ssI21
(dp31
g9
F0.631656073569541
sg10
F0.9293669092727679
ssI22
(dp32
g9
F0.19377183981590518
sg10
F0.16529371765294476
ssI23
(dp33
g9
F0.9674773800964696
sg10
F0.24674613856227023
ssI24
(dp34
g9
F0.7515559408084829
sg10
F0.3653326794148146
ssI25
(dp35
g9
F0.8603541200069851
sg10
F0.5966569150854627
ssI26
(dp36
g9
F0.16424483673381973
sg10
F0.10223801895478402
ssI27
(dp37
g9
F0.8614475971781987
sg10
F0.2890990812733234
ssI28
(dp38
g9
F0.6992128082030155
sg10
F0.187478768538881
ssI29
(dp39
g9
F0.009670366043698975
sg10
F0.45233920052477816
ssI30
(dp40
g9
F0.5159880631054466
sg10
F0.2819952760735114
ssI31
(dp41
g9
F0.3497496942859898
sg10
F0.6296886448056086
ssI32
(dp42
g9
F0.09893044518122751
sg10
F0.19796594194296213
ssI33
(dp43
g9
F0.26315985376907847
sg10
F0.7771996707696681
ssI34
(dp44
g9
F0.666984980323711
sg10
F0.519220708360481
ssI35
(dp45
g9
F0.4582191805946503
sg10
F0.7801877024223473
ssI36
(dp46
g9
F0.2278446669862666
sg10
F0.050845293143603754
ssI37
(dp47
g9
F0.43116533459689454
sg10
F0.7537195013862164
ssI38
(dp48
g9
F0.594448841752483
sg10
F0.674023608691813
ssI39
(dp49
g9
F0.10562777063657314
sg10
F0.28610510425598634
ssI40
(dp50
g9
F0.9637292793976342
sg10
F0.012017792008722106
ssI41
(dp51
g9
F0.2777058192589572
sg10
F0.25775619510681236
ssI42
(dp52
g9
F0.21828693472791894
sg10
F0.8865077960726176
ssI43
(dp53
g9
F0.5444020314118057
sg10
F0.6601439399158228
ssI44
(dp54
g9
F0.1450062984688586
sg10
F0.7319776624376775
ssI45
(dp55
g9
F0.584713739522619
sg10
F0.3141976493976366
ssI46
(dp56
g9
F0.9342295941594261
sg10
F0.2224275713031416
ssI47
(dp57
g9
F0.7149669915197855
sg10
F0.44614175652786847
ssI48
(dp58
g9
F0.77565864781739
sg10
F0.8739051131211629
ssI49
(dp59
g9
F0.5330818137665135
sg10
F0.7526562152185712
ssI50
(dp60
g9
F0.10734849162989546
sg10
F0.33564667905483137
ssI51
(dp61
g9
F0.2068812788563299
sg10
F0.6078968572706164
ssI52
(dp62
g9
F0.2106751953808237
sg10
F0.3408730379138011
ssI53
(dp63
g9
F0.27957967835767117
sg10
F0.7094828622547873
ssI54
(dp64
g9
F0.8867990764062124
sg10
F0.4553878082826357
ssI55
(dp65
g9
F0.6790664529304665
sg10
F0.6315892259439141
ssI56
(dp66
g9
F0.11065046758396802
sg10
F0.9081259300293438
ssI57
(dp67
g9
F0.01710150070812866
sg10
F0.09531182802071525
ssI58
(dp68
g9
F0.9726962412228835
sg10
F0.4295753190039989
ssI59
(dp69
g9
F0.9108493586128045
sg10
F0.4101074704225859
ssI60
(dp70
g9
F0.1712509125361643
sg10
F0.6602380351245842
ssI61
(dp71
g9
F0.969587671211588
sg10
F0.6217068584221294
ssI62
(dp72
g9
F0.296714563457097
sg10
F0.15050555743247906
ssI63
(dp73
g9
F0.34525803296114577
sg10
F0.7374213048507842
ssI64
(dp74
g9
F0.008596322107047194
sg10
F0.7944446435393564
ssI65
(dp75
g9
F0.4030885025560552
sg10
F0.9602644949053161
ssI66
(dp76
g9
F0.41488562082846026
sg10
F0.8708282459580963
ssI67
(dp77
g9
F0.32853856615066634
sg10
F0.009456402883317394
ssI68
(dp78
g9
F0.8218435104547012
sg10
F0.16433826546332964
ssI69
(dp79
g9
F0.3638359950937041
sg10
F0.1544000836249474
ssI70
(dp80
g9
F0.24612724995471036
sg10
F0.5116270641496818
ssI71
(dp81
g9
F0.8688583577386767
sg10
F0.6438845876509773
ssI72
(dp82
g9
F0.5334443550819956
sg10
F0.4611013112613427
ssI73
(dp83
g9
F0.7689678543615649
sg10
F0.66795674662532
ssI74
(dp84
g9
F0.45168112273676453
sg10
F0.3871529441976892
ssI75
(dp85
g9
F0.28799116690542026
sg10
F0.9314800041758781
ssI76
(dp86
g9
F0.7855263572568999
sg10
F0.2316172164717103
ssI77
(dp87
g9
F0.9188741702266222
sg10
F0.5757320163097142
ssI78
(dp88
g9
F0.8256382479612858
sg10
F0.8644419532343722
ssI79
(dp89
g9
F0.03822229905241681
sg10
F0.13237525603923728
ssI80
(dp90
g9
F0.6728923150645979
sg10
F0.08221594423365175
ssI81
(dp91
g9
F0.9016779124745682
sg10
F0.4849587297312621
ssI82
(dp92
g9
F0.9151328361008738
sg10
F0.1427178266299316
ssI83
(dp93
g9
F0.522852099037885
sg10
F0.002568507202801551
ssI84
(dp94
g9
F0.751651309397894
sg10
F0.7026148734247504
ssI85
(dp95
g9
F0.9606075708204266
sg10
F0.07384300694140677
ssI86
(dp96
g9
F0.3364296089955391
sg10
F0.9302589438508138
ssI87
(dp97
g9
F0.0996454059257268
sg10
F0.9178386489800812
ssI88
(dp98
g9
F0.4794640657300393
sg10
F0.2798475819380478
ssI89
(dp99
g9
F0.8577867771464842
sg10
F0.33761122324564286
ssI90
(dp100
g9
F0.2619795816227968
sg10
F0.5382467710558669
ssI91
(dp101
g9
F0.9090917199974451
sg10
F0.5256632759078673
ssI92
(dp102
g9
F0.13070688803795738
sg10
F0.9109819915012201
ssI93
(dp103
g9
F0.9605981829825742
sg10
F0.6425291069074945
ssI94
(dp104
g9
F0.9704402951995461
sg10
F0.4316552299301908
ssI95
(dp105
g9
F0.541437538277862
sg10
F0.6378948485947897
ssI96
(dp106
g9
F0.9425524159796147
sg10
F0.38357649648481207
ssI97
(dp107
g9
F0.9478178355675405
sg10
F0.4387269423049103
ssI98
(dp108
g9
F0.36619595503945446
sg10
F0.4806636302451204
ssI99
(dp109
g9
F0.36617144264163437
sg10
F0.42167492168438725
sssS'node_dict_factory'
p110
c__builtin__
dict
p111
sS'edge_attr_dict_factory'
p112
g111
sS'edge'
p113
(dp114
I0
(dp115
sI1
(dp116
sI2
(dp117
sI3
(dp118
sI4
(dp119
sI5
(dp120
sI6
(dp121
sI7
(dp122
sI8
(dp123
sI9
(dp124
sI10
(dp125
sI11
(dp126
sI12
(dp127
sI13
(dp128
sI14
(dp129
sI15
(dp130
sI16
(dp131
sI17
(dp132
sI18
(dp133
sI19
(dp134
sI20
(dp135
sI21
(dp136
sI22
(dp137
sI23
(dp138
sI24
(dp139
sI25
(dp140
sI26
(dp141
sI27
(dp142
sI28
(dp143
sI29
(dp144
sI30
(dp145
sI31
(dp146
sI32
(dp147
sI33
(dp148
sI34
(dp149
sI35
(dp150
sI36
(dp151
sI37
(dp152
sI38
(dp153
sI39
(dp154
sI40
(dp155
sI41
(dp156
sI42
(dp157
sI43
(dp158
sI44
(dp159
sI45
(dp160
sI46
(dp161
sI47
(dp162
sI48
(dp163
sI49
(dp164
sI50
(dp165
sI51
(dp166
sI52
(dp167
sI53
(dp168
sI54
(dp169
sI55
(dp170
sI56
(dp171
sI57
(dp172
sI58
(dp173
sI59
(dp174
sI60
(dp175
sI61
(dp176
sI62
(dp177
sI63
(dp178
sI64
(dp179
sI65
(dp180
sI66
(dp181
sI67
(dp182
sI68
(dp183
sI69
(dp184
sI70
(dp185
sI71
(dp186
sI72
(dp187
sI73
(dp188
sI74
(dp189
sI75
(dp190
sI76
(dp191
sI77
(dp192
sI78
(dp193
sI79
(dp194
sI80
(dp195
sI81
(dp196
sI82
(dp197
sI83
(dp198
sI84
(dp199
sI85
(dp200
sI86
(dp201
sI87
(dp202
sI88
(dp203
sI89
(dp204
sI90
(dp205
sI91
(dp206
sI92
(dp207
sI93
(dp208
sI94
(dp209
sI95
(dp210
sI96
(dp211
sI97
(dp212
sI98
(dp213
sI99
(dp214
ssS'graph'
p215
(dp216
sS'adjlist_dict_factory'
p217
g111
sS'adj'
p218
g114
sb.