ccopy_reg
_reconstructor
p0
(cnetworkx.classes.graph
Graph
p1
c__builtin__
object
p2
Ntp3
Rp4
(dp5
S'node'
p6
(dp7
I0
(dp8
S'pos_x'
p9
F0.7693117129484802
sS'pos_y'
p10
F0.4463511350963183
ssI1
(dp11
g9
F0.19355322693808552
sg10
F0.07667510186844761
ssI2
(dp12
g9
F0.3440611987108484
sg10
F0.12428346552618807
ssI3
(dp13
g9
F0.29535186098178823
sg10
F0.7478610672671622
ssI4
(dp14
g9
F0.888343329348117
sg10
F0.2825994012974613
ssI5
(dp15
g9
F0.9502146728842974
sg10
F0.48131629348054594
ssI6
(dp16
g9
F0.7534702910229585
sg10
F0.8663148123239548
ssI7
(dp17
g9
F0.7488030687151342
sg10
F0.750166490369084
ssI8
(dp18
g9
F0.7862318441524204
sg10
F0.48019672482296716
ssI9
(dp19
g9
F0.8102353884418857
sg10
F0.10948165966969237
ssI10
(dp20
g9
F0.9107772888529557
sg10
F0.4971059554705123
ssI11
(dp21
g9
F0.42788530900239063
sg10
F0.6982452177426095
ssI12
(dp22
g9
F0.3590058057152774
sg10
F0.12082246454911727
ssI13
(dp23
g9
F0.8361914234420718
sg10
F0.028182849097419194
ssI14
(dp24
g9
F0.40552684470843725
sg10
F0.6186977447184735
ssI15
(dp25
g9
F0.08951218597573785
sg10
F0.42653450975186347
ssI16
(dp26
g9
F0.9776550175920595
sg10
F0.5132931962029772
ssI17
(dp27
g9
F0.4822720376124363
sg10
F0.5321900454032742
ssI18
(dp28
g9
F0.04917971230084672
sg10
F0.5169437774356301
ssI19
(dp29
g9
F0.9655942179829178
sg10
F0.43753480058485483
ssI20
(dp30
g9
F0.19931068325610823
sg10
F0.39286319084975696
ssI21
(dp31
g9
F0.5162946459458987
sg10
F0.5084566725556414
ssI22
(dp32
g9
F0.08249045875590044
sg10
F0.5969949672778894
ssI23
(dp33
g9
F0.5126262930960855
sg10
F0.864724780744763
ssI24
(dp34
g9
F0.6552433045833074
sg10
F0.8458995728162148
ssI25
(dp35
g9
F0.574656325184535
sg10
F0.6017352054788502
ssI26
(dp36
g9
F0.8453997768758346
sg10
F0.20309520587162644
ssI27
(dp37
g9
F0.7403740641053803
sg10
F0.10386317032704784
ssI28
(dp38
g9
F0.3321055786577174
sg10
F0.11593133883077855
ssI29
(dp39
g9
F0.4523713168660405
sg10
F0.9560148810008136
ssI30
(dp40
g9
F0.4026392171942562
sg10
F0.8781904345006809
ssI31
(dp41
g9
F0.12710031174544845
sg10
F0.1149845530882867
ssI32
(dp42
g9
F0.8629964263568003
sg10
F0.7618259424002994
ssI33
(dp43
g9
F0.3996314931418741
sg10
F0.10055046002041312
ssI34
(dp44
g9
F0.2092108671099987
sg10
F0.7228409013299133
ssI35
(dp45
g9
F0.6387829935411835
sg10
F0.2496888062144904
ssI36
(dp46
g9
F0.8352017881376331
sg10
F0.2805894210704575
ssI37
(dp47
g9
F0.6739170251123933
sg10
F0.9327254188123795
ssI38
(dp48
g9
F0.48919025707328867
sg10
F0.7061212572322954
ssI39
(dp49
g9
F0.340810791522681
sg10
F0.3979774774179271
ssI40
(dp50
g9
F0.4860474491115043
sg10
F0.3082813119421848
ssI41
(dp51
g9
F0.5311669872085202
sg10
F0.7652371470374804
ssI42
(dp52
g9
F0.9733169317523942
sg10
F0.6850202044318203
ssI43
(dp53
g9
F0.2036682983915108
sg10
F0.08681159645934955
ssI44
(dp54
g9
F0.8817222438884895
sg10
F0.21349497007003515
ssI45
(dp55
g9
F0.21714210532553657
sg10
F0.8922248202648503
ssI46
(dp56
g9
F0.2766092481105361
sg10
F0.33176139684282047
ssI47
(dp57
g9
F0.33655190329645757
sg10
F0.5928457133205717
ssI48
(dp58
g9
F0.092516498800986
sg10
F0.35012045293550487
ssI49
(dp59
g9
F0.7243776424347412
sg10
F0.5782116079737076
ssI50
(dp60
g9
F0.5440799813195707
sg10
F0.895691985621223
ssI51
(dp61
g9
F0.3042874803640452
sg10
F0.07649995654749164
ssI52
(dp62
g9
F0.5753620733047934
sg10
F0.7031462938157276
ssI53
(dp63
g9
F0.7935496776307323
sg10
F0.5205313791023432
ssI54
(dp64
g9
F0.509887411458846
sg10
F0.38501055665292094
ssI55
(dp65
g9
F0.9429759981020928
sg10
F0.0717149437800293
ssI56
(dp66
g9
F0.24627655535626025
sg10
F0.4175758800228184
ssI57
(dp67
g9
F0.3816407715606518
sg10
F0.5422638456508131
ssI58
(dp68
g9
F0.39040758805298326
sg10
F0.024828142670168862
ssI59
(dp69
g9
F0.27987498036847047
sg10
F0.2976178559718571
ssI60
(dp70
g9
F0.11136077639020892
sg10
F0.190571669512413
ssI61
(dp71
g9
F0.7625140582644064
sg10
F0.2226450180671291
ssI62
(dp72
g9
F0.08542422544534811
sg10
F0.9890785761670275
ssI63
(dp73
g9
F0.8364046006897812
sg10
F0.7040686642939238
ssI64
(dp74
g9
F0.05579561622204243
sg10
F0.713245618739082
ssI65
(dp75
g9
F0.9589322096459669
sg10
F0.4180217744408089
ssI66
(dp76
g9
F0.8980212148938118
sg10
F0.4730180468306546
ssI67
(dp77
g9
F0.18816965229538907
sg10
F0.32051928974170396
ssI68
(dp78
g9
F0.29311574759045056
sg10
F0.4425532324779732
ssI69
(dp79
g9
F0.17004325962945221
sg10
F0.19433946407012026
ssI70
(dp80
g9
F0.6342019701792059
sg10
F0.6698522520960682
ssI71
(dp81
g9
F0.8194738838635246
sg10
F0.8048456859659133
ssI72
(dp82
g9
F0.7183365889606389
sg10
F0.20632573354802686
ssI73
(dp83
g9
F0.003996514166687337
sg10
F0.5340225672360186
ssI74
(dp84
g9
F0.9229108859075806
sg10
F0.0541238856465972
ssI75
(dp85
g9
F0.026910741945262218
sg10
F0.4364061440288006
ssI76
(dp86
g9
F0.0627573544535126
sg10
F0.2841480978083677
ssI77
(dp87
g9
F0.7388180102047307
sg10
F0.9234275540878758
ssI78
(dp88
g9
F0.1178066627998009
sg10
F0.8138373273190698
ssI79
(dp89
g9
F0.04093853777330181
sg10
F0.5674541684775462
ssI80
(dp90
g9
F0.8093027297188032
sg10
F0.6440372323702033
ssI81
(dp91
g9
F0.9234468257836739
sg10
F0.21817288907755372
ssI82
(dp92
g9
F0.8103023752020889
sg10
F0.6566568387908388
ssI83
(dp93
g9
F0.9374162674510512
sg10
F0.9159129314886947
ssI84
(dp94
g9
F0.7872342182583332
sg10
F0.8075877277861594
ssI85
(dp95
g9
F0.4293662331206478
sg10
F0.16844825485347947
ssI86
(dp96
g9
F0.10173229276691365
sg10
F0.34726491374143675
ssI87
(dp97
g9
F0.5520859381855644
sg10
F0.8194873334522226
ssI88
(dp98
g9
F0.4448311825036275
sg10
F0.42940258687893906
ssI89
(dp99
g9
F0.43053794940863643
sg10
F0.17805056924513174
ssI90
(dp100
g9
F0.6308540741432332
sg10
F0.9414016697177446
ssI91
(dp101
g9
F0.5994007091423331
sg10
F0.6374116865854594
ssI92
(dp102
g9
F0.5387009420913446
sg10
F0.10925279703319224
ssI93
(dp103
g9
F0.4654020107449087
sg10
F0.6551915517921629
ssI94
(dp104
g9
F0.973227081324977
sg10
F0.42517282412544843
ssI95
(dp105
g9
F0.6108165859747781
sg10
F0.31421268188344886
ssI96
(dp106
g9
F0.7681603643729787
sg10
F0.6538550551242213
ssI97
(dp107
g9
F0.3522994542747546
sg10
F0.2358783218415279
ssI98
(dp108
g9
F0.6979929914823482
sg10
F0.24151977556949622
ssI99
(dp109
g9
F0.8004687375154451
sg10
F0.06560481671406748
ssI100
(dp110
g9
F0.46011080017742434
sg10
F0.3802269448447495
ssI101
(dp111
g9
F0.2623931331976598
sg10
F0.8136641023683246
ssI102
(dp112
g9
F0.43184520635054346
sg10
F0.20547725387905103
ssI103
(dp113
g9
F0.13344480258758462
sg10
F0.8814852923640948
ssI104
(dp114
g9
F0.351944255434982
sg10
F0.4480916726542926
ssI105
(dp115
g9
F0.09711843142824417
sg10
F0.01589870839236518
ssI106
(dp116
g9
F0.7180180710175494
sg10
F0.55580072453106
ssI107
(dp117
g9
F0.5199837054841013
sg10
F0.6980920686179454
ssI108
(dp118
g9
F0.4771646555732405
sg10
F0.087953437386599
ssI109
(dp119
g9
F0.4976409453396424
sg10
F0.6898897872784627
ssI110
(dp120
g9
F0.17580471706098455
sg10
F0.16487495710742905
ssI111
(dp121
g9
F0.2513256468024797
sg10
F0.7373956028441472
ssI112
(dp122
g9
F0.21150187129287246
sg10
F0.3726498676234479
ssI113
(dp123
g9
F0.8143134739801381
sg10
F0.8067083395983887
ssI114
(dp124
g9
F0.2603647701670445
sg10
F0.31268033677180906
ssI115
(dp125
g9
F0.669999031768354
sg10
F0.41296241740252937
ssI116
(dp126
g9
F0.6818556370759409
sg10
F0.842267917372412
ssI117
(dp127
g9
F0.47462692399847795
sg10
F0.8599280879958696
ssI118
(dp128
g9
F0.3660401957701471
sg10
F0.6006825972042631
ssI119
(dp129
g9
F0.7944419597593256
sg10
F0.23981785894100816
ssI120
(dp130
g9
F0.7173057894735255
sg10
F0.9224616960409332
ssI121
(dp131
g9
F0.507083086861601
sg10
F0.4471076802067302
ssI122
(dp132
g9
F0.8423617356550196
sg10
F0.7519955788041346
ssI123
(dp133
g9
F0.6760120150179458
sg10
F0.1415937473522756
ssI124
(dp134
g9
F0.4194070120070401
sg10
F0.8446887441087417
ssI125
(dp135
g9
F0.8950578119238819
sg10
F0.7487736624975299
ssI126
(dp136
g9
F0.741627007674751
sg10
F0.3143232191033343
ssI127
(dp137
g9
F0.3473507742004016
sg10
F0.5307394622231952
ssI128
(dp138
g9
F0.8279080845225523
sg10
F0.522432358443855
ssI129
(dp139
g9
F0.26159906385103915
sg10
F0.0034880279002940107
ssI130
(dp140
g9
F0.8954773970457571
sg10
F0.012438435245695656
ssI131
(dp141
g9
F0.37468483761513605
sg10
F0.8777939140541354
ssI132
(dp142
g9
F0.09993712773399377
sg10
F0.0950626197829284
ssI133
(dp143
g9
F0.7879303472137816
sg10
F0.988014493600624
ssI134
(dp144
g9
F0.04002957142374597
sg10
F0.2213417481525266
ssI135
(dp145
g9
F0.6562668367428902
sg10
F0.8663328720811491
ssI136
(dp146
g9
F0.8347588602259006
sg10
F0.3757007391313629
ssI137
(dp147
g9
F0.3722631890437773
sg10
F0.3422701778828957
ssI138
(dp148
g9
F0.9074528298807109
sg10
F0.06901286297727405
ssI139
(dp149
g9
F0.9831317379417077
sg10
F0.7516224629296852
ssI140
(dp150
g9
F0.7044521634702371
sg10
F0.06980289807744311
ssI141
(dp151
g9
F0.8839730821032733
sg10
F0.2116699552346396
ssI142
(dp152
g9
F0.3293319629918152
sg10
F0.3724959155957215
ssI143
(dp153
g9
F0.48294976301629144
sg10
F0.1372467536122176
ssI144
(dp154
g9
F0.683730643036372
sg10
F0.48526411292183524
ssI145
(dp155
g9
F0.4713624760535017
sg10
F0.00462095928627082
ssI146
(dp156
g9
F0.24328767324845113
sg10
F0.35615040882309257
ssI147
(dp157
g9
F0.7346225432890088
sg10
F0.875634456406117
ssI148
(dp158
g9
F0.07631351385413054
sg10
F0.962886932799635
ssI149
(dp159
g9
F0.9546896939943794
sg10
F0.6464236627095692
ssI150
(dp160
g9
F0.2251410056685108
sg10
F0.6618187623611625
ssI151
(dp161
g9
F0.38283326139520124
sg10
F0.8091304873903737
ssI152
(dp162
g9
F0.6548742183010773
sg10
F0.3057788861138949
ssI153
(dp163
g9
F0.9264574771156562
sg10
F0.084026653076407
ssI154
(dp164
g9
F0.8270414672828164
sg10
F0.2728970809323865
ssI155
(dp165
g9
F0.5252360125391374
sg10
F0.7089600411235258
ssI156
(dp166
g9
F0.2216877116089715
sg10
F0.5954598104497666
ssI157
(dp167
g9
F0.0014618337557045225
sg10
F0.6749349558220173
ssI158
(dp168
g9
F0.8315306574918925
sg10
F0.7488207138976808
ssI159
(dp169
g9
F0.39980157510132175
sg10
F0.18980834231650145
ssI160
(dp170
g9
F0.5118607555589723
sg10
F0.4854544805983424
ssI161
(dp171
g9
F0.16591149941489325
sg10
F0.8110723031670678
ssI162
(dp172
g9
F0.8891029719503574
sg10
F0.775474321065567
ssI163
(dp173
g9
F0.8382466985896425
sg10
F0.7554507368523447
ssI164
(dp174
g9
F0.699827671151097
sg10
F0.9859765918669431
ssI165
(dp175
g9
F0.5963273492711301
sg10
F0.37260965570831706
ssI166
(dp176
g9
F0.4766497652935583
sg10
F0.6383149408835481
ssI167
(dp177
g9
F0.9481257735195819
sg10
F0.05439209786918786
ssI168
(dp178
g9
F0.6776934996371151
sg10
F0.5580910867539466
ssI169
(dp179
g9
F0.9613722893954308
sg10
F0.4352958901375319
ssI170
(dp180
g9
F0.39174697712654205
sg10
F0.15342072633875137
ssI171
(dp181
g9
F0.17360442923797215
sg10
F0.08178849185757864
ssI172
(dp182
g9
F0.029709257062023875
sg10
F0.048471924573871394
ssI173
(dp183
g9
F0.3670346498093433
sg10
F0.7730111334005725
ssI174
(dp184
g9
F0.6652422634759659
sg10
F0.5203255137072355
ssI175
(dp185
g9
F0.27195663233365397
sg10
F0.6059385129794572
ssI176
(dp186
g9
F0.9744105007101191
sg10
F0.4520184554617972
ssI177
(dp187
g9
F0.1607643360135662
sg10
F0.12640654589045963
ssI178
(dp188
g9
F0.9103840169865014
sg10
F0.16511457324263312
ssI179
(dp189
g9
F0.851990553106926
sg10
F0.061448616867619155
ssI180
(dp190
g9
F0.7669881036916126
sg10
F0.9627390994221909
ssI181
(dp191
g9
F0.5415773044567985
sg10
F0.6485033685090086
ssI182
(dp192
g9
F0.7151335529020533
sg10
F0.3462932966191131
ssI183
(dp193
g9
F0.1943992042726227
sg10
F0.3007796804751436
ssI184
(dp194
g9
F0.023795391918800757
sg10
F0.01789713435721796
ssI185
(dp195
g9
F0.2349985294618001
sg10
F0.8400059695643067
ssI186
(dp196
g9
F0.43177632230597407
sg10
F0.1375107367788666
ssI187
(dp197
g9
F0.6603989588274146
sg10
F0.850666987129803
ssI188
(dp198
g9
F0.2830049497020637
sg10
F0.18207544258295305
ssI189
(dp199
g9
F0.06336656989412648
sg10
F0.495861655623857
ssI190
(dp200
g9
F0.7096595753762189
sg10
F0.5458338795231304
ssI191
(dp201
g9
F0.7290574149527499
sg10
F0.2148090341568537
ssI192
(dp202
g9
F0.25842799278260364
sg10
F0.5664881250949314
ssI193
(dp203
g9
F0.5020870175435778
sg10
F0.4557484805198023
ssI194
(dp204
g9
F0.6027109624437373
sg10
F0.7541085512035626
ssI195
(dp205
g9
F0.5339249561792954
sg10
F0.6092611936663443
ssI196
(dp206
g9
F0.012956393773501773
sg10
F0.7801764292783311
ssI197
(dp207
g9
F0.48391106221538993
sg10
F0.6529690156678892
ssI198
(dp208
g9
F0.8166379415580989
sg10
F0.7952412071743731
ssI199
(dp209
g9
F0.811123710730382
sg10
F0.4099654898521864
ssI200
(dp210
g9
F0.9742120275833923
sg10
F0.3122239280450013
ssI201
(dp211
g9
F0.981795142929778
sg10
F0.9062136054436956
ssI202
(dp212
g9
F0.7965721833600437
sg10
F0.34176385745499793
ssI203
(dp213
g9
F0.9100441425081985
sg10
F0.4417163872636336
ssI204
(dp214
g9
F0.3840612794727075
sg10
F0.39536235640217
ssI205
(dp215
g9
F0.5564893110134939
sg10
F0.4394606262362243
ssI206
(dp216
g9
F0.6291537274878481
sg10
F0.8871751608474358
ssI207
(dp217
g9
F0.826864501756613
sg10
F0.7457710967810951
ssI208
(dp218
g9
F0.7226157116943509
sg10
F0.843049437865497
ssI209
(dp219
g9
F0.7061446041629607
sg10
F0.09342741060047688
ssI210
(dp220
g9
F0.269679167487588
sg10
F0.6730328287722783
ssI211
(dp221
g9
F0.4489379819245931
sg10
F0.33289496883711733
ssI212
(dp222
g9
F0.34898702071432
sg10
F0.7883668912366283
ssI213
(dp223
g9
F0.5921635910899993
sg10
F0.602004497332145
ssI214
(dp224
g9
F0.3569581683803966
sg10
F0.4401691106316389
ssI215
(dp225
g9
F0.030425631879792414
sg10
F0.07286768413024725
ssI216
(dp226
g9
F0.4432896014982114
sg10
F0.5802705183051755
ssI217
(dp227
g9
F0.8445034357434483
sg10
F0.33307400050040004
ssI218
(dp228
g9
F0.013169718167528321
sg10
F0.3128036976745052
ssI219
(dp229
g9
F0.32374989318180036
sg10
F0.4494589106381116
ssI220
(dp230
g9
F0.4604652043100973
sg10
F0.17248956590855968
ssI221
(dp231
g9
F0.43874686033085764
sg10
F0.1378144486535019
ssI222
(dp232
g9
F0.12222075577995584
sg10
F0.564632526673826
ssI223
(dp233
g9
F0.4466267373133175
sg10
F0.5147501921593078
ssI224
(dp234
g9
F0.828043041971847
sg10
F0.5807517044875419
ssI225
(dp235
g9
F0.6640718049646347
sg10
F0.19617385812313537
ssI226
(dp236
g9
F0.43650152988521973
sg10
F0.48069336139215246
ssI227
(dp237
g9
F0.5713152202308325
sg10
F0.22935767239057536
ssI228
(dp238
g9
F0.27364142609088116
sg10
F0.645679757798444
ssI229
(dp239
g9
F0.8716240651978144
sg10
F0.5021608426521916
ssI230
(dp240
g9
F0.9415373001208729
sg10
F0.1465103077270581
ssI231
(dp241
g9
F0.5512626497735009
sg10
F0.05858091960110934
ssI232
(dp242
g9
F0.8097968092167753
sg10
F0.8933524165297941
ssI233
(dp243
g9
F0.4166827073368685
sg10
F0.16472066803774899
ssI234
(dp244
g9
F0.7905089218220579
sg10
F0.31017954379372936
ssI235
(dp245
g9
F0.3254886483125372
sg10
F0.3199415823718631
ssI236
(dp246
g9
F0.778127127247101
sg10
F0.6011590393320901
ssI237
(dp247
g9
F0.8068627100589971
sg10
F0.28814740346385326
ssI238
(dp248
g9
F0.9637897385408334
sg10
F0.5072456413811016
ssI239
(dp249
g9
F0.6687775675786295
sg10
F0.26906256029795095
ssI240
(dp250
g9
F0.9469114888385994
sg10
F0.5531889735675184
ssI241
(dp251
g9
F0.8864733972525621
sg10
F0.07942968585637855
ssI242
(dp252
g9
F0.2999941616546241
sg10
F0.1454911510835707
ssI243
(dp253
g9
F0.9881737121009143
sg10
F0.7596552814433408
ssI244
(dp254
g9
F0.5479685662810317
sg10
F0.5955792537112776
ssI245
(dp255
g9
F0.7604674436025284
sg10
F0.2971857747881199
ssI246
(dp256
g9
F0.4568155336218781
sg10
F0.5817949075521427
ssI247
(dp257
g9
F0.7545565058461323
sg10
F0.7982048762870281
ssI248
(dp258
g9
F0.49332369369131623
sg10
F0.46534316038453905
ssI249
(dp259
g9
F0.6028133946314549
sg10
F0.09548319487457457
ssI250
(dp260
g9
F0.7366740197987551
sg10
F0.5405094098260389
ssI251
(dp261
g9
F0.3562173642272367
sg10
F0.6821211148678723
ssI252
(dp262
g9
F0.1980159560180038
sg10
F0.9962333838012636
ssI253
(dp263
g9
F0.9751164663404134
sg10
F0.6556835541260618
ssI254
(dp264
g9
F0.5524786534836904
sg10
F0.3310506983728583
ssI255
(dp265
g9
F0.3474983352473816
sg10
F0.49760504690475293
ssI256
(dp266
g9
F0.8287862244181584
sg10
F0.7846368478953829
ssI257
(dp267
g9
F0.3933025404649889
sg10
F0.4371198558775444
ssI258
(dp268
g9
F0.5397210429645242
sg10
F0.5102168611221388
ssI259
(dp269
g9
F0.42726451707107604
sg10
F0.57327670205938
ssI260
(dp270
g9
F0.7285471786113266
sg10
F0.4968778065518218
ssI261
(dp271
g9
F0.6809265829734957
sg10
F0.24016225347960918
ssI262
(dp272
g9
F0.47168559121275533
sg10
F0.2291555900912151
ssI263
(dp273
g9
F0.017910489926018403
sg10
F0.4753132567300077
ssI264
(dp274
g9
F0.34513862260712436
sg10
F0.05628818627465204
ssI265
(dp275
g9
F0.9029142968742003
sg10
F0.2326517217593127
ssI266
(dp276
g9
F0.6787110566583143
sg10
F0.4424485286045938
ssI267
(dp277
g9
F0.23290385289362847
sg10
F0.03070285866914002
ssI268
(dp278
g9
F0.20950640090682782
sg10
F0.7462128036602359
ssI269
(dp279
g9
F0.6747456040011436
sg10
F0.772529426608826
ssI270
(dp280
g9
F0.07132298246184066
sg10
F0.13498334838494097
ssI271
(dp281
g9
F0.8680931601186695
sg10
F0.5455126444201143
ssI272
(dp282
g9
F0.2586742264686146
sg10
F0.655166015221971
ssI273
(dp283
g9
F0.9774799158191839
sg10
F0.9902640051374361
ssI274
(dp284
g9
F0.2776502606664061
sg10
F0.4165877563620226
ssI275
(dp285
g9
F0.05391494566858579
sg10
F0.9785178626120079
ssI276
(dp286
g9
F0.7571617154787122
sg10
F0.6733054770253537
ssI277
(dp287
g9
F0.42696453353190145
sg10
F0.5957796848532918
ssI278
(dp288
g9
F0.09887220572644495
sg10
F0.02802997561656595
ssI279
(dp289
g9
F0.19269403887118852
sg10
F0.3670249347126414
ssI280
(dp290
g9
F0.17317724663964773
sg10
F0.05779879359312212
ssI281
(dp291
g9
F0.07080203959528508
sg10
F0.30200041342997297
ssI282
(dp292
g9
F0.3499695753476856
sg10
F0.7216840325517717
ssI283
(dp293
g9
F0.41866093098365187
sg10
F0.8214888221701279
ssI284
(dp294
g9
F0.33406244943884256
sg10
F0.8883861651892148
ssI285
(dp295
g9
F0.556963135598671
sg10
F0.39588522331949283
ssI286
(dp296
g9
F0.003842330716310016
sg10
F0.09077771062695106
ssI287
(dp297
g9
F0.46624120990110585
sg10
F0.3253744445820389
ssI288
(dp298
g9
F0.4421029637757239
sg10
F0.2658225395664984
ssI289
(dp299
g9
F0.20656157258902863
sg10
F0.678637867776291
ssI290
(dp300
g9
F0.9520872806692698
sg10
F0.41473381861877623
ssI291
(dp301
g9
F0.4263647682486259
sg10
F0.67645005865273
ssI292
(dp302
g9
F0.11237040008694765
sg10
F0.11110961475456937
ssI293
(dp303
g9
F0.5834401166472092
sg10
F0.03732249180350378
ssI294
(dp304
g9
F0.6987290946434538
sg10
F0.2864087416416088
ssI295
(dp305
g9
F0.5754211723800533
sg10
F0.033785394814563
ssI296
(dp306
g9
F0.7450035762995015
sg10
F0.059289435702962634
ssI297
(dp307
g9
F0.4349412977855176
sg10
F0.17084419782705684
ssI298
(dp308
g9
F0.9644434024867248
sg10
F0.5774487566250414
ssI299
(dp309
g9
F0.496353450294434
sg10
F0.03829212243808289
ssI300
(dp310
g9
F0.24453262551120125
sg10
F0.4699069692005585
ssI301
(dp311
g9
F0.38141878404628027
sg10
F0.5321347454330212
ssI302
(dp312
g9
F0.8973253331152109
sg10
F0.8753632089785974
ssI303
(dp313
g9
F0.5948114964298149
sg10
F0.33117483326520847
ssI304
(dp314
g9
F0.4059650621200874
sg10
F0.8515268478513662
ssI305
(dp315
g9
F0.6835891770267282
sg10
F0.10915314552071653
ssI306
(dp316
g9
F0.7540056131466494
sg10
F0.008828950824512072
ssI307
(dp317
g9
F0.7260670546047523
sg10
F0.38109731993308016
ssI308
(dp318
g9
F0.40266106722801864
sg10
F0.8774641421964627
ssI309
(dp319
g9
F0.6904423319486488
sg10
F0.5017375906021544
ssI310
(dp320
g9
F0.9837755927159633
sg10
F0.6018176735307634
ssI311
(dp321
g9
F0.9298312117021277
sg10
F0.054157123132878904
ssI312
(dp322
g9
F0.47567074429212586
sg10
F0.1529274815435645
ssI313
(dp323
g9
F0.4130150465178133
sg10
F0.8881299202358647
ssI314
(dp324
g9
F0.34424039597946765
sg10
F0.9193634862020059
ssI315
(dp325
g9
F0.4853258451256147
sg10
F0.918231748868183
ssI316
(dp326
g9
F0.10365445529893191
sg10
F0.09877058104030156
ssI317
(dp327
g9
F0.01628029225052352
sg10
F0.05236898514975774
ssI318
(dp328
g9
F0.24092153262229732
sg10
F0.7877636794678211
ssI319
(dp329
g9
F0.004891218409694864
sg10
F0.2915934187787762
ssI320
(dp330
g9
F0.9109786977986665
sg10
F0.007021157661413535
ssI321
(dp331
g9
F0.5726719428000836
sg10
F0.6370458863797995
ssI322
(dp332
g9
F0.3704559272593958
sg10
F0.983433810886233
ssI323
(dp333
g9
F0.4036789184138755
sg10
F0.44114853849786784
ssI324
(dp334
g9
F0.030544524822954666
sg10
F0.4252124873733455
ssI325
(dp335
g9
F0.6104638090658906
sg10
F0.8894268673501379
ssI326
(dp336
g9
F0.1726252411759156
sg10
F0.7379040608185159
ssI327
(dp337
g9
F0.31293654237780466
sg10
F0.48383236462491597
ssI328
(dp338
g9
F0.6368797424819346
sg10
F0.6066333279404088
ssI329
(dp339
g9
F0.08609411072185458
sg10
F0.5268025206426326
ssI330
(dp340
g9
F0.14697891714275202
sg10
F0.3250508032106747
ssI331
(dp341
g9
F0.5671950321389357
sg10
F0.7784560633305704
ssI332
(dp342
g9
F0.07682054184763165
sg10
F0.7701419364770961
ssI333
(dp343
g9
F0.3126868429171913
sg10
F0.6116584105901325
ssI334
(dp344
g9
F0.5311751872605408
sg10
F0.1320912606553305
ssI335
(dp345
g9
F0.8970682318156635
sg10
F0.36420617326643734
ssI336
(dp346
g9
F0.24928393239721836
sg10
F0.633604171075747
ssI337
(dp347
g9
F0.5554615265181126
sg10
F0.3821239296357817
ssI338
(dp348
g9
F0.2093255445620188
sg10
F0.7794618661417835
ssI339
(dp349
g9
F0.28728935516023857
sg10
F0.2924605828612159
ssI340
(dp350
g9
F0.9011531486007934
sg10
F0.244642605115443
ssI341
(dp351
g9
F0.11968993043467435
sg10
F0.7099256904472131
ssI342
(dp352
g9
F0.8354419592012519
sg10
F0.5151999998195566
ssI343
(dp353
g9
F0.9020189846971925
sg10
F0.8582285930311478
ssI344
(dp354
g9
F0.8483887757964039
sg10
F0.09392747266244383
ssI345
(dp355
g9
F0.3484917117886924
sg10
F0.7938977647811323
ssI346
(dp356
g9
F0.7874440397385843
sg10
F0.25016647028228345
ssI347
(dp357
g9
F0.49852561328283507
sg10
F0.5462873651342596
ssI348
(dp358
g9
F0.6011721155960934
sg10
F0.35001413561089134
ssI349
(dp359
g9
F0.32318852996694536
sg10
F0.4138418103059114
ssI350
(dp360
g9
F0.9562503081279619
sg10
F0.5159492503170524
ssI351
(dp361
g9
F0.46841705278363643
sg10
F0.41688759530419295
ssI352
(dp362
g9
F0.7257611928056028
sg10
F0.7829805760359888
ssI353
(dp363
g9
F0.3505170398459009
sg10
F0.21173349337967018
ssI354
(dp364
g9
F0.4259069651625851
sg10
F0.5219652448463563
ssI355
(dp365
g9
F0.4731981931997482
sg10
F0.748969620281336
ssI356
(dp366
g9
F0.8554634010697771
sg10
F0.18478712982999979
ssI357
(dp367
g9
F0.12803764449687283
sg10
F0.6128810661919921
ssI358
(dp368
g9
F0.6771681446342085
sg10
F0.9223508379632323
ssI359
(dp369
g9
F0.5625543397069691
sg10
F0.842623369011211
ssI360
(dp370
g9
F0.30226098267214097
sg10
F0.668116924262983
ssI361
(dp371
g9
F0.8845153133164754
sg10
F0.13654000660688703
ssI362
(dp372
g9
F0.060282506430992755
sg10
F0.59466259308557
ssI363
(dp373
g9
F0.7815751845225016
sg10
F0.9202958451370118
ssI364
(dp374
g9
F0.9869162925021125
sg10
F0.6280233017436848
ssI365
(dp375
g9
F0.925243901762856
sg10
F0.2940296511741207
ssI366
(dp376
g9
F0.15701752276537762
sg10
F0.27881946542711444
ssI367
(dp377
g9
F0.10564998718067276
sg10
F0.09955136467956593
ssI368
(dp378
g9
F0.5763336021923995
sg10
F0.1898557895242725
ssI369
(dp379
g9
F0.6542872340716563
sg10
F0.17160215244172372
ssI370
(dp380
g9
F0.5675224474173131
sg10
F0.8679220861914856
ssI371
(dp381
g9
F0.41718110855687596
sg10
F0.5602901751336136
ssI372
(dp382
g9
F0.28165276007515516
sg10
F0.9746637067694724
ssI373
(dp383
g9
F0.10749684893863642
sg10
F0.986398025123408
ssI374
(dp384
g9
F0.35598274581123623
sg10
F0.904525864938371
ssI375
(dp385
g9
F0.3255688584520965
sg10
F0.08530485650185704
ssI376
(dp386
g9
F0.002573423271821751
sg10
F0.6249964652255613
ssI377
(dp387
g9
F0.9086162566027007
sg10
F0.8816879867336124
ssI378
(dp388
g9
F0.7484433255465509
sg10
F0.535382291690811
ssI379
(dp389
g9
F0.3662182416276699
sg10
F0.8618721303010994
ssI380
(dp390
g9
F0.8166834993417534
sg10
F0.7251025304753269
ssI381
(dp391
g9
F0.09908267566445861
sg10
F0.6942984805212399
ssI382
(dp392
g9
F0.1876664496795657
sg10
F0.4843719415920359
ssI383
(dp393
g9
F0.15666637498571379
sg10
F0.43518924504965195
ssI384
(dp394
g9
F0.27146854383379404
sg10
F0.6848677753372336
ssI385
(dp395
g9
F0.7180345186374408
sg10
F0.1446432193064091
ssI386
(dp396
g9
F0.3323914310786462
sg10
F0.022027230383735663
ssI387
(dp397
g9
F0.34336900092731626
sg10
F0.15777550649252692
ssI388
(dp398
g9
F0.9814567185598044
sg10
F0.39910923688238475
ssI389
(dp399
g9
F0.5660951245227328
sg10
F0.3250696513082103
ssI390
(dp400
g9
F0.333132418432627
sg10
F0.9356349054929729
ssI391
(dp401
g9
F0.32890058123630994
sg10
F0.38273486494048614
ssI392
(dp402
g9
F0.5917305416052421
sg10
F0.7273378886073638
ssI393
(dp403
g9
F0.06014441332154041
sg10
F0.595097124746046
ssI394
(dp404
g9
F0.4192279360696509
sg10
F0.6898387632346975
ssI395
(dp405
g9
F0.8952528940940175
sg10
F0.8237722441147888
ssI396
(dp406
g9
F0.8866349264606198
sg10
F0.03850393882513037
ssI397
(dp407
g9
F0.5028771227321851
sg10
F0.4119767680743581
ssI398
(dp408
g9
F0.17654036616654467
sg10
F0.44586124109514935
ssI399
(dp409
g9
F0.9037776669492416
sg10
F0.5768508188788252
ssI400
(dp410
g9
F0.8495077348639553
sg10
F0.8896920426502876
ssI401
(dp411
g9
F0.5144309628777013
sg10
F0.46186881609909614
ssI402
(dp412
g9
F0.9873954868841972
sg10
F0.34334100387707744
ssI403
(dp413
g9
F0.6917872831642525
sg10
F0.6738311758467888
ssI404
(dp414
g9
F0.035317392515330615
sg10
F0.2419443639801756
ssI405
(dp415
g9
F0.47842040846653344
sg10
F0.6939339008338332
ssI406
(dp416
g9
F0.8005042071046401
sg10
F0.42048945303451024
ssI407
(dp417
g9
F0.8260051859952259
sg10
F0.2382903191500787
ssI408
(dp418
g9
F0.38212276086926966
sg10
F0.43635922842753694
ssI409
(dp419
g9
F0.9512852023959467
sg10
F0.06220022832473293
ssI410
(dp420
g9
F0.5166042776288808
sg10
F0.42477393499305005
ssI411
(dp421
g9
F0.0767996070532927
sg10
F0.1985780906190754
ssI412
(dp422
g9
F0.9133346479238912
sg10
F0.6147098699898577
ssI413
(dp423
g9
F0.08427593890702623
sg10
F0.32796683261502857
ssI414
(dp424
g9
F0.7830691582616088
sg10
F0.48211266516334683
ssI415
(dp425
g9
F0.7944972299031066
sg10
F0.9147274530765654
ssI416
(dp426
g9
F0.20576688483708283
sg10
F0.6331273538352268
ssI417
(dp427
g9
F0.46354965780911184
sg10
F0.2121736423102739
ssI418
(dp428
g9
F0.5506938626131667
sg10
F0.3684673404073683
ssI419
(dp429
g9
F0.5982182063524596
sg10
F0.28569689137364673
ssI420
(dp430
g9
F0.42811282750734747
sg10
F0.4356836110050034
ssI421
(dp431
g9
F0.17253361377363652
sg10
F0.1692881382933823
ssI422
(dp432
g9
F0.328114637568379
sg10
F0.4099590485545045
ssI423
(dp433
g9
F0.5288377194582232
sg10
F0.21240052126968179
ssI424
(dp434
g9
F0.48620561179028765
sg10
F0.5818605383001075
ssI425
(dp435
g9
F0.16301217966039705
sg10
F0.784388338956883
ssI426
(dp436
g9
F0.7474489183771159
sg10
F0.505752434116071
ssI427
(dp437
g9
F0.8989910898941142
sg10
F0.29485990727618816
ssI428
(dp438
g9
F0.21156161315915434
sg10
F0.5720389625574743
ssI429
(dp439
g9
F0.23774401383474542
sg10
F0.05615480102819548
ssI430
(dp440
g9
F0.23068351398410059
sg10
F0.3650569588412035
ssI431
(dp441
g9
F0.6698733138570474
sg10
F0.3843011354193331
ssI432
(dp442
g9
F0.08808692066730062
sg10
F0.7662076190811303
ssI433
(dp443
g9
F0.35428594370598
sg10
F0.6164963899366389
ssI434
(dp444
g9
F0.539984279415491
sg10
F0.7962831401904938
ssI435
(dp445
g9
F0.07876737343050955
sg10
F0.3614759935050481
ssI436
(dp446
g9
F0.7591619973939038
sg10
F0.5163003219402466
ssI437
(dp447
g9
F0.8401651254216742
sg10
F0.7788914412715151
ssI438
(dp448
g9
F0.2323869074089726
sg10
F0.6704706573660046
ssI439
(dp449
g9
F0.011091515098656801
sg10
F0.695402785645016
ssI440
(dp450
g9
F0.0755570316619284
sg10
F0.32013856934522056
ssI441
(dp451
g9
F0.864020396566394
sg10
F0.06686674043024998
ssI442
(dp452
g9
F0.16121630527650366
sg10
F0.9769957779498752
ssI443
(dp453
g9
F0.05164283874943598
sg10
F0.35973659875048436
ssI444
(dp454
g9
F0.13159265326441405
sg10
F0.9698423228801926
ssI445
(dp455
g9
F0.20053291772396775
sg10
F0.28157204105971756
ssI446
(dp456
g9
F0.2038971536342269
sg10
F0.631799312089146
ssI447
(dp457
g9
F0.04032811044674367
sg10
F0.7601261608583995
ssI448
(dp458
g9
F0.8253854955005051
sg10
F0.3164833121761801
ssI449
(dp459
g9
F0.06887467298297123
sg10
F0.5972802610097473
ssI450
(dp460
g9
F0.6222765032920137
sg10
F0.0003232759813410757
ssI451
(dp461
g9
F0.011204243737699682
sg10
F0.2120508083710445
ssI452
(dp462
g9
F0.9246558744587804
sg10
F0.2568834243474044
ssI453
(dp463
g9
F0.8058337896332597
sg10
F0.24235243967570264
ssI454
(dp464
g9
F0.6706465129021152
sg10
F0.07524177084396466
ssI455
(dp465
g9
F0.8911630079150693
sg10
F0.2530915248112898
ssI456
(dp466
g9
F0.6374913266652902
sg10
F0.5774411949397013
ssI457
(dp467
g9
F0.3662089223467212
sg10
F0.8915957235384846
ssI458
(dp468
g9
F0.32058884510965124
sg10
F0.204346161073228
ssI459
(dp469
g9
F0.8842659672904121
sg10
F0.4604765386317644
ssI460
(dp470
g9
F0.9933698018639177
sg10
F0.5002685183558898
ssI461
(dp471
g9
F0.7998909827804046
sg10
F0.27897517018891493
ssI462
(dp472
g9
F0.16414157795285778
sg10
F0.2584909889424639
ssI463
(dp473
g9
F0.9309152799690732
sg10
F0.7527751941249461
ssI464
(dp474
g9
F0.7877042067125742
sg10
F0.3396668846552866
ssI465
(dp475
g9
F0.20954987297860928
sg10
F0.7813494264485776
ssI466
(dp476
g9
F0.9235847960798419
sg10
F0.13087196680116175
ssI467
(dp477
g9
F0.02362796739118156
sg10
F0.5239434198697228
ssI468
(dp478
g9
F0.1933463372226858
sg10
F0.4804982126878682
ssI469
(dp479
g9
F0.5838547816374289
sg10
F0.9419772989642277
ssI470
(dp480
g9
F0.8381260389301713
sg10
F0.9980756746374086
ssI471
(dp481
g9
F0.14118900071490315
sg10
F0.8965409029220839
ssI472
(dp482
g9
F0.3216392442004048
sg10
F0.7856871390009024
ssI473
(dp483
g9
F0.11145869911120265
sg10
F0.7390341398384014
ssI474
(dp484
g9
F0.8280522049666336
sg10
F0.631566083523434
ssI475
(dp485
g9
F0.002755053527769946
sg10
F0.0006418768633499328
ssI476
(dp486
g9
F0.6802164834389496
sg10
F0.904986679043503
ssI477
(dp487
g9
F0.397536361397827
sg10
F0.2697655220240398
ssI478
(dp488
g9
F0.14105549692736963
sg10
F0.1135084444708695
ssI479
(dp489
g9
F0.46315271561244364
sg10
F0.633730318382766
ssI480
(dp490
g9
F0.9590840250501363
sg10
F0.31301329842420944
ssI481
(dp491
g9
F0.40789841303907604
sg10
F0.6081504109607767
ssI482
(dp492
g9
F0.19308499970247683
sg10
F0.8450738669272091
ssI483
(dp493
g9
F0.957331566617337
sg10
F0.03786606323895969
ssI484
(dp494
g9
F0.9478426584967052
sg10
F0.0018815232932719583
ssI485
(dp495
g9
F0.7477062061348717
sg10
F0.7974828740431067
ssI486
(dp496
g9
F0.29840310633346656
sg10
F0.9485077024176796
ssI487
(dp497
g9
F0.7077712544397906
sg10
F0.9354654524732492
ssI488
(dp498
g9
F0.43276910535821533
sg10
F0.3145454011535196
ssI489
(dp499
g9
F0.5840138755378543
sg10
F0.6231607727535553
ssI490
(dp500
g9
F0.7819088294241263
sg10
F0.3203429553664703
ssI491
(dp501
g9
F0.9834420048172957
sg10
F0.5190952228045717
ssI492
(dp502
g9
F0.3720390801052412
sg10
F0.6497572066751451
ssI493
(dp503
g9
F0.9882576350590412
sg10
F0.660016389291505
ssI494
(dp504
g9
F0.10225420433457033
sg10
F0.11628252978540232
ssI495
(dp505
g9
F0.503848695853695
sg10
F0.16774610760547637
ssI496
(dp506
g9
F0.17273152625256172
sg10
F0.923511720819504
ssI497
(dp507
g9
F0.4186997949288104
sg10
F0.19338769859755378
ssI498
(dp508
g9
F0.407862573242868
sg10
F0.3350500918153514
ssI499
(dp509
g9
F0.072397227305386
sg10
F0.3452304744295104
sssS'node_dict_factory'
p510
c__builtin__
dict
p511
sS'edge_attr_dict_factory'
p512
g511
sS'edge'
p513
(dp514
I0
(dp515
sI1
(dp516
sI2
(dp517
sI3
(dp518
sI4
(dp519
sI5
(dp520
sI6
(dp521
sI7
(dp522
sI8
(dp523
sI9
(dp524
sI10
(dp525
sI11
(dp526
sI12
(dp527
sI13
(dp528
sI14
(dp529
sI15
(dp530
sI16
(dp531
sI17
(dp532
sI18
(dp533
sI19
(dp534
sI20
(dp535
sI21
(dp536
sI22
(dp537
sI23
(dp538
sI24
(dp539
sI25
(dp540
sI26
(dp541
sI27
(dp542
sI28
(dp543
sI29
(dp544
sI30
(dp545
sI31
(dp546
sI32
(dp547
sI33
(dp548
sI34
(dp549
sI35
(dp550
sI36
(dp551
sI37
(dp552
sI38
(dp553
sI39
(dp554
sI40
(dp555
sI41
(dp556
sI42
(dp557
sI43
(dp558
sI44
(dp559
sI45
(dp560
sI46
(dp561
sI47
(dp562
sI48
(dp563
sI49
(dp564
sI50
(dp565
sI51
(dp566
sI52
(dp567
sI53
(dp568
sI54
(dp569
sI55
(dp570
sI56
(dp571
sI57
(dp572
sI58
(dp573
sI59
(dp574
sI60
(dp575
sI61
(dp576
sI62
(dp577
sI63
(dp578
sI64
(dp579
sI65
(dp580
sI66
(dp581
sI67
(dp582
sI68
(dp583
sI69
(dp584
sI70
(dp585
sI71
(dp586
sI72
(dp587
sI73
(dp588
sI74
(dp589
sI75
(dp590
sI76
(dp591
sI77
(dp592
sI78
(dp593
sI79
(dp594
sI80
(dp595
sI81
(dp596
sI82
(dp597
sI83
(dp598
sI84
(dp599
sI85
(dp600
sI86
(dp601
sI87
(dp602
sI88
(dp603
sI89
(dp604
sI90
(dp605
sI91
(dp606
sI92
(dp607
sI93
(dp608
sI94
(dp609
sI95
(dp610
sI96
(dp611
sI97
(dp612
sI98
(dp613
sI99
(dp614
sI100
(dp615
sI101
(dp616
sI102
(dp617
sI103
(dp618
sI104
(dp619
sI105
(dp620
sI106
(dp621
sI107
(dp622
sI108
(dp623
sI109
(dp624
sI110
(dp625
sI111
(dp626
sI112
(dp627
sI113
(dp628
sI114
(dp629
sI115
(dp630
sI116
(dp631
sI117
(dp632
sI118
(dp633
sI119
(dp634
sI120
(dp635
sI121
(dp636
sI122
(dp637
sI123
(dp638
sI124
(dp639
sI125
(dp640
sI126
(dp641
sI127
(dp642
sI128
(dp643
sI129
(dp644
sI130
(dp645
sI131
(dp646
sI132
(dp647
sI133
(dp648
sI134
(dp649
sI135
(dp650
sI136
(dp651
sI137
(dp652
sI138
(dp653
sI139
(dp654
sI140
(dp655
sI141
(dp656
sI142
(dp657
sI143
(dp658
sI144
(dp659
sI145
(dp660
sI146
(dp661
sI147
(dp662
sI148
(dp663
sI149
(dp664
sI150
(dp665
sI151
(dp666
sI152
(dp667
sI153
(dp668
sI154
(dp669
sI155
(dp670
sI156
(dp671
sI157
(dp672
sI158
(dp673
sI159
(dp674
sI160
(dp675
sI161
(dp676
sI162
(dp677
sI163
(dp678
sI164
(dp679
sI165
(dp680
sI166
(dp681
sI167
(dp682
sI168
(dp683
sI169
(dp684
sI170
(dp685
sI171
(dp686
sI172
(dp687
sI173
(dp688
sI174
(dp689
sI175
(dp690
sI176
(dp691
sI177
(dp692
sI178
(dp693
sI179
(dp694
sI180
(dp695
sI181
(dp696
sI182
(dp697
sI183
(dp698
sI184
(dp699
sI185
(dp700
sI186
(dp701
sI187
(dp702
sI188
(dp703
sI189
(dp704
sI190
(dp705
sI191
(dp706
sI192
(dp707
sI193
(dp708
sI194
(dp709
sI195
(dp710
sI196
(dp711
sI197
(dp712
sI198
(dp713
sI199
(dp714
sI200
(dp715
sI201
(dp716
sI202
(dp717
sI203
(dp718
sI204
(dp719
sI205
(dp720
sI206
(dp721
sI207
(dp722
sI208
(dp723
sI209
(dp724
sI210
(dp725
sI211
(dp726
sI212
(dp727
sI213
(dp728
sI214
(dp729
sI215
(dp730
sI216
(dp731
sI217
(dp732
sI218
(dp733
sI219
(dp734
sI220
(dp735
sI221
(dp736
sI222
(dp737
sI223
(dp738
sI224
(dp739
sI225
(dp740
sI226
(dp741
sI227
(dp742
sI228
(dp743
sI229
(dp744
sI230
(dp745
sI231
(dp746
sI232
(dp747
sI233
(dp748
sI234
(dp749
sI235
(dp750
sI236
(dp751
sI237
(dp752
sI238
(dp753
sI239
(dp754
sI240
(dp755
sI241
(dp756
sI242
(dp757
sI243
(dp758
sI244
(dp759
sI245
(dp760
sI246
(dp761
sI247
(dp762
sI248
(dp763
sI249
(dp764
sI250
(dp765
sI251
(dp766
sI252
(dp767
sI253
(dp768
sI254
(dp769
sI255
(dp770
sI256
(dp771
sI257
(dp772
sI258
(dp773
sI259
(dp774
sI260
(dp775
sI261
(dp776
sI262
(dp777
sI263
(dp778
sI264
(dp779
sI265
(dp780
sI266
(dp781
sI267
(dp782
sI268
(dp783
sI269
(dp784
sI270
(dp785
sI271
(dp786
sI272
(dp787
sI273
(dp788
sI274
(dp789
sI275
(dp790
sI276
(dp791
sI277
(dp792
sI278
(dp793
sI279
(dp794
sI280
(dp795
sI281
(dp796
sI282
(dp797
sI283
(dp798
sI284
(dp799
sI285
(dp800
sI286
(dp801
sI287
(dp802
sI288
(dp803
sI289
(dp804
sI290
(dp805
sI291
(dp806
sI292
(dp807
sI293
(dp808
sI294
(dp809
sI295
(dp810
sI296
(dp811
sI297
(dp812
sI298
(dp813
sI299
(dp814
sI300
(dp815
sI301
(dp816
sI302
(dp817
sI303
(dp818
sI304
(dp819
sI305
(dp820
sI306
(dp821
sI307
(dp822
sI308
(dp823
sI309
(dp824
sI310
(dp825
sI311
(dp826
sI312
(dp827
sI313
(dp828
sI314
(dp829
sI315
(dp830
sI316
(dp831
sI317
(dp832
sI318
(dp833
sI319
(dp834
sI320
(dp835
sI321
(dp836
sI322
(dp837
sI323
(dp838
sI324
(dp839
sI325
(dp840
sI326
(dp841
sI327
(dp842
sI328
(dp843
sI329
(dp844
sI330
(dp845
sI331
(dp846
sI332
(dp847
sI333
(dp848
sI334
(dp849
sI335
(dp850
sI336
(dp851
sI337
(dp852
sI338
(dp853
sI339
(dp854
sI340
(dp855
sI341
(dp856
sI342
(dp857
sI343
(dp858
sI344
(dp859
sI345
(dp860
sI346
(dp861
sI347
(dp862
sI348
(dp863
sI349
(dp864
sI350
(dp865
sI351
(dp866
sI352
(dp867
sI353
(dp868
sI354
(dp869
sI355
(dp870
sI356
(dp871
sI357
(dp872
sI358
(dp873
sI359
(dp874
sI360
(dp875
sI361
(dp876
sI362
(dp877
sI363
(dp878
sI364
(dp879
sI365
(dp880
sI366
(dp881
sI367
(dp882
sI368
(dp883
sI369
(dp884
sI370
(dp885
sI371
(dp886
sI372
(dp887
sI373
(dp888
sI374
(dp889
sI375
(dp890
sI376
(dp891
sI377
(dp892
sI378
(dp893
sI379
(dp894
sI380
(dp895
sI381
(dp896
sI382
(dp897
sI383
(dp898
sI384
(dp899
sI385
(dp900
sI386
(dp901
sI387
(dp902
sI388
(dp903
sI389
(dp904
sI390
(dp905
sI391
(dp906
sI392
(dp907
sI393
(dp908
sI394
(dp909
sI395
(dp910
sI396
(dp911
sI397
(dp912
sI398
(dp913
sI399
(dp914
sI400
(dp915
sI401
(dp916
sI402
(dp917
sI403
(dp918
sI404
(dp919
sI405
(dp920
sI406
(dp921
sI407
(dp922
sI408
(dp923
sI409
(dp924
sI410
(dp925
sI411
(dp926
sI412
(dp927
sI413
(dp928
sI414
(dp929
sI415
(dp930
sI416
(dp931
sI417
(dp932
sI418
(dp933
sI419
(dp934
sI420
(dp935
sI421
(dp936
sI422
(dp937
sI423
(dp938
sI424
(dp939
sI425
(dp940
sI426
(dp941
sI427
(dp942
sI428
(dp943
sI429
(dp944
sI430
(dp945
sI431
(dp946
sI432
(dp947
sI433
(dp948
sI434
(dp949
sI435
(dp950
sI436
(dp951
sI437
(dp952
sI438
(dp953
sI439
(dp954
sI440
(dp955
sI441
(dp956
sI442
(dp957
sI443
(dp958
sI444
(dp959
sI445
(dp960
sI446
(dp961
sI447
(dp962
sI448
(dp963
sI449
(dp964
sI450
(dp965
sI451
(dp966
sI452
(dp967
sI453
(dp968
sI454
(dp969
sI455
(dp970
sI456
(dp971
sI457
(dp972
sI458
(dp973
sI459
(dp974
sI460
(dp975
sI461
(dp976
sI462
(dp977
sI463
(dp978
sI464
(dp979
sI465
(dp980
sI466
(dp981
sI467
(dp982
sI468
(dp983
sI469
(dp984
sI470
(dp985
sI471
(dp986
sI472
(dp987
sI473
(dp988
sI474
(dp989
sI475
(dp990
sI476
(dp991
sI477
(dp992
sI478
(dp993
sI479
(dp994
sI480
(dp995
sI481
(dp996
sI482
(dp997
sI483
(dp998
sI484
(dp999
sI485
(dp1000
sI486
(dp1001
sI487
(dp1002
sI488
(dp1003
sI489
(dp1004
sI490
(dp1005
sI491
(dp1006
sI492
(dp1007
sI493
(dp1008
sI494
(dp1009
sI495
(dp1010
sI496
(dp1011
sI497
(dp1012
sI498
(dp1013
sI499
(dp1014
ssS'graph'
p1015
(dp1016
sS'adjlist_dict_factory'
p1017
g511
sS'adj'
p1018
g514
sb.