ccopy_reg
_reconstructor
p0
(cnetworkx.classes.graph
Graph
p1
c__builtin__
object
p2
Ntp3
Rp4
(dp5
S'node'
p6
(dp7
I0
(dp8
S'pos_x'
p9
F0.527980733094119
sS'pos_y'
p10
F0.012413998687010541
ssI1
(dp11
g9
F0.7219118901202689
sg10
F0.15720289363514184
ssI2
(dp12
g9
F0.21020021365125174
sg10
F0.0025942189160848006
ssI3
(dp13
g9
F0.1872403169720167
sg10
F0.377671172019282
ssI4
(dp14
g9
F0.8069260289022513
sg10
F0.5735904468759316
ssI5
(dp15
g9
F0.9642681974949537
sg10
F0.09007364004526974
ssI6
(dp16
g9
F0.24402200040340782
sg10
F0.7407574755833765
ssI7
(dp17
g9
F0.3826536989914553
sg10
F0.3765943059474468
ssI8
(dp18
g9
F0.4769800050891344
sg10
F0.25409242888199113
ssI9
(dp19
g9
F0.1920500631062234
sg10
F0.8779039362065972
ssI10
(dp20
g9
F0.5642112379512063
sg10
F0.6579892521412979
ssI11
(dp21
g9
F0.3592973506341286
sg10
F0.34240316685561256
ssI12
(dp22
g9
F0.9777546628983603
sg10
F0.09015792353092034
ssI13
(dp23
g9
F0.2809687964926828
sg10
F0.08340447518260707
ssI14
(dp24
g9
F0.9126487665088542
sg10
F0.8720975186535729
ssI15
(dp25
g9
F0.9810666246270814
sg10
F0.46875217392484847
ssI16
(dp26
g9
F0.04797698458313737
sg10
F0.9816773620331993
ssI17
(dp27
g9
F0.8196740605533236
sg10
F0.9263508259031656
ssI18
(dp28
g9
F0.9577271941540638
sg10
F0.7531204394755096
ssI19
(dp29
g9
F0.6146533888750004
sg10
F0.48873747565615977
ssI20
(dp30
g9
F0.7166279633761994
sg10
F0.3609381857506394
ssI21
(dp31
g9
F0.8475659498627157
sg10
F0.6647672057597732
ssI22
(dp32
g9
F0.5392033662178094
sg10
F0.29679101136298225
ssI23
(dp33
g9
F0.5066606105297928
sg10
F0.3026534568363589
ssI24
(dp34
g9
F0.2451551092104346
sg10
F0.9868996011216506
ssI25
(dp35
g9
F0.6908310801034616
sg10
F0.5044050907683467
ssI26
(dp36
g9
F0.5651805330703589
sg10
F0.23485318150591472
ssI27
(dp37
g9
F0.6303423218977411
sg10
F0.4764282037096613
ssI28
(dp38
g9
F0.14530450748821722
sg10
F0.7903741744642597
ssI29
(dp39
g9
F0.805254827971402
sg10
F0.4673505881012393
ssI30
(dp40
g9
F0.05908458717351195
sg10
F0.19635945810917654
ssI31
(dp41
g9
F0.1779500442261357
sg10
F0.6054820900191202
ssI32
(dp42
g9
F0.5900398082073908
sg10
F0.7282857292827477
ssI33
(dp43
g9
F0.2830600237905835
sg10
F0.048619100359389766
ssI34
(dp44
g9
F0.14499917864978273
sg10
F0.8255733565560568
ssI35
(dp45
g9
F0.5325820347421664
sg10
F0.11934909498463564
ssI36
(dp46
g9
F0.2854533674235552
sg10
F0.35710116827274196
ssI37
(dp47
g9
F0.8372947299669378
sg10
F0.39230731200953717
ssI38
(dp48
g9
F0.33447925530843603
sg10
F0.30562768146970054
ssI39
(dp49
g9
F0.19943782537752042
sg10
F0.38873697667798435
ssI40
(dp50
g9
F0.7532777748343146
sg10
F0.5310830934365541
ssI41
(dp51
g9
F0.9314596092279137
sg10
F0.96797158290894
ssI42
(dp52
g9
F0.569182891538213
sg10
F0.9329376886759636
ssI43
(dp53
g9
F0.9232853890593726
sg10
F0.08526595878252352
ssI44
(dp54
g9
F0.02325749596573956
sg10
F0.19956157270407915
ssI45
(dp55
g9
F0.2714582098190269
sg10
F0.2486834657144832
ssI46
(dp56
g9
F0.5861180343768254
sg10
F0.6197992476241364
ssI47
(dp57
g9
F0.10137601572324695
sg10
F0.6691409973763653
ssI48
(dp58
g9
F0.7699950803181915
sg10
F0.12416295350131146
ssI49
(dp59
g9
F0.1678759079248634
sg10
F0.7452658218569952
ssI50
(dp60
g9
F0.9943093753349256
sg10
F0.13665312665638873
ssI51
(dp61
g9
F0.29196088689464605
sg10
F0.8677762598966527
ssI52
(dp62
g9
F0.4332710885911776
sg10
F0.9702462863660485
ssI53
(dp63
g9
F0.8629545699586604
sg10
F0.669074675227958
ssI54
(dp64
g9
F0.4992133370982953
sg10
F0.6882432574825348
ssI55
(dp65
g9
F0.14824051969868746
sg10
F0.3595859981187405
ssI56
(dp66
g9
F0.12610375238251703
sg10
F0.2848975868109189
ssI57
(dp67
g9
F0.7481316164121126
sg10
F0.03867193169858485
ssI58
(dp68
g9
F0.9485408849606916
sg10
F0.386093567996158
ssI59
(dp69
g9
F0.6316424538032143
sg10
F0.6897194556864809
ssI60
(dp70
g9
F0.9358054773736204
sg10
F0.7380239555122429
ssI61
(dp71
g9
F0.40554313762513516
sg10
F0.8675901178478127
ssI62
(dp72
g9
F0.2623978727774551
sg10
F0.6391265149040368
ssI63
(dp73
g9
F0.7160461418464639
sg10
F0.21704954482670324
ssI64
(dp74
g9
F0.2917814584884785
sg10
F0.825003043419225
ssI65
(dp75
g9
F0.4719871229190271
sg10
F0.23891341457139648
ssI66
(dp76
g9
F0.14828238004195948
sg10
F0.017998484056573227
ssI67
(dp77
g9
F0.4159531864837095
sg10
F0.5250837940118706
ssI68
(dp78
g9
F0.9417670218779735
sg10
F0.4317128234573231
ssI69
(dp79
g9
F0.06522823576427761
sg10
F0.15350152514692972
ssI70
(dp80
g9
F0.4537194798250921
sg10
F0.6103830029055772
ssI71
(dp81
g9
F0.3804449445413941
sg10
F0.6385868382834956
ssI72
(dp82
g9
F0.3075745084230387
sg10
F0.4056477121276588
ssI73
(dp83
g9
F0.17452663957669579
sg10
F0.2312378234109309
ssI74
(dp84
g9
F0.6303947643568352
sg10
F0.6349533362745562
ssI75
(dp85
g9
F0.33661635215935637
sg10
F0.529308733888878
ssI76
(dp86
g9
F0.5944761283172958
sg10
F0.5449340603854677
ssI77
(dp87
g9
F0.7162323467539797
sg10
F0.6331220931287072
ssI78
(dp88
g9
F0.4331230919689647
sg10
F0.16169516872663137
ssI79
(dp89
g9
F0.3575888700921718
sg10
F0.4132242676411656
ssI80
(dp90
g9
F0.48199837206059404
sg10
F0.12614794243146565
ssI81
(dp91
g9
F0.8445540544456176
sg10
F0.35858585603215176
ssI82
(dp92
g9
F0.47794371775068045
sg10
F0.4431635025857684
ssI83
(dp93
g9
F0.5563041138796154
sg10
F0.6406363740616763
ssI84
(dp94
g9
F0.4563072439923259
sg10
F0.7886209015635222
ssI85
(dp95
g9
F0.019418227599854565
sg10
F0.02173188334327436
ssI86
(dp96
g9
F0.996804198405305
sg10
F0.1960448834424119
ssI87
(dp97
g9
F0.3561036790723324
sg10
F0.8744777162050494
ssI88
(dp98
g9
F0.5753478345757075
sg10
F0.028418630555223867
ssI89
(dp99
g9
F0.9876071847052197
sg10
F0.3537997292056416
ssI90
(dp100
g9
F0.1585301730755715
sg10
F0.3472917343398314
ssI91
(dp101
g9
F0.9526884883720553
sg10
F0.2720861747005249
ssI92
(dp102
g9
F0.9800471831896765
sg10
F0.7288333448443156
ssI93
(dp103
g9
F0.4380655279529879
sg10
F0.3798814984548421
ssI94
(dp104
g9
F0.37655579848450416
sg10
F0.9115338755040617
ssI95
(dp105
g9
F0.371508744487571
sg10
F0.7062249458893074
ssI96
(dp106
g9
F0.9734762073572033
sg10
F0.2798720796781575
ssI97
(dp107
g9
F0.2298094476072362
sg10
F0.04771298404249924
ssI98
(dp108
g9
F0.6988881871234796
sg10
F0.7342068952616109
ssI99
(dp109
g9
F0.821003388457162
sg10
F0.40700232193284014
ssI100
(dp110
g9
F0.4373976810034329
sg10
F0.4954298336696773
ssI101
(dp111
g9
F0.3511864175189654
sg10
F0.2599825912135795
ssI102
(dp112
g9
F0.20815920158434187
sg10
F0.7995364201591585
ssI103
(dp113
g9
F0.4306733715648008
sg10
F0.6157383741541271
ssI104
(dp114
g9
F0.7659808460435265
sg10
F0.7188926878865958
ssI105
(dp115
g9
F0.8068738912829794
sg10
F0.3155154013125522
ssI106
(dp116
g9
F0.2958728032519957
sg10
F0.5348358250515017
ssI107
(dp117
g9
F0.7719673858730363
sg10
F0.20344928419858077
ssI108
(dp118
g9
F0.5501215636104541
sg10
F0.04994889536624014
ssI109
(dp119
g9
F0.8490146246916074
sg10
F0.11793565186109167
ssI110
(dp120
g9
F0.548560930071054
sg10
F0.9722298844432952
ssI111
(dp121
g9
F0.7024422026725882
sg10
F0.27800316229837885
ssI112
(dp122
g9
F0.1584984701957104
sg10
F0.07416094860163991
ssI113
(dp123
g9
F0.2052126942853748
sg10
F0.1277346177887705
ssI114
(dp124
g9
F0.9787473183920846
sg10
F0.9383071357792098
ssI115
(dp125
g9
F0.26303644099742396
sg10
F0.44472502995065566
ssI116
(dp126
g9
F0.1852462405033326
sg10
F0.5903476262041795
ssI117
(dp127
g9
F0.17134686330498383
sg10
F0.23317447520780554
ssI118
(dp128
g9
F0.9218975127743008
sg10
F0.18952058276113837
ssI119
(dp129
g9
F0.8272346091539897
sg10
F0.8177694855647158
ssI120
(dp130
g9
F0.9352414172096127
sg10
F0.06102666935038992
ssI121
(dp131
g9
F0.5165718869242397
sg10
F0.5200394493815826
ssI122
(dp132
g9
F0.40266534506442997
sg10
F0.10320130140639217
ssI123
(dp133
g9
F0.2009015425415861
sg10
F0.22166563323875843
ssI124
(dp134
g9
F0.46315414387586984
sg10
F0.12859601539830057
ssI125
(dp135
g9
F0.8802598695012167
sg10
F0.9879876149184559
ssI126
(dp136
g9
F0.7359919827615503
sg10
F0.09212116802656156
ssI127
(dp137
g9
F0.5902195861944536
sg10
F0.7984220603165966
ssI128
(dp138
g9
F0.11195821286294938
sg10
F0.9738412016384039
ssI129
(dp139
g9
F0.711184072291416
sg10
F0.3275692391833034
ssI130
(dp140
g9
F0.6655793903677395
sg10
F0.920119284980165
ssI131
(dp141
g9
F0.45372888400434896
sg10
F0.31729962828065694
ssI132
(dp142
g9
F0.9095598261450797
sg10
F0.38385173587747734
ssI133
(dp143
g9
F0.7374426036911167
sg10
F0.1847692873316381
ssI134
(dp144
g9
F0.10190106042665636
sg10
F0.9708052152344414
ssI135
(dp145
g9
F0.3622252608283122
sg10
F0.1789430712464467
ssI136
(dp146
g9
F0.7821062612151969
sg10
F0.008806957447003994
ssI137
(dp147
g9
F0.9508125810346643
sg10
F0.2892617603997997
ssI138
(dp148
g9
F0.9034899846398525
sg10
F0.5925260554735966
ssI139
(dp149
g9
F0.821232202487889
sg10
F0.48898450324741705
ssI140
(dp150
g9
F0.3222330895813147
sg10
F0.42080990339751234
ssI141
(dp151
g9
F0.723038065889788
sg10
F0.7958856705037968
ssI142
(dp152
g9
F0.6916455067200441
sg10
F0.7993778944416459
ssI143
(dp153
g9
F0.8588999980228768
sg10
F0.6074163669580697
ssI144
(dp154
g9
F0.6495943321812221
sg10
F0.6394913382318617
ssI145
(dp155
g9
F0.24972456893197903
sg10
F0.09647666838889202
ssI146
(dp156
g9
F0.5974674646785754
sg10
F0.5780424279575377
ssI147
(dp157
g9
F0.05970485802346748
sg10
F0.7578020693444597
ssI148
(dp158
g9
F0.2149272011900316
sg10
F0.461770887660213
ssI149
(dp159
g9
F0.8598905503249863
sg10
F0.21339507506631872
ssI150
(dp160
g9
F0.1647512128271893
sg10
F0.9199701442864167
ssI151
(dp161
g9
F0.3415806982727114
sg10
F0.20800339632764997
ssI152
(dp162
g9
F0.914263379017522
sg10
F0.3563362417198602
ssI153
(dp163
g9
F0.04706694118693899
sg10
F0.7477767068370483
ssI154
(dp164
g9
F0.5961746753820655
sg10
F0.4069635864269693
ssI155
(dp165
g9
F0.33046029007919064
sg10
F0.9989043943651543
ssI156
(dp166
g9
F0.6012071708211456
sg10
F0.04179101186881107
ssI157
(dp167
g9
F0.9257671454521806
sg10
F0.18918306584954492
ssI158
(dp168
g9
F0.3886567503428202
sg10
F0.9997668896461069
ssI159
(dp169
g9
F0.12617854482449686
sg10
F0.9685537849305225
ssI160
(dp170
g9
F0.5379840868462595
sg10
F0.936131982166731
ssI161
(dp171
g9
F0.05457906099122323
sg10
F0.6392175315094609
ssI162
(dp172
g9
F0.9958146046498972
sg10
F0.5692630085554904
ssI163
(dp173
g9
F0.8389454275265095
sg10
F0.7260416266668591
ssI164
(dp174
g9
F0.3264225508609122
sg10
F0.6122192889766201
ssI165
(dp175
g9
F0.7271058215675302
sg10
F0.12549545229061831
ssI166
(dp176
g9
F0.8075433191200193
sg10
F0.680752907932254
ssI167
(dp177
g9
F0.6801326043289513
sg10
F0.8687629799697778
ssI168
(dp178
g9
F0.7602798393796812
sg10
F0.2018809737550329
ssI169
(dp179
g9
F0.09806862752161316
sg10
F0.421518271578067
ssI170
(dp180
g9
F0.8353642072766764
sg10
F0.9782016908028967
ssI171
(dp181
g9
F0.34576728236833976
sg10
F0.23665852263321552
ssI172
(dp182
g9
F0.1628504257697272
sg10
F0.5856615306449007
ssI173
(dp183
g9
F0.5894847618938741
sg10
F0.5632130823406718
ssI174
(dp184
g9
F0.47251232937369236
sg10
F0.14314481510425459
ssI175
(dp185
g9
F0.27300141548468937
sg10
F0.027694554715653963
ssI176
(dp186
g9
F0.967968399179148
sg10
F0.1586697006645832
ssI177
(dp187
g9
F0.21948308055757149
sg10
F0.75890097019941
ssI178
(dp188
g9
F0.4677302676065662
sg10
F0.5683106571235947
ssI179
(dp189
g9
F0.7671502547425069
sg10
F0.5996479565200203
ssI180
(dp190
g9
F0.3000407316074627
sg10
F0.45153606814635294
ssI181
(dp191
g9
F0.36419850055467917
sg10
F0.5384453845716455
ssI182
(dp192
g9
F0.4268143492963403
sg10
F0.9968985698391951
ssI183
(dp193
g9
F0.5869302779184189
sg10
F0.5173105990448699
ssI184
(dp194
g9
F0.6295605470309604
sg10
F0.32719313120633753
ssI185
(dp195
g9
F0.007834370510904076
sg10
F0.1906726502149575
ssI186
(dp196
g9
F0.2158175236515376
sg10
F0.8855711282593619
ssI187
(dp197
g9
F0.1010222462394782
sg10
F0.10059596749168354
ssI188
(dp198
g9
F0.7159310785699469
sg10
F0.5121652728269327
ssI189
(dp199
g9
F0.6888937307064446
sg10
F0.6146125577077023
ssI190
(dp200
g9
F0.08958502308091143
sg10
F0.7543958419059805
ssI191
(dp201
g9
F0.1930163856946715
sg10
F0.032726262117148686
ssI192
(dp202
g9
F0.7215715126708291
sg10
F0.7902443000780355
ssI193
(dp203
g9
F0.5554928296710817
sg10
F0.5064439864608012
ssI194
(dp204
g9
F0.2671822824087017
sg10
F0.03249252666776958
ssI195
(dp205
g9
F0.262198836179779
sg10
F0.354250777565254
ssI196
(dp206
g9
F0.9216433902940173
sg10
F0.6921735639162757
ssI197
(dp207
g9
F0.5104022296021585
sg10
F0.28243648545071176
ssI198
(dp208
g9
F0.7846389166659989
sg10
F0.3769969592289282
ssI199
(dp209
g9
F0.6884964606856652
sg10
F0.6502565057454956
ssI200
(dp210
g9
F0.32813441897448825
sg10
F0.649028030883655
ssI201
(dp211
g9
F0.15169614707371215
sg10
F0.5108331497721743
ssI202
(dp212
g9
F0.11517463356720026
sg10
F0.7577571611147805
ssI203
(dp213
g9
F0.405623115875688
sg10
F0.5621547766857887
ssI204
(dp214
g9
F0.8400594498751465
sg10
F0.14612936266329313
ssI205
(dp215
g9
F0.6105149928964163
sg10
F0.8993698860504425
ssI206
(dp216
g9
F0.15193549877136514
sg10
F0.6533266500059539
ssI207
(dp217
g9
F0.6330646333286042
sg10
F0.9400090797975101
ssI208
(dp218
g9
F0.9576486396753021
sg10
F0.8416975858567326
ssI209
(dp219
g9
F0.09184303777066893
sg10
F0.6081739140997349
ssI210
(dp220
g9
F0.3883632540865253
sg10
F0.7575879753828093
ssI211
(dp221
g9
F0.6908192369942078
sg10
F0.24983717863533972
ssI212
(dp222
g9
F0.4605638644578056
sg10
F0.4020472336424836
ssI213
(dp223
g9
F0.9586191203861082
sg10
F0.8515545953667164
ssI214
(dp224
g9
F0.6514041266832125
sg10
F0.8041836404956673
ssI215
(dp225
g9
F0.916573407090608
sg10
F0.8509261074702745
ssI216
(dp226
g9
F0.787981517860937
sg10
F0.1747115292639464
ssI217
(dp227
g9
F0.2991047406829006
sg10
F0.24334642510120497
ssI218
(dp228
g9
F0.07578548996631529
sg10
F0.6875573139885471
ssI219
(dp229
g9
F0.5873123662888339
sg10
F0.6873400750433813
ssI220
(dp230
g9
F0.3316811390753379
sg10
F0.5106353663832036
ssI221
(dp231
g9
F0.9602581742457307
sg10
F0.2645455695253127
ssI222
(dp232
g9
F0.9933512921160053
sg10
F0.25435733548544626
ssI223
(dp233
g9
F0.9220351529648261
sg10
F0.7479009891687638
ssI224
(dp234
g9
F0.8034748079118356
sg10
F0.5957251202662797
ssI225
(dp235
g9
F0.8021833462215853
sg10
F0.7763337014485543
ssI226
(dp236
g9
F0.07470476971622964
sg10
F0.13816699908394536
ssI227
(dp237
g9
F0.9314703575935358
sg10
F0.2268136257585487
ssI228
(dp238
g9
F0.27589460303657465
sg10
F0.015089102767396056
ssI229
(dp239
g9
F0.15866707571617977
sg10
F0.8791479819462745
ssI230
(dp240
g9
F0.5350812404465056
sg10
F0.0993747665858673
ssI231
(dp241
g9
F0.849418346882743
sg10
F0.020500706750872122
ssI232
(dp242
g9
F0.9117659632411997
sg10
F0.22946634379050468
ssI233
(dp243
g9
F0.49280836205940837
sg10
F0.5932260858685884
ssI234
(dp244
g9
F0.2177115565631057
sg10
F0.9546424741138457
ssI235
(dp245
g9
F0.389360762367047
sg10
F0.21656200938903258
ssI236
(dp246
g9
F0.6992663723863796
sg10
F0.9211854867340317
ssI237
(dp247
g9
F0.5290302918091156
sg10
F0.24813820970921996
ssI238
(dp248
g9
F0.46248615977156704
sg10
F0.28032825263571615
ssI239
(dp249
g9
F0.7634600432054913
sg10
F0.5007850003918753
ssI240
(dp250
g9
F0.9668527325289478
sg10
F0.15020180556306406
ssI241
(dp251
g9
F0.5006227073529861
sg10
F0.9893774921968348
ssI242
(dp252
g9
F0.34427994327432754
sg10
F0.6172967110456111
ssI243
(dp253
g9
F0.2153136334597906
sg10
F0.11446661436783745
ssI244
(dp254
g9
F0.5652422837715251
sg10
F0.883623851327492
ssI245
(dp255
g9
F0.30185852036820704
sg10
F0.25994918778835086
ssI246
(dp256
g9
F0.5087723427101537
sg10
F0.32376142300329425
ssI247
(dp257
g9
F0.9564872253328318
sg10
F0.6404607144713714
ssI248
(dp258
g9
F0.6317692051853667
sg10
F0.5274396165271082
ssI249
(dp259
g9
F0.03904222388698797
sg10
F0.05829361107638331
ssI250
(dp260
g9
F0.6868267646539491
sg10
F0.44664398699435737
ssI251
(dp261
g9
F0.09551333755059421
sg10
F0.32036342551228403
ssI252
(dp262
g9
F0.6073902045358979
sg10
F0.17137805210182067
ssI253
(dp263
g9
F0.33036265643923435
sg10
F0.8954909832943171
ssI254
(dp264
g9
F0.8228878824628468
sg10
F0.15704025912395125
ssI255
(dp265
g9
F0.3111433965792654
sg10
F0.9503445080293033
ssI256
(dp266
g9
F0.7196705791353784
sg10
F0.1596591231262785
ssI257
(dp267
g9
F0.4772605718125671
sg10
F0.8914653592499553
ssI258
(dp268
g9
F0.6361749223826751
sg10
F0.5161624386092916
ssI259
(dp269
g9
F0.31181527227625205
sg10
F0.7556408456662338
ssI260
(dp270
g9
F0.6849514520905079
sg10
F0.17836192016007546
ssI261
(dp271
g9
F0.5758294825542752
sg10
F0.33163621500817664
ssI262
(dp272
g9
F0.3118870202845808
sg10
F0.9140941586347382
ssI263
(dp273
g9
F0.19564236960656833
sg10
F0.061543781430317135
ssI264
(dp274
g9
F0.7353275545029835
sg10
F0.05029814113932274
ssI265
(dp275
g9
F0.5092676063770615
sg10
F0.2714782054224465
ssI266
(dp276
g9
F0.21169735387201705
sg10
F0.043780067712020476
ssI267
(dp277
g9
F0.5185850556169703
sg10
F0.961434597622471
ssI268
(dp278
g9
F0.7339079401054506
sg10
F0.6958845867089698
ssI269
(dp279
g9
F0.6056395539677218
sg10
F0.06006312388581925
ssI270
(dp280
g9
F0.6795234970642902
sg10
F0.054520847314150855
ssI271
(dp281
g9
F0.46481418390848783
sg10
F0.5272184982882369
ssI272
(dp282
g9
F0.6382872308169262
sg10
F0.8701959169239736
ssI273
(dp283
g9
F0.765339413022896
sg10
F0.679868672011083
ssI274
(dp284
g9
F0.7043146511492195
sg10
F0.8221425209763994
ssI275
(dp285
g9
F0.6771696933332216
sg10
F0.6905156184551405
ssI276
(dp286
g9
F0.028377920422597236
sg10
F0.5226970928029476
ssI277
(dp287
g9
F0.5985985003689189
sg10
F0.5491676530191614
ssI278
(dp288
g9
F0.6334580295381218
sg10
F0.9112406181006293
ssI279
(dp289
g9
F0.35095217525941713
sg10
F0.5540693768324508
ssI280
(dp290
g9
F0.25011748138739653
sg10
F0.384520706527793
ssI281
(dp291
g9
F0.33595881623293944
sg10
F0.7369225902585331
ssI282
(dp292
g9
F0.7851155684013282
sg10
F0.17193648431151864
ssI283
(dp293
g9
F0.4556533337420775
sg10
F0.5030591299117172
ssI284
(dp294
g9
F0.28344829650627823
sg10
F0.9647849969960179
ssI285
(dp295
g9
F0.4764810680370245
sg10
F0.6255935464807071
ssI286
(dp296
g9
F0.3653707195334198
sg10
F0.8405883295877232
ssI287
(dp297
g9
F0.2899251714867711
sg10
F0.9688959594953235
ssI288
(dp298
g9
F0.6413284288544037
sg10
F0.35196341419920985
ssI289
(dp299
g9
F0.7909998428122584
sg10
F0.5849148271316531
ssI290
(dp300
g9
F0.6073834061037602
sg10
F0.6688838341216896
ssI291
(dp301
g9
F0.5183278266963057
sg10
F0.22849889475100882
ssI292
(dp302
g9
F0.7475620748439296
sg10
F0.1229303772273379
ssI293
(dp303
g9
F0.463178778188421
sg10
F0.5764391327057378
ssI294
(dp304
g9
F0.10932753331067102
sg10
F0.2574012609994373
ssI295
(dp305
g9
F0.25951495005212877
sg10
F0.05127003582537171
ssI296
(dp306
g9
F0.631715245915473
sg10
F0.918396424034945
ssI297
(dp307
g9
F0.3658621208878
sg10
F0.09185006221433645
ssI298
(dp308
g9
F0.7238955907579194
sg10
F0.6041439788798325
ssI299
(dp309
g9
F0.31879740517759236
sg10
F0.29853741031213954
ssI300
(dp310
g9
F0.2464305283147521
sg10
F0.683887340866755
ssI301
(dp311
g9
F0.08257093931390191
sg10
F0.8673942556387683
ssI302
(dp312
g9
F0.335123346180066
sg10
F0.5954188355484122
ssI303
(dp313
g9
F0.08538401734698708
sg10
F0.6520150121690059
ssI304
(dp314
g9
F0.6164143985674053
sg10
F0.7183738060054229
ssI305
(dp315
g9
F0.7394235862738868
sg10
F0.03006582029036997
ssI306
(dp316
g9
F0.6280309810649078
sg10
F0.9236095183413299
ssI307
(dp317
g9
F0.9195612759235302
sg10
F0.15196886680757582
ssI308
(dp318
g9
F0.7225303087199162
sg10
F0.9182467759693764
ssI309
(dp319
g9
F0.5661070154107405
sg10
F0.0345125560101327
ssI310
(dp320
g9
F0.03618964543954317
sg10
F0.5580790850237475
ssI311
(dp321
g9
F0.49297535638371526
sg10
F0.9682691243520748
ssI312
(dp322
g9
F0.653549499195002
sg10
F0.1291675783952817
ssI313
(dp323
g9
F0.15488484628984178
sg10
F0.9933369118656117
ssI314
(dp324
g9
F0.7071261952112611
sg10
F0.2831751424463166
ssI315
(dp325
g9
F0.024277357886261508
sg10
F0.6853608881812354
ssI316
(dp326
g9
F0.9172122433543564
sg10
F0.7445458761989263
ssI317
(dp327
g9
F0.5027725579237737
sg10
F0.6996072222673444
ssI318
(dp328
g9
F0.44023716931070556
sg10
F0.17424336314175282
ssI319
(dp329
g9
F0.4458488761246546
sg10
F0.5203100038085088
ssI320
(dp330
g9
F0.041809736525959096
sg10
F0.3956827658588439
ssI321
(dp331
g9
F0.8487581308922574
sg10
F0.5088907328993596
ssI322
(dp332
g9
F0.4809527713057643
sg10
F0.8218738481725256
ssI323
(dp333
g9
F0.19434396848103197
sg10
F0.586680540322468
ssI324
(dp334
g9
F0.4903844313930156
sg10
F0.06275680797362304
ssI325
(dp335
g9
F0.9692232447277618
sg10
F0.3115704761094332
ssI326
(dp336
g9
F0.1834208817737717
sg10
F0.942300409158001
ssI327
(dp337
g9
F0.5962860446019383
sg10
F0.7224598474484293
ssI328
(dp338
g9
F0.9874822728153996
sg10
F0.8245515935902968
ssI329
(dp339
g9
F0.44131751264046304
sg10
F0.29218942868436604
ssI330
(dp340
g9
F0.9301326760552798
sg10
F0.9134404250661805
ssI331
(dp341
g9
F0.22205514293087203
sg10
F0.6506827081543359
ssI332
(dp342
g9
F0.9048703377868104
sg10
F0.6845721526796914
ssI333
(dp343
g9
F0.7630621702998772
sg10
F0.20752372482475812
ssI334
(dp344
g9
F0.7965228737150366
sg10
F0.01650961910075932
ssI335
(dp345
g9
F0.2675575711298427
sg10
F0.9434601185614342
ssI336
(dp346
g9
F0.2609575485120458
sg10
F0.6296178876706494
ssI337
(dp347
g9
F0.12352735254557567
sg10
F0.20763417687340968
ssI338
(dp348
g9
F0.9256573705743907
sg10
F0.5185458069152457
ssI339
(dp349
g9
F0.1863287388876197
sg10
F0.28852312019631
ssI340
(dp350
g9
F0.7621493636426777
sg10
F0.5177317514340278
ssI341
(dp351
g9
F0.5706606443695544
sg10
F0.3326196675303187
ssI342
(dp352
g9
F0.18154598687800072
sg10
F0.11622551867204278
ssI343
(dp353
g9
F0.8844591492961082
sg10
F0.6920645745890011
ssI344
(dp354
g9
F0.9491312155140876
sg10
F0.8805131657352685
ssI345
(dp355
g9
F0.42291407940786585
sg10
F0.7923526591740173
ssI346
(dp356
g9
F0.9168255033510504
sg10
F0.3121245777810945
ssI347
(dp357
g9
F0.21086047757162274
sg10
F0.817228217182099
ssI348
(dp358
g9
F0.00841408492713902
sg10
F0.48485299972953666
ssI349
(dp359
g9
F0.4926166289585203
sg10
F0.7934358158309398
ssI350
(dp360
g9
F0.8288111679181422
sg10
F0.5891621610762073
ssI351
(dp361
g9
F0.10201226315763479
sg10
F0.30544064267565796
ssI352
(dp362
g9
F0.8650990290677208
sg10
F0.6294722428565536
ssI353
(dp363
g9
F0.8233466964869159
sg10
F0.31957957189022845
ssI354
(dp364
g9
F0.20949924286067612
sg10
F0.8972565854583944
ssI355
(dp365
g9
F0.03374242838806063
sg10
F0.7872447622838277
ssI356
(dp366
g9
F0.25164795851553867
sg10
F0.2167064442745793
ssI357
(dp367
g9
F0.04046820673773743
sg10
F0.5412294648023612
ssI358
(dp368
g9
F0.919115148173445
sg10
F0.5588086245418782
ssI359
(dp369
g9
F0.8019143204935147
sg10
F0.3667986719041324
ssI360
(dp370
g9
F0.008911954211627382
sg10
F0.6373364058517929
ssI361
(dp371
g9
F0.6270832446242981
sg10
F0.5307678512514299
ssI362
(dp372
g9
F0.6104542378658265
sg10
F0.6540095905678651
ssI363
(dp373
g9
F0.1569781111460299
sg10
F0.5524256167977053
ssI364
(dp374
g9
F0.719634789664329
sg10
F0.726352885346003
ssI365
(dp375
g9
F0.8881641195670449
sg10
F0.7392653076534045
ssI366
(dp376
g9
F0.3220444828391483
sg10
F0.7617801892744366
ssI367
(dp377
g9
F0.8062596160695271
sg10
F0.06970157796338294
ssI368
(dp378
g9
F0.5960415288751831
sg10
F0.893666117850936
ssI369
(dp379
g9
F0.6500666526395396
sg10
F0.2847489512575275
ssI370
(dp380
g9
F0.2856618398857712
sg10
F0.22597802687474933
ssI371
(dp381
g9
F0.2691265177361898
sg10
F0.6938918947192161
ssI372
(dp382
g9
F0.42786486705243365
sg10
F0.04947450764687933
ssI373
(dp383
g9
F0.7314482410674453
sg10
F0.23045690534918328
ssI374
(dp384
g9
F0.03838759646441825
sg10
F0.9506404969055092
ssI375
(dp385
g9
F0.9128398409972369
sg10
F0.5837284077525527
ssI376
(dp386
g9
F0.29510690664209627
sg10
F0.2946980597036799
ssI377
(dp387
g9
F0.5773490234610295
sg10
F0.8217217009987458
ssI378
(dp388
g9
F0.25710599007642454
sg10
F0.9576441410573701
ssI379
(dp389
g9
F0.6434222141158655
sg10
F0.3351279424677377
ssI380
(dp390
g9
F0.4727952616417147
sg10
F0.8459905285056802
ssI381
(dp391
g9
F0.7265949480061298
sg10
F0.47899959817245286
ssI382
(dp392
g9
F0.4048740974617542
sg10
F0.31273264412800583
ssI383
(dp393
g9
F0.5462670379951287
sg10
F0.30200836171792833
ssI384
(dp394
g9
F0.29798076647692673
sg10
F0.34417615308299787
ssI385
(dp395
g9
F0.44159143032715453
sg10
F0.2753043501785619
ssI386
(dp396
g9
F0.39459283202437323
sg10
F0.9965175662713149
ssI387
(dp397
g9
F0.02236564166009014
sg10
F0.7633173943554432
ssI388
(dp398
g9
F0.27776187704100663
sg10
F0.7727351789695237
ssI389
(dp399
g9
F0.4072587102610423
sg10
F0.398235974873711
ssI390
(dp400
g9
F0.5036621666770995
sg10
F0.022122078354783414
ssI391
(dp401
g9
F0.2592535300046509
sg10
F0.318693232299439
ssI392
(dp402
g9
F0.14021125379105204
sg10
F0.14509198768470555
ssI393
(dp403
g9
F0.7046080915446024
sg10
F0.12938778384822236
ssI394
(dp404
g9
F0.5760777943351788
sg10
F0.816035015818888
ssI395
(dp405
g9
F0.8505373145377647
sg10
F0.7295751437251361
ssI396
(dp406
g9
F0.6578062533495674
sg10
F0.16304475292064613
ssI397
(dp407
g9
F0.7076256394048083
sg10
F0.45357347341251064
ssI398
(dp408
g9
F0.07192061209553668
sg10
F0.7824965309674158
ssI399
(dp409
g9
F0.15041664624107765
sg10
F0.2533648242736387
ssI400
(dp410
g9
F0.12783422744106254
sg10
F0.10667799323265248
ssI401
(dp411
g9
F0.481591978288883
sg10
F0.06340680107030616
ssI402
(dp412
g9
F0.5670655037428097
sg10
F0.16809866867691858
ssI403
(dp413
g9
F0.676398686199002
sg10
F0.6051438369201079
ssI404
(dp414
g9
F0.8105753978556267
sg10
F0.5006888533777742
ssI405
(dp415
g9
F0.9127643656508002
sg10
F0.14031070689130754
ssI406
(dp416
g9
F0.6337345004845696
sg10
F0.26946122226418745
ssI407
(dp417
g9
F0.15803104868668727
sg10
F0.6235616199868781
ssI408
(dp418
g9
F0.284483379628791
sg10
F0.5153928300054965
ssI409
(dp419
g9
F0.656147940905654
sg10
F0.7253775282192569
ssI410
(dp420
g9
F0.8811209641186055
sg10
F0.3144072585920391
ssI411
(dp421
g9
F0.7137924494104261
sg10
F0.6872429060487912
ssI412
(dp422
g9
F0.1993768727786629
sg10
F0.7694709976589768
ssI413
(dp423
g9
F0.004324492396463597
sg10
F0.6370939818179101
ssI414
(dp424
g9
F0.7114520967856145
sg10
F0.5676885706006932
ssI415
(dp425
g9
F0.1453459167527713
sg10
F0.1752504123117531
ssI416
(dp426
g9
F0.5574116157414788
sg10
F0.3226349650525091
ssI417
(dp427
g9
F0.858315195469129
sg10
F0.17391074062476286
ssI418
(dp428
g9
F0.28756275551471466
sg10
F0.7223962125804433
ssI419
(dp429
g9
F0.8055086504866432
sg10
F0.7192096551123474
ssI420
(dp430
g9
F0.17759825618755531
sg10
F0.3061634037736065
ssI421
(dp431
g9
F0.7259347499684878
sg10
F0.07735988955608308
ssI422
(dp432
g9
F0.4766788176584038
sg10
F0.48500966017737834
ssI423
(dp433
g9
F0.6863463892416785
sg10
F0.8583457977402701
ssI424
(dp434
g9
F0.9847038104852173
sg10
F0.49525964800284306
ssI425
(dp435
g9
F0.5312444184461591
sg10
F0.5400927428211367
ssI426
(dp436
g9
F0.017586812741723024
sg10
F0.24801742535929894
ssI427
(dp437
g9
F0.3947633566082448
sg10
F0.5616643658634217
ssI428
(dp438
g9
F0.3394190508494005
sg10
F0.08212683698864376
ssI429
(dp439
g9
F0.6981905626051508
sg10
F0.8475717279089701
ssI430
(dp440
g9
F0.8977331960915207
sg10
F0.7969668212554252
ssI431
(dp441
g9
F0.1340884935919312
sg10
F0.5186877547941703
ssI432
(dp442
g9
F0.48814611511820905
sg10
F0.38000356292866033
ssI433
(dp443
g9
F0.0847772079777247
sg10
F0.7389943826174454
ssI434
(dp444
g9
F0.9334001495246863
sg10
F0.38776186504075694
ssI435
(dp445
g9
F0.8928511129333148
sg10
F0.15417046231924392
ssI436
(dp446
g9
F0.1488155676060008
sg10
F0.08581118243722319
ssI437
(dp447
g9
F0.09039881727659882
sg10
F0.4999005273264445
ssI438
(dp448
g9
F0.17500337567327762
sg10
F0.01469589937237259
ssI439
(dp449
g9
F0.5696743290556369
sg10
F0.2750886435204092
ssI440
(dp450
g9
F0.9106396668077175
sg10
F0.02399152255049386
ssI441
(dp451
g9
F0.6786619900708857
sg10
F0.654884312321801
ssI442
(dp452
g9
F0.34751297932277825
sg10
F0.9716027562475531
ssI443
(dp453
g9
F0.17337098033898513
sg10
F0.6142779994044297
ssI444
(dp454
g9
F0.24956676053523152
sg10
F0.6550929969942733
ssI445
(dp455
g9
F0.6145998742988478
sg10
F0.0419559968119545
ssI446
(dp456
g9
F0.7348119313412644
sg10
F0.30239154125620293
ssI447
(dp457
g9
F0.6065121000140291
sg10
F0.22027717533875923
ssI448
(dp458
g9
F0.49239311697786414
sg10
F0.9053012281847331
ssI449
(dp459
g9
F0.6052454264363584
sg10
F0.988845271021913
ssI450
(dp460
g9
F0.7692642868436398
sg10
F0.4999612027493392
ssI451
(dp461
g9
F0.7876997406400649
sg10
F0.810792504540278
ssI452
(dp462
g9
F0.34137882295122357
sg10
F0.0003272881825235885
ssI453
(dp463
g9
F0.15289590656407614
sg10
F0.6067366144547282
ssI454
(dp464
g9
F0.43912065264796507
sg10
F0.04939349065963983
ssI455
(dp465
g9
F0.22160959568651506
sg10
F0.10065376959322025
ssI456
(dp466
g9
F0.9936281097061607
sg10
F0.9666522284944982
ssI457
(dp467
g9
F0.5507014678878069
sg10
F0.40681560134505723
ssI458
(dp468
g9
F0.9369755137468098
sg10
F0.4961153070802843
ssI459
(dp469
g9
F0.8179513356123136
sg10
F0.8789002314924588
ssI460
(dp470
g9
F0.8805873849518838
sg10
F0.1769731701790095
ssI461
(dp471
g9
F0.1423055270542689
sg10
F0.07565628538987956
ssI462
(dp472
g9
F0.389000623892105
sg10
F0.5250171999549118
ssI463
(dp473
g9
F0.8867099919532924
sg10
F0.8865227418265146
ssI464
(dp474
g9
F0.10562554072106334
sg10
F0.01369613062836117
ssI465
(dp475
g9
F0.7694112206546475
sg10
F0.03157040933636146
ssI466
(dp476
g9
F0.07263650306247471
sg10
F0.3465790536455059
ssI467
(dp477
g9
F0.07308057830769621
sg10
F0.4070856432589066
ssI468
(dp478
g9
F0.5209116417093248
sg10
F0.9493541980760296
ssI469
(dp479
g9
F0.9847236107528643
sg10
F0.26738042805663786
ssI470
(dp480
g9
F0.3156508713587486
sg10
F0.7654478273699942
ssI471
(dp481
g9
F0.039843769621610736
sg10
F0.1661391090491513
ssI472
(dp482
g9
F0.6403127019721323
sg10
F0.513616810070271
ssI473
(dp483
g9
F0.33157726988294234
sg10
F0.6040973347457926
ssI474
(dp484
g9
F0.4444590678088529
sg10
F0.469573400459835
ssI475
(dp485
g9
F0.7011232334454536
sg10
F0.9383270369491836
ssI476
(dp486
g9
F0.17223040059259487
sg10
F0.5670530789431023
ssI477
(dp487
g9
F0.9828271138805648
sg10
F0.09330539586469577
ssI478
(dp488
g9
F0.994658334190117
sg10
F0.3154807190702731
ssI479
(dp489
g9
F0.004825696530308732
sg10
F0.24375741297233566
ssI480
(dp490
g9
F0.4986222360801129
sg10
F0.514935955474778
ssI481
(dp491
g9
F0.0006006353453571478
sg10
F0.49489598743797547
ssI482
(dp492
g9
F0.5431175455841694
sg10
F0.6078274272359899
ssI483
(dp493
g9
F0.7510736255833723
sg10
F0.6794608347929415
ssI484
(dp494
g9
F0.47886828411219806
sg10
F0.18356291884351017
ssI485
(dp495
g9
F0.36716288860016333
sg10
F0.3244545745688664
ssI486
(dp496
g9
F0.9572019886112824
sg10
F0.24435900185992587
ssI487
(dp497
g9
F0.7154494104178388
sg10
F0.05196339058210375
ssI488
(dp498
g9
F0.6147082646330987
sg10
F0.3282004649181528
ssI489
(dp499
g9
F0.9374224017404335
sg10
F0.01723336879038595
ssI490
(dp500
g9
F0.7785530699203905
sg10
F0.6726388229353859
ssI491
(dp501
g9
F0.7688592978923927
sg10
F0.8817113759903017
ssI492
(dp502
g9
F0.2650326763637476
sg10
F0.9647755927571493
ssI493
(dp503
g9
F0.8131657413489697
sg10
F0.026030591174195816
ssI494
(dp504
g9
F0.4937292586222426
sg10
F0.5857875039071498
ssI495
(dp505
g9
F0.11767149997381454
sg10
F0.05931310247773369
ssI496
(dp506
g9
F0.010316394499131687
sg10
F0.6830501652200472
ssI497
(dp507
g9
F0.17589638546879083
sg10
F0.8810562133516658
ssI498
(dp508
g9
F0.41914410409836844
sg10
F0.8854288404561069
ssI499
(dp509
g9
F0.9111916277942795
sg10
F0.3463251785487642
sssS'node_dict_factory'
p510
c__builtin__
dict
p511
sS'edge_attr_dict_factory'
p512
g511
sS'edge'
p513
(dp514
I0
(dp515
sI1
(dp516
sI2
(dp517
sI3
(dp518
sI4
(dp519
sI5
(dp520
sI6
(dp521
sI7
(dp522
sI8
(dp523
sI9
(dp524
sI10
(dp525
sI11
(dp526
sI12
(dp527
sI13
(dp528
sI14
(dp529
sI15
(dp530
sI16
(dp531
sI17
(dp532
sI18
(dp533
sI19
(dp534
sI20
(dp535
sI21
(dp536
sI22
(dp537
sI23
(dp538
sI24
(dp539
sI25
(dp540
sI26
(dp541
sI27
(dp542
sI28
(dp543
sI29
(dp544
sI30
(dp545
sI31
(dp546
sI32
(dp547
sI33
(dp548
sI34
(dp549
sI35
(dp550
sI36
(dp551
sI37
(dp552
sI38
(dp553
sI39
(dp554
sI40
(dp555
sI41
(dp556
sI42
(dp557
sI43
(dp558
sI44
(dp559
sI45
(dp560
sI46
(dp561
sI47
(dp562
sI48
(dp563
sI49
(dp564
sI50
(dp565
sI51
(dp566
sI52
(dp567
sI53
(dp568
sI54
(dp569
sI55
(dp570
sI56
(dp571
sI57
(dp572
sI58
(dp573
sI59
(dp574
sI60
(dp575
sI61
(dp576
sI62
(dp577
sI63
(dp578
sI64
(dp579
sI65
(dp580
sI66
(dp581
sI67
(dp582
sI68
(dp583
sI69
(dp584
sI70
(dp585
sI71
(dp586
sI72
(dp587
sI73
(dp588
sI74
(dp589
sI75
(dp590
sI76
(dp591
sI77
(dp592
sI78
(dp593
sI79
(dp594
sI80
(dp595
sI81
(dp596
sI82
(dp597
sI83
(dp598
sI84
(dp599
sI85
(dp600
sI86
(dp601
sI87
(dp602
sI88
(dp603
sI89
(dp604
sI90
(dp605
sI91
(dp606
sI92
(dp607
sI93
(dp608
sI94
(dp609
sI95
(dp610
sI96
(dp611
sI97
(dp612
sI98
(dp613
sI99
(dp614
sI100
(dp615
sI101
(dp616
sI102
(dp617
sI103
(dp618
sI104
(dp619
sI105
(dp620
sI106
(dp621
sI107
(dp622
sI108
(dp623
sI109
(dp624
sI110
(dp625
sI111
(dp626
sI112
(dp627
sI113
(dp628
sI114
(dp629
sI115
(dp630
sI116
(dp631
sI117
(dp632
sI118
(dp633
sI119
(dp634
sI120
(dp635
sI121
(dp636
sI122
(dp637
sI123
(dp638
sI124
(dp639
sI125
(dp640
sI126
(dp641
sI127
(dp642
sI128
(dp643
sI129
(dp644
sI130
(dp645
sI131
(dp646
sI132
(dp647
sI133
(dp648
sI134
(dp649
sI135
(dp650
sI136
(dp651
sI137
(dp652
sI138
(dp653
sI139
(dp654
sI140
(dp655
sI141
(dp656
sI142
(dp657
sI143
(dp658
sI144
(dp659
sI145
(dp660
sI146
(dp661
sI147
(dp662
sI148
(dp663
sI149
(dp664
sI150
(dp665
sI151
(dp666
sI152
(dp667
sI153
(dp668
sI154
(dp669
sI155
(dp670
sI156
(dp671
sI157
(dp672
sI158
(dp673
sI159
(dp674
sI160
(dp675
sI161
(dp676
sI162
(dp677
sI163
(dp678
sI164
(dp679
sI165
(dp680
sI166
(dp681
sI167
(dp682
sI168
(dp683
sI169
(dp684
sI170
(dp685
sI171
(dp686
sI172
(dp687
sI173
(dp688
sI174
(dp689
sI175
(dp690
sI176
(dp691
sI177
(dp692
sI178
(dp693
sI179
(dp694
sI180
(dp695
sI181
(dp696
sI182
(dp697
sI183
(dp698
sI184
(dp699
sI185
(dp700
sI186
(dp701
sI187
(dp702
sI188
(dp703
sI189
(dp704
sI190
(dp705
sI191
(dp706
sI192
(dp707
sI193
(dp708
sI194
(dp709
sI195
(dp710
sI196
(dp711
sI197
(dp712
sI198
(dp713
sI199
(dp714
sI200
(dp715
sI201
(dp716
sI202
(dp717
sI203
(dp718
sI204
(dp719
sI205
(dp720
sI206
(dp721
sI207
(dp722
sI208
(dp723
sI209
(dp724
sI210
(dp725
sI211
(dp726
sI212
(dp727
sI213
(dp728
sI214
(dp729
sI215
(dp730
sI216
(dp731
sI217
(dp732
sI218
(dp733
sI219
(dp734
sI220
(dp735
sI221
(dp736
sI222
(dp737
sI223
(dp738
sI224
(dp739
sI225
(dp740
sI226
(dp741
sI227
(dp742
sI228
(dp743
sI229
(dp744
sI230
(dp745
sI231
(dp746
sI232
(dp747
sI233
(dp748
sI234
(dp749
sI235
(dp750
sI236
(dp751
sI237
(dp752
sI238
(dp753
sI239
(dp754
sI240
(dp755
sI241
(dp756
sI242
(dp757
sI243
(dp758
sI244
(dp759
sI245
(dp760
sI246
(dp761
sI247
(dp762
sI248
(dp763
sI249
(dp764
sI250
(dp765
sI251
(dp766
sI252
(dp767
sI253
(dp768
sI254
(dp769
sI255
(dp770
sI256
(dp771
sI257
(dp772
sI258
(dp773
sI259
(dp774
sI260
(dp775
sI261
(dp776
sI262
(dp777
sI263
(dp778
sI264
(dp779
sI265
(dp780
sI266
(dp781
sI267
(dp782
sI268
(dp783
sI269
(dp784
sI270
(dp785
sI271
(dp786
sI272
(dp787
sI273
(dp788
sI274
(dp789
sI275
(dp790
sI276
(dp791
sI277
(dp792
sI278
(dp793
sI279
(dp794
sI280
(dp795
sI281
(dp796
sI282
(dp797
sI283
(dp798
sI284
(dp799
sI285
(dp800
sI286
(dp801
sI287
(dp802
sI288
(dp803
sI289
(dp804
sI290
(dp805
sI291
(dp806
sI292
(dp807
sI293
(dp808
sI294
(dp809
sI295
(dp810
sI296
(dp811
sI297
(dp812
sI298
(dp813
sI299
(dp814
sI300
(dp815
sI301
(dp816
sI302
(dp817
sI303
(dp818
sI304
(dp819
sI305
(dp820
sI306
(dp821
sI307
(dp822
sI308
(dp823
sI309
(dp824
sI310
(dp825
sI311
(dp826
sI312
(dp827
sI313
(dp828
sI314
(dp829
sI315
(dp830
sI316
(dp831
sI317
(dp832
sI318
(dp833
sI319
(dp834
sI320
(dp835
sI321
(dp836
sI322
(dp837
sI323
(dp838
sI324
(dp839
sI325
(dp840
sI326
(dp841
sI327
(dp842
sI328
(dp843
sI329
(dp844
sI330
(dp845
sI331
(dp846
sI332
(dp847
sI333
(dp848
sI334
(dp849
sI335
(dp850
sI336
(dp851
sI337
(dp852
sI338
(dp853
sI339
(dp854
sI340
(dp855
sI341
(dp856
sI342
(dp857
sI343
(dp858
sI344
(dp859
sI345
(dp860
sI346
(dp861
sI347
(dp862
sI348
(dp863
sI349
(dp864
sI350
(dp865
sI351
(dp866
sI352
(dp867
sI353
(dp868
sI354
(dp869
sI355
(dp870
sI356
(dp871
sI357
(dp872
sI358
(dp873
sI359
(dp874
sI360
(dp875
sI361
(dp876
sI362
(dp877
sI363
(dp878
sI364
(dp879
sI365
(dp880
sI366
(dp881
sI367
(dp882
sI368
(dp883
sI369
(dp884
sI370
(dp885
sI371
(dp886
sI372
(dp887
sI373
(dp888
sI374
(dp889
sI375
(dp890
sI376
(dp891
sI377
(dp892
sI378
(dp893
sI379
(dp894
sI380
(dp895
sI381
(dp896
sI382
(dp897
sI383
(dp898
sI384
(dp899
sI385
(dp900
sI386
(dp901
sI387
(dp902
sI388
(dp903
sI389
(dp904
sI390
(dp905
sI391
(dp906
sI392
(dp907
sI393
(dp908
sI394
(dp909
sI395
(dp910
sI396
(dp911
sI397
(dp912
sI398
(dp913
sI399
(dp914
sI400
(dp915
sI401
(dp916
sI402
(dp917
sI403
(dp918
sI404
(dp919
sI405
(dp920
sI406
(dp921
sI407
(dp922
sI408
(dp923
sI409
(dp924
sI410
(dp925
sI411
(dp926
sI412
(dp927
sI413
(dp928
sI414
(dp929
sI415
(dp930
sI416
(dp931
sI417
(dp932
sI418
(dp933
sI419
(dp934
sI420
(dp935
sI421
(dp936
sI422
(dp937
sI423
(dp938
sI424
(dp939
sI425
(dp940
sI426
(dp941
sI427
(dp942
sI428
(dp943
sI429
(dp944
sI430
(dp945
sI431
(dp946
sI432
(dp947
sI433
(dp948
sI434
(dp949
sI435
(dp950
sI436
(dp951
sI437
(dp952
sI438
(dp953
sI439
(dp954
sI440
(dp955
sI441
(dp956
sI442
(dp957
sI443
(dp958
sI444
(dp959
sI445
(dp960
sI446
(dp961
sI447
(dp962
sI448
(dp963
sI449
(dp964
sI450
(dp965
sI451
(dp966
sI452
(dp967
sI453
(dp968
sI454
(dp969
sI455
(dp970
sI456
(dp971
sI457
(dp972
sI458
(dp973
sI459
(dp974
sI460
(dp975
sI461
(dp976
sI462
(dp977
sI463
(dp978
sI464
(dp979
sI465
(dp980
sI466
(dp981
sI467
(dp982
sI468
(dp983
sI469
(dp984
sI470
(dp985
sI471
(dp986
sI472
(dp987
sI473
(dp988
sI474
(dp989
sI475
(dp990
sI476
(dp991
sI477
(dp992
sI478
(dp993
sI479
(dp994
sI480
(dp995
sI481
(dp996
sI482
(dp997
sI483
(dp998
sI484
(dp999
sI485
(dp1000
sI486
(dp1001
sI487
(dp1002
sI488
(dp1003
sI489
(dp1004
sI490
(dp1005
sI491
(dp1006
sI492
(dp1007
sI493
(dp1008
sI494
(dp1009
sI495
(dp1010
sI496
(dp1011
sI497
(dp1012
sI498
(dp1013
sI499
(dp1014
ssS'graph'
p1015
(dp1016
sS'adjlist_dict_factory'
p1017
g511
sS'adj'
p1018
g514
sb.