ccopy_reg
_reconstructor
p0
(cnetworkx.classes.graph
Graph
p1
c__builtin__
object
p2
Ntp3
Rp4
(dp5
S'node'
p6
(dp7
I0
(dp8
S'pos_x'
p9
F0.701923555574997
sS'pos_y'
p10
F0.43975637048380134
ssI1
(dp11
g9
F0.6209700384251942
sg10
F0.7186759461901271
ssI2
(dp12
g9
F0.036514023172033006
sg10
F0.691862812233115
ssI3
(dp13
g9
F0.6934946361545244
sg10
F0.061866456397069
ssI4
(dp14
g9
F0.8847386402342057
sg10
F0.716114077031983
ssI5
(dp15
g9
F0.02592674309482268
sg10
F0.902757888746154
ssI6
(dp16
g9
F0.007620324684270319
sg10
F0.6004510485819982
ssI7
(dp17
g9
F0.2583362035603445
sg10
F0.07975034405996673
ssI8
(dp18
g9
F0.2825715180574895
sg10
F0.39857154399191397
ssI9
(dp19
g9
F0.3629390069031677
sg10
F0.8816180978231378
ssI10
(dp20
g9
F0.5908656827529852
sg10
F0.8134755421783977
ssI11
(dp21
g9
F0.34945746740353123
sg10
F0.7513469854663578
ssI12
(dp22
g9
F0.05997352695756519
sg10
F0.4850580008128126
ssI13
(dp23
g9
F0.07524880586432914
sg10
F0.9041317998926592
ssI14
(dp24
g9
F0.6097300837813364
sg10
F0.1154008321691612
ssI15
(dp25
g9
F0.7730431419253976
sg10
F0.6766955051591975
ssI16
(dp26
g9
F0.6457730742238211
sg10
F0.02233745842294177
ssI17
(dp27
g9
F0.19369559560564142
sg10
F0.7574495005135132
ssI18
(dp28
g9
F0.30641258899278523
sg10
F0.9159536341215494
ssI19
(dp29
g9
F0.925418147560828
sg10
F0.1443661300821214
ssI20
(dp30
g9
F0.1576464419966921
sg10
F0.441211476573412
ssI21
(dp31
g9
F0.27627044309156223
sg10
F0.3484324343010312
ssI22
(dp32
g9
F0.7462066942224532
sg10
F0.584587866530336
ssI23
(dp33
g9
F0.5596590096181453
sg10
F0.9104872964960556
ssI24
(dp34
g9
F0.19578192893411273
sg10
F0.8024210769553147
ssI25
(dp35
g9
F0.27798826482601147
sg10
F0.21304424805443078
ssI26
(dp36
g9
F0.17085477188808118
sg10
F0.5707406069305607
ssI27
(dp37
g9
F0.8441466216743527
sg10
F0.33950435266175727
ssI28
(dp38
g9
F0.3695714196883916
sg10
F0.6530633501346935
ssI29
(dp39
g9
F0.9400809370608253
sg10
F0.8548808150757495
ssI30
(dp40
g9
F0.9679370952920353
sg10
F0.5390636580299729
ssI31
(dp41
g9
F0.3437753608953492
sg10
F0.8662015323441618
ssI32
(dp42
g9
F0.5965031566866402
sg10
F0.47978901097564075
ssI33
(dp43
g9
F0.4011782162498667
sg10
F0.7423958343967121
ssI34
(dp44
g9
F0.3481053243770389
sg10
F0.02822481292045287
ssI35
(dp45
g9
F0.30097069049855385
sg10
F0.23065630571016593
ssI36
(dp46
g9
F0.11148973251400607
sg10
F0.23934078242117396
ssI37
(dp47
g9
F0.8634115631756435
sg10
F0.045642330249689556
ssI38
(dp48
g9
F0.5556328825104242
sg10
F0.7111145063235341
ssI39
(dp49
g9
F0.5659772698708871
sg10
F0.742634871094647
ssI40
(dp50
g9
F0.6675041326570219
sg10
F0.5783111812781869
ssI41
(dp51
g9
F0.4795369864445128
sg10
F0.8748593522053929
ssI42
(dp52
g9
F0.7323052713703485
sg10
F0.10170495457960937
ssI43
(dp53
g9
F0.9631604074735459
sg10
F0.03681123888780302
ssI44
(dp54
g9
F0.9141864823137898
sg10
F0.18931546970857827
ssI45
(dp55
g9
F0.25448141000086666
sg10
F0.9418382856162391
ssI46
(dp56
g9
F0.3084467795777859
sg10
F0.6207736149552918
ssI47
(dp57
g9
F0.9443458308734368
sg10
F0.6556815364781439
ssI48
(dp58
g9
F0.7065051423176467
sg10
F0.4285445539657784
ssI49
(dp59
g9
F0.4598461124455545
sg10
F0.8637371147356211
ssI50
(dp60
g9
F0.03299744897472978
sg10
F0.6684511352594456
ssI51
(dp61
g9
F0.4013582606065417
sg10
F0.6666145648702724
ssI52
(dp62
g9
F0.6046419891609851
sg10
F0.9703045142822444
ssI53
(dp63
g9
F0.15229992178010954
sg10
F0.23212328502867074
ssI54
(dp64
g9
F0.03311833452936386
sg10
F0.7601534535600257
ssI55
(dp65
g9
F0.013276001657824943
sg10
F0.2352960731466781
ssI56
(dp66
g9
F0.5690501647828993
sg10
F0.3676012381484689
ssI57
(dp67
g9
F0.5458458111225939
sg10
F0.3893647233687185
ssI58
(dp68
g9
F0.35558334132857294
sg10
F0.10611943341805607
ssI59
(dp69
g9
F0.5119782207676993
sg10
F0.5791238271749792
ssI60
(dp70
g9
F0.6789230690436564
sg10
F0.3569075254112781
ssI61
(dp71
g9
F0.8983413492205288
sg10
F0.44672611723687916
ssI62
(dp72
g9
F0.5770087436623393
sg10
F0.6702760942193146
ssI63
(dp73
g9
F0.6079766240773115
sg10
F0.15011321437508351
ssI64
(dp74
g9
F0.8773752678544668
sg10
F0.2832200694718664
ssI65
(dp75
g9
F0.16588457510956012
sg10
F0.2974723255596424
ssI66
(dp76
g9
F0.27959628860925445
sg10
F0.18254781667755526
ssI67
(dp77
g9
F0.11516205675727209
sg10
F0.6469022911932616
ssI68
(dp78
g9
F0.6578729400245675
sg10
F0.14022688025092367
ssI69
(dp79
g9
F0.27237502113393364
sg10
F0.6788832664892062
ssI70
(dp80
g9
F0.9219245637901854
sg10
F0.9143188640227056
ssI71
(dp81
g9
F0.6812769822896811
sg10
F0.09048864693472691
ssI72
(dp82
g9
F0.5531732303910644
sg10
F0.2259742501535581
ssI73
(dp83
g9
F0.10639627632474147
sg10
F0.4570305388453003
ssI74
(dp84
g9
F0.5210021177263747
sg10
F0.7243102047775508
ssI75
(dp85
g9
F0.3598073252375571
sg10
F0.5791514149916596
ssI76
(dp86
g9
F0.4746819877487738
sg10
F0.71388179751953
ssI77
(dp87
g9
F0.16644905200489324
sg10
F0.5081385440230557
ssI78
(dp88
g9
F0.7115651403135989
sg10
F0.8082941826172569
ssI79
(dp89
g9
F0.7561967671900065
sg10
F0.22749867805715152
ssI80
(dp90
g9
F0.22919709661609333
sg10
F0.10714058573260021
ssI81
(dp91
g9
F0.9293777466087252
sg10
F0.3598636540193917
ssI82
(dp92
g9
F0.25897135398515736
sg10
F0.10423001367647877
ssI83
(dp93
g9
F0.07391399941086052
sg10
F0.9489225671989807
ssI84
(dp94
g9
F0.6542792003241408
sg10
F0.973538409255447
ssI85
(dp95
g9
F0.4665215130345456
sg10
F0.9712305674205539
ssI86
(dp96
g9
F0.6347215692619499
sg10
F0.8843286517820128
ssI87
(dp97
g9
F0.6423967210977876
sg10
F0.5815651878664437
ssI88
(dp98
g9
F0.03836413817014661
sg10
F0.9703200377496416
ssI89
(dp99
g9
F0.3361856203101645
sg10
F0.6548922758468978
ssI90
(dp100
g9
F0.07150637291728357
sg10
F0.41534971274579446
ssI91
(dp101
g9
F0.43999111006880953
sg10
F0.44779272483700494
ssI92
(dp102
g9
F0.9748247628035204
sg10
F0.1037427061529258
ssI93
(dp103
g9
F0.030641313390974867
sg10
F0.9415420270096666
ssI94
(dp104
g9
F0.08887452369891857
sg10
F0.9148194474269764
ssI95
(dp105
g9
F0.19406721259333592
sg10
F0.5766450265398352
ssI96
(dp106
g9
F0.7854139822966018
sg10
F0.2732595124956424
ssI97
(dp107
g9
F0.39045344266365334
sg10
F0.7855487224402995
ssI98
(dp108
g9
F0.828330382448336
sg10
F0.9802128123799503
ssI99
(dp109
g9
F0.8676399551822707
sg10
F0.5767922213723212
ssI100
(dp110
g9
F0.3827758737427044
sg10
F0.016735495567351544
ssI101
(dp111
g9
F0.7261795528322487
sg10
F0.28341309875104337
ssI102
(dp112
g9
F0.4301037272821455
sg10
F0.7630660469837166
ssI103
(dp113
g9
F0.6851876827626546
sg10
F0.3480683785776908
ssI104
(dp114
g9
F0.8184010800673492
sg10
F0.8100038813543765
ssI105
(dp115
g9
F0.8237687302026373
sg10
F0.08582332330227282
ssI106
(dp116
g9
F0.35503179290529707
sg10
F0.4176870908138748
ssI107
(dp117
g9
F0.5155822994830815
sg10
F0.387146450147306
ssI108
(dp118
g9
F0.26557143244311276
sg10
F0.5813023046274497
ssI109
(dp119
g9
F0.07497688771833833
sg10
F0.18695590270140705
ssI110
(dp120
g9
F0.623104425385905
sg10
F0.8567627977352652
ssI111
(dp121
g9
F0.5075923184259571
sg10
F0.23925354901778706
ssI112
(dp122
g9
F0.02291334314965099
sg10
F0.47307971655931547
ssI113
(dp123
g9
F0.31764057409934354
sg10
F0.5156332034662907
ssI114
(dp124
g9
F0.6249556298705313
sg10
F0.5321485047778214
ssI115
(dp125
g9
F0.17439577660229477
sg10
F0.44707906973305855
ssI116
(dp126
g9
F0.17213259562987882
sg10
F0.982252085330797
ssI117
(dp127
g9
F0.36060460557859664
sg10
F0.5071937286280198
ssI118
(dp128
g9
F0.18510319262566122
sg10
F0.03200735458755677
ssI119
(dp129
g9
F0.5182377656978511
sg10
F0.9127875145903985
ssI120
(dp130
g9
F0.5446851724039212
sg10
F0.40995146152094586
ssI121
(dp131
g9
F0.8718386320429502
sg10
F0.45833713312871716
ssI122
(dp132
g9
F0.3326995764666826
sg10
F0.10297861020487498
ssI123
(dp133
g9
F0.7776133528780917
sg10
F0.7097116885749948
ssI124
(dp134
g9
F0.1482239327125917
sg10
F0.6990597379378334
ssI125
(dp135
g9
F0.783213699199784
sg10
F0.7286727619191756
ssI126
(dp136
g9
F0.012903997209576357
sg10
F0.45767846157088576
ssI127
(dp137
g9
F0.9519657115289899
sg10
F0.6622915644175926
ssI128
(dp138
g9
F0.8503821392629245
sg10
F0.25226295515866015
ssI129
(dp139
g9
F0.6289564125711953
sg10
F0.41186943787803343
ssI130
(dp140
g9
F0.9306969445890674
sg10
F0.965095651359562
ssI131
(dp141
g9
F0.30874250248707824
sg10
F0.2419141920490967
ssI132
(dp142
g9
F0.5513878319293091
sg10
F0.6288821643048512
ssI133
(dp143
g9
F0.7777324896617487
sg10
F0.10180564318741459
ssI134
(dp144
g9
F0.8530576636462616
sg10
F0.6337358296260701
ssI135
(dp145
g9
F0.07822565665275838
sg10
F0.15312744133302636
ssI136
(dp146
g9
F0.35788622784598745
sg10
F0.2984879666206477
ssI137
(dp147
g9
F0.314979417412498
sg10
F0.39216946170199996
ssI138
(dp148
g9
F0.045061006948771354
sg10
F0.5981500279929356
ssI139
(dp149
g9
F0.6476018904494422
sg10
F0.12767436786463882
ssI140
(dp150
g9
F0.794188881281041
sg10
F0.46370821393645034
ssI141
(dp151
g9
F0.5784349797493386
sg10
F0.21998188155251475
ssI142
(dp152
g9
F0.5872241726717737
sg10
F0.7033753392886108
ssI143
(dp153
g9
F0.6614633880164713
sg10
F0.21193348188332484
ssI144
(dp154
g9
F0.7972848394015654
sg10
F0.3865495655915828
ssI145
(dp155
g9
F0.7068029437969138
sg10
F0.4216411875591932
ssI146
(dp156
g9
F0.913987384584743
sg10
F0.922448824684174
ssI147
(dp157
g9
F0.5341515318922323
sg10
F0.8854660968992343
ssI148
(dp158
g9
F0.6576433919268556
sg10
F0.9194072798009559
ssI149
(dp159
g9
F0.34714548935855516
sg10
F0.5788194333698194
ssI150
(dp160
g9
F0.6437140864646862
sg10
F0.6777201504524946
ssI151
(dp161
g9
F0.7849569862772559
sg10
F0.3771604482503781
ssI152
(dp162
g9
F0.4756464617973911
sg10
F0.7396586007813943
ssI153
(dp163
g9
F0.058088155256129204
sg10
F0.7540334616384506
ssI154
(dp164
g9
F0.4329998410040128
sg10
F0.7801213026790974
ssI155
(dp165
g9
F0.32244061408427305
sg10
F0.35468632648273823
ssI156
(dp166
g9
F0.9828693628719648
sg10
F0.8163736542994762
ssI157
(dp167
g9
F0.443909764413021
sg10
F0.33867978890576267
ssI158
(dp168
g9
F0.877532495443769
sg10
F0.8568014349776428
ssI159
(dp169
g9
F0.20297354958542868
sg10
F0.5620616055942979
ssI160
(dp170
g9
F0.5731285167910227
sg10
F0.8134548103578597
ssI161
(dp171
g9
F0.9742023702102044
sg10
F0.4320875225300531
ssI162
(dp172
g9
F0.788134937643347
sg10
F0.5396706420076935
ssI163
(dp173
g9
F0.5755994507940859
sg10
F0.2796769097029598
ssI164
(dp174
g9
F0.5884941085070234
sg10
F0.8997582652079662
ssI165
(dp175
g9
F0.46804366809900555
sg10
F0.24058122172619867
ssI166
(dp176
g9
F0.3788440541691719
sg10
F0.3481156119594865
ssI167
(dp177
g9
F0.8739150214921414
sg10
F0.43900608152864906
ssI168
(dp178
g9
F0.25555401607319883
sg10
F0.5710728080638077
ssI169
(dp179
g9
F0.33848798884252884
sg10
F0.799868358555546
ssI170
(dp180
g9
F0.919690483003293
sg10
F0.6098970660310394
ssI171
(dp181
g9
F0.7418371963719371
sg10
F0.034850168059300746
ssI172
(dp182
g9
F0.658948536629132
sg10
F0.30669953415631246
ssI173
(dp183
g9
F0.4526120165086611
sg10
F0.20124958931519532
ssI174
(dp184
g9
F0.20983457854892518
sg10
F0.4164722705346118
ssI175
(dp185
g9
F0.03471095357804532
sg10
F0.959424825120918
ssI176
(dp186
g9
F0.757647622813336
sg10
F0.8630665648338569
ssI177
(dp187
g9
F0.9502588968982952
sg10
F0.39973652216575906
ssI178
(dp188
g9
F0.43943622887534006
sg10
F0.36518298911126257
ssI179
(dp189
g9
F0.7925728513996709
sg10
F0.6641697572035049
ssI180
(dp190
g9
F0.16034244961236266
sg10
F0.8800988992475106
ssI181
(dp191
g9
F0.1600415430657931
sg10
F0.22651935262998568
ssI182
(dp192
g9
F0.02173955665778826
sg10
F0.6393408829501717
ssI183
(dp193
g9
F0.680298613944013
sg10
F0.4978493818819981
ssI184
(dp194
g9
F0.9982891837239477
sg10
F0.7894160282843261
ssI185
(dp195
g9
F0.9207132980591274
sg10
F0.5389980058195991
ssI186
(dp196
g9
F0.33741841721633203
sg10
F0.7942373834373812
ssI187
(dp197
g9
F0.3487794763740891
sg10
F0.4424245645150817
ssI188
(dp198
g9
F0.3697699971118924
sg10
F0.17100896487988948
ssI189
(dp199
g9
F0.7969481527300877
sg10
F0.013616632680977125
ssI190
(dp200
g9
F0.0819860982264955
sg10
F0.6429555246844868
ssI191
(dp201
g9
F0.2861755872417707
sg10
F0.7075724726429471
ssI192
(dp202
g9
F0.9416019181444725
sg10
F0.7274923463742717
ssI193
(dp203
g9
F0.012429019656413076
sg10
F0.9019971699534748
ssI194
(dp204
g9
F0.4399250358708552
sg10
F0.43264630888665
ssI195
(dp205
g9
F0.05655972571345791
sg10
F0.119886624660269
ssI196
(dp206
g9
F0.506352232944966
sg10
F0.5811888768952215
ssI197
(dp207
g9
F0.2598619116283043
sg10
F0.7730362775667968
ssI198
(dp208
g9
F0.8620878659001612
sg10
F0.9671581155452277
ssI199
(dp209
g9
F0.47120410426357884
sg10
F0.5247697063578519
ssI200
(dp210
g9
F0.5403069776279138
sg10
F0.7739507005826807
ssI201
(dp211
g9
F0.7580365946336124
sg10
F0.3677905993167292
ssI202
(dp212
g9
F0.8157902738603277
sg10
F0.7324294711820545
ssI203
(dp213
g9
F0.621465880095733
sg10
F0.7414298281650819
ssI204
(dp214
g9
F0.4317104839893663
sg10
F0.8613632123450846
ssI205
(dp215
g9
F0.9149557350794952
sg10
F0.24809256643725963
ssI206
(dp216
g9
F0.7358885237016484
sg10
F0.9785553737135173
ssI207
(dp217
g9
F0.5116543797536515
sg10
F0.771389893827119
ssI208
(dp218
g9
F0.02875899577435026
sg10
F0.476955655307033
ssI209
(dp219
g9
F0.4624078778233184
sg10
F0.20351117611240743
ssI210
(dp220
g9
F0.6371929257162672
sg10
F0.9133789620323095
ssI211
(dp221
g9
F0.18511771628221074
sg10
F0.3825882373249314
ssI212
(dp222
g9
F0.8445120019090456
sg10
F0.17000326730616466
ssI213
(dp223
g9
F0.14492256669045422
sg10
F0.04319590450179134
ssI214
(dp224
g9
F0.5174503746749471
sg10
F0.5182588831603678
ssI215
(dp225
g9
F0.9051817300164762
sg10
F0.7629964290187309
ssI216
(dp226
g9
F0.28862471269103107
sg10
F0.13954559547733703
ssI217
(dp227
g9
F0.4118009436338128
sg10
F0.6171784120438366
ssI218
(dp228
g9
F0.9978099651495898
sg10
F0.960322703248305
ssI219
(dp229
g9
F0.4173122658073659
sg10
F0.6825515751464402
ssI220
(dp230
g9
F0.8129717788035281
sg10
F0.46023095732260333
ssI221
(dp231
g9
F0.28977527485542454
sg10
F0.4866521992892562
ssI222
(dp232
g9
F0.2637288366423126
sg10
F0.9515429052606922
ssI223
(dp233
g9
F0.4130180988306331
sg10
F0.2714358162559123
ssI224
(dp234
g9
F0.1698502015485006
sg10
F0.11000479412468622
ssI225
(dp235
g9
F0.06552271545847921
sg10
F0.16267569387994896
ssI226
(dp236
g9
F0.22383744134459438
sg10
F0.09779231239940123
ssI227
(dp237
g9
F0.6669189647848107
sg10
F0.31412012570208636
ssI228
(dp238
g9
F0.3720275967640946
sg10
F0.4439909810000906
ssI229
(dp239
g9
F0.8156049575490434
sg10
F0.8746747354860247
ssI230
(dp240
g9
F0.14972602556463321
sg10
F0.16668536548622992
ssI231
(dp241
g9
F0.19535857243259802
sg10
F0.796230985426551
ssI232
(dp242
g9
F0.6151207200494606
sg10
F0.6514220158261904
ssI233
(dp243
g9
F0.5739891665750141
sg10
F0.53247411817391
ssI234
(dp244
g9
F0.09677588402969795
sg10
F0.6333837936836118
ssI235
(dp245
g9
F0.31797037504498926
sg10
F0.7238688456549096
ssI236
(dp246
g9
F0.8068282455804101
sg10
F0.10057491238286353
ssI237
(dp247
g9
F0.09781664879366003
sg10
F0.17898366710361446
ssI238
(dp248
g9
F0.6551815036275669
sg10
F0.9365838498519876
ssI239
(dp249
g9
F0.4397779252672619
sg10
F0.48516247688618375
ssI240
(dp250
g9
F0.7889569172488184
sg10
F0.790012761517836
ssI241
(dp251
g9
F0.42477268083756115
sg10
F0.837544600190843
ssI242
(dp252
g9
F0.15459172999563242
sg10
F0.8766898891677295
ssI243
(dp253
g9
F0.48670778055396646
sg10
F0.07760257550048533
ssI244
(dp254
g9
F0.9010781677025322
sg10
F0.7905468900639498
ssI245
(dp255
g9
F0.14370844445314324
sg10
F0.04283811852309716
ssI246
(dp256
g9
F0.5543009273859765
sg10
F0.7874347662526306
ssI247
(dp257
g9
F0.3918000002902615
sg10
F0.6281947920187216
ssI248
(dp258
g9
F0.05116981052784142
sg10
F0.2304536092903079
ssI249
(dp259
g9
F0.9199367229939655
sg10
F0.8890152727686597
ssI250
(dp260
g9
F0.350374082924091
sg10
F0.010178502363185293
ssI251
(dp261
g9
F0.611764018974366
sg10
F0.05013044322592808
ssI252
(dp262
g9
F0.5048449480503713
sg10
F0.849834266262262
ssI253
(dp263
g9
F0.800499831678531
sg10
F0.32692684733022404
ssI254
(dp264
g9
F0.697510272429198
sg10
F0.10721307906631272
ssI255
(dp265
g9
F0.9833430635743171
sg10
F0.5333081122674337
ssI256
(dp266
g9
F0.15132438397576753
sg10
F0.7211143766710928
ssI257
(dp267
g9
F0.6460387601684596
sg10
F0.9628252997323522
ssI258
(dp268
g9
F0.8622659898202161
sg10
F0.5921581780840671
ssI259
(dp269
g9
F0.6360719422012925
sg10
F0.004985717672035039
ssI260
(dp270
g9
F0.24749968464595073
sg10
F0.654484388942541
ssI261
(dp271
g9
F0.3377375816490479
sg10
F0.5764295791655372
ssI262
(dp272
g9
F0.48283273456067966
sg10
F0.288860211193648
ssI263
(dp273
g9
F0.05237019148912181
sg10
F0.06090088451202358
ssI264
(dp274
g9
F0.8617751054137581
sg10
F0.6482554920109895
ssI265
(dp275
g9
F0.012113072993757967
sg10
F0.4380221224732128
ssI266
(dp276
g9
F0.8292499810139318
sg10
F0.08347606613703074
ssI267
(dp277
g9
F0.4711014394902877
sg10
F0.7157222137160006
ssI268
(dp278
g9
F0.1639863855664936
sg10
F0.2507434107135055
ssI269
(dp279
g9
F0.337730059694622
sg10
F0.6281108354297559
ssI270
(dp280
g9
F0.6935688617140453
sg10
F0.4211996349061108
ssI271
(dp281
g9
F0.942634864980782
sg10
F0.5982266606577663
ssI272
(dp282
g9
F0.5328290535669957
sg10
F0.9045559763537847
ssI273
(dp283
g9
F0.3907895665679548
sg10
F0.855394671040791
ssI274
(dp284
g9
F0.7434730222307395
sg10
F0.7978425436479734
ssI275
(dp285
g9
F0.17320069817092187
sg10
F0.006728243714531623
ssI276
(dp286
g9
F0.439310527957113
sg10
F0.4311063887750265
ssI277
(dp287
g9
F0.9227253081866781
sg10
F0.6612597458797508
ssI278
(dp288
g9
F0.12604110382830658
sg10
F0.8032866622481202
ssI279
(dp289
g9
F0.14632776165322436
sg10
F0.27463148615445687
ssI280
(dp290
g9
F0.421801491240803
sg10
F0.8046177503881278
ssI281
(dp291
g9
F0.6028709506954885
sg10
F0.8806299024199379
ssI282
(dp292
g9
F0.21269078430937505
sg10
F0.9971330603267892
ssI283
(dp293
g9
F0.35952651497086396
sg10
F0.8648525760772157
ssI284
(dp294
g9
F0.5847373297485802
sg10
F0.06025683257187331
ssI285
(dp295
g9
F0.46936818847955697
sg10
F0.24189465458465076
ssI286
(dp296
g9
F0.5046113008131294
sg10
F0.8902405667873187
ssI287
(dp297
g9
F0.5663617431265917
sg10
F0.7866992401703096
ssI288
(dp298
g9
F0.5107261398748456
sg10
F0.8961338004663784
ssI289
(dp299
g9
F0.9162877830901655
sg10
F0.7375919390534436
ssI290
(dp300
g9
F0.4077183037587271
sg10
F0.07700860761742201
ssI291
(dp301
g9
F0.7310070236573658
sg10
F0.36454768610379007
ssI292
(dp302
g9
F0.5105563887630683
sg10
F0.9743560661147252
ssI293
(dp303
g9
F0.42504349971943944
sg10
F0.02505179102432009
ssI294
(dp304
g9
F0.23847799607802822
sg10
F0.6327006383489544
ssI295
(dp305
g9
F0.35234482291895564
sg10
F0.6430445443388938
ssI296
(dp306
g9
F0.47736925514959405
sg10
F0.22270817926716935
ssI297
(dp307
g9
F0.656606817480027
sg10
F0.2525550013553316
ssI298
(dp308
g9
F0.16919205519667646
sg10
F0.2679858213468065
ssI299
(dp309
g9
F0.2852315682347073
sg10
F0.521054732441217
ssI300
(dp310
g9
F0.2043428089395931
sg10
F0.8816446162936022
ssI301
(dp311
g9
F0.2992818211355688
sg10
F0.22486536948713265
ssI302
(dp312
g9
F0.17429101497047494
sg10
F0.3528010490718736
ssI303
(dp313
g9
F0.5478667190451363
sg10
F0.6234656207948223
ssI304
(dp314
g9
F0.8436693580336757
sg10
F0.4397269735979855
ssI305
(dp315
g9
F0.3493493661856526
sg10
F0.4462119725632512
ssI306
(dp316
g9
F0.38606867877184703
sg10
F0.45534288234220244
ssI307
(dp317
g9
F0.21125745958659048
sg10
F0.4513227327777479
ssI308
(dp318
g9
F0.009904529481347346
sg10
F0.5468207448255994
ssI309
(dp319
g9
F0.9794452369199723
sg10
F0.01360967489086451
ssI310
(dp320
g9
F0.9246755051621491
sg10
F0.6515377319231267
ssI311
(dp321
g9
F0.3242763608828485
sg10
F0.49333149412851773
ssI312
(dp322
g9
F0.5788388044749746
sg10
F0.3216815659456854
ssI313
(dp323
g9
F0.08106482712558272
sg10
F0.316929819063384
ssI314
(dp324
g9
F0.12413282576201612
sg10
F0.2311128651687383
ssI315
(dp325
g9
F0.4656993968509816
sg10
F0.7701522348429373
ssI316
(dp326
g9
F0.46590431057776105
sg10
F0.6082177587037334
ssI317
(dp327
g9
F0.016143618314797048
sg10
F0.16029780049024256
ssI318
(dp328
g9
F0.019323401033466525
sg10
F0.34145290489722946
ssI319
(dp329
g9
F0.14641660483313734
sg10
F0.4948453222243976
ssI320
(dp330
g9
F0.40596442320477755
sg10
F0.7969432942574453
ssI321
(dp331
g9
F0.8073877525850703
sg10
F0.9530552694015146
ssI322
(dp332
g9
F0.958996510375326
sg10
F0.7706928921253139
ssI323
(dp333
g9
F0.2650879401669137
sg10
F0.3564975430697268
ssI324
(dp334
g9
F0.744809540399275
sg10
F0.05969895427621985
ssI325
(dp335
g9
F0.333191528300422
sg10
F0.985815275744068
ssI326
(dp336
g9
F0.6931315711396384
sg10
F0.5023966524833501
ssI327
(dp337
g9
F0.2917993066419452
sg10
F0.08594973373173742
ssI328
(dp338
g9
F0.962614131492163
sg10
F0.18495720944666127
ssI329
(dp339
g9
F0.5780061732589509
sg10
F0.19759143400702406
ssI330
(dp340
g9
F0.17895846997707154
sg10
F0.9842479871522564
ssI331
(dp341
g9
F0.4693757615499198
sg10
F0.06617258172898799
ssI332
(dp342
g9
F0.9640159331304753
sg10
F0.7004270266045781
ssI333
(dp343
g9
F0.6653075811840007
sg10
F0.9381370455548429
ssI334
(dp344
g9
F0.07661522950161714
sg10
F0.9083133894878729
ssI335
(dp345
g9
F0.6675376289150367
sg10
F0.7969656236470927
ssI336
(dp346
g9
F0.382605040350283
sg10
F0.29528051058690075
ssI337
(dp347
g9
F0.5398698578818719
sg10
F0.8100684963249631
ssI338
(dp348
g9
F0.19709432162049378
sg10
F0.19018000181445271
ssI339
(dp349
g9
F0.9440973697471571
sg10
F0.7198502261179535
ssI340
(dp350
g9
F0.3981884777493977
sg10
F0.3167079565420011
ssI341
(dp351
g9
F0.9309176022819367
sg10
F0.6812471745825909
ssI342
(dp352
g9
F0.059962719161801625
sg10
F0.7652595332621073
ssI343
(dp353
g9
F0.18891269144540324
sg10
F0.5887383733666307
ssI344
(dp354
g9
F0.381866137925549
sg10
F0.5314030923071525
ssI345
(dp355
g9
F0.2752894263161807
sg10
F0.6767353277664097
ssI346
(dp356
g9
F0.44308549714635526
sg10
F0.5572568639203275
ssI347
(dp357
g9
F0.14013294660140319
sg10
F0.6056758076272278
ssI348
(dp358
g9
F0.4417687913455972
sg10
F0.7617421368328644
ssI349
(dp359
g9
F0.19862005777987213
sg10
F0.20893939860201072
ssI350
(dp360
g9
F0.2558579396914279
sg10
F0.11332629079081369
ssI351
(dp361
g9
F0.12030412799831125
sg10
F0.34548117640968157
ssI352
(dp362
g9
F0.7762777569881877
sg10
F0.3410643725897643
ssI353
(dp363
g9
F0.27647622523853244
sg10
F0.23894387816538032
ssI354
(dp364
g9
F0.7734965024080844
sg10
F0.04460548881988824
ssI355
(dp365
g9
F0.525449230783967
sg10
F0.9605670097750917
ssI356
(dp366
g9
F0.6188601019223703
sg10
F0.7530159275628269
ssI357
(dp367
g9
F0.32772097389920607
sg10
F0.4282065669002728
ssI358
(dp368
g9
F0.8632899710324318
sg10
F0.963799287410174
ssI359
(dp369
g9
F0.4737215372218173
sg10
F0.06498643605490928
ssI360
(dp370
g9
F0.9028181332969143
sg10
F0.9890123680818902
ssI361
(dp371
g9
F0.9583090553103598
sg10
F0.37910591710475494
ssI362
(dp372
g9
F0.2568305548883829
sg10
F0.2382250483269296
ssI363
(dp373
g9
F0.40489902411264267
sg10
F0.6839617466573085
ssI364
(dp374
g9
F0.8980371191445337
sg10
F0.4814831900277453
ssI365
(dp375
g9
F0.011502876805091322
sg10
F0.4853728482862485
ssI366
(dp376
g9
F0.10910057333450818
sg10
F0.5726026333906752
ssI367
(dp377
g9
F0.6460116043954313
sg10
F0.35814908605674933
ssI368
(dp378
g9
F0.7190885438698255
sg10
F0.85045104093648
ssI369
(dp379
g9
F0.961055192834758
sg10
F0.3727191161928234
ssI370
(dp380
g9
F0.46050113146499283
sg10
F0.37861089155272576
ssI371
(dp381
g9
F0.9656594829764863
sg10
F0.15126995747607463
ssI372
(dp382
g9
F0.20533401559784048
sg10
F0.4246606259931719
ssI373
(dp383
g9
F0.09544519552395059
sg10
F0.43553720719477007
ssI374
(dp384
g9
F0.35651313868031476
sg10
F0.4761533004595091
ssI375
(dp385
g9
F0.49067881820297576
sg10
F0.8754527846344519
ssI376
(dp386
g9
F0.8341040037529784
sg10
F0.6948445956141783
ssI377
(dp387
g9
F0.7740722893298551
sg10
F0.4749920799085131
ssI378
(dp388
g9
F0.0011809436020285835
sg10
F0.2842102874149661
ssI379
(dp389
g9
F0.5454804051794884
sg10
F0.1603936348222914
ssI380
(dp390
g9
F0.8155081672450072
sg10
F0.024598467983191652
ssI381
(dp391
g9
F0.12400385370989331
sg10
F0.6434543648396017
ssI382
(dp392
g9
F0.043319703714601476
sg10
F0.23726860630993019
ssI383
(dp393
g9
F0.49598262594834264
sg10
F0.8234604820032584
ssI384
(dp394
g9
F0.32455333576861856
sg10
F0.13322907726142919
ssI385
(dp395
g9
F0.4943906846545193
sg10
F0.8972544241417787
ssI386
(dp396
g9
F0.4649901996098845
sg10
F0.5840857681696782
ssI387
(dp397
g9
F0.5959683812263629
sg10
F0.5003412970247192
ssI388
(dp398
g9
F0.01788989220787196
sg10
F0.6027070371476108
ssI389
(dp399
g9
F0.41407718838021335
sg10
F0.6412707799682668
ssI390
(dp400
g9
F0.9705138805434169
sg10
F0.35144526271163845
ssI391
(dp401
g9
F0.6794894784126385
sg10
F0.3397078150921313
ssI392
(dp402
g9
F0.6567880285514341
sg10
F0.32429266898834463
ssI393
(dp403
g9
F0.3946634868479364
sg10
F0.9381293915454443
ssI394
(dp404
g9
F0.1610177435852932
sg10
F0.5060816069725715
ssI395
(dp405
g9
F0.6706659578920138
sg10
F0.1770214259006384
ssI396
(dp406
g9
F0.33810947100744515
sg10
F0.6445375080322353
ssI397
(dp407
g9
F0.69828132980708
sg10
F0.4508164670503072
ssI398
(dp408
g9
F0.8729481754498866
sg10
F0.15191671247519734
ssI399
(dp409
g9
F0.9021931852485608
sg10
F0.3254358519313697
ssI400
(dp410
g9
F0.16121785219131046
sg10
F0.05421324400412908
ssI401
(dp411
g9
F0.02499691658439762
sg10
F0.8547274820207791
ssI402
(dp412
g9
F0.7541788946953774
sg10
F0.8530738552669037
ssI403
(dp413
g9
F0.8648179259231019
sg10
F0.26859220345456347
ssI404
(dp414
g9
F0.49423945307313244
sg10
F0.8796623001767343
ssI405
(dp415
g9
F0.41211872030017027
sg10
F0.8027541535556777
ssI406
(dp416
g9
F0.16353437853542918
sg10
F0.9527562353721771
ssI407
(dp417
g9
F0.3671316014361614
sg10
F0.4904060590806175
ssI408
(dp418
g9
F0.010064282615491638
sg10
F0.7393503434007666
ssI409
(dp419
g9
F0.4530229627042349
sg10
F0.8469343711848484
ssI410
(dp420
g9
F0.6640024032697465
sg10
F0.4019848135652918
ssI411
(dp421
g9
F0.5827621517119385
sg10
F0.7664099982367268
ssI412
(dp422
g9
F0.5121334217585173
sg10
F0.7470127144002842
ssI413
(dp423
g9
F0.7434534346144828
sg10
F0.99270615109817
ssI414
(dp424
g9
F0.5605765809634623
sg10
F0.7074398029430168
ssI415
(dp425
g9
F0.4630832398676178
sg10
F0.24501401040856885
ssI416
(dp426
g9
F0.7464654828640083
sg10
F0.6291711031949145
ssI417
(dp427
g9
F0.005404257742620433
sg10
F0.7532178791961679
ssI418
(dp428
g9
F0.11416641752528989
sg10
F0.5864068198303742
ssI419
(dp429
g9
F0.364092131220662
sg10
F0.7902107680035001
ssI420
(dp430
g9
F0.6084121392902303
sg10
F0.36002068141891896
ssI421
(dp431
g9
F0.9702913384727748
sg10
F0.4812193557358453
ssI422
(dp432
g9
F0.9700029399513013
sg10
F0.300582199998894
ssI423
(dp433
g9
F0.41774528465847216
sg10
F0.15722459023059931
ssI424
(dp434
g9
F0.6168557664143182
sg10
F0.9154206918060346
ssI425
(dp435
g9
F0.5310166783657959
sg10
F0.5316480606855526
ssI426
(dp436
g9
F0.36330965902264833
sg10
F0.8437767212608195
ssI427
(dp437
g9
F0.11833133021892384
sg10
F0.42026606364674235
ssI428
(dp438
g9
F0.23714068252702714
sg10
F0.7674910662172995
ssI429
(dp439
g9
F0.09195391575375633
sg10
F0.47530705325210787
ssI430
(dp440
g9
F0.07821202901780844
sg10
F0.32241016196337235
ssI431
(dp441
g9
F0.08805613379171051
sg10
F0.07370747928885513
ssI432
(dp442
g9
F0.02808925482407365
sg10
F0.6985110602199892
ssI433
(dp443
g9
F0.5289610731325612
sg10
F0.6067788197896821
ssI434
(dp444
g9
F0.9731919947628211
sg10
F0.9994817381093702
ssI435
(dp445
g9
F0.41982574209770773
sg10
F0.7276093469273555
ssI436
(dp446
g9
F0.19271321885194181
sg10
F0.24579225296156404
ssI437
(dp447
g9
F0.6960197592432339
sg10
F0.14550098702943837
ssI438
(dp448
g9
F0.15240683085732776
sg10
F0.8386596712326687
ssI439
(dp449
g9
F0.7558492220262445
sg10
F0.44770533626972797
ssI440
(dp450
g9
F0.5943387735249245
sg10
F0.3944947978298078
ssI441
(dp451
g9
F0.7900989786035664
sg10
F0.7281705377649216
ssI442
(dp452
g9
F0.009691890643379053
sg10
F0.0829948929213824
ssI443
(dp453
g9
F0.47252399862093175
sg10
F0.03088101189349879
ssI444
(dp454
g9
F0.9553550411042862
sg10
F0.043175544620838835
ssI445
(dp455
g9
F0.10258189949987284
sg10
F0.258974889203063
ssI446
(dp456
g9
F0.4138056197519955
sg10
F0.5080479604112141
ssI447
(dp457
g9
F0.34737151681951584
sg10
F0.047535050583498606
ssI448
(dp458
g9
F0.6168075379197641
sg10
F0.28527181737626384
ssI449
(dp459
g9
F0.3146137052282133
sg10
F0.6232036960152937
ssI450
(dp460
g9
F0.5709175249403609
sg10
F0.22627330675704493
ssI451
(dp461
g9
F0.0491912039492568
sg10
F0.687097541696851
ssI452
(dp462
g9
F0.24472962708007817
sg10
F0.8063177474549371
ssI453
(dp463
g9
F0.43546797795448766
sg10
F0.630497773642337
ssI454
(dp464
g9
F0.5507800896403339
sg10
F0.2719474982584039
ssI455
(dp465
g9
F0.19503489699423893
sg10
F0.8608120602212911
ssI456
(dp466
g9
F0.5038778689299218
sg10
F0.9354354244457459
ssI457
(dp467
g9
F0.24877991837732993
sg10
F0.8846706905284832
ssI458
(dp468
g9
F0.0274216185649222
sg10
F0.16568019736757822
ssI459
(dp469
g9
F0.8684040685282733
sg10
F0.23404813723902163
ssI460
(dp470
g9
F0.019719167334003807
sg10
F0.05380454707329896
ssI461
(dp471
g9
F0.08973715998595133
sg10
F0.5468390345699502
ssI462
(dp472
g9
F0.9897632019335276
sg10
F0.2772358757942187
ssI463
(dp473
g9
F0.8404389668876215
sg10
F0.2618845218251935
ssI464
(dp474
g9
F0.4081108687152154
sg10
F0.21431202027053986
ssI465
(dp475
g9
F0.8366371458797596
sg10
F0.2593003901242641
ssI466
(dp476
g9
F0.578853783940179
sg10
F0.8427736174214878
ssI467
(dp477
g9
F0.521814668544585
sg10
F0.9767161228932584
ssI468
(dp478
g9
F0.37966507307623476
sg10
F0.8115823918215304
ssI469
(dp479
g9
F0.14861282735957448
sg10
F0.7215567488550801
ssI470
(dp480
g9
F0.5955567845890248
sg10
F0.5126859053319682
ssI471
(dp481
g9
F0.2612858493572575
sg10
F0.8952695861932503
ssI472
(dp482
g9
F0.9795333370412015
sg10
F0.287449993891977
ssI473
(dp483
g9
F0.5310797322446218
sg10
F0.42745093484660523
ssI474
(dp484
g9
F0.3121853712744189
sg10
F0.9253331417849291
ssI475
(dp485
g9
F0.46203931076314664
sg10
F0.9147210553505545
ssI476
(dp486
g9
F0.05665132328242095
sg10
F0.46022428535595317
ssI477
(dp487
g9
F0.722858127379369
sg10
F0.2537079172397657
ssI478
(dp488
g9
F0.7207927646243122
sg10
F0.6283961177258633
ssI479
(dp489
g9
F0.25055705179480725
sg10
F0.39784545793466364
ssI480
(dp490
g9
F0.44285304147816185
sg10
F0.09844953894990671
ssI481
(dp491
g9
F0.14487708763864782
sg10
F0.19817179411004893
ssI482
(dp492
g9
F0.8660565679486111
sg10
F0.10114700344613914
ssI483
(dp493
g9
F0.7781798796064925
sg10
F0.7492621687241773
ssI484
(dp494
g9
F0.9179181521049934
sg10
F0.25019251787927066
ssI485
(dp495
g9
F0.8099307018494568
sg10
F0.3305953878327669
ssI486
(dp496
g9
F0.5327617065642973
sg10
F0.015413863421509633
ssI487
(dp497
g9
F0.8472872372579182
sg10
F0.0755223092656866
ssI488
(dp498
g9
F0.6652484614509685
sg10
F0.08781339432257129
ssI489
(dp499
g9
F0.19535137488140253
sg10
F0.5004031199732997
ssI490
(dp500
g9
F0.9305722037163244
sg10
F0.2352701236853556
ssI491
(dp501
g9
F0.6898648057665795
sg10
F0.28582278595739785
ssI492
(dp502
g9
F0.553179711981385
sg10
F0.2410354104506892
ssI493
(dp503
g9
F0.015274058656370215
sg10
F0.04875438667805587
ssI494
(dp504
g9
F0.0124732473840784
sg10
F0.3801595631525283
ssI495
(dp505
g9
F0.6452584715132588
sg10
F0.5106063112614324
ssI496
(dp506
g9
F0.6890454273608732
sg10
F0.964312398529245
ssI497
(dp507
g9
F0.9848585497764044
sg10
F0.6899126787014008
ssI498
(dp508
g9
F0.9496559029632352
sg10
F0.9725246621161378
ssI499
(dp509
g9
F0.2560529486018459
sg10
F0.5309543956127912
sssS'node_dict_factory'
p510
c__builtin__
dict
p511
sS'edge_attr_dict_factory'
p512
g511
sS'edge'
p513
(dp514
I0
(dp515
sI1
(dp516
sI2
(dp517
sI3
(dp518
sI4
(dp519
sI5
(dp520
sI6
(dp521
sI7
(dp522
sI8
(dp523
sI9
(dp524
sI10
(dp525
sI11
(dp526
sI12
(dp527
sI13
(dp528
sI14
(dp529
sI15
(dp530
sI16
(dp531
sI17
(dp532
sI18
(dp533
sI19
(dp534
sI20
(dp535
sI21
(dp536
sI22
(dp537
sI23
(dp538
sI24
(dp539
sI25
(dp540
sI26
(dp541
sI27
(dp542
sI28
(dp543
sI29
(dp544
sI30
(dp545
sI31
(dp546
sI32
(dp547
sI33
(dp548
sI34
(dp549
sI35
(dp550
sI36
(dp551
sI37
(dp552
sI38
(dp553
sI39
(dp554
sI40
(dp555
sI41
(dp556
sI42
(dp557
sI43
(dp558
sI44
(dp559
sI45
(dp560
sI46
(dp561
sI47
(dp562
sI48
(dp563
sI49
(dp564
sI50
(dp565
sI51
(dp566
sI52
(dp567
sI53
(dp568
sI54
(dp569
sI55
(dp570
sI56
(dp571
sI57
(dp572
sI58
(dp573
sI59
(dp574
sI60
(dp575
sI61
(dp576
sI62
(dp577
sI63
(dp578
sI64
(dp579
sI65
(dp580
sI66
(dp581
sI67
(dp582
sI68
(dp583
sI69
(dp584
sI70
(dp585
sI71
(dp586
sI72
(dp587
sI73
(dp588
sI74
(dp589
sI75
(dp590
sI76
(dp591
sI77
(dp592
sI78
(dp593
sI79
(dp594
sI80
(dp595
sI81
(dp596
sI82
(dp597
sI83
(dp598
sI84
(dp599
sI85
(dp600
sI86
(dp601
sI87
(dp602
sI88
(dp603
sI89
(dp604
sI90
(dp605
sI91
(dp606
sI92
(dp607
sI93
(dp608
sI94
(dp609
sI95
(dp610
sI96
(dp611
sI97
(dp612
sI98
(dp613
sI99
(dp614
sI100
(dp615
sI101
(dp616
sI102
(dp617
sI103
(dp618
sI104
(dp619
sI105
(dp620
sI106
(dp621
sI107
(dp622
sI108
(dp623
sI109
(dp624
sI110
(dp625
sI111
(dp626
sI112
(dp627
sI113
(dp628
sI114
(dp629
sI115
(dp630
sI116
(dp631
sI117
(dp632
sI118
(dp633
sI119
(dp634
sI120
(dp635
sI121
(dp636
sI122
(dp637
sI123
(dp638
sI124
(dp639
sI125
(dp640
sI126
(dp641
sI127
(dp642
sI128
(dp643
sI129
(dp644
sI130
(dp645
sI131
(dp646
sI132
(dp647
sI133
(dp648
sI134
(dp649
sI135
(dp650
sI136
(dp651
sI137
(dp652
sI138
(dp653
sI139
(dp654
sI140
(dp655
sI141
(dp656
sI142
(dp657
sI143
(dp658
sI144
(dp659
sI145
(dp660
sI146
(dp661
sI147
(dp662
sI148
(dp663
sI149
(dp664
sI150
(dp665
sI151
(dp666
sI152
(dp667
sI153
(dp668
sI154
(dp669
sI155
(dp670
sI156
(dp671
sI157
(dp672
sI158
(dp673
sI159
(dp674
sI160
(dp675
sI161
(dp676
sI162
(dp677
sI163
(dp678
sI164
(dp679
sI165
(dp680
sI166
(dp681
sI167
(dp682
sI168
(dp683
sI169
(dp684
sI170
(dp685
sI171
(dp686
sI172
(dp687
sI173
(dp688
sI174
(dp689
sI175
(dp690
sI176
(dp691
sI177
(dp692
sI178
(dp693
sI179
(dp694
sI180
(dp695
sI181
(dp696
sI182
(dp697
sI183
(dp698
sI184
(dp699
sI185
(dp700
sI186
(dp701
sI187
(dp702
sI188
(dp703
sI189
(dp704
sI190
(dp705
sI191
(dp706
sI192
(dp707
sI193
(dp708
sI194
(dp709
sI195
(dp710
sI196
(dp711
sI197
(dp712
sI198
(dp713
sI199
(dp714
sI200
(dp715
sI201
(dp716
sI202
(dp717
sI203
(dp718
sI204
(dp719
sI205
(dp720
sI206
(dp721
sI207
(dp722
sI208
(dp723
sI209
(dp724
sI210
(dp725
sI211
(dp726
sI212
(dp727
sI213
(dp728
sI214
(dp729
sI215
(dp730
sI216
(dp731
sI217
(dp732
sI218
(dp733
sI219
(dp734
sI220
(dp735
sI221
(dp736
sI222
(dp737
sI223
(dp738
sI224
(dp739
sI225
(dp740
sI226
(dp741
sI227
(dp742
sI228
(dp743
sI229
(dp744
sI230
(dp745
sI231
(dp746
sI232
(dp747
sI233
(dp748
sI234
(dp749
sI235
(dp750
sI236
(dp751
sI237
(dp752
sI238
(dp753
sI239
(dp754
sI240
(dp755
sI241
(dp756
sI242
(dp757
sI243
(dp758
sI244
(dp759
sI245
(dp760
sI246
(dp761
sI247
(dp762
sI248
(dp763
sI249
(dp764
sI250
(dp765
sI251
(dp766
sI252
(dp767
sI253
(dp768
sI254
(dp769
sI255
(dp770
sI256
(dp771
sI257
(dp772
sI258
(dp773
sI259
(dp774
sI260
(dp775
sI261
(dp776
sI262
(dp777
sI263
(dp778
sI264
(dp779
sI265
(dp780
sI266
(dp781
sI267
(dp782
sI268
(dp783
sI269
(dp784
sI270
(dp785
sI271
(dp786
sI272
(dp787
sI273
(dp788
sI274
(dp789
sI275
(dp790
sI276
(dp791
sI277
(dp792
sI278
(dp793
sI279
(dp794
sI280
(dp795
sI281
(dp796
sI282
(dp797
sI283
(dp798
sI284
(dp799
sI285
(dp800
sI286
(dp801
sI287
(dp802
sI288
(dp803
sI289
(dp804
sI290
(dp805
sI291
(dp806
sI292
(dp807
sI293
(dp808
sI294
(dp809
sI295
(dp810
sI296
(dp811
sI297
(dp812
sI298
(dp813
sI299
(dp814
sI300
(dp815
sI301
(dp816
sI302
(dp817
sI303
(dp818
sI304
(dp819
sI305
(dp820
sI306
(dp821
sI307
(dp822
sI308
(dp823
sI309
(dp824
sI310
(dp825
sI311
(dp826
sI312
(dp827
sI313
(dp828
sI314
(dp829
sI315
(dp830
sI316
(dp831
sI317
(dp832
sI318
(dp833
sI319
(dp834
sI320
(dp835
sI321
(dp836
sI322
(dp837
sI323
(dp838
sI324
(dp839
sI325
(dp840
sI326
(dp841
sI327
(dp842
sI328
(dp843
sI329
(dp844
sI330
(dp845
sI331
(dp846
sI332
(dp847
sI333
(dp848
sI334
(dp849
sI335
(dp850
sI336
(dp851
sI337
(dp852
sI338
(dp853
sI339
(dp854
sI340
(dp855
sI341
(dp856
sI342
(dp857
sI343
(dp858
sI344
(dp859
sI345
(dp860
sI346
(dp861
sI347
(dp862
sI348
(dp863
sI349
(dp864
sI350
(dp865
sI351
(dp866
sI352
(dp867
sI353
(dp868
sI354
(dp869
sI355
(dp870
sI356
(dp871
sI357
(dp872
sI358
(dp873
sI359
(dp874
sI360
(dp875
sI361
(dp876
sI362
(dp877
sI363
(dp878
sI364
(dp879
sI365
(dp880
sI366
(dp881
sI367
(dp882
sI368
(dp883
sI369
(dp884
sI370
(dp885
sI371
(dp886
sI372
(dp887
sI373
(dp888
sI374
(dp889
sI375
(dp890
sI376
(dp891
sI377
(dp892
sI378
(dp893
sI379
(dp894
sI380
(dp895
sI381
(dp896
sI382
(dp897
sI383
(dp898
sI384
(dp899
sI385
(dp900
sI386
(dp901
sI387
(dp902
sI388
(dp903
sI389
(dp904
sI390
(dp905
sI391
(dp906
sI392
(dp907
sI393
(dp908
sI394
(dp909
sI395
(dp910
sI396
(dp911
sI397
(dp912
sI398
(dp913
sI399
(dp914
sI400
(dp915
sI401
(dp916
sI402
(dp917
sI403
(dp918
sI404
(dp919
sI405
(dp920
sI406
(dp921
sI407
(dp922
sI408
(dp923
sI409
(dp924
sI410
(dp925
sI411
(dp926
sI412
(dp927
sI413
(dp928
sI414
(dp929
sI415
(dp930
sI416
(dp931
sI417
(dp932
sI418
(dp933
sI419
(dp934
sI420
(dp935
sI421
(dp936
sI422
(dp937
sI423
(dp938
sI424
(dp939
sI425
(dp940
sI426
(dp941
sI427
(dp942
sI428
(dp943
sI429
(dp944
sI430
(dp945
sI431
(dp946
sI432
(dp947
sI433
(dp948
sI434
(dp949
sI435
(dp950
sI436
(dp951
sI437
(dp952
sI438
(dp953
sI439
(dp954
sI440
(dp955
sI441
(dp956
sI442
(dp957
sI443
(dp958
sI444
(dp959
sI445
(dp960
sI446
(dp961
sI447
(dp962
sI448
(dp963
sI449
(dp964
sI450
(dp965
sI451
(dp966
sI452
(dp967
sI453
(dp968
sI454
(dp969
sI455
(dp970
sI456
(dp971
sI457
(dp972
sI458
(dp973
sI459
(dp974
sI460
(dp975
sI461
(dp976
sI462
(dp977
sI463
(dp978
sI464
(dp979
sI465
(dp980
sI466
(dp981
sI467
(dp982
sI468
(dp983
sI469
(dp984
sI470
(dp985
sI471
(dp986
sI472
(dp987
sI473
(dp988
sI474
(dp989
sI475
(dp990
sI476
(dp991
sI477
(dp992
sI478
(dp993
sI479
(dp994
sI480
(dp995
sI481
(dp996
sI482
(dp997
sI483
(dp998
sI484
(dp999
sI485
(dp1000
sI486
(dp1001
sI487
(dp1002
sI488
(dp1003
sI489
(dp1004
sI490
(dp1005
sI491
(dp1006
sI492
(dp1007
sI493
(dp1008
sI494
(dp1009
sI495
(dp1010
sI496
(dp1011
sI497
(dp1012
sI498
(dp1013
sI499
(dp1014
ssS'graph'
p1015
(dp1016
sS'adjlist_dict_factory'
p1017
g511
sS'adj'
p1018
g514
sb.