ccopy_reg
_reconstructor
p0
(cnetworkx.classes.graph
Graph
p1
c__builtin__
object
p2
Ntp3
Rp4
(dp5
S'node'
p6
(dp7
I0
(dp8
S'pos_x'
p9
F0.1734105329759391
sS'pos_y'
p10
F0.10871037615758217
ssI1
(dp11
g9
F0.13246552090421182
sg10
F0.29447621709695737
ssI2
(dp12
g9
F0.11698758216419647
sg10
F0.2964917747909991
ssI3
(dp13
g9
F0.24857624498914532
sg10
F0.29269594364589424
ssI4
(dp14
g9
F0.9322190907751088
sg10
F0.028290677149350074
ssI5
(dp15
g9
F0.5437536501445456
sg10
F0.39916868429527386
ssI6
(dp16
g9
F0.04706361822131977
sg10
F0.42375844204830093
ssI7
(dp17
g9
F0.3954986674766968
sg10
F0.3892810130321235
ssI8
(dp18
g9
F0.4956966038951116
sg10
F0.9121234118569321
ssI9
(dp19
g9
F0.9110474498293969
sg10
F0.6988077001552999
ssI10
(dp20
g9
F0.1970121347364613
sg10
F0.48016072619146877
ssI11
(dp21
g9
F0.29957524628574006
sg10
F0.2547514754417891
ssI12
(dp22
g9
F0.8465629653436206
sg10
F0.8699095126065002
ssI13
(dp23
g9
F0.576430099423687
sg10
F0.028422902711155662
ssI14
(dp24
g9
F0.47981470546654126
sg10
F0.8700837719357749
ssI15
(dp25
g9
F0.8484519981872389
sg10
F0.410982183455986
ssI16
(dp26
g9
F0.6215881457768722
sg10
F0.18818473233813793
ssI17
(dp27
g9
F0.7058275928112845
sg10
F0.26339560695841047
ssI18
(dp28
g9
F0.9118941001389456
sg10
F0.21670148813546342
ssI19
(dp29
g9
F0.3471273643802999
sg10
F0.9112030482292666
ssI20
(dp30
g9
F0.5905612902682619
sg10
F0.3655885829360829
ssI21
(dp31
g9
F0.5877480002114972
sg10
F0.5109109719431681
ssI22
(dp32
g9
F0.07273915258519836
sg10
F0.5844685611942795
ssI23
(dp33
g9
F0.2977040828190761
sg10
F0.356298551021367
ssI24
(dp34
g9
F0.9304081371167804
sg10
F0.9517199932150583
ssI25
(dp35
g9
F0.38705337278116236
sg10
F0.7532002055406518
ssI26
(dp36
g9
F0.15819208862595524
sg10
F0.7458991043234122
ssI27
(dp37
g9
F0.9036079591870414
sg10
F0.45443735861287005
ssI28
(dp38
g9
F0.5496845781021816
sg10
F0.13473403354546698
ssI29
(dp39
g9
F0.8964811844020104
sg10
F0.5873569363677938
ssI30
(dp40
g9
F0.42964973911306525
sg10
F0.23873685015118418
ssI31
(dp41
g9
F0.7148631411868973
sg10
F0.8376885633858969
ssI32
(dp42
g9
F0.43673591050540994
sg10
F0.03871830665228215
ssI33
(dp43
g9
F0.686023114932564
sg10
F0.10049085279998493
ssI34
(dp44
g9
F0.5550712762963579
sg10
F0.5898610844445139
ssI35
(dp45
g9
F0.282208314611762
sg10
F0.4940660091087925
ssI36
(dp46
g9
F0.2886853981768165
sg10
F0.4354484122107023
ssI37
(dp47
g9
F0.24451592864641702
sg10
F0.005047963080825224
ssI38
(dp48
g9
F0.46036733201134217
sg10
F0.5283330746964646
ssI39
(dp49
g9
F0.7829868871576247
sg10
F0.7566159185329083
ssI40
(dp50
g9
F0.8062238460552287
sg10
F0.4483734376284284
ssI41
(dp51
g9
F0.45411887761594505
sg10
F0.12233936964249426
ssI42
(dp52
g9
F0.6160857910612791
sg10
F0.7933988269340482
ssI43
(dp53
g9
F0.9249847344127795
sg10
F0.8501003301180746
ssI44
(dp54
g9
F0.4504553631730074
sg10
F0.08165991211252688
ssI45
(dp55
g9
F0.7296240276199205
sg10
F0.365206602616439
ssI46
(dp56
g9
F0.47128726293518375
sg10
F0.2276346505292166
ssI47
(dp57
g9
F0.7406121700559783
sg10
F0.48876968930748854
ssI48
(dp58
g9
F0.8209068194491643
sg10
F0.5579394570767299
ssI49
(dp59
g9
F0.4591677598263719
sg10
F0.6703383242070989
ssI50
(dp60
g9
F0.8265502448104513
sg10
F0.3589653768218468
ssI51
(dp61
g9
F0.9055955064898087
sg10
F0.8262633679641933
ssI52
(dp62
g9
F0.3132529032860121
sg10
F0.9588033988698639
ssI53
(dp63
g9
F0.04836505564157323
sg10
F0.0948689998814165
ssI54
(dp64
g9
F0.8955735704538168
sg10
F0.8176943259202988
ssI55
(dp65
g9
F0.7017180730738188
sg10
F0.6070455218312611
ssI56
(dp66
g9
F0.2214950186552691
sg10
F0.39562660260097515
ssI57
(dp67
g9
F0.1391691879372694
sg10
F0.8674864827504566
ssI58
(dp68
g9
F0.4122613083464176
sg10
F0.6443550571006798
ssI59
(dp69
g9
F0.6060883099132566
sg10
F0.9612841013950357
ssI60
(dp70
g9
F0.5490742784665111
sg10
F0.4571825576128825
ssI61
(dp71
g9
F0.7433204389173865
sg10
F0.8775962082697308
ssI62
(dp72
g9
F0.8863201560146701
sg10
F0.8079271375937784
ssI63
(dp73
g9
F0.3609835979481063
sg10
F0.8454636239050494
ssI64
(dp74
g9
F0.45762642044827007
sg10
F0.43622656847044283
ssI65
(dp75
g9
F0.1553759485721209
sg10
F0.8323027061377473
ssI66
(dp76
g9
F0.9017623551942678
sg10
F0.06962021602822988
ssI67
(dp77
g9
F0.9764366937148892
sg10
F0.16419177453403566
ssI68
(dp78
g9
F0.33149636011537165
sg10
F0.7126235950572157
ssI69
(dp79
g9
F0.9594530173642645
sg10
F0.11855508224815725
ssI70
(dp80
g9
F0.080299209725879
sg10
F0.5371242128595463
ssI71
(dp81
g9
F0.7999991315380192
sg10
F0.8495028659070295
ssI72
(dp82
g9
F0.8737098950365165
sg10
F0.9846865778964894
ssI73
(dp83
g9
F0.18257342517566144
sg10
F0.6313622084279185
ssI74
(dp84
g9
F0.6187521190421736
sg10
F0.37860157629241264
ssI75
(dp85
g9
F0.9152786697205135
sg10
F0.1755801777984779
ssI76
(dp86
g9
F0.6944449164730663
sg10
F0.6711790419102629
ssI77
(dp87
g9
F0.7618044620974088
sg10
F0.9279193389323724
ssI78
(dp88
g9
F0.7590821730973676
sg10
F0.26761980844585165
ssI79
(dp89
g9
F0.927115117674038
sg10
F0.010264941257898785
ssI80
(dp90
g9
F0.09525892765436039
sg10
F0.7154582889034851
ssI81
(dp91
g9
F0.8789144942010088
sg10
F0.1464379132533532
ssI82
(dp92
g9
F0.6169696589036151
sg10
F0.15364549626477153
ssI83
(dp93
g9
F0.8361671084276928
sg10
F0.9261996615280165
ssI84
(dp94
g9
F0.12124078400750204
sg10
F0.39629926920929226
ssI85
(dp95
g9
F0.5864792293151715
sg10
F0.4059513608994335
ssI86
(dp96
g9
F0.7932179215771615
sg10
F0.14287826330985376
ssI87
(dp97
g9
F0.9009250559797221
sg10
F0.7211689897401784
ssI88
(dp98
g9
F0.7692349891706427
sg10
F0.38291039802124693
ssI89
(dp99
g9
F0.7545924521248782
sg10
F0.6711822571552281
ssI90
(dp100
g9
F0.014696844696528766
sg10
F0.41562293275288664
ssI91
(dp101
g9
F0.8026635250065621
sg10
F0.36154855899925
ssI92
(dp102
g9
F0.27577092070944675
sg10
F0.815697560290814
ssI93
(dp103
g9
F0.30457062012596814
sg10
F0.3548563488966545
ssI94
(dp104
g9
F0.6360342883273091
sg10
F0.7422192016138116
ssI95
(dp105
g9
F0.7644031947419152
sg10
F0.629037477056705
ssI96
(dp106
g9
F0.3060221800664473
sg10
F0.4407267430215478
ssI97
(dp107
g9
F0.6669559876335746
sg10
F0.40124299773365035
ssI98
(dp108
g9
F0.13618960373614397
sg10
F0.16010230475767373
ssI99
(dp109
g9
F0.04399508181189005
sg10
F0.4118465086575974
ssI100
(dp110
g9
F0.6141757048850578
sg10
F0.970323560127866
ssI101
(dp111
g9
F0.6568278982920035
sg10
F0.07886527002312804
ssI102
(dp112
g9
F0.4470793790870766
sg10
F0.6654841641214788
ssI103
(dp113
g9
F0.037727812087436585
sg10
F0.4604597752293673
ssI104
(dp114
g9
F0.29976042161093297
sg10
F0.6584102240548478
ssI105
(dp115
g9
F0.9763577761144068
sg10
F0.6909735228793155
ssI106
(dp116
g9
F0.7632515326062849
sg10
F0.28211646620479547
ssI107
(dp117
g9
F0.7905096714179702
sg10
F0.7705467138020837
ssI108
(dp118
g9
F0.491835991879771
sg10
F0.5650575123125516
ssI109
(dp119
g9
F0.8536897232199401
sg10
F0.03191569882197964
ssI110
(dp120
g9
F0.4527112436828866
sg10
F0.28186867696444085
ssI111
(dp121
g9
F0.2801626083100196
sg10
F0.8669648121670264
ssI112
(dp122
g9
F0.7312889282166687
sg10
F0.16322359086683813
ssI113
(dp123
g9
F0.6776841675686688
sg10
F0.08537928420436736
ssI114
(dp124
g9
F0.3435984104080796
sg10
F0.8310527101689462
ssI115
(dp125
g9
F0.6395332298608941
sg10
F0.16777581451464918
ssI116
(dp126
g9
F0.787327469809285
sg10
F0.9780394891262199
ssI117
(dp127
g9
F0.3141474740380503
sg10
F0.17579916448093658
ssI118
(dp128
g9
F0.7680665729124416
sg10
F0.6186895670166711
ssI119
(dp129
g9
F0.21733751247849198
sg10
F0.14205716863620066
ssI120
(dp130
g9
F0.9884854070204427
sg10
F0.3100499949774319
ssI121
(dp131
g9
F0.3903170775536777
sg10
F0.15459949731282552
ssI122
(dp132
g9
F0.8178558784229831
sg10
F0.9783879352409051
ssI123
(dp133
g9
F0.3428890584813423
sg10
F0.5930061550597652
ssI124
(dp134
g9
F0.5267899701512976
sg10
F0.6582447799177353
ssI125
(dp135
g9
F0.8189590880274257
sg10
F0.31926007263339773
ssI126
(dp136
g9
F0.801042598445518
sg10
F0.583205218055487
ssI127
(dp137
g9
F0.2312283474549044
sg10
F0.5261207908552573
ssI128
(dp138
g9
F0.16384001032207285
sg10
F0.017443659228046693
ssI129
(dp139
g9
F0.7483828474823829
sg10
F0.26009547070526207
ssI130
(dp140
g9
F0.24957986943242128
sg10
F0.6296530006059483
ssI131
(dp141
g9
F0.6247867395087028
sg10
F0.06363466039897792
ssI132
(dp142
g9
F0.8624310320948353
sg10
F0.4831687878399411
ssI133
(dp143
g9
F0.9693494496897805
sg10
F0.568566641698923
ssI134
(dp144
g9
F0.21429354956372015
sg10
F0.264985480434607
ssI135
(dp145
g9
F0.02923222412791293
sg10
F0.7804252721819063
ssI136
(dp146
g9
F0.6315364512215879
sg10
F0.4234405860392587
ssI137
(dp147
g9
F0.5177804099464349
sg10
F0.18916181274904798
ssI138
(dp148
g9
F0.40433476287683123
sg10
F0.7979682673151643
ssI139
(dp149
g9
F0.11188333365371927
sg10
F0.03279931387007484
ssI140
(dp150
g9
F0.2775950581531289
sg10
F0.25078226795544356
ssI141
(dp151
g9
F0.4151260412876445
sg10
F0.808871236320338
ssI142
(dp152
g9
F0.8454675225151296
sg10
F0.9195075678061266
ssI143
(dp153
g9
F0.3414638366054712
sg10
F0.22618848084015364
ssI144
(dp154
g9
F0.06129098772564534
sg10
F0.6453792092201415
ssI145
(dp155
g9
F0.6881563076002825
sg10
F0.5044462470245823
ssI146
(dp156
g9
F0.6558231010492357
sg10
F0.5940960184356114
ssI147
(dp157
g9
F0.35596601159532737
sg10
F0.2567116956494281
ssI148
(dp158
g9
F0.09804300159343304
sg10
F0.749677866658926
ssI149
(dp159
g9
F0.478411938207698
sg10
F0.4651962280126647
ssI150
(dp160
g9
F0.6271615476160104
sg10
F0.7012427053875412
ssI151
(dp161
g9
F0.3676177260903196
sg10
F0.6754510838826095
ssI152
(dp162
g9
F0.01296680306171849
sg10
F0.14643650368315042
ssI153
(dp163
g9
F0.45462717320911394
sg10
F0.7156020842794066
ssI154
(dp164
g9
F0.21183849174190528
sg10
F0.07881682812336166
ssI155
(dp165
g9
F0.25965139332689746
sg10
F0.9453067322163231
ssI156
(dp166
g9
F0.26183031391402667
sg10
F0.873592116460833
ssI157
(dp167
g9
F0.8497762558992011
sg10
F0.7386053947368082
ssI158
(dp168
g9
F0.45713982706172285
sg10
F0.9745995324756921
ssI159
(dp169
g9
F0.5404594291918986
sg10
F0.23435245992531095
ssI160
(dp170
g9
F0.6410328378156924
sg10
F0.5242642514444293
ssI161
(dp171
g9
F0.24570892443516734
sg10
F0.11510430287887274
ssI162
(dp172
g9
F0.221557904354155
sg10
F0.49793698130276876
ssI163
(dp173
g9
F0.4878817725497633
sg10
F0.3230950267320095
ssI164
(dp174
g9
F0.578852411591777
sg10
F0.9730865217008314
ssI165
(dp175
g9
F0.791626887629681
sg10
F0.18735380640449495
ssI166
(dp176
g9
F0.8085007991848707
sg10
F0.31780835607536007
ssI167
(dp177
g9
F0.8196772853627906
sg10
F0.6882341578393826
ssI168
(dp178
g9
F0.8512852477351356
sg10
F0.5015811226902043
ssI169
(dp179
g9
F0.444387343462452
sg10
F0.42286728688804676
ssI170
(dp180
g9
F0.466069776572279
sg10
F0.11898643545725385
ssI171
(dp181
g9
F0.22719378955846392
sg10
F0.2441263490691078
ssI172
(dp182
g9
F0.8625955554728922
sg10
F0.2667936180368855
ssI173
(dp183
g9
F0.42023390036038133
sg10
F0.3107204298330588
ssI174
(dp184
g9
F0.5008801324444077
sg10
F0.00763479203029771
ssI175
(dp185
g9
F0.33652306863178405
sg10
F0.21638641131975922
ssI176
(dp186
g9
F0.8733619434557176
sg10
F0.7014800127982286
ssI177
(dp187
g9
F0.23877713226029884
sg10
F0.5478047677190261
ssI178
(dp188
g9
F0.7080575662087065
sg10
F0.3552031576462992
ssI179
(dp189
g9
F0.6842046300141499
sg10
F0.5498795798266207
ssI180
(dp190
g9
F0.6260110504055106
sg10
F0.03515399390749374
ssI181
(dp191
g9
F0.6079160567722489
sg10
F0.8257470715660691
ssI182
(dp192
g9
F0.8474195441155147
sg10
F0.03774368045875709
ssI183
(dp193
g9
F0.24580760728157391
sg10
F0.599011093190066
ssI184
(dp194
g9
F0.33444165471729637
sg10
F0.8059145570269055
ssI185
(dp195
g9
F0.21293097100451097
sg10
F0.5553768684706862
ssI186
(dp196
g9
F0.16183925543743027
sg10
F0.8471363192881082
ssI187
(dp197
g9
F0.7434948568456397
sg10
F0.6126345101863145
ssI188
(dp198
g9
F0.27220689893116734
sg10
F0.08070112159784404
ssI189
(dp199
g9
F0.793209574897121
sg10
F0.6557630310599354
ssI190
(dp200
g9
F0.7362750042742153
sg10
F0.5298114734258579
ssI191
(dp201
g9
F0.1688885588260065
sg10
F0.1692009437855626
ssI192
(dp202
g9
F0.9324705071239453
sg10
F0.7029989464881052
ssI193
(dp203
g9
F0.878727698800978
sg10
F0.4234816148538779
ssI194
(dp204
g9
F0.8499734381993213
sg10
F0.8032097999927506
ssI195
(dp205
g9
F0.2603630106771666
sg10
F0.7522149042256607
ssI196
(dp206
g9
F0.8704557440822811
sg10
F0.16807699546839794
ssI197
(dp207
g9
F0.2825117124457365
sg10
F0.9097703314531532
ssI198
(dp208
g9
F0.5967616542518012
sg10
F0.8445816864496166
ssI199
(dp209
g9
F0.2932481473703519
sg10
F0.3842632118569992
ssI200
(dp210
g9
F0.6504053282654549
sg10
F0.9585953007390559
ssI201
(dp211
g9
F0.4527741839274416
sg10
F0.725234904447458
ssI202
(dp212
g9
F0.035692921005866296
sg10
F0.9629449116406231
ssI203
(dp213
g9
F0.09287243038691817
sg10
F0.8042920628184556
ssI204
(dp214
g9
F0.4078955088806496
sg10
F0.002752755649910621
ssI205
(dp215
g9
F0.5443836044343742
sg10
F0.8105717046224613
ssI206
(dp216
g9
F0.41978487316257995
sg10
F0.8958561692448839
ssI207
(dp217
g9
F0.11858366956262045
sg10
F0.34465685996100504
ssI208
(dp218
g9
F0.17187235403245282
sg10
F0.43392622005132164
ssI209
(dp219
g9
F0.6842626734791093
sg10
F0.44624885154219474
ssI210
(dp220
g9
F0.7391673372927212
sg10
F0.4539155782284191
ssI211
(dp221
g9
F0.4661468512377295
sg10
F0.9162440003248015
ssI212
(dp222
g9
F0.8149947936212758
sg10
F0.6042969749955337
ssI213
(dp223
g9
F0.8781808108818469
sg10
F0.6031770920580611
ssI214
(dp224
g9
F0.1758732743213378
sg10
F0.5490480800802616
ssI215
(dp225
g9
F0.7423629530945611
sg10
F0.20868199557874445
ssI216
(dp226
g9
F0.549799538011132
sg10
F0.930339782131966
ssI217
(dp227
g9
F0.19830434906846306
sg10
F0.6856083631544256
ssI218
(dp228
g9
F0.3181404566621724
sg10
F0.045791950242631385
ssI219
(dp229
g9
F0.6741222338891464
sg10
F0.42508113584749974
ssI220
(dp230
g9
F0.22489729300652217
sg10
F0.0053696602744816024
ssI221
(dp231
g9
F0.3751832253033627
sg10
F0.3122922682072027
ssI222
(dp232
g9
F0.7462534263665627
sg10
F0.32424450017419637
ssI223
(dp233
g9
F0.0584491187634153
sg10
F0.3186577570762149
ssI224
(dp234
g9
F0.3801934130679939
sg10
F0.17558443466249118
ssI225
(dp235
g9
F0.7531996975687946
sg10
F0.5489074353759626
ssI226
(dp236
g9
F0.7001027515955777
sg10
F0.7124055410996908
ssI227
(dp237
g9
F0.7225091717941601
sg10
F0.768565962364159
ssI228
(dp238
g9
F0.36669786920914704
sg10
F0.17777438985925786
ssI229
(dp239
g9
F0.9844861854212323
sg10
F0.13633484232603688
ssI230
(dp240
g9
F0.5871061896144409
sg10
F0.992976158484777
ssI231
(dp241
g9
F0.5885031306198186
sg10
F0.8227748696082408
ssI232
(dp242
g9
F0.7094060032638608
sg10
F0.06800905938296586
ssI233
(dp243
g9
F0.2379120348299677
sg10
F0.6225049713345553
ssI234
(dp244
g9
F0.12822155329336726
sg10
F0.11845472096449638
ssI235
(dp245
g9
F0.07688131479308868
sg10
F0.6200346322394908
ssI236
(dp246
g9
F0.19739959375779625
sg10
F0.5146507947685967
ssI237
(dp247
g9
F0.3454856357088858
sg10
F0.7150229192845087
ssI238
(dp248
g9
F0.8482313682270071
sg10
F0.8042258988297645
ssI239
(dp249
g9
F0.15430492341888502
sg10
F0.5735396230386012
ssI240
(dp250
g9
F0.3107092738506839
sg10
F0.39258066705650196
ssI241
(dp251
g9
F0.6267374325668355
sg10
F0.06288760623843881
ssI242
(dp252
g9
F0.0070677035415409595
sg10
F0.8107165724660199
ssI243
(dp253
g9
F0.22406554930077616
sg10
F0.31339147619112273
ssI244
(dp254
g9
F0.394058170485719
sg10
F0.43763957109901586
ssI245
(dp255
g9
F0.4612787454896008
sg10
F0.6318726058313326
ssI246
(dp256
g9
F0.6894968000198561
sg10
F0.593940984955478
ssI247
(dp257
g9
F0.7060231764317204
sg10
F0.8047560447666294
ssI248
(dp258
g9
F0.2703557265665516
sg10
F0.5757504441798349
ssI249
(dp259
g9
F0.7231043446630805
sg10
F0.63499914003662
ssI250
(dp260
g9
F0.29485948235932646
sg10
F0.7229507358684377
ssI251
(dp261
g9
F0.22036441907712578
sg10
F0.1556826039941539
ssI252
(dp262
g9
F0.1641907838285549
sg10
F0.2070031236568376
ssI253
(dp263
g9
F0.9276423226561532
sg10
F0.40272608768395424
ssI254
(dp264
g9
F0.16298678095048935
sg10
F0.8237535998601792
ssI255
(dp265
g9
F0.8257481780622763
sg10
F0.8000145568362756
ssI256
(dp266
g9
F0.11147901794472692
sg10
F0.5231557200682574
ssI257
(dp267
g9
F0.48125304161581095
sg10
F0.511890033569146
ssI258
(dp268
g9
F0.17633669897920712
sg10
F0.21132797972596407
ssI259
(dp269
g9
F0.0024685494747679337
sg10
F0.06031935103330188
ssI260
(dp270
g9
F0.3575131670499816
sg10
F0.19213208046030483
ssI261
(dp271
g9
F0.8833827632661562
sg10
F0.35071202898473375
ssI262
(dp272
g9
F0.4087910586477168
sg10
F0.24764251593146536
ssI263
(dp273
g9
F0.2425003115412412
sg10
F0.17424991045042648
ssI264
(dp274
g9
F0.4918191760587878
sg10
F0.9220846452587086
ssI265
(dp275
g9
F0.3083744144901036
sg10
F0.2975359524579828
ssI266
(dp276
g9
F0.7604909417784171
sg10
F0.5734542421361127
ssI267
(dp277
g9
F0.14804842721542577
sg10
F0.20585095583493263
ssI268
(dp278
g9
F0.07464552517617895
sg10
F0.3090386239228825
ssI269
(dp279
g9
F0.9686216965103438
sg10
F0.9726405681489263
ssI270
(dp280
g9
F0.43966689838163153
sg10
F0.9016138515206142
ssI271
(dp281
g9
F0.20357469165461972
sg10
F0.10514476778301152
ssI272
(dp282
g9
F0.003244316780174117
sg10
F0.6590090388836276
ssI273
(dp283
g9
F0.8918560609177744
sg10
F0.25554519076756477
ssI274
(dp284
g9
F0.33165822371546105
sg10
F0.7121350979390988
ssI275
(dp285
g9
F0.6086212338519915
sg10
F0.7660458810733121
ssI276
(dp286
g9
F0.5352015082944824
sg10
F0.6441981694329533
ssI277
(dp287
g9
F0.02129283645260238
sg10
F0.5930043716458976
ssI278
(dp288
g9
F0.6926088482258537
sg10
F0.29249260016850365
ssI279
(dp289
g9
F0.4224530783187238
sg10
F0.8238289128859899
ssI280
(dp290
g9
F0.360374112529249
sg10
F0.657942871175055
ssI281
(dp291
g9
F0.2879199372014294
sg10
F0.159805600676868
ssI282
(dp292
g9
F0.28766200257753005
sg10
F0.6198555554951042
ssI283
(dp293
g9
F0.15706513563638325
sg10
F0.3309479639072498
ssI284
(dp294
g9
F0.13885669802910183
sg10
F0.9078024186388153
ssI285
(dp295
g9
F0.11386232933661744
sg10
F0.8458715268062204
ssI286
(dp296
g9
F0.5639858551910979
sg10
F0.27143074218554886
ssI287
(dp297
g9
F0.20328110263080146
sg10
F0.07173424125768735
ssI288
(dp298
g9
F0.70103984926383
sg10
F0.38859603410159094
ssI289
(dp299
g9
F0.7949232286931324
sg10
F0.07826008255837602
ssI290
(dp300
g9
F0.19483083939539325
sg10
F0.045438574981294555
ssI291
(dp301
g9
F0.014095798751920241
sg10
F0.6432231869084923
ssI292
(dp302
g9
F0.6416254909998163
sg10
F0.7688767143976402
ssI293
(dp303
g9
F0.8537459689319652
sg10
F0.265380985843615
ssI294
(dp304
g9
F0.9431123461601434
sg10
F0.06504612576871949
ssI295
(dp305
g9
F0.038186721721438444
sg10
F0.6073265044806319
ssI296
(dp306
g9
F0.3830351674513245
sg10
F0.32003927155539913
ssI297
(dp307
g9
F0.009960327995394147
sg10
F0.10872997004994622
ssI298
(dp308
g9
F0.31638343755601106
sg10
F0.6463245256307534
ssI299
(dp309
g9
F0.5398475822389031
sg10
F0.06270416765888354
ssI300
(dp310
g9
F0.2648446796555123
sg10
F0.4055184877119089
ssI301
(dp311
g9
F0.22106414545553732
sg10
F0.2859956434674872
ssI302
(dp312
g9
F0.2501292242947788
sg10
F0.5320471960144018
ssI303
(dp313
g9
F0.4275425518165936
sg10
F0.23390673809153573
ssI304
(dp314
g9
F0.2962742074711153
sg10
F0.9902294932378842
ssI305
(dp315
g9
F0.702947921124966
sg10
F0.7466143411463108
ssI306
(dp316
g9
F0.9981389300104514
sg10
F0.9240725517577091
ssI307
(dp317
g9
F0.864170276801107
sg10
F0.6216479091884936
ssI308
(dp318
g9
F0.8296091015993208
sg10
F0.6383763946193867
ssI309
(dp319
g9
F0.8890316746790733
sg10
F0.2442342934749383
ssI310
(dp320
g9
F0.6995499020250745
sg10
F0.27618704364425095
ssI311
(dp321
g9
F0.9990796101012633
sg10
F0.09617638446490162
ssI312
(dp322
g9
F0.36023310450920587
sg10
F0.6562721437821769
ssI313
(dp323
g9
F0.4186659898090572
sg10
F0.73610114935046
ssI314
(dp324
g9
F0.0802470697039338
sg10
F0.06576467832014421
ssI315
(dp325
g9
F0.6903291298588649
sg10
F0.27213824892598804
ssI316
(dp326
g9
F0.005396890736097948
sg10
F0.9788404573710767
ssI317
(dp327
g9
F0.5761781921212192
sg10
F0.2531794078826567
ssI318
(dp328
g9
F0.7983066501674814
sg10
F0.7814477921139737
ssI319
(dp329
g9
F0.989147465235548
sg10
F0.34275032272383077
ssI320
(dp330
g9
F0.04334805534423114
sg10
F0.49714155181646436
ssI321
(dp331
g9
F0.34428779672729903
sg10
F0.5513566568764793
ssI322
(dp332
g9
F0.0828855153567869
sg10
F0.5292229582392391
ssI323
(dp333
g9
F0.29788683797497795
sg10
F0.7445797660176906
ssI324
(dp334
g9
F0.07893135542047203
sg10
F0.8668631868558109
ssI325
(dp335
g9
F0.13276909633199208
sg10
F0.8334299373374795
ssI326
(dp336
g9
F0.009951955320486428
sg10
F0.0652630867308629
ssI327
(dp337
g9
F0.17133190042058766
sg10
F0.24617826855139902
ssI328
(dp338
g9
F0.28641827808141995
sg10
F0.5365294372481323
ssI329
(dp339
g9
F0.3897906623523637
sg10
F0.6564535023716553
ssI330
(dp340
g9
F0.8500422341430032
sg10
F0.9243069358783649
ssI331
(dp341
g9
F0.9232518873724035
sg10
F0.9643027524547428
ssI332
(dp342
g9
F0.21148076984704445
sg10
F0.243939968339408
ssI333
(dp343
g9
F0.2534236781855337
sg10
F0.02402552461427221
ssI334
(dp344
g9
F0.6533194801214292
sg10
F0.6383275312065714
ssI335
(dp345
g9
F0.5451707253806594
sg10
F0.8872212906844721
ssI336
(dp346
g9
F0.001440024590761535
sg10
F0.21227470597006937
ssI337
(dp347
g9
F0.46937802178172516
sg10
F0.4226766381604937
ssI338
(dp348
g9
F0.9957985590439739
sg10
F0.5123826891760281
ssI339
(dp349
g9
F0.0914428076570506
sg10
F0.3584603812887919
ssI340
(dp350
g9
F0.08035264284359434
sg10
F0.6651419948674571
ssI341
(dp351
g9
F0.4124534031267362
sg10
F0.2763269265725625
ssI342
(dp352
g9
F0.023478281381782207
sg10
F0.6524854326043674
ssI343
(dp353
g9
F0.2169477901150385
sg10
F0.41947178291564013
ssI344
(dp354
g9
F0.9536614933527114
sg10
F0.18989590087537023
ssI345
(dp355
g9
F0.3776450150583712
sg10
F0.6051125305957411
ssI346
(dp356
g9
F0.3723196059847911
sg10
F0.00027777500420200774
ssI347
(dp357
g9
F0.701041067979115
sg10
F0.3715883825546844
ssI348
(dp358
g9
F0.15329736530894023
sg10
F0.3333171352117673
ssI349
(dp359
g9
F0.20811499263232136
sg10
F0.31027958824521784
ssI350
(dp360
g9
F0.4876886120225772
sg10
F0.186383599526881
ssI351
(dp361
g9
F0.8205544914687981
sg10
F0.5474905967093078
ssI352
(dp362
g9
F0.9159140768340343
sg10
F0.36106650438446153
ssI353
(dp363
g9
F0.5334285859496698
sg10
F0.7542678927561592
ssI354
(dp364
g9
F0.7836855681926309
sg10
F0.29046012250172304
ssI355
(dp365
g9
F0.5066692497307577
sg10
F0.8269348362552343
ssI356
(dp366
g9
F0.184643693765844
sg10
F0.7925582192654378
ssI357
(dp367
g9
F0.012580601100724342
sg10
F0.1870977581622063
ssI358
(dp368
g9
F0.13505910095606288
sg10
F0.564084072806532
ssI359
(dp369
g9
F0.7242804256445886
sg10
F0.1766629276447793
ssI360
(dp370
g9
F0.18413090278873068
sg10
F0.4812440642704726
ssI361
(dp371
g9
F0.9284688555369356
sg10
F0.613465134969186
ssI362
(dp372
g9
F0.03561463852267899
sg10
F0.5338452212224296
ssI363
(dp373
g9
F0.701734634557818
sg10
F0.3557996984294277
ssI364
(dp374
g9
F0.9883277660501844
sg10
F0.004240499470937631
ssI365
(dp375
g9
F0.5464231282460016
sg10
F0.3572607087064744
ssI366
(dp376
g9
F0.8181964008764486
sg10
F0.41505008037378033
ssI367
(dp377
g9
F0.5244009884648697
sg10
F0.13759545650094762
ssI368
(dp378
g9
F0.9398226376370507
sg10
F0.7054716371134614
ssI369
(dp379
g9
F0.5849173352966468
sg10
F0.1742340265578327
ssI370
(dp380
g9
F0.9965874221735842
sg10
F0.9984458488273361
ssI371
(dp381
g9
F0.6051836580977986
sg10
F0.06394822439195813
ssI372
(dp382
g9
F0.35153565427723743
sg10
F0.5986924599422356
ssI373
(dp383
g9
F0.2862976577680838
sg10
F0.3164269479473115
ssI374
(dp384
g9
F0.4978912643248815
sg10
F0.5570952961532023
ssI375
(dp385
g9
F0.9909050851777399
sg10
F0.29339011792164693
ssI376
(dp386
g9
F0.9474599851330542
sg10
F0.7320184615608932
ssI377
(dp387
g9
F0.4841437063499836
sg10
F0.4586257881290473
ssI378
(dp388
g9
F0.17441800653290462
sg10
F0.06726495092405671
ssI379
(dp389
g9
F0.34603147497556597
sg10
F0.28557652851728077
ssI380
(dp390
g9
F0.5896250483310401
sg10
F0.5978853225428684
ssI381
(dp391
g9
F0.958839201674125
sg10
F0.5266434897997971
ssI382
(dp392
g9
F0.6451823440840542
sg10
F0.9733040639401025
ssI383
(dp393
g9
F0.05495102619072789
sg10
F0.5345150713418988
ssI384
(dp394
g9
F0.8781419159971643
sg10
F0.9469001972192891
ssI385
(dp395
g9
F0.41157489320836016
sg10
F0.516584139884111
ssI386
(dp396
g9
F0.7167452365137387
sg10
F0.17866435006500758
ssI387
(dp397
g9
F0.24135371665779315
sg10
F0.13212639907692447
ssI388
(dp398
g9
F0.5474650930854146
sg10
F0.5779333914638821
ssI389
(dp399
g9
F0.19193584677528697
sg10
F0.1497973770428842
ssI390
(dp400
g9
F0.04471815096332099
sg10
F0.8203562937927696
ssI391
(dp401
g9
F0.31656133898997874
sg10
F0.2175184199437118
ssI392
(dp402
g9
F0.0010922896715829244
sg10
F0.22889466149424176
ssI393
(dp403
g9
F0.5271314601190321
sg10
F0.3299067076142288
ssI394
(dp404
g9
F0.7081748302453651
sg10
F0.4953662048706302
ssI395
(dp405
g9
F0.1328242410072813
sg10
F0.7068131440620233
ssI396
(dp406
g9
F0.6977647630604618
sg10
F0.5747180816106809
ssI397
(dp407
g9
F0.9596813238520102
sg10
F0.2720499247129641
ssI398
(dp408
g9
F0.02791107049506336
sg10
F0.16052753232082018
ssI399
(dp409
g9
F0.5880683054805715
sg10
F0.2333249937689258
ssI400
(dp410
g9
F0.7061619167382771
sg10
F0.13284451367690697
ssI401
(dp411
g9
F0.9054870180742027
sg10
F0.8501680533807866
ssI402
(dp412
g9
F0.49634192036443414
sg10
F0.03291184009780568
ssI403
(dp413
g9
F0.009385904525280986
sg10
F0.27019280611261276
ssI404
(dp414
g9
F0.06332347556927453
sg10
F0.29351856435889045
ssI405
(dp415
g9
F0.16258363432374667
sg10
F0.8280461009315215
ssI406
(dp416
g9
F0.20967324394088915
sg10
F0.006291845378578298
ssI407
(dp417
g9
F0.13879718514872608
sg10
F0.420379424233166
ssI408
(dp418
g9
F0.8073411273155453
sg10
F0.25070487914030315
ssI409
(dp419
g9
F0.02373865994537372
sg10
F0.7261989144136681
ssI410
(dp420
g9
F0.1965908585027094
sg10
F0.7116229433933255
ssI411
(dp421
g9
F0.5068003786318213
sg10
F0.8167237230996907
ssI412
(dp422
g9
F0.5393084488176306
sg10
F0.052909198675214486
ssI413
(dp423
g9
F0.6909545948215183
sg10
F0.3628838415256789
ssI414
(dp424
g9
F0.5345251401733483
sg10
F0.38735995159318604
ssI415
(dp425
g9
F0.2590789281031136
sg10
F0.9833961047560128
ssI416
(dp426
g9
F0.30816078987440754
sg10
F0.6562832574419407
ssI417
(dp427
g9
F0.7455458264333444
sg10
F0.7784620738963328
ssI418
(dp428
g9
F0.8146253280053093
sg10
F0.06909897475341176
ssI419
(dp429
g9
F0.3133701701547643
sg10
F0.6944448795869019
ssI420
(dp430
g9
F0.08364238117753675
sg10
F0.11792224862954581
ssI421
(dp431
g9
F0.5068268070667976
sg10
F0.6601887264122999
ssI422
(dp432
g9
F0.2204891352659093
sg10
F0.6231035772476036
ssI423
(dp433
g9
F0.24805778344446117
sg10
F0.7348140009479578
ssI424
(dp434
g9
F0.7560092044790041
sg10
F0.8495568502160183
ssI425
(dp435
g9
F0.5015512271167255
sg10
F0.9029628167345471
ssI426
(dp436
g9
F0.47568426253688667
sg10
F0.4483708574079712
ssI427
(dp437
g9
F0.4579870136338191
sg10
F0.7243791751617665
ssI428
(dp438
g9
F0.7580473554566628
sg10
F0.6105896092573915
ssI429
(dp439
g9
F0.8275250002625895
sg10
F0.5124174849035815
ssI430
(dp440
g9
F0.3592587239844792
sg10
F0.0717206301994554
ssI431
(dp441
g9
F0.2570784624901107
sg10
F0.6592800043176734
ssI432
(dp442
g9
F0.9545553127790795
sg10
F0.8643646222145077
ssI433
(dp443
g9
F0.04046355985909422
sg10
F0.10963872133780528
ssI434
(dp444
g9
F0.4385543144347155
sg10
F0.2509704863171178
ssI435
(dp445
g9
F0.4118623203623607
sg10
F0.5323287702611239
ssI436
(dp446
g9
F0.8947083647352121
sg10
F0.3106670237857381
ssI437
(dp447
g9
F0.9084481653906307
sg10
F0.11241938455351486
ssI438
(dp448
g9
F0.5735560782020465
sg10
F0.7154638982836693
ssI439
(dp449
g9
F0.1601629972051285
sg10
F0.34720877855780374
ssI440
(dp450
g9
F0.2034854425531164
sg10
F0.6521278125863461
ssI441
(dp451
g9
F0.4732815045493751
sg10
F0.5775455362827736
ssI442
(dp452
g9
F0.3426765872015235
sg10
F0.40007799771765906
ssI443
(dp453
g9
F0.3753386825503001
sg10
F0.2525434506823998
ssI444
(dp454
g9
F0.42685652013179076
sg10
F0.6100339932941491
ssI445
(dp455
g9
F0.5311466204243956
sg10
F0.5262813515604291
ssI446
(dp456
g9
F0.43821069445130834
sg10
F0.3414108340206785
ssI447
(dp457
g9
F0.6624278868791408
sg10
F0.9604710476785141
ssI448
(dp458
g9
F0.06818353394662546
sg10
F0.7023293384438445
ssI449
(dp459
g9
F0.9807058484399075
sg10
F0.7839426532601163
ssI450
(dp460
g9
F0.5858144083807996
sg10
F0.9069025213955987
ssI451
(dp461
g9
F0.47010630920750396
sg10
F0.059311629818345146
ssI452
(dp462
g9
F0.29043114740396025
sg10
F0.30184839575256395
ssI453
(dp463
g9
F0.8604048276324265
sg10
F0.21710709765190406
ssI454
(dp464
g9
F0.04638111127003297
sg10
F0.7307700304309964
ssI455
(dp465
g9
F0.1358120876555553
sg10
F0.9990002094840496
ssI456
(dp466
g9
F0.7005913664372583
sg10
F0.6671798994219711
ssI457
(dp467
g9
F0.049516604367735306
sg10
F0.1477217516518431
ssI458
(dp468
g9
F0.6691635918486164
sg10
F0.38547840619195617
ssI459
(dp469
g9
F0.30913440737991504
sg10
F0.46263942258137636
ssI460
(dp470
g9
F0.4172824752868993
sg10
F0.6909623484679476
ssI461
(dp471
g9
F0.47991506641421533
sg10
F0.8828957986840242
ssI462
(dp472
g9
F0.05741351905459258
sg10
F0.7474934142266156
ssI463
(dp473
g9
F0.7548846046324031
sg10
F0.8621811198456322
ssI464
(dp474
g9
F0.8806844919690104
sg10
F0.42289163095768656
ssI465
(dp475
g9
F0.7784458470225454
sg10
F0.02577475835013976
ssI466
(dp476
g9
F0.6181860833807165
sg10
F0.5313749187812973
ssI467
(dp477
g9
F0.09646573673013203
sg10
F0.44636839691827124
ssI468
(dp478
g9
F0.51422148857069
sg10
F0.08588530231582159
ssI469
(dp479
g9
F0.5698777915469276
sg10
F0.4783493528200913
ssI470
(dp480
g9
F0.8267877556112609
sg10
F0.7688478985785657
ssI471
(dp481
g9
F0.24545478064296722
sg10
F0.467344187483159
ssI472
(dp482
g9
F0.1379241027940632
sg10
F0.7716375773127204
ssI473
(dp483
g9
F0.7870782187258706
sg10
F0.8966306846000393
ssI474
(dp484
g9
F0.9912460166227722
sg10
F0.8431170157087329
ssI475
(dp485
g9
F0.6390085994002935
sg10
F0.41831963074470313
ssI476
(dp486
g9
F0.15383786483195006
sg10
F0.42323701160078675
ssI477
(dp487
g9
F0.974831545810946
sg10
F0.06718461016952526
ssI478
(dp488
g9
F0.007206874132096752
sg10
F0.21272430571602718
ssI479
(dp489
g9
F0.023226930917646493
sg10
F0.8100995157577996
ssI480
(dp490
g9
F0.6236749398863078
sg10
F0.9038304275997153
ssI481
(dp491
g9
F0.6165446691441029
sg10
F0.45459800512622295
ssI482
(dp492
g9
F0.6084245384285221
sg10
F0.7395510428187161
ssI483
(dp493
g9
F0.41768653633056707
sg10
F0.645920598186368
ssI484
(dp494
g9
F0.9910823461589103
sg10
F0.2008053897172789
ssI485
(dp495
g9
F0.17307867165927437
sg10
F0.668318004736374
ssI486
(dp496
g9
F0.9321384888508417
sg10
F0.232601391618241
ssI487
(dp497
g9
F0.6715540062886053
sg10
F0.1696952638954764
ssI488
(dp498
g9
F0.35746630510596844
sg10
F0.016338560238170596
ssI489
(dp499
g9
F0.8466243537341495
sg10
F0.32907868216770353
ssI490
(dp500
g9
F0.8406217001436367
sg10
F0.017488087887800763
ssI491
(dp501
g9
F0.06412888576502218
sg10
F0.022661420333255577
ssI492
(dp502
g9
F0.7193351244861744
sg10
F0.4415559852661617
ssI493
(dp503
g9
F0.5700666869582003
sg10
F0.8396101912235711
ssI494
(dp504
g9
F0.3623442710483874
sg10
F0.29128303429340574
ssI495
(dp505
g9
F0.6052206962530216
sg10
F0.36757207039120887
ssI496
(dp506
g9
F0.9568171756107122
sg10
F0.03618215242334566
ssI497
(dp507
g9
F0.9547300380195237
sg10
F0.3624078298371384
ssI498
(dp508
g9
F0.770551707389178
sg10
F0.01551942087298186
ssI499
(dp509
g9
F0.8556584954488013
sg10
F0.5032014239236804
sssS'node_dict_factory'
p510
c__builtin__
dict
p511
sS'edge_attr_dict_factory'
p512
g511
sS'edge'
p513
(dp514
I0
(dp515
sI1
(dp516
sI2
(dp517
sI3
(dp518
sI4
(dp519
sI5
(dp520
sI6
(dp521
sI7
(dp522
sI8
(dp523
sI9
(dp524
sI10
(dp525
sI11
(dp526
sI12
(dp527
sI13
(dp528
sI14
(dp529
sI15
(dp530
sI16
(dp531
sI17
(dp532
sI18
(dp533
sI19
(dp534
sI20
(dp535
sI21
(dp536
sI22
(dp537
sI23
(dp538
sI24
(dp539
sI25
(dp540
sI26
(dp541
sI27
(dp542
sI28
(dp543
sI29
(dp544
sI30
(dp545
sI31
(dp546
sI32
(dp547
sI33
(dp548
sI34
(dp549
sI35
(dp550
sI36
(dp551
sI37
(dp552
sI38
(dp553
sI39
(dp554
sI40
(dp555
sI41
(dp556
sI42
(dp557
sI43
(dp558
sI44
(dp559
sI45
(dp560
sI46
(dp561
sI47
(dp562
sI48
(dp563
sI49
(dp564
sI50
(dp565
sI51
(dp566
sI52
(dp567
sI53
(dp568
sI54
(dp569
sI55
(dp570
sI56
(dp571
sI57
(dp572
sI58
(dp573
sI59
(dp574
sI60
(dp575
sI61
(dp576
sI62
(dp577
sI63
(dp578
sI64
(dp579
sI65
(dp580
sI66
(dp581
sI67
(dp582
sI68
(dp583
sI69
(dp584
sI70
(dp585
sI71
(dp586
sI72
(dp587
sI73
(dp588
sI74
(dp589
sI75
(dp590
sI76
(dp591
sI77
(dp592
sI78
(dp593
sI79
(dp594
sI80
(dp595
sI81
(dp596
sI82
(dp597
sI83
(dp598
sI84
(dp599
sI85
(dp600
sI86
(dp601
sI87
(dp602
sI88
(dp603
sI89
(dp604
sI90
(dp605
sI91
(dp606
sI92
(dp607
sI93
(dp608
sI94
(dp609
sI95
(dp610
sI96
(dp611
sI97
(dp612
sI98
(dp613
sI99
(dp614
sI100
(dp615
sI101
(dp616
sI102
(dp617
sI103
(dp618
sI104
(dp619
sI105
(dp620
sI106
(dp621
sI107
(dp622
sI108
(dp623
sI109
(dp624
sI110
(dp625
sI111
(dp626
sI112
(dp627
sI113
(dp628
sI114
(dp629
sI115
(dp630
sI116
(dp631
sI117
(dp632
sI118
(dp633
sI119
(dp634
sI120
(dp635
sI121
(dp636
sI122
(dp637
sI123
(dp638
sI124
(dp639
sI125
(dp640
sI126
(dp641
sI127
(dp642
sI128
(dp643
sI129
(dp644
sI130
(dp645
sI131
(dp646
sI132
(dp647
sI133
(dp648
sI134
(dp649
sI135
(dp650
sI136
(dp651
sI137
(dp652
sI138
(dp653
sI139
(dp654
sI140
(dp655
sI141
(dp656
sI142
(dp657
sI143
(dp658
sI144
(dp659
sI145
(dp660
sI146
(dp661
sI147
(dp662
sI148
(dp663
sI149
(dp664
sI150
(dp665
sI151
(dp666
sI152
(dp667
sI153
(dp668
sI154
(dp669
sI155
(dp670
sI156
(dp671
sI157
(dp672
sI158
(dp673
sI159
(dp674
sI160
(dp675
sI161
(dp676
sI162
(dp677
sI163
(dp678
sI164
(dp679
sI165
(dp680
sI166
(dp681
sI167
(dp682
sI168
(dp683
sI169
(dp684
sI170
(dp685
sI171
(dp686
sI172
(dp687
sI173
(dp688
sI174
(dp689
sI175
(dp690
sI176
(dp691
sI177
(dp692
sI178
(dp693
sI179
(dp694
sI180
(dp695
sI181
(dp696
sI182
(dp697
sI183
(dp698
sI184
(dp699
sI185
(dp700
sI186
(dp701
sI187
(dp702
sI188
(dp703
sI189
(dp704
sI190
(dp705
sI191
(dp706
sI192
(dp707
sI193
(dp708
sI194
(dp709
sI195
(dp710
sI196
(dp711
sI197
(dp712
sI198
(dp713
sI199
(dp714
sI200
(dp715
sI201
(dp716
sI202
(dp717
sI203
(dp718
sI204
(dp719
sI205
(dp720
sI206
(dp721
sI207
(dp722
sI208
(dp723
sI209
(dp724
sI210
(dp725
sI211
(dp726
sI212
(dp727
sI213
(dp728
sI214
(dp729
sI215
(dp730
sI216
(dp731
sI217
(dp732
sI218
(dp733
sI219
(dp734
sI220
(dp735
sI221
(dp736
sI222
(dp737
sI223
(dp738
sI224
(dp739
sI225
(dp740
sI226
(dp741
sI227
(dp742
sI228
(dp743
sI229
(dp744
sI230
(dp745
sI231
(dp746
sI232
(dp747
sI233
(dp748
sI234
(dp749
sI235
(dp750
sI236
(dp751
sI237
(dp752
sI238
(dp753
sI239
(dp754
sI240
(dp755
sI241
(dp756
sI242
(dp757
sI243
(dp758
sI244
(dp759
sI245
(dp760
sI246
(dp761
sI247
(dp762
sI248
(dp763
sI249
(dp764
sI250
(dp765
sI251
(dp766
sI252
(dp767
sI253
(dp768
sI254
(dp769
sI255
(dp770
sI256
(dp771
sI257
(dp772
sI258
(dp773
sI259
(dp774
sI260
(dp775
sI261
(dp776
sI262
(dp777
sI263
(dp778
sI264
(dp779
sI265
(dp780
sI266
(dp781
sI267
(dp782
sI268
(dp783
sI269
(dp784
sI270
(dp785
sI271
(dp786
sI272
(dp787
sI273
(dp788
sI274
(dp789
sI275
(dp790
sI276
(dp791
sI277
(dp792
sI278
(dp793
sI279
(dp794
sI280
(dp795
sI281
(dp796
sI282
(dp797
sI283
(dp798
sI284
(dp799
sI285
(dp800
sI286
(dp801
sI287
(dp802
sI288
(dp803
sI289
(dp804
sI290
(dp805
sI291
(dp806
sI292
(dp807
sI293
(dp808
sI294
(dp809
sI295
(dp810
sI296
(dp811
sI297
(dp812
sI298
(dp813
sI299
(dp814
sI300
(dp815
sI301
(dp816
sI302
(dp817
sI303
(dp818
sI304
(dp819
sI305
(dp820
sI306
(dp821
sI307
(dp822
sI308
(dp823
sI309
(dp824
sI310
(dp825
sI311
(dp826
sI312
(dp827
sI313
(dp828
sI314
(dp829
sI315
(dp830
sI316
(dp831
sI317
(dp832
sI318
(dp833
sI319
(dp834
sI320
(dp835
sI321
(dp836
sI322
(dp837
sI323
(dp838
sI324
(dp839
sI325
(dp840
sI326
(dp841
sI327
(dp842
sI328
(dp843
sI329
(dp844
sI330
(dp845
sI331
(dp846
sI332
(dp847
sI333
(dp848
sI334
(dp849
sI335
(dp850
sI336
(dp851
sI337
(dp852
sI338
(dp853
sI339
(dp854
sI340
(dp855
sI341
(dp856
sI342
(dp857
sI343
(dp858
sI344
(dp859
sI345
(dp860
sI346
(dp861
sI347
(dp862
sI348
(dp863
sI349
(dp864
sI350
(dp865
sI351
(dp866
sI352
(dp867
sI353
(dp868
sI354
(dp869
sI355
(dp870
sI356
(dp871
sI357
(dp872
sI358
(dp873
sI359
(dp874
sI360
(dp875
sI361
(dp876
sI362
(dp877
sI363
(dp878
sI364
(dp879
sI365
(dp880
sI366
(dp881
sI367
(dp882
sI368
(dp883
sI369
(dp884
sI370
(dp885
sI371
(dp886
sI372
(dp887
sI373
(dp888
sI374
(dp889
sI375
(dp890
sI376
(dp891
sI377
(dp892
sI378
(dp893
sI379
(dp894
sI380
(dp895
sI381
(dp896
sI382
(dp897
sI383
(dp898
sI384
(dp899
sI385
(dp900
sI386
(dp901
sI387
(dp902
sI388
(dp903
sI389
(dp904
sI390
(dp905
sI391
(dp906
sI392
(dp907
sI393
(dp908
sI394
(dp909
sI395
(dp910
sI396
(dp911
sI397
(dp912
sI398
(dp913
sI399
(dp914
sI400
(dp915
sI401
(dp916
sI402
(dp917
sI403
(dp918
sI404
(dp919
sI405
(dp920
sI406
(dp921
sI407
(dp922
sI408
(dp923
sI409
(dp924
sI410
(dp925
sI411
(dp926
sI412
(dp927
sI413
(dp928
sI414
(dp929
sI415
(dp930
sI416
(dp931
sI417
(dp932
sI418
(dp933
sI419
(dp934
sI420
(dp935
sI421
(dp936
sI422
(dp937
sI423
(dp938
sI424
(dp939
sI425
(dp940
sI426
(dp941
sI427
(dp942
sI428
(dp943
sI429
(dp944
sI430
(dp945
sI431
(dp946
sI432
(dp947
sI433
(dp948
sI434
(dp949
sI435
(dp950
sI436
(dp951
sI437
(dp952
sI438
(dp953
sI439
(dp954
sI440
(dp955
sI441
(dp956
sI442
(dp957
sI443
(dp958
sI444
(dp959
sI445
(dp960
sI446
(dp961
sI447
(dp962
sI448
(dp963
sI449
(dp964
sI450
(dp965
sI451
(dp966
sI452
(dp967
sI453
(dp968
sI454
(dp969
sI455
(dp970
sI456
(dp971
sI457
(dp972
sI458
(dp973
sI459
(dp974
sI460
(dp975
sI461
(dp976
sI462
(dp977
sI463
(dp978
sI464
(dp979
sI465
(dp980
sI466
(dp981
sI467
(dp982
sI468
(dp983
sI469
(dp984
sI470
(dp985
sI471
(dp986
sI472
(dp987
sI473
(dp988
sI474
(dp989
sI475
(dp990
sI476
(dp991
sI477
(dp992
sI478
(dp993
sI479
(dp994
sI480
(dp995
sI481
(dp996
sI482
(dp997
sI483
(dp998
sI484
(dp999
sI485
(dp1000
sI486
(dp1001
sI487
(dp1002
sI488
(dp1003
sI489
(dp1004
sI490
(dp1005
sI491
(dp1006
sI492
(dp1007
sI493
(dp1008
sI494
(dp1009
sI495
(dp1010
sI496
(dp1011
sI497
(dp1012
sI498
(dp1013
sI499
(dp1014
ssS'graph'
p1015
(dp1016
sS'adjlist_dict_factory'
p1017
g511
sS'adj'
p1018
g514
sb.