ccopy_reg
_reconstructor
p0
(cnetworkx.classes.graph
Graph
p1
c__builtin__
object
p2
Ntp3
Rp4
(dp5
S'node'
p6
(dp7
I0
(dp8
S'pos_x'
p9
F0.6599515947220443
sS'pos_y'
p10
F0.7404463945167664
ssI1
(dp11
g9
F0.5517208501258334
sg10
F0.15723681266128375
ssI2
(dp12
g9
F0.902475133687045
sg10
F0.5367594519073937
ssI3
(dp13
g9
F0.34152777656080735
sg10
F0.7156745915161552
ssI4
(dp14
g9
F0.8206290096068004
sg10
F0.8497067374301536
ssI5
(dp15
g9
F0.6983227541531442
sg10
F0.44579196121289544
ssI6
(dp16
g9
F0.3090065086659365
sg10
F0.4085063765084298
ssI7
(dp17
g9
F0.7965964183232315
sg10
F0.06731808801437911
ssI8
(dp18
g9
F0.7302573508452972
sg10
F0.7644289327259918
ssI9
(dp19
g9
F0.9789841632046317
sg10
F0.3396628015609692
ssI10
(dp20
g9
F0.006547296900212385
sg10
F0.2608769878421556
ssI11
(dp21
g9
F0.13840023591896444
sg10
F0.45861716511880735
ssI12
(dp22
g9
F0.696807738172674
sg10
F0.632638323486195
ssI13
(dp23
g9
F0.13211222834071712
sg10
F0.15590755830243697
ssI14
(dp24
g9
F0.947184428673364
sg10
F0.5009314147756705
ssI15
(dp25
g9
F0.8184627508427329
sg10
F0.5619367934315197
ssI16
(dp26
g9
F0.3731872890713087
sg10
F0.6037527578806575
ssI17
(dp27
g9
F0.21681401981769488
sg10
F0.3273384444160592
ssI18
(dp28
g9
F0.467345166805211
sg10
F0.5912979612098601
ssI19
(dp29
g9
F0.21224502471269013
sg10
F0.1106556875221264
ssI20
(dp30
g9
F0.07634496829472381
sg10
F0.5806184764423395
ssI21
(dp31
g9
F0.3933323290099402
sg10
F0.5642879272803105
ssI22
(dp32
g9
F0.8630035965421049
sg10
F0.9739733725989436
ssI23
(dp33
g9
F0.6420899926479735
sg10
F0.7606606800411243
ssI24
(dp34
g9
F0.30518489421003425
sg10
F0.40728386523361926
ssI25
(dp35
g9
F0.06647166334477705
sg10
F0.9425242971944829
ssI26
(dp36
g9
F0.2457205265512652
sg10
F0.0384074939052802
ssI27
(dp37
g9
F0.10358939791449773
sg10
F0.8749059398036566
ssI28
(dp38
g9
F0.27992530394816517
sg10
F0.4216664525290881
ssI29
(dp39
g9
F0.7724683806370418
sg10
F0.7356743286171001
ssI30
(dp40
g9
F0.8169296161383679
sg10
F0.1745005640282986
ssI31
(dp41
g9
F0.9065014159718023
sg10
F0.2329420831526865
ssI32
(dp42
g9
F0.9792756083988864
sg10
F0.1584775739984592
ssI33
(dp43
g9
F0.5978412177896669
sg10
F0.38044377936782214
ssI34
(dp44
g9
F0.992310161204441
sg10
F0.6606170461574347
ssI35
(dp45
g9
F0.16500840434748265
sg10
F0.8590570260864829
ssI36
(dp46
g9
F0.7895443587268933
sg10
F0.0036009579696381078
ssI37
(dp47
g9
F0.3952586550451176
sg10
F0.263026405607625
ssI38
(dp48
g9
F0.3568330832941229
sg10
F0.21415911271150212
ssI39
(dp49
g9
F0.16369645730965832
sg10
F0.6919424784490846
ssI40
(dp50
g9
F0.2364313339306897
sg10
F0.9009029298519939
ssI41
(dp51
g9
F0.9774017522020958
sg10
F0.23652922759393735
ssI42
(dp52
g9
F0.7052935053047215
sg10
F0.9609103204268056
ssI43
(dp53
g9
F0.6148908905148287
sg10
F0.2716163248321818
ssI44
(dp54
g9
F0.6798447073338376
sg10
F0.6376942714437251
ssI45
(dp55
g9
F0.4656025956709229
sg10
F0.4522073785996048
ssI46
(dp56
g9
F0.19134633544880286
sg10
F0.872669760929848
ssI47
(dp57
g9
F0.5336218161079562
sg10
F0.36593811095892925
ssI48
(dp58
g9
F0.0654427804105685
sg10
F0.25587222778573004
ssI49
(dp59
g9
F0.33312483232912105
sg10
F0.8831140225346976
ssI50
(dp60
g9
F0.5175817168338526
sg10
F0.7090612922471661
ssI51
(dp61
g9
F0.1239472777518279
sg10
F0.9747904884484166
ssI52
(dp62
g9
F0.21944637119735177
sg10
F0.9829329273013498
ssI53
(dp63
g9
F0.5249498422493374
sg10
F0.04259440130193459
ssI54
(dp64
g9
F0.7963694657714672
sg10
F0.14440210590160363
ssI55
(dp65
g9
F0.758374743734985
sg10
F0.09821118333698575
ssI56
(dp66
g9
F0.006754794977447909
sg10
F0.23233396063523093
ssI57
(dp67
g9
F0.1618832210395088
sg10
F0.07684674019690874
ssI58
(dp68
g9
F0.6364395415317382
sg10
F0.3774851562291812
ssI59
(dp69
g9
F0.8265935120514872
sg10
F0.8146632836667423
ssI60
(dp70
g9
F0.5395689146894347
sg10
F0.6799532638033828
ssI61
(dp71
g9
F0.7757268331160898
sg10
F0.24069396133773746
ssI62
(dp72
g9
F0.8086277895734262
sg10
F0.25568198717977353
ssI63
(dp73
g9
F0.38532303918742783
sg10
F0.5767899259038075
ssI64
(dp74
g9
F0.4490503850483253
sg10
F0.40696967922554517
ssI65
(dp75
g9
F0.7583318994298213
sg10
F0.5367257193571281
ssI66
(dp76
g9
F0.3617561985390654
sg10
F0.6505019670257493
ssI67
(dp77
g9
F0.5712735566200733
sg10
F0.8289376600581592
ssI68
(dp78
g9
F0.47444236884433666
sg10
F0.7791861654655367
ssI69
(dp79
g9
F0.35284047883279135
sg10
F0.8077199477431513
ssI70
(dp80
g9
F0.4943147774768393
sg10
F0.7434179014936071
ssI71
(dp81
g9
F0.9759011583567042
sg10
F0.46983332230243324
ssI72
(dp82
g9
F0.31778196173542317
sg10
F0.7547454780571786
ssI73
(dp83
g9
F0.435072298907075
sg10
F0.531007868837107
ssI74
(dp84
g9
F0.08856291949907724
sg10
F0.10202204507634349
ssI75
(dp85
g9
F0.8486786907083321
sg10
F0.9679584984076133
ssI76
(dp86
g9
F0.21123357260752929
sg10
F0.3828695180164712
ssI77
(dp87
g9
F0.7468524332336894
sg10
F0.6468740479114571
ssI78
(dp88
g9
F0.9286309030091981
sg10
F0.8084024776425156
ssI79
(dp89
g9
F0.7896537323610395
sg10
F0.09536905860225697
ssI80
(dp90
g9
F0.26877386295803884
sg10
F0.24922417536090513
ssI81
(dp91
g9
F0.4919233943310318
sg10
F0.4758209330608799
ssI82
(dp92
g9
F0.14534918729643587
sg10
F0.7064749711998226
ssI83
(dp93
g9
F0.7993383303578462
sg10
F0.3944638759723885
ssI84
(dp94
g9
F0.7245333604507108
sg10
F0.05864326479174509
ssI85
(dp95
g9
F0.9876877277312786
sg10
F0.9838204648736513
ssI86
(dp96
g9
F0.4395240521602265
sg10
F0.7562159061010695
ssI87
(dp97
g9
F0.9302168081408283
sg10
F0.15952038102659105
ssI88
(dp98
g9
F0.19241786119204507
sg10
F0.8730135037221
ssI89
(dp99
g9
F0.8415327251210105
sg10
F0.11827778628956975
ssI90
(dp100
g9
F0.316348918529483
sg10
F0.33869943764826194
ssI91
(dp101
g9
F0.18835335661601227
sg10
F0.36344112444712007
ssI92
(dp102
g9
F0.9028555318334421
sg10
F0.8971658159115163
ssI93
(dp103
g9
F0.811718734227614
sg10
F0.4011615793869241
ssI94
(dp104
g9
F0.823281920421222
sg10
F0.7246092971389987
ssI95
(dp105
g9
F0.3984090411840806
sg10
F0.9621578855964057
ssI96
(dp106
g9
F0.9357604303315571
sg10
F0.02637298102214125
ssI97
(dp107
g9
F0.3100879233673778
sg10
F0.9295261637270931
ssI98
(dp108
g9
F0.5306016880439958
sg10
F0.4811570273339738
ssI99
(dp109
g9
F0.9168742532252115
sg10
F0.5680244181710702
ssI100
(dp110
g9
F0.05371835972997563
sg10
F0.7140684029615024
ssI101
(dp111
g9
F0.34882875044165806
sg10
F0.5201922872932655
ssI102
(dp112
g9
F0.21774224745793214
sg10
F0.4875589549310615
ssI103
(dp113
g9
F0.06768218586592212
sg10
F0.4460320302967983
ssI104
(dp114
g9
F0.999975100126273
sg10
F0.9507000494197213
ssI105
(dp115
g9
F0.9029091964269175
sg10
F0.12445467948442646
ssI106
(dp116
g9
F0.9999621274184352
sg10
F0.2521395603837737
ssI107
(dp117
g9
F0.6230736662946986
sg10
F0.6634820476887361
ssI108
(dp118
g9
F0.896068555983593
sg10
F0.6823870237465903
ssI109
(dp119
g9
F0.3949862820473454
sg10
F0.0015268400775888535
ssI110
(dp120
g9
F0.3243309133809308
sg10
F0.9393990877728031
ssI111
(dp121
g9
F0.05302388638447475
sg10
F0.08393251293144632
ssI112
(dp122
g9
F0.5790534964155125
sg10
F0.8107383271412875
ssI113
(dp123
g9
F0.38802072176400515
sg10
F0.030909693810901695
ssI114
(dp124
g9
F0.05468584693114509
sg10
F0.8651511725041201
ssI115
(dp125
g9
F0.7842244395370878
sg10
F0.19053593172242544
ssI116
(dp126
g9
F0.2120886968731528
sg10
F0.7014148795999919
ssI117
(dp127
g9
F0.8100311494422879
sg10
F0.6827903463962421
ssI118
(dp128
g9
F0.6051279799976628
sg10
F0.27754888863815164
ssI119
(dp129
g9
F0.31227295647589626
sg10
F0.33182220277921615
ssI120
(dp130
g9
F0.41066862427326534
sg10
F0.829869001128655
ssI121
(dp131
g9
F0.6270947157717511
sg10
F0.5977387390539458
ssI122
(dp132
g9
F0.7980107890341237
sg10
F0.580088750065124
ssI123
(dp133
g9
F0.33899251582857903
sg10
F0.8795242809605
ssI124
(dp134
g9
F0.08835287531710012
sg10
F0.7457822014431887
ssI125
(dp135
g9
F0.9875605173149873
sg10
F0.6860566791967244
ssI126
(dp136
g9
F0.3275214137622996
sg10
F0.6945662840145931
ssI127
(dp137
g9
F0.27099713189703045
sg10
F0.34446528369897167
ssI128
(dp138
g9
F0.9593971107330493
sg10
F0.9299826698485548
ssI129
(dp139
g9
F0.22896724234536436
sg10
F0.08030532235813936
ssI130
(dp140
g9
F0.13649138838725305
sg10
F0.6102212840118483
ssI131
(dp141
g9
F0.5395626085563939
sg10
F0.2267838071369307
ssI132
(dp142
g9
F0.22068151848128303
sg10
F0.43034732873242165
ssI133
(dp143
g9
F0.44731887474817256
sg10
F0.2711308394427132
ssI134
(dp144
g9
F0.13075636827344717
sg10
F0.32390772355576625
ssI135
(dp145
g9
F0.37408802035473676
sg10
F0.19465605561471921
ssI136
(dp146
g9
F0.5483486019410863
sg10
F0.6150674092026304
ssI137
(dp147
g9
F0.7097546472718753
sg10
F0.5107574089127109
ssI138
(dp148
g9
F0.45084397196283577
sg10
F0.1827232269161032
ssI139
(dp149
g9
F0.776265332056298
sg10
F0.309328852102732
ssI140
(dp150
g9
F0.3979240914059816
sg10
F0.3469135442674022
ssI141
(dp151
g9
F0.6885475045454915
sg10
F0.8782835000302904
ssI142
(dp152
g9
F0.01253564613792646
sg10
F0.04417253897096696
ssI143
(dp153
g9
F0.875747358291177
sg10
F0.21310883273289982
ssI144
(dp154
g9
F0.3917271934167822
sg10
F0.2398406232785416
ssI145
(dp155
g9
F0.4786207375444159
sg10
F0.480362170523542
ssI146
(dp156
g9
F0.5717940883889119
sg10
F0.6734728149629985
ssI147
(dp157
g9
F0.4588007287786713
sg10
F0.21997572085537453
ssI148
(dp158
g9
F0.4325139841622615
sg10
F0.6087219420238054
ssI149
(dp159
g9
F0.2838950146526894
sg10
F0.7494068716705548
ssI150
(dp160
g9
F0.11989489371991202
sg10
F0.679328170709126
ssI151
(dp161
g9
F0.17467265792036935
sg10
F0.6145194688627483
ssI152
(dp162
g9
F0.7388976673092538
sg10
F0.7715348270163763
ssI153
(dp163
g9
F0.46949459406666283
sg10
F0.9470861602496562
ssI154
(dp164
g9
F0.18799974812430886
sg10
F0.6656525071838101
ssI155
(dp165
g9
F0.06714248784696342
sg10
F0.09933068164925385
ssI156
(dp166
g9
F0.5863322098971316
sg10
F0.9757372190244347
ssI157
(dp167
g9
F0.08147804080966181
sg10
F0.7261280926406817
ssI158
(dp168
g9
F0.4620950481856402
sg10
F0.36100777018771424
ssI159
(dp169
g9
F0.9453036033930409
sg10
F0.26389420656791995
ssI160
(dp170
g9
F0.32446321962792735
sg10
F0.6724346331908791
ssI161
(dp171
g9
F0.890472008108035
sg10
F0.2587787108187769
ssI162
(dp172
g9
F0.027221000179544652
sg10
F0.17988983589116392
ssI163
(dp173
g9
F0.24161276654705877
sg10
F0.8713484270883449
ssI164
(dp174
g9
F0.584040046140739
sg10
F0.28653263994319844
ssI165
(dp175
g9
F0.3235871265555389
sg10
F0.5277243068059002
ssI166
(dp176
g9
F0.920329317629253
sg10
F0.8069324078884
ssI167
(dp177
g9
F0.15705691493890317
sg10
F0.430149063613681
ssI168
(dp178
g9
F0.5067396307859677
sg10
F0.019935655997136092
ssI169
(dp179
g9
F0.25041083123628793
sg10
F0.5121562378732697
ssI170
(dp180
g9
F0.9972415466039425
sg10
F0.2628788556919899
ssI171
(dp181
g9
F0.311460702776284
sg10
F0.7482710083148075
ssI172
(dp182
g9
F0.0512615449207382
sg10
F0.869997168688772
ssI173
(dp183
g9
F0.17600937328604382
sg10
F0.19170723506881326
ssI174
(dp184
g9
F0.7135003983266653
sg10
F0.0409630668404839
ssI175
(dp185
g9
F0.20127931372778562
sg10
F0.3688759564996278
ssI176
(dp186
g9
F0.5307679295952942
sg10
F0.1651249679307688
ssI177
(dp187
g9
F0.7266835532369706
sg10
F0.8487102543854909
ssI178
(dp188
g9
F0.7372977125664998
sg10
F0.4502043730671951
ssI179
(dp189
g9
F0.3305511590343876
sg10
F0.4586400754743455
ssI180
(dp190
g9
F0.2686840873558137
sg10
F0.9146579405735547
ssI181
(dp191
g9
F0.8850504864003913
sg10
F0.6579030320196719
ssI182
(dp192
g9
F0.5737917597202805
sg10
F0.5147463330701699
ssI183
(dp193
g9
F0.9537386079928063
sg10
F0.32968820627178885
ssI184
(dp194
g9
F0.9865647623645704
sg10
F0.7520958215183446
ssI185
(dp195
g9
F0.3719831137344721
sg10
F0.6914176238841166
ssI186
(dp196
g9
F0.512918389101285
sg10
F0.8869451994151025
ssI187
(dp197
g9
F0.11163165167636324
sg10
F0.25721821400326583
ssI188
(dp198
g9
F0.17751026356444544
sg10
F0.8817715688473835
ssI189
(dp199
g9
F0.9878884330798833
sg10
F0.6135061870971021
ssI190
(dp200
g9
F0.2979610040746571
sg10
F0.029278224002196263
ssI191
(dp201
g9
F0.9233651690512149
sg10
F0.7979981517728214
ssI192
(dp202
g9
F0.6197023948792687
sg10
F0.21652039242955845
ssI193
(dp203
g9
F0.36240247355909094
sg10
F0.3524288014972706
ssI194
(dp204
g9
F0.31324143901012647
sg10
F0.3610859298271838
ssI195
(dp205
g9
F0.8525428676377362
sg10
F0.22132285613621394
ssI196
(dp206
g9
F0.8749061048133697
sg10
F0.995174461530051
ssI197
(dp207
g9
F0.7844318492185377
sg10
F0.8911888921649506
ssI198
(dp208
g9
F0.23383352417290038
sg10
F0.3662943743134961
ssI199
(dp209
g9
F0.06252195097564872
sg10
F0.8100834309336881
ssI200
(dp210
g9
F0.27406812269755376
sg10
F0.932730317096144
ssI201
(dp211
g9
F0.8493028861238122
sg10
F0.3579674535823256
ssI202
(dp212
g9
F0.47803577798068897
sg10
F0.3787706497224137
ssI203
(dp213
g9
F0.5591412634984287
sg10
F0.06848616566297827
ssI204
(dp214
g9
F0.43812485452585204
sg10
F0.1603311866563054
ssI205
(dp215
g9
F0.6157867892379756
sg10
F0.47387724073608917
ssI206
(dp216
g9
F0.5033715220956617
sg10
F0.6526364301178538
ssI207
(dp217
g9
F0.5211337967261114
sg10
F0.8426630449788471
ssI208
(dp218
g9
F0.9566429437465587
sg10
F0.152444718713326
ssI209
(dp219
g9
F0.11644833385428799
sg10
F0.6242273498395865
ssI210
(dp220
g9
F0.7398544511151958
sg10
F0.5770960113904282
ssI211
(dp221
g9
F0.001933325117403295
sg10
F0.963425682870731
ssI212
(dp222
g9
F0.23495003486903765
sg10
F0.5938456492839105
ssI213
(dp223
g9
F0.020177109651187575
sg10
F0.0666193808946266
ssI214
(dp224
g9
F0.7045582039067803
sg10
F0.4609744064263548
ssI215
(dp225
g9
F0.4567587407868038
sg10
F0.13744586593430363
ssI216
(dp226
g9
F0.24150057370816203
sg10
F0.2995162579544164
ssI217
(dp227
g9
F0.6960010494302584
sg10
F0.23980517796110656
ssI218
(dp228
g9
F0.5286357316566763
sg10
F0.825254444748098
ssI219
(dp229
g9
F0.03949542851098409
sg10
F0.528992462603973
ssI220
(dp230
g9
F0.8485264881386505
sg10
F0.2602294539878238
ssI221
(dp231
g9
F0.1890460971939324
sg10
F0.6962782247763563
ssI222
(dp232
g9
F0.46411862587947217
sg10
F0.17580506132485085
ssI223
(dp233
g9
F0.024225945739455357
sg10
F0.4244050758882548
ssI224
(dp234
g9
F0.9457378105003305
sg10
F0.5876983225165964
ssI225
(dp235
g9
F0.020263544996083738
sg10
F0.9191860624350052
ssI226
(dp236
g9
F0.07810330327160342
sg10
F0.9035236204722793
ssI227
(dp237
g9
F0.14054774913610923
sg10
F0.12444087564599349
ssI228
(dp238
g9
F0.10665490871375272
sg10
F0.5088590872290819
ssI229
(dp239
g9
F0.3589853495250209
sg10
F0.8608600425919993
ssI230
(dp240
g9
F0.6333511371996251
sg10
F0.6610241813306165
ssI231
(dp241
g9
F0.9849390520205336
sg10
F0.003032585094123963
ssI232
(dp242
g9
F0.13894538315108895
sg10
F0.2160697937249647
ssI233
(dp243
g9
F0.6790829145325381
sg10
F0.4519615556262627
ssI234
(dp244
g9
F0.6363694077505158
sg10
F0.8201386376737642
ssI235
(dp245
g9
F0.6952472218543997
sg10
F0.9183535608792893
ssI236
(dp246
g9
F0.579765402226043
sg10
F0.17721841173931274
ssI237
(dp247
g9
F0.5122777260176525
sg10
F0.9372948926046311
ssI238
(dp248
g9
F0.5656253131661029
sg10
F0.3729246985273522
ssI239
(dp249
g9
F0.5861765011860034
sg10
F0.7781443012485777
ssI240
(dp250
g9
F0.7140253946554979
sg10
F0.8701863497108864
ssI241
(dp251
g9
F0.29383892190351213
sg10
F0.8896885137052933
ssI242
(dp252
g9
F0.16248077933808935
sg10
F0.5378406976235952
ssI243
(dp253
g9
F0.7126715086956563
sg10
F0.43208374492528634
ssI244
(dp254
g9
F0.04629771146258843
sg10
F0.7217910392093482
ssI245
(dp255
g9
F0.445011189806757
sg10
F0.9710432034792441
ssI246
(dp256
g9
F0.4746173065967464
sg10
F0.7748083459892884
ssI247
(dp257
g9
F0.7192803889111798
sg10
F0.0680165766667743
ssI248
(dp258
g9
F0.05759374243855797
sg10
F0.021110656895327873
ssI249
(dp259
g9
F0.1527458579559099
sg10
F0.9228337476457804
ssI250
(dp260
g9
F0.407822544461634
sg10
F0.5318118558035124
ssI251
(dp261
g9
F0.5386342592378608
sg10
F0.7326533916485116
ssI252
(dp262
g9
F0.022278816298632376
sg10
F0.557791857320747
ssI253
(dp263
g9
F0.9053968676658144
sg10
F0.5337489393393313
ssI254
(dp264
g9
F0.07703476901430939
sg10
F0.4538329051250509
ssI255
(dp265
g9
F0.3159572951844195
sg10
F0.6673219177058891
ssI256
(dp266
g9
F0.9237370326989203
sg10
F0.3926496696047257
ssI257
(dp267
g9
F0.9207358559157743
sg10
F0.20137211332081717
ssI258
(dp268
g9
F0.0937066946230044
sg10
F0.43325682153252787
ssI259
(dp269
g9
F0.5796072255024897
sg10
F0.8391945531909153
ssI260
(dp270
g9
F0.07898575949727227
sg10
F0.6008080160015536
ssI261
(dp271
g9
F0.18151437292593586
sg10
F0.19909659719944084
ssI262
(dp272
g9
F0.8759064185282238
sg10
F0.46390200977476426
ssI263
(dp273
g9
F0.6038436985961273
sg10
F0.9627544303741319
ssI264
(dp274
g9
F0.7583426428681255
sg10
F0.046416601385422473
ssI265
(dp275
g9
F0.13045102956351062
sg10
F0.5267386454003932
ssI266
(dp276
g9
F0.3406001668678449
sg10
F0.15033860447297853
ssI267
(dp277
g9
F0.8058588550563642
sg10
F0.6884551235751566
ssI268
(dp278
g9
F0.7736611450005725
sg10
F0.9979637360155126
ssI269
(dp279
g9
F0.4284650092972926
sg10
F0.5975384445766663
ssI270
(dp280
g9
F0.22683162463726003
sg10
F0.16047731457849368
ssI271
(dp281
g9
F0.6412996674572468
sg10
F0.38602416913245474
ssI272
(dp282
g9
F0.5959094310330163
sg10
F0.7819460553917048
ssI273
(dp283
g9
F0.6777134818296036
sg10
F0.9087627521221084
ssI274
(dp284
g9
F0.5262902021780178
sg10
F0.018527909478115667
ssI275
(dp285
g9
F0.28603855353294205
sg10
F0.8985354617970737
ssI276
(dp286
g9
F0.31587288294430726
sg10
F0.8592801392948144
ssI277
(dp287
g9
F0.1592532986585019
sg10
F0.8285336859505203
ssI278
(dp288
g9
F0.45089542357429535
sg10
F0.8047453769290644
ssI279
(dp289
g9
F0.23648709970587167
sg10
F0.025925900899275045
ssI280
(dp290
g9
F0.3045960461187036
sg10
F0.10703955684685673
ssI281
(dp291
g9
F0.6882914457123642
sg10
F0.5509736950492179
ssI282
(dp292
g9
F0.3825909231988224
sg10
F0.39995848489601427
ssI283
(dp293
g9
F0.6907452988790301
sg10
F0.2780188421698726
ssI284
(dp294
g9
F0.7710711545051135
sg10
F0.10636203147232626
ssI285
(dp295
g9
F0.012112604472214739
sg10
F0.08205288645135034
ssI286
(dp296
g9
F0.930206720379975
sg10
F0.16338678546640373
ssI287
(dp297
g9
F0.1239640953583312
sg10
F0.10408411731238199
ssI288
(dp298
g9
F0.8335246273111001
sg10
F0.8623930251387838
ssI289
(dp299
g9
F0.643422002443875
sg10
F0.4378136643882302
ssI290
(dp300
g9
F0.09028938887575033
sg10
F0.6185256924007665
ssI291
(dp301
g9
F0.29534495887752954
sg10
F0.0999362548125996
ssI292
(dp302
g9
F0.28322016040354214
sg10
F0.584442827294592
ssI293
(dp303
g9
F0.45349923024741945
sg10
F0.3085201075005094
ssI294
(dp304
g9
F0.6787579257233943
sg10
F0.22869459158031824
ssI295
(dp305
g9
F0.015621843455567608
sg10
F0.9598544130096713
ssI296
(dp306
g9
F0.4197878221840816
sg10
F0.40974114291132846
ssI297
(dp307
g9
F0.7200251350834171
sg10
F0.4609879680485298
ssI298
(dp308
g9
F0.41236160163352986
sg10
F0.6762248288749512
ssI299
(dp309
g9
F0.7426201129555203
sg10
F0.39300498588689203
ssI300
(dp310
g9
F0.005606614017010236
sg10
F0.26358586969161135
ssI301
(dp311
g9
F0.803504614151915
sg10
F0.8923340955761747
ssI302
(dp312
g9
F0.7555306106632621
sg10
F0.8841301407050008
ssI303
(dp313
g9
F0.8088110359135379
sg10
F0.8620630923026172
ssI304
(dp314
g9
F0.03504825871258643
sg10
F0.3189924152783856
ssI305
(dp315
g9
F0.7711708074144121
sg10
F0.4060456170340626
ssI306
(dp316
g9
F0.735625117859966
sg10
F0.80027923225202
ssI307
(dp317
g9
F0.8337116928373307
sg10
F0.43379296484160923
ssI308
(dp318
g9
F0.73692577800113
sg10
F0.8783004755126242
ssI309
(dp319
g9
F0.059103265922794024
sg10
F0.5807354254425912
ssI310
(dp320
g9
F0.8427651513809967
sg10
F0.6618953755745832
ssI311
(dp321
g9
F0.4182292847166009
sg10
F0.6245692728960891
ssI312
(dp322
g9
F0.42903704666545395
sg10
F0.8379118086112795
ssI313
(dp323
g9
F0.020686767455342592
sg10
F0.8009688133196401
ssI314
(dp324
g9
F0.6670131870238892
sg10
F0.660384962689513
ssI315
(dp325
g9
F0.9714698275691576
sg10
F0.3077459080646454
ssI316
(dp326
g9
F0.05050704464272404
sg10
F0.06984813221820974
ssI317
(dp327
g9
F0.26557199247691055
sg10
F0.6849374731591309
ssI318
(dp328
g9
F0.336663136781018
sg10
F0.5435574844863964
ssI319
(dp329
g9
F0.4556828366449569
sg10
F0.5540307948685878
ssI320
(dp330
g9
F0.44757460611839084
sg10
F0.7349653509389389
ssI321
(dp331
g9
F0.7538153682201246
sg10
F0.5798078107933331
ssI322
(dp332
g9
F0.3145508316064176
sg10
F0.5269303366565418
ssI323
(dp333
g9
F0.769258687962353
sg10
F0.6155393404465146
ssI324
(dp334
g9
F0.9081975669018567
sg10
F0.24215216064556278
ssI325
(dp335
g9
F0.2792857017428224
sg10
F0.17034608040173094
ssI326
(dp336
g9
F0.07745302567195145
sg10
F0.3346998611181792
ssI327
(dp337
g9
F0.2362814264942995
sg10
F0.5902813648538128
ssI328
(dp338
g9
F0.135358375981819
sg10
F0.19654075563211648
ssI329
(dp339
g9
F0.5182915114250896
sg10
F0.6892455212998625
ssI330
(dp340
g9
F0.7787342134213417
sg10
F0.1700112405087144
ssI331
(dp341
g9
F0.06218331820723855
sg10
F0.8764449603459459
ssI332
(dp342
g9
F0.8100427532527987
sg10
F0.4971930540167344
ssI333
(dp343
g9
F0.32292491974784043
sg10
F0.5408002419306323
ssI334
(dp344
g9
F0.30744534815692925
sg10
F0.0008019321005464652
ssI335
(dp345
g9
F0.8570781208791812
sg10
F0.49715563530841933
ssI336
(dp346
g9
F0.24683600170555042
sg10
F0.663273105666923
ssI337
(dp347
g9
F0.881537475289111
sg10
F0.2846419530235187
ssI338
(dp348
g9
F0.725637729202907
sg10
F0.08896006141252666
ssI339
(dp349
g9
F0.17584380397092425
sg10
F0.13069955725690263
ssI340
(dp350
g9
F0.14641172620517162
sg10
F0.7995159112867
ssI341
(dp351
g9
F0.7427816414850462
sg10
F0.028688746135865473
ssI342
(dp352
g9
F0.555370641858955
sg10
F0.8640948744608324
ssI343
(dp353
g9
F0.8413365695996251
sg10
F0.3381550450814237
ssI344
(dp354
g9
F0.0052251314718050335
sg10
F0.9417560282942988
ssI345
(dp355
g9
F0.4337671976267421
sg10
F0.6514371147599861
ssI346
(dp356
g9
F0.036870819245116815
sg10
F0.11966318856702729
ssI347
(dp357
g9
F0.5013233149532778
sg10
F0.043252641574258344
ssI348
(dp358
g9
F0.6531512988505612
sg10
F0.8310859825970092
ssI349
(dp359
g9
F0.35388871074603656
sg10
F0.9034088195590485
ssI350
(dp360
g9
F0.8732582421276566
sg10
F0.01153653680179123
ssI351
(dp361
g9
F0.13616166866115398
sg10
F0.3422551877659651
ssI352
(dp362
g9
F0.21039209944652593
sg10
F0.8496929443645858
ssI353
(dp363
g9
F0.29472797165237496
sg10
F0.0430091556363964
ssI354
(dp364
g9
F0.9091739283914865
sg10
F0.5200611238398288
ssI355
(dp365
g9
F0.8592873434700656
sg10
F0.4733708538331327
ssI356
(dp366
g9
F0.04915869513074722
sg10
F0.3123165152588616
ssI357
(dp367
g9
F0.2532484974350553
sg10
F0.06874003827980657
ssI358
(dp368
g9
F0.6902584366635149
sg10
F0.22924904649066413
ssI359
(dp369
g9
F0.3505009500172267
sg10
F0.07452757469580162
ssI360
(dp370
g9
F0.5673406980077267
sg10
F0.4307297612472404
ssI361
(dp371
g9
F0.3698500568172567
sg10
F0.920212826466029
ssI362
(dp372
g9
F0.90844259580953
sg10
F0.556868119033756
ssI363
(dp373
g9
F0.2563405575404394
sg10
F0.594502322307597
ssI364
(dp374
g9
F0.4178272934420483
sg10
F0.1812151514756437
ssI365
(dp375
g9
F0.3850942607184602
sg10
F0.7350291096785013
ssI366
(dp376
g9
F0.5356074962385933
sg10
F0.8991198163150026
ssI367
(dp377
g9
F0.2959246706953996
sg10
F0.13315942551481497
ssI368
(dp378
g9
F0.3042029134688933
sg10
F0.09312084043453561
ssI369
(dp379
g9
F0.3418685068263666
sg10
F0.4873965541423284
ssI370
(dp380
g9
F0.39925123211192726
sg10
F0.4679956039609794
ssI371
(dp381
g9
F0.9944770127311955
sg10
F0.9051874565904642
ssI372
(dp382
g9
F0.9105810751398778
sg10
F0.5087920852148399
ssI373
(dp383
g9
F0.7110773998717097
sg10
F0.7921032556393784
ssI374
(dp384
g9
F0.22717225280190834
sg10
F0.13745298978881038
ssI375
(dp385
g9
F0.4445882809185203
sg10
F0.9605263981844884
ssI376
(dp386
g9
F0.8407055744118798
sg10
F0.25834473551949233
ssI377
(dp387
g9
F0.13608248032002812
sg10
F0.9299460608887742
ssI378
(dp388
g9
F0.5664499348143518
sg10
F0.3881875663040977
ssI379
(dp389
g9
F0.8589457884561608
sg10
F0.9720331487209907
ssI380
(dp390
g9
F0.025866185712462908
sg10
F0.02468654246131541
ssI381
(dp391
g9
F0.7160817738272437
sg10
F0.5930627323524934
ssI382
(dp392
g9
F0.3526691288396041
sg10
F0.43016911236223576
ssI383
(dp393
g9
F0.07855281264896319
sg10
F0.5778394230313755
ssI384
(dp394
g9
F0.40654603571751013
sg10
F0.8869744245196036
ssI385
(dp395
g9
F0.6341250738842716
sg10
F0.5033623762554251
ssI386
(dp396
g9
F0.4031714493265275
sg10
F0.3311708264854346
ssI387
(dp397
g9
F0.7642471865563494
sg10
F0.4769787606231819
ssI388
(dp398
g9
F0.3252880606946219
sg10
F0.007289810900426907
ssI389
(dp399
g9
F0.8671891605682743
sg10
F0.1732130522264247
ssI390
(dp400
g9
F0.900514104816374
sg10
F0.5737271184790811
ssI391
(dp401
g9
F0.2916055606650455
sg10
F0.2289181687424977
ssI392
(dp402
g9
F0.6160743354868708
sg10
F0.057923792726823575
ssI393
(dp403
g9
F0.6956546184387375
sg10
F0.9335989421505417
ssI394
(dp404
g9
F0.7808451720398176
sg10
F0.7571693433118883
ssI395
(dp405
g9
F0.049259815479212876
sg10
F0.159589784235466
ssI396
(dp406
g9
F0.05553339665032442
sg10
F0.2558634207031354
ssI397
(dp407
g9
F0.9927324557664056
sg10
F0.37740269547527805
ssI398
(dp408
g9
F0.6481613411017882
sg10
F0.3088598639294333
ssI399
(dp409
g9
F0.38753775947027236
sg10
F0.9305815193080326
ssI400
(dp410
g9
F0.6111484842103698
sg10
F0.9586148350084914
ssI401
(dp411
g9
F0.5416559044437441
sg10
F0.6300867461030348
ssI402
(dp412
g9
F0.6463945444494636
sg10
F0.9679967836072007
ssI403
(dp413
g9
F0.17929215486562344
sg10
F0.9035057611788728
ssI404
(dp414
g9
F0.9932907481884503
sg10
F0.14325374041817807
ssI405
(dp415
g9
F0.37164316511125395
sg10
F0.30812278648468316
ssI406
(dp416
g9
F0.5778185374415967
sg10
F0.7902930827769657
ssI407
(dp417
g9
F0.6478564648085318
sg10
F0.47497359378440107
ssI408
(dp418
g9
F0.9583414053728582
sg10
F0.20780917818022282
ssI409
(dp419
g9
F0.5825468460213828
sg10
F0.8252486492383343
ssI410
(dp420
g9
F0.5398208116161815
sg10
F0.17309443908260136
ssI411
(dp421
g9
F0.3744972861965208
sg10
F0.18856974604356647
ssI412
(dp422
g9
F0.5267646363667823
sg10
F0.6411693650436558
ssI413
(dp423
g9
F0.18118628186707764
sg10
F0.14830539017671762
ssI414
(dp424
g9
F0.376082194551157
sg10
F0.7569854074171866
ssI415
(dp425
g9
F0.5777972047286783
sg10
F0.11201639066388847
ssI416
(dp426
g9
F0.6093413963017025
sg10
F0.723577720381873
ssI417
(dp427
g9
F0.660429410646593
sg10
F0.91165753375235
ssI418
(dp428
g9
F0.2830190668558331
sg10
F0.5437675842992419
ssI419
(dp429
g9
F0.5039100740284237
sg10
F0.9442104941584879
ssI420
(dp430
g9
F0.6118874016978276
sg10
F0.9299052213047275
ssI421
(dp431
g9
F0.11299658312745309
sg10
F0.8624645035707841
ssI422
(dp432
g9
F0.865135590985535
sg10
F0.5658211906544989
ssI423
(dp433
g9
F0.6101704726262465
sg10
F0.537740605936322
ssI424
(dp434
g9
F0.5090029415805221
sg10
F0.7311473677934297
ssI425
(dp435
g9
F0.5982269841706181
sg10
F0.5447545166264037
ssI426
(dp436
g9
F0.1677618439975237
sg10
F0.8385807707299638
ssI427
(dp437
g9
F0.20132108948398353
sg10
F0.8131480039429005
ssI428
(dp438
g9
F0.35690527930136284
sg10
F0.6475859017308183
ssI429
(dp439
g9
F0.8195050905593071
sg10
F0.6403854052553871
ssI430
(dp440
g9
F0.39603136628727664
sg10
F0.24291249312645646
ssI431
(dp441
g9
F0.09892977403502567
sg10
F0.38506638624963707
ssI432
(dp442
g9
F0.06023774014874472
sg10
F0.7606522188361947
ssI433
(dp443
g9
F0.45029214791906236
sg10
F0.5867747940751397
ssI434
(dp444
g9
F0.6627169718437935
sg10
F0.01008973951968728
ssI435
(dp445
g9
F0.43171434946617504
sg10
F0.4159655686349888
ssI436
(dp446
g9
F0.574673560659885
sg10
F0.6454241595119831
ssI437
(dp447
g9
F0.915068688249688
sg10
F0.3374379384047653
ssI438
(dp448
g9
F0.4791625555618424
sg10
F0.3677560647000321
ssI439
(dp449
g9
F0.32779901865298944
sg10
F0.2677263297625019
ssI440
(dp450
g9
F0.9328590232191599
sg10
F0.9366673464086296
ssI441
(dp451
g9
F0.020376607701782956
sg10
F0.6035370533060203
ssI442
(dp452
g9
F0.11671337719144692
sg10
F0.47833287986069994
ssI443
(dp453
g9
F0.459630990955195
sg10
F0.8155907215276621
ssI444
(dp454
g9
F0.3374252894504657
sg10
F0.7714844586784402
ssI445
(dp455
g9
F0.19272128144669265
sg10
F0.314725828839049
ssI446
(dp456
g9
F0.21864671350791542
sg10
F0.9851616839038122
ssI447
(dp457
g9
F0.6017503491777623
sg10
F0.5732526860257696
ssI448
(dp458
g9
F0.4417763937427154
sg10
F0.1062900342567199
ssI449
(dp459
g9
F0.5676735878164589
sg10
F0.8701458433479923
ssI450
(dp460
g9
F0.7235131469327009
sg10
F0.4324232935760841
ssI451
(dp461
g9
F0.07673310681252965
sg10
F0.6643897264851852
ssI452
(dp462
g9
F0.32243894652983207
sg10
F0.8903353667258261
ssI453
(dp463
g9
F0.25071076279283433
sg10
F0.707987672132554
ssI454
(dp464
g9
F0.2699627508488346
sg10
F0.3889041797684022
ssI455
(dp465
g9
F0.6948828234465468
sg10
F0.788933346486866
ssI456
(dp466
g9
F0.16370724102226708
sg10
F0.1842728520326199
ssI457
(dp467
g9
F0.23914908266873014
sg10
F0.6763731362826642
ssI458
(dp468
g9
F0.8957138975828676
sg10
F0.28934062958578766
ssI459
(dp469
g9
F0.09488256961478736
sg10
F0.2084250722155344
ssI460
(dp470
g9
F0.7152949668802115
sg10
F0.02191967578868692
ssI461
(dp471
g9
F0.957896346969065
sg10
F0.511583727243523
ssI462
(dp472
g9
F0.49081260611074173
sg10
F0.37983680800265107
ssI463
(dp473
g9
F0.09908654128067906
sg10
F0.1334530935900009
ssI464
(dp474
g9
F0.5323241342443857
sg10
F0.08568640909640113
ssI465
(dp475
g9
F0.6489851167573664
sg10
F0.07200562738271665
ssI466
(dp476
g9
F0.30991746286553723
sg10
F0.4503951257222003
ssI467
(dp477
g9
F0.3121537629510768
sg10
F0.7618552864795869
ssI468
(dp478
g9
F0.21521721284065332
sg10
F0.19777442707929027
ssI469
(dp479
g9
F0.13529130206812012
sg10
F0.5397522664348685
ssI470
(dp480
g9
F0.6869403287494799
sg10
F0.7104761487156206
ssI471
(dp481
g9
F0.2877811181589376
sg10
F0.5765539048277832
ssI472
(dp482
g9
F0.8530329546099809
sg10
F0.4132198718926321
ssI473
(dp483
g9
F0.16277141100002745
sg10
F0.9402250037340627
ssI474
(dp484
g9
F0.44349454207127226
sg10
F0.151903931345016
ssI475
(dp485
g9
F0.7299535286727449
sg10
F0.9914177610122319
ssI476
(dp486
g9
F0.8081465215977668
sg10
F0.8613335578881149
ssI477
(dp487
g9
F0.7450854709466128
sg10
F0.40370559719976085
ssI478
(dp488
g9
F0.36291291623372135
sg10
F0.028479621341423567
ssI479
(dp489
g9
F0.10820642547990189
sg10
F0.4561175432471849
ssI480
(dp490
g9
F0.8244141379663812
sg10
F0.7509688751223426
ssI481
(dp491
g9
F0.230133831358735
sg10
F0.5700585991436984
ssI482
(dp492
g9
F0.42890664986744675
sg10
F0.7086216772984705
ssI483
(dp493
g9
F0.9148920059623782
sg10
F0.3254565470465727
ssI484
(dp494
g9
F0.8281358854522209
sg10
F0.021470289345882465
ssI485
(dp495
g9
F0.8704062635008336
sg10
F0.024793074476422317
ssI486
(dp496
g9
F0.42963634937463036
sg10
F0.31718623177066496
ssI487
(dp497
g9
F0.8763449131039546
sg10
F0.6469200720954948
ssI488
(dp498
g9
F0.9251497134767579
sg10
F0.7096651689379636
ssI489
(dp499
g9
F0.6064050801659209
sg10
F0.5137980230881746
ssI490
(dp500
g9
F0.43970498321364704
sg10
F0.44480928606997316
ssI491
(dp501
g9
F0.17188372266467167
sg10
F0.6033903017497685
ssI492
(dp502
g9
F0.4647044169050155
sg10
F0.008512254191018642
ssI493
(dp503
g9
F0.42001025905152345
sg10
F0.08667221957403504
ssI494
(dp504
g9
F0.5495490486705435
sg10
F0.9252315828968298
ssI495
(dp505
g9
F0.3545765262276436
sg10
F0.8325544924971375
ssI496
(dp506
g9
F0.4144675520605262
sg10
F0.7837478413229959
ssI497
(dp507
g9
F0.264512556782904
sg10
F0.06369532245161535
ssI498
(dp508
g9
F0.6723274715996507
sg10
F0.4687086301015758
ssI499
(dp509
g9
F0.9612785219808238
sg10
F0.59195794778795
sssS'node_dict_factory'
p510
c__builtin__
dict
p511
sS'edge_attr_dict_factory'
p512
g511
sS'edge'
p513
(dp514
I0
(dp515
sI1
(dp516
sI2
(dp517
sI3
(dp518
sI4
(dp519
sI5
(dp520
sI6
(dp521
sI7
(dp522
sI8
(dp523
sI9
(dp524
sI10
(dp525
sI11
(dp526
sI12
(dp527
sI13
(dp528
sI14
(dp529
sI15
(dp530
sI16
(dp531
sI17
(dp532
sI18
(dp533
sI19
(dp534
sI20
(dp535
sI21
(dp536
sI22
(dp537
sI23
(dp538
sI24
(dp539
sI25
(dp540
sI26
(dp541
sI27
(dp542
sI28
(dp543
sI29
(dp544
sI30
(dp545
sI31
(dp546
sI32
(dp547
sI33
(dp548
sI34
(dp549
sI35
(dp550
sI36
(dp551
sI37
(dp552
sI38
(dp553
sI39
(dp554
sI40
(dp555
sI41
(dp556
sI42
(dp557
sI43
(dp558
sI44
(dp559
sI45
(dp560
sI46
(dp561
sI47
(dp562
sI48
(dp563
sI49
(dp564
sI50
(dp565
sI51
(dp566
sI52
(dp567
sI53
(dp568
sI54
(dp569
sI55
(dp570
sI56
(dp571
sI57
(dp572
sI58
(dp573
sI59
(dp574
sI60
(dp575
sI61
(dp576
sI62
(dp577
sI63
(dp578
sI64
(dp579
sI65
(dp580
sI66
(dp581
sI67
(dp582
sI68
(dp583
sI69
(dp584
sI70
(dp585
sI71
(dp586
sI72
(dp587
sI73
(dp588
sI74
(dp589
sI75
(dp590
sI76
(dp591
sI77
(dp592
sI78
(dp593
sI79
(dp594
sI80
(dp595
sI81
(dp596
sI82
(dp597
sI83
(dp598
sI84
(dp599
sI85
(dp600
sI86
(dp601
sI87
(dp602
sI88
(dp603
sI89
(dp604
sI90
(dp605
sI91
(dp606
sI92
(dp607
sI93
(dp608
sI94
(dp609
sI95
(dp610
sI96
(dp611
sI97
(dp612
sI98
(dp613
sI99
(dp614
sI100
(dp615
sI101
(dp616
sI102
(dp617
sI103
(dp618
sI104
(dp619
sI105
(dp620
sI106
(dp621
sI107
(dp622
sI108
(dp623
sI109
(dp624
sI110
(dp625
sI111
(dp626
sI112
(dp627
sI113
(dp628
sI114
(dp629
sI115
(dp630
sI116
(dp631
sI117
(dp632
sI118
(dp633
sI119
(dp634
sI120
(dp635
sI121
(dp636
sI122
(dp637
sI123
(dp638
sI124
(dp639
sI125
(dp640
sI126
(dp641
sI127
(dp642
sI128
(dp643
sI129
(dp644
sI130
(dp645
sI131
(dp646
sI132
(dp647
sI133
(dp648
sI134
(dp649
sI135
(dp650
sI136
(dp651
sI137
(dp652
sI138
(dp653
sI139
(dp654
sI140
(dp655
sI141
(dp656
sI142
(dp657
sI143
(dp658
sI144
(dp659
sI145
(dp660
sI146
(dp661
sI147
(dp662
sI148
(dp663
sI149
(dp664
sI150
(dp665
sI151
(dp666
sI152
(dp667
sI153
(dp668
sI154
(dp669
sI155
(dp670
sI156
(dp671
sI157
(dp672
sI158
(dp673
sI159
(dp674
sI160
(dp675
sI161
(dp676
sI162
(dp677
sI163
(dp678
sI164
(dp679
sI165
(dp680
sI166
(dp681
sI167
(dp682
sI168
(dp683
sI169
(dp684
sI170
(dp685
sI171
(dp686
sI172
(dp687
sI173
(dp688
sI174
(dp689
sI175
(dp690
sI176
(dp691
sI177
(dp692
sI178
(dp693
sI179
(dp694
sI180
(dp695
sI181
(dp696
sI182
(dp697
sI183
(dp698
sI184
(dp699
sI185
(dp700
sI186
(dp701
sI187
(dp702
sI188
(dp703
sI189
(dp704
sI190
(dp705
sI191
(dp706
sI192
(dp707
sI193
(dp708
sI194
(dp709
sI195
(dp710
sI196
(dp711
sI197
(dp712
sI198
(dp713
sI199
(dp714
sI200
(dp715
sI201
(dp716
sI202
(dp717
sI203
(dp718
sI204
(dp719
sI205
(dp720
sI206
(dp721
sI207
(dp722
sI208
(dp723
sI209
(dp724
sI210
(dp725
sI211
(dp726
sI212
(dp727
sI213
(dp728
sI214
(dp729
sI215
(dp730
sI216
(dp731
sI217
(dp732
sI218
(dp733
sI219
(dp734
sI220
(dp735
sI221
(dp736
sI222
(dp737
sI223
(dp738
sI224
(dp739
sI225
(dp740
sI226
(dp741
sI227
(dp742
sI228
(dp743
sI229
(dp744
sI230
(dp745
sI231
(dp746
sI232
(dp747
sI233
(dp748
sI234
(dp749
sI235
(dp750
sI236
(dp751
sI237
(dp752
sI238
(dp753
sI239
(dp754
sI240
(dp755
sI241
(dp756
sI242
(dp757
sI243
(dp758
sI244
(dp759
sI245
(dp760
sI246
(dp761
sI247
(dp762
sI248
(dp763
sI249
(dp764
sI250
(dp765
sI251
(dp766
sI252
(dp767
sI253
(dp768
sI254
(dp769
sI255
(dp770
sI256
(dp771
sI257
(dp772
sI258
(dp773
sI259
(dp774
sI260
(dp775
sI261
(dp776
sI262
(dp777
sI263
(dp778
sI264
(dp779
sI265
(dp780
sI266
(dp781
sI267
(dp782
sI268
(dp783
sI269
(dp784
sI270
(dp785
sI271
(dp786
sI272
(dp787
sI273
(dp788
sI274
(dp789
sI275
(dp790
sI276
(dp791
sI277
(dp792
sI278
(dp793
sI279
(dp794
sI280
(dp795
sI281
(dp796
sI282
(dp797
sI283
(dp798
sI284
(dp799
sI285
(dp800
sI286
(dp801
sI287
(dp802
sI288
(dp803
sI289
(dp804
sI290
(dp805
sI291
(dp806
sI292
(dp807
sI293
(dp808
sI294
(dp809
sI295
(dp810
sI296
(dp811
sI297
(dp812
sI298
(dp813
sI299
(dp814
sI300
(dp815
sI301
(dp816
sI302
(dp817
sI303
(dp818
sI304
(dp819
sI305
(dp820
sI306
(dp821
sI307
(dp822
sI308
(dp823
sI309
(dp824
sI310
(dp825
sI311
(dp826
sI312
(dp827
sI313
(dp828
sI314
(dp829
sI315
(dp830
sI316
(dp831
sI317
(dp832
sI318
(dp833
sI319
(dp834
sI320
(dp835
sI321
(dp836
sI322
(dp837
sI323
(dp838
sI324
(dp839
sI325
(dp840
sI326
(dp841
sI327
(dp842
sI328
(dp843
sI329
(dp844
sI330
(dp845
sI331
(dp846
sI332
(dp847
sI333
(dp848
sI334
(dp849
sI335
(dp850
sI336
(dp851
sI337
(dp852
sI338
(dp853
sI339
(dp854
sI340
(dp855
sI341
(dp856
sI342
(dp857
sI343
(dp858
sI344
(dp859
sI345
(dp860
sI346
(dp861
sI347
(dp862
sI348
(dp863
sI349
(dp864
sI350
(dp865
sI351
(dp866
sI352
(dp867
sI353
(dp868
sI354
(dp869
sI355
(dp870
sI356
(dp871
sI357
(dp872
sI358
(dp873
sI359
(dp874
sI360
(dp875
sI361
(dp876
sI362
(dp877
sI363
(dp878
sI364
(dp879
sI365
(dp880
sI366
(dp881
sI367
(dp882
sI368
(dp883
sI369
(dp884
sI370
(dp885
sI371
(dp886
sI372
(dp887
sI373
(dp888
sI374
(dp889
sI375
(dp890
sI376
(dp891
sI377
(dp892
sI378
(dp893
sI379
(dp894
sI380
(dp895
sI381
(dp896
sI382
(dp897
sI383
(dp898
sI384
(dp899
sI385
(dp900
sI386
(dp901
sI387
(dp902
sI388
(dp903
sI389
(dp904
sI390
(dp905
sI391
(dp906
sI392
(dp907
sI393
(dp908
sI394
(dp909
sI395
(dp910
sI396
(dp911
sI397
(dp912
sI398
(dp913
sI399
(dp914
sI400
(dp915
sI401
(dp916
sI402
(dp917
sI403
(dp918
sI404
(dp919
sI405
(dp920
sI406
(dp921
sI407
(dp922
sI408
(dp923
sI409
(dp924
sI410
(dp925
sI411
(dp926
sI412
(dp927
sI413
(dp928
sI414
(dp929
sI415
(dp930
sI416
(dp931
sI417
(dp932
sI418
(dp933
sI419
(dp934
sI420
(dp935
sI421
(dp936
sI422
(dp937
sI423
(dp938
sI424
(dp939
sI425
(dp940
sI426
(dp941
sI427
(dp942
sI428
(dp943
sI429
(dp944
sI430
(dp945
sI431
(dp946
sI432
(dp947
sI433
(dp948
sI434
(dp949
sI435
(dp950
sI436
(dp951
sI437
(dp952
sI438
(dp953
sI439
(dp954
sI440
(dp955
sI441
(dp956
sI442
(dp957
sI443
(dp958
sI444
(dp959
sI445
(dp960
sI446
(dp961
sI447
(dp962
sI448
(dp963
sI449
(dp964
sI450
(dp965
sI451
(dp966
sI452
(dp967
sI453
(dp968
sI454
(dp969
sI455
(dp970
sI456
(dp971
sI457
(dp972
sI458
(dp973
sI459
(dp974
sI460
(dp975
sI461
(dp976
sI462
(dp977
sI463
(dp978
sI464
(dp979
sI465
(dp980
sI466
(dp981
sI467
(dp982
sI468
(dp983
sI469
(dp984
sI470
(dp985
sI471
(dp986
sI472
(dp987
sI473
(dp988
sI474
(dp989
sI475
(dp990
sI476
(dp991
sI477
(dp992
sI478
(dp993
sI479
(dp994
sI480
(dp995
sI481
(dp996
sI482
(dp997
sI483
(dp998
sI484
(dp999
sI485
(dp1000
sI486
(dp1001
sI487
(dp1002
sI488
(dp1003
sI489
(dp1004
sI490
(dp1005
sI491
(dp1006
sI492
(dp1007
sI493
(dp1008
sI494
(dp1009
sI495
(dp1010
sI496
(dp1011
sI497
(dp1012
sI498
(dp1013
sI499
(dp1014
ssS'graph'
p1015
(dp1016
sS'adjlist_dict_factory'
p1017
g511
sS'adj'
p1018
g514
sb.