ccopy_reg
_reconstructor
p0
(cnetworkx.classes.graph
Graph
p1
c__builtin__
object
p2
Ntp3
Rp4
(dp5
S'node'
p6
(dp7
I0
(dp8
S'pos_x'
p9
F0.4348787379951834
sS'pos_y'
p10
F0.05275410219389398
ssI1
(dp11
g9
F0.19129652880782266
sg10
F0.7463782889234356
ssI2
(dp12
g9
F0.47437518507498067
sg10
F0.6470708473585955
ssI3
(dp13
g9
F0.33565704303644295
sg10
F0.45635499178127714
ssI4
(dp14
g9
F0.3849761410649477
sg10
F0.24591520830892222
ssI5
(dp15
g9
F0.9486143479163697
sg10
F0.7042394858835354
ssI6
(dp16
g9
F0.5067357323063855
sg10
F0.13931737540302747
ssI7
(dp17
g9
F0.3863873616971035
sg10
F0.9619507966079296
ssI8
(dp18
g9
F0.1259316727508316
sg10
F0.6438820006308108
ssI9
(dp19
g9
F0.8695730426168078
sg10
F0.4784714706739227
ssI10
(dp20
g9
F0.6957746256620967
sg10
F0.31100622669563704
ssI11
(dp21
g9
F0.3269466816078911
sg10
F0.3462507255478585
ssI12
(dp22
g9
F0.9920749520933769
sg10
F0.1267268285308515
ssI13
(dp23
g9
F0.21415984616479533
sg10
F0.23584393445766738
ssI14
(dp24
g9
F0.312376782953121
sg10
F0.8586178063694467
ssI15
(dp25
g9
F0.6938481699257033
sg10
F0.9717236425890018
ssI16
(dp26
g9
F0.011687991387451468
sg10
F0.6130882826978892
ssI17
(dp27
g9
F0.888055355654845
sg10
F0.9292646707857851
ssI18
(dp28
g9
F0.4037900514230477
sg10
F0.4960701834402893
ssI19
(dp29
g9
F0.6848097517537032
sg10
F0.8179658372331209
ssI20
(dp30
g9
F0.32364167701289104
sg10
F0.7187579148623087
ssI21
(dp31
g9
F0.11620915641735519
sg10
F0.19126567345505818
ssI22
(dp32
g9
F0.17081760220685704
sg10
F0.21445661910025182
ssI23
(dp33
g9
F0.42372804856415736
sg10
F0.07503372928441865
ssI24
(dp34
g9
F0.12028257435607159
sg10
F0.17310014907067295
ssI25
(dp35
g9
F0.8773234023965498
sg10
F0.3466639775317193
ssI26
(dp36
g9
F0.26858289814671255
sg10
F0.16959060183939656
ssI27
(dp37
g9
F0.028977978025833795
sg10
F0.07292418993346284
ssI28
(dp38
g9
F0.8019918747429904
sg10
F0.5005514051120128
ssI29
(dp39
g9
F0.7578099164329927
sg10
F0.36783487384994773
ssI30
(dp40
g9
F0.08733281906685086
sg10
F0.5062662596535132
ssI31
(dp41
g9
F0.3622704946993832
sg10
F0.9881394370067897
ssI32
(dp42
g9
F0.2960301291692655
sg10
F0.592344817534845
ssI33
(dp43
g9
F0.43416063073638334
sg10
F0.9476086140290596
ssI34
(dp44
g9
F0.2385419846918293
sg10
F0.7561832033942858
ssI35
(dp45
g9
F0.7764340304751546
sg10
F0.3970378276364249
ssI36
(dp46
g9
F0.47027388619681276
sg10
F0.9686588244972263
ssI37
(dp47
g9
F0.18002349139310225
sg10
F0.6090690127484739
ssI38
(dp48
g9
F0.13718187470218013
sg10
F0.8271325835427593
ssI39
(dp49
g9
F0.5028176781551378
sg10
F0.0459024645126741
ssI40
(dp50
g9
F0.6571269842529536
sg10
F0.6463850354740215
ssI41
(dp51
g9
F0.21363227857100775
sg10
F0.2370976467353737
ssI42
(dp52
g9
F0.20670405938016423
sg10
F0.41836462594278545
ssI43
(dp53
g9
F0.6119955054700218
sg10
F0.08490307867048819
ssI44
(dp54
g9
F0.3786063347398393
sg10
F0.9411396537981505
ssI45
(dp55
g9
F0.6368782764495008
sg10
F0.5960898215290703
ssI46
(dp56
g9
F0.7429343315512408
sg10
F0.6492127792075357
ssI47
(dp57
g9
F0.5251500145339209
sg10
F0.4872128329897434
ssI48
(dp58
g9
F0.9870881976179942
sg10
F0.08499520349322087
ssI49
(dp59
g9
F0.1403636902885641
sg10
F0.396386527692152
ssI50
(dp60
g9
F0.89602277977863
sg10
F0.39352658629507986
ssI51
(dp61
g9
F0.5093199168307475
sg10
F0.8323763124682672
ssI52
(dp62
g9
F0.9782238029781504
sg10
F0.35092607662432385
ssI53
(dp63
g9
F0.5932151382855446
sg10
F0.9057372639547272
ssI54
(dp64
g9
F0.36249413871353164
sg10
F0.9570147846974486
ssI55
(dp65
g9
F0.182018629374738
sg10
F0.8403132494530626
ssI56
(dp66
g9
F0.550564613166145
sg10
F0.4171448684393131
ssI57
(dp67
g9
F0.7386780812562528
sg10
F0.36248445895748205
ssI58
(dp68
g9
F0.8812674821646576
sg10
F0.9055817346870834
ssI59
(dp69
g9
F0.8590210625155356
sg10
F0.7084326810609268
ssI60
(dp70
g9
F0.8564450299429255
sg10
F0.7159072503060959
ssI61
(dp71
g9
F0.9817550990099227
sg10
F0.973283793055013
ssI62
(dp72
g9
F0.2895213853973987
sg10
F0.010798035922561455
ssI63
(dp73
g9
F0.7274426171476899
sg10
F0.7517525824112455
ssI64
(dp74
g9
F0.9822341229619428
sg10
F0.9306541524381242
ssI65
(dp75
g9
F0.4544418975248504
sg10
F0.40245424068269753
ssI66
(dp76
g9
F0.423641712850637
sg10
F0.39537294842986015
ssI67
(dp77
g9
F0.10700649516542993
sg10
F0.954386413787973
ssI68
(dp78
g9
F0.5793828179234572
sg10
F0.4592445755697999
ssI69
(dp79
g9
F0.026447085318208163
sg10
F0.8524777099340748
ssI70
(dp80
g9
F0.5585996127407117
sg10
F0.47448820158767224
ssI71
(dp81
g9
F0.4741338517514816
sg10
F0.22773182616803234
ssI72
(dp82
g9
F0.7084685320211567
sg10
F0.5710584748987798
ssI73
(dp83
g9
F0.28790487390269626
sg10
F0.501005646517968
ssI74
(dp84
g9
F0.5351401658617563
sg10
F0.9940254606577513
ssI75
(dp85
g9
F0.14791395588366307
sg10
F0.12904925631000463
ssI76
(dp86
g9
F0.5865359900928976
sg10
F0.34214724378800343
ssI77
(dp87
g9
F0.43115752997407175
sg10
F0.8982757218902615
ssI78
(dp88
g9
F0.8909676533907789
sg10
F0.462055125923181
ssI79
(dp89
g9
F0.6821120429085352
sg10
F0.38133176562845483
ssI80
(dp90
g9
F0.6757219585590454
sg10
F0.7148235909406495
ssI81
(dp91
g9
F0.05513765564565998
sg10
F0.009275354488791798
ssI82
(dp92
g9
F0.1606937031691099
sg10
F0.731245679350212
ssI83
(dp93
g9
F0.9296545482429368
sg10
F0.8393328044669842
ssI84
(dp94
g9
F0.04266163818974611
sg10
F0.22536969697467601
ssI85
(dp95
g9
F0.36510936743714073
sg10
F0.09229915366130181
ssI86
(dp96
g9
F0.844922325329543
sg10
F0.06244854114768883
ssI87
(dp97
g9
F0.41373766333073214
sg10
F0.17805658568591498
ssI88
(dp98
g9
F0.9426673252523816
sg10
F0.6421199275693499
ssI89
(dp99
g9
F0.33991049677688145
sg10
F0.5672572526029142
ssI90
(dp100
g9
F0.817401616748325
sg10
F0.1763783691292642
ssI91
(dp101
g9
F0.545319342198618
sg10
F0.35073569140412997
ssI92
(dp102
g9
F0.34026944659813985
sg10
F0.39863144012269913
ssI93
(dp103
g9
F0.74286711003344
sg10
F0.22965339722849432
ssI94
(dp104
g9
F0.37475914656920983
sg10
F0.5783872086008887
ssI95
(dp105
g9
F0.07578344288288041
sg10
F0.39295169815497455
ssI96
(dp106
g9
F0.7792148174129765
sg10
F0.9920955659538598
ssI97
(dp107
g9
F0.21237719106523423
sg10
F0.5475054312281301
ssI98
(dp108
g9
F0.16625528407406054
sg10
F0.7578883344220232
ssI99
(dp109
g9
F0.4363187794913441
sg10
F0.8954052066805983
ssI100
(dp110
g9
F0.5991884755095315
sg10
F0.6674541768378298
ssI101
(dp111
g9
F0.2514270941076532
sg10
F0.8394554683308015
ssI102
(dp112
g9
F0.4971146456794098
sg10
F0.0942287731141912
ssI103
(dp113
g9
F0.09729308504227085
sg10
F0.2836176376780052
ssI104
(dp114
g9
F0.41546297513545816
sg10
F0.4895568016654408
ssI105
(dp115
g9
F0.12265194043000038
sg10
F0.3107825497687171
ssI106
(dp116
g9
F0.13431615147697196
sg10
F0.14869451460823935
ssI107
(dp117
g9
F0.14367794789020805
sg10
F0.2680367646676671
ssI108
(dp118
g9
F0.5904616593500979
sg10
F0.3208600146417703
ssI109
(dp119
g9
F0.6035175416871171
sg10
F0.49772751225192247
ssI110
(dp120
g9
F0.3180786074439633
sg10
F0.452061111385453
ssI111
(dp121
g9
F0.3918538014287034
sg10
F0.28547893689818915
ssI112
(dp122
g9
F0.9775659472384102
sg10
F0.6366132113978318
ssI113
(dp123
g9
F0.3492460499995308
sg10
F0.41792869556764456
ssI114
(dp124
g9
F0.027642282311522104
sg10
F0.7296571875480012
ssI115
(dp125
g9
F0.7422968920789618
sg10
F0.0024289151114500473
ssI116
(dp126
g9
F0.2261632645992293
sg10
F0.8464246159982707
ssI117
(dp127
g9
F0.15213848291188792
sg10
F0.5038375577647334
ssI118
(dp128
g9
F0.8471213084614525
sg10
F0.5846953926679401
ssI119
(dp129
g9
F0.691464977703544
sg10
F0.7507079515868624
ssI120
(dp130
g9
F0.9421838697717765
sg10
F0.7146887753868785
ssI121
(dp131
g9
F0.9267623586796444
sg10
F0.06346394030837199
ssI122
(dp132
g9
F0.08629093183705139
sg10
F0.1808181886332877
ssI123
(dp133
g9
F0.6898875214937764
sg10
F0.5201736379784292
ssI124
(dp134
g9
F0.20969417263536194
sg10
F0.42219831458060963
ssI125
(dp135
g9
F0.7548222721951933
sg10
F0.5356654298841313
ssI126
(dp136
g9
F0.6356534813675435
sg10
F0.8543143361317083
ssI127
(dp137
g9
F0.9625049471220762
sg10
F0.17522017584274052
ssI128
(dp138
g9
F0.7410813986978081
sg10
F0.3019012813401425
ssI129
(dp139
g9
F0.6802683650011786
sg10
F0.7902643262877909
ssI130
(dp140
g9
F0.12380800943733128
sg10
F0.13698193697178396
ssI131
(dp141
g9
F0.8578384529165067
sg10
F0.2701619159072539
ssI132
(dp142
g9
F0.21839745240685693
sg10
F0.5322293351880218
ssI133
(dp143
g9
F0.03875704665128932
sg10
F0.8718999071510043
ssI134
(dp144
g9
F0.4021924543011073
sg10
F0.6865135460856842
ssI135
(dp145
g9
F0.9119636324540091
sg10
F0.2810834878930707
ssI136
(dp146
g9
F0.854438695517216
sg10
F0.06842280884098306
ssI137
(dp147
g9
F0.30021210524332764
sg10
F0.23998835554100306
ssI138
(dp148
g9
F0.7316156224816368
sg10
F0.6578210613798968
ssI139
(dp149
g9
F0.7934462679636805
sg10
F0.49540874999515183
ssI140
(dp150
g9
F0.6365052055871203
sg10
F0.7690861112639976
ssI141
(dp151
g9
F0.7782619062829359
sg10
F0.9358106625269805
ssI142
(dp152
g9
F0.08839543720426934
sg10
F0.2625524975339826
ssI143
(dp153
g9
F0.9562576395903063
sg10
F0.2714734633382261
ssI144
(dp154
g9
F0.7341001264113164
sg10
F0.9102599177557824
ssI145
(dp155
g9
F0.6791941195571944
sg10
F0.4924493743120294
ssI146
(dp156
g9
F0.1900434507851836
sg10
F0.6504463182090258
ssI147
(dp157
g9
F0.1344252491016531
sg10
F0.7258362933125231
ssI148
(dp158
g9
F0.06134752083031192
sg10
F0.6551322969733874
ssI149
(dp159
g9
F0.28284524619973683
sg10
F0.7235577031092455
ssI150
(dp160
g9
F0.23160674514424617
sg10
F0.007234412838473481
ssI151
(dp161
g9
F0.05348585772510095
sg10
F0.2635162157244444
ssI152
(dp162
g9
F0.3033981559723189
sg10
F0.3185480855240893
ssI153
(dp163
g9
F0.6092441495499422
sg10
F0.4286565437255814
ssI154
(dp164
g9
F0.8767326824713492
sg10
F0.5545521686934196
ssI155
(dp165
g9
F0.1313504587466353
sg10
F0.35211782778981837
ssI156
(dp166
g9
F0.6255992518586314
sg10
F0.40368146187943144
ssI157
(dp167
g9
F0.3361233302245116
sg10
F0.7992289974845114
ssI158
(dp168
g9
F0.8152246668375612
sg10
F0.3489450143016024
ssI159
(dp169
g9
F0.4042841537314983
sg10
F0.6369270247629968
ssI160
(dp170
g9
F0.31880703796634746
sg10
F0.6929613594733446
ssI161
(dp171
g9
F0.6493422974169696
sg10
F0.23103728414816005
ssI162
(dp172
g9
F0.5678070439834131
sg10
F0.3240912893005161
ssI163
(dp173
g9
F0.6789129982021831
sg10
F0.012851004175029601
ssI164
(dp174
g9
F0.591565919120226
sg10
F0.8391015141158961
ssI165
(dp175
g9
F0.9188022797370589
sg10
F0.8135966838889771
ssI166
(dp176
g9
F0.944829114130304
sg10
F0.4152468411022726
ssI167
(dp177
g9
F0.35290124159156866
sg10
F0.3476180868380908
ssI168
(dp178
g9
F0.7238899158171658
sg10
F0.9050841458070477
ssI169
(dp179
g9
F0.8713813067434643
sg10
F0.39003344948042495
ssI170
(dp180
g9
F0.9602614218296543
sg10
F0.9570907481367242
ssI171
(dp181
g9
F0.8053215791317051
sg10
F0.21428948169383866
ssI172
(dp182
g9
F0.894049122466854
sg10
F0.30920894930590115
ssI173
(dp183
g9
F0.16283149047011236
sg10
F0.3638130292162641
ssI174
(dp184
g9
F0.25862783125386635
sg10
F0.32229902617747286
ssI175
(dp185
g9
F0.920334260311749
sg10
F0.21152827415811382
ssI176
(dp186
g9
F0.33535329211633635
sg10
F0.47075026508723605
ssI177
(dp187
g9
F0.735015104467025
sg10
F0.7476739039895632
ssI178
(dp188
g9
F0.9649558086111261
sg10
F0.7524575800736049
ssI179
(dp189
g9
F0.2221649513797762
sg10
F0.36972968362128067
ssI180
(dp190
g9
F0.5728257474808744
sg10
F0.9625941708473752
ssI181
(dp191
g9
F0.3941689687529252
sg10
F0.3689323024341157
ssI182
(dp192
g9
F0.27281536524873684
sg10
F0.8185669615417397
ssI183
(dp193
g9
F0.6372406253567543
sg10
F0.5659251851224714
ssI184
(dp194
g9
F0.4114745578996688
sg10
F0.6503526292446492
ssI185
(dp195
g9
F0.10095776498856479
sg10
F0.12322516866875988
ssI186
(dp196
g9
F0.6128573272573693
sg10
F0.2859459124553645
ssI187
(dp197
g9
F0.22626050964424504
sg10
F0.9889073600183176
ssI188
(dp198
g9
F0.7323432584409071
sg10
F0.7370673948944415
ssI189
(dp199
g9
F0.04430383240038094
sg10
F0.3480391693286502
ssI190
(dp200
g9
F0.7603796987389831
sg10
F0.3403834951956253
ssI191
(dp201
g9
F0.984154019924786
sg10
F0.16510274093920285
ssI192
(dp202
g9
F0.6171896265701367
sg10
F0.9158833615018301
ssI193
(dp203
g9
F0.17071233093771776
sg10
F0.8491058568412173
ssI194
(dp204
g9
F0.6285483606306288
sg10
F0.9107690407045538
ssI195
(dp205
g9
F0.3276486413170111
sg10
F0.11427161202556668
ssI196
(dp206
g9
F0.40485187009227286
sg10
F0.869691645057733
ssI197
(dp207
g9
F0.6477627786639002
sg10
F0.5320298748287998
ssI198
(dp208
g9
F0.983859317958048
sg10
F0.33234140556802694
ssI199
(dp209
g9
F0.5808343870632569
sg10
F0.9396547176204971
ssI200
(dp210
g9
F0.7452147102639279
sg10
F0.6407263887088979
ssI201
(dp211
g9
F0.3532251972267081
sg10
F0.6701813800874351
ssI202
(dp212
g9
F0.1276272171339431
sg10
F0.8184154353365729
ssI203
(dp213
g9
F0.20124416815882118
sg10
F0.16284778238119302
ssI204
(dp214
g9
F0.36238732282275676
sg10
F0.9243076145616339
ssI205
(dp215
g9
F0.6041440358366845
sg10
F0.8494765921715766
ssI206
(dp216
g9
F0.4040510415879548
sg10
F0.7576713548458253
ssI207
(dp217
g9
F0.27791961595794756
sg10
F0.08634281418559431
ssI208
(dp218
g9
F0.04192399755786258
sg10
F0.18452648004003225
ssI209
(dp219
g9
F0.6247538054947859
sg10
F0.008428105394371888
ssI210
(dp220
g9
F0.07421735452373857
sg10
F0.02081576871829327
ssI211
(dp221
g9
F0.3119527686139937
sg10
F0.6575049654093261
ssI212
(dp222
g9
F0.027971870231115248
sg10
F0.4564200142803696
ssI213
(dp223
g9
F0.43210765595174894
sg10
F0.8694808387086055
ssI214
(dp224
g9
F0.6351272659192214
sg10
F0.4102649533014441
ssI215
(dp225
g9
F0.8921941194381326
sg10
F0.8830665661789375
ssI216
(dp226
g9
F0.07091074041852363
sg10
F0.8556516498966804
ssI217
(dp227
g9
F0.3971727375866919
sg10
F0.40234084836951267
ssI218
(dp228
g9
F0.03568963094250288
sg10
F0.26281229859621813
ssI219
(dp229
g9
F0.9009643165760195
sg10
F0.32370928765098517
ssI220
(dp230
g9
F0.6882471503129504
sg10
F0.6631173246999876
ssI221
(dp231
g9
F0.4856193878092496
sg10
F0.9537695652695563
ssI222
(dp232
g9
F0.27235338971064327
sg10
F0.17343785250333876
ssI223
(dp233
g9
F0.7087364157885088
sg10
F0.4095767373366689
ssI224
(dp234
g9
F0.3199929138338733
sg10
F0.5537621051585243
ssI225
(dp235
g9
F0.2047778301353459
sg10
F0.9396422299590201
ssI226
(dp236
g9
F0.1140131067501583
sg10
F0.29740881340262915
ssI227
(dp237
g9
F0.29919227868000364
sg10
F0.5098767269565276
ssI228
(dp238
g9
F0.3808894683774745
sg10
F0.3189358397351597
ssI229
(dp239
g9
F0.7810525749754542
sg10
F0.3311291900666642
ssI230
(dp240
g9
F0.0031634277995676863
sg10
F0.9707053092995377
ssI231
(dp241
g9
F0.15488229339371273
sg10
F0.05685729373589943
ssI232
(dp242
g9
F0.7176470828777202
sg10
F0.25420806716505606
ssI233
(dp243
g9
F0.5279863130493508
sg10
F0.23366369785852104
ssI234
(dp244
g9
F0.4968557098428088
sg10
F0.39589135074527515
ssI235
(dp245
g9
F0.29716675402005877
sg10
F0.9167172127703442
ssI236
(dp246
g9
F0.7472428929006455
sg10
F0.673264979636684
ssI237
(dp247
g9
F0.32743972768272267
sg10
F0.7458168336850082
ssI238
(dp248
g9
F0.8146916765639403
sg10
F0.7369212486114378
ssI239
(dp249
g9
F0.33691893267949635
sg10
F0.28212631871117644
ssI240
(dp250
g9
F0.8720938923091511
sg10
F0.8120993224506429
ssI241
(dp251
g9
F0.8829609236798536
sg10
F0.48650829165464915
ssI242
(dp252
g9
F0.3799586246180312
sg10
F0.8887241595800234
ssI243
(dp253
g9
F0.7807115183125775
sg10
F0.8540597070507585
ssI244
(dp254
g9
F0.44716430003226815
sg10
F0.7780698502306022
ssI245
(dp255
g9
F0.7659865333731789
sg10
F0.40939613670305464
ssI246
(dp256
g9
F0.19181777303929515
sg10
F0.2809538624887007
ssI247
(dp257
g9
F0.36183507728534314
sg10
F0.21370363818082494
ssI248
(dp258
g9
F0.34274977713952515
sg10
F0.6741071268534731
ssI249
(dp259
g9
F0.09832098982541349
sg10
F0.2678619267153517
ssI250
(dp260
g9
F0.13576741388597868
sg10
F0.6153533106728077
ssI251
(dp261
g9
F0.735084393456854
sg10
F0.1488531978121156
ssI252
(dp262
g9
F0.003971992074525144
sg10
F0.834725147503746
ssI253
(dp263
g9
F0.07766590804440932
sg10
F0.34608403370375174
ssI254
(dp264
g9
F0.6129947163569335
sg10
F0.32474003566618515
ssI255
(dp265
g9
F0.5507792344184718
sg10
F0.9378917488682358
ssI256
(dp266
g9
F0.9572283878656199
sg10
F0.6114737233569236
ssI257
(dp267
g9
F0.2854174779231752
sg10
F0.7581681454174314
ssI258
(dp268
g9
F0.5079319250670256
sg10
F0.6380974806317369
ssI259
(dp269
g9
F0.6859748676384004
sg10
F0.9118527738137755
ssI260
(dp270
g9
F0.4010060702540832
sg10
F0.3559497839035848
ssI261
(dp271
g9
F0.8341025256170466
sg10
F0.4176594545360608
ssI262
(dp272
g9
F0.6860558972713439
sg10
F0.5762600114801432
ssI263
(dp273
g9
F0.7590510205991499
sg10
F0.5185655205204804
ssI264
(dp274
g9
F0.04988477904338251
sg10
F0.5499826527333783
ssI265
(dp275
g9
F0.8712522070127853
sg10
F0.8009496994073562
ssI266
(dp276
g9
F0.9307830159435158
sg10
F0.39679264153021976
ssI267
(dp277
g9
F0.6572233148904117
sg10
F0.18011320227784822
ssI268
(dp278
g9
F0.6639302977130016
sg10
F0.9425087978456813
ssI269
(dp279
g9
F0.7807719136594481
sg10
F0.6188405156421041
ssI270
(dp280
g9
F0.11590009650977529
sg10
F0.3591014119225664
ssI271
(dp281
g9
F0.3432604570943515
sg10
F0.6640128321387917
ssI272
(dp282
g9
F0.5687967387538925
sg10
F0.6453288298509897
ssI273
(dp283
g9
F0.1544299306844098
sg10
F0.20512118071585084
ssI274
(dp284
g9
F0.08101920159061515
sg10
F0.4205897064117098
ssI275
(dp285
g9
F0.4073846237008558
sg10
F0.8788441180904375
ssI276
(dp286
g9
F0.6030785364378809
sg10
F0.6813170793062252
ssI277
(dp287
g9
F0.6045750069834349
sg10
F0.3103526922506227
ssI278
(dp288
g9
F0.69195350064036
sg10
F0.08254805348732375
ssI279
(dp289
g9
F0.5060323599138288
sg10
F0.45933907440638644
ssI280
(dp290
g9
F0.3346456905424159
sg10
F0.336025168891642
ssI281
(dp291
g9
F0.7747164764279992
sg10
F0.1828274823701671
ssI282
(dp292
g9
F0.42508923199722004
sg10
F0.15870967076007003
ssI283
(dp293
g9
F0.3607962396183414
sg10
F0.6891930430895693
ssI284
(dp294
g9
F0.5912969270031115
sg10
F0.06616003733983655
ssI285
(dp295
g9
F0.5284057353941068
sg10
F0.651528756108611
ssI286
(dp296
g9
F0.9593943107175934
sg10
F0.47664413567501496
ssI287
(dp297
g9
F0.6920568702525111
sg10
F0.3051011165080242
ssI288
(dp298
g9
F0.34980946256850154
sg10
F0.09866535005041333
ssI289
(dp299
g9
F0.857209656884993
sg10
F0.500788819803905
ssI290
(dp300
g9
F0.560511523464406
sg10
F0.813687413056652
ssI291
(dp301
g9
F0.31776916333545036
sg10
F0.6655523195515836
ssI292
(dp302
g9
F0.456888607665647
sg10
F0.2793024950617704
ssI293
(dp303
g9
F0.15261334843902374
sg10
F0.6231247142586633
ssI294
(dp304
g9
F0.28071027380492153
sg10
F0.6007959667309275
ssI295
(dp305
g9
F0.4638612096273963
sg10
F0.32265118429793227
ssI296
(dp306
g9
F0.5081396586762349
sg10
F0.34148335629040794
ssI297
(dp307
g9
F0.09335506569811003
sg10
F0.6108927134759917
ssI298
(dp308
g9
F0.31120505580327906
sg10
F0.06216727136906108
ssI299
(dp309
g9
F0.35117501422216557
sg10
F0.13659979181483806
ssI300
(dp310
g9
F0.27534686648432083
sg10
F0.07565266023915662
ssI301
(dp311
g9
F0.7041870377916948
sg10
F0.7090909531539384
ssI302
(dp312
g9
F0.23374053072840095
sg10
F0.1350528562366341
ssI303
(dp313
g9
F0.2342321437258127
sg10
F0.07539310172338332
ssI304
(dp314
g9
F0.025400400333671413
sg10
F0.1396428692982722
ssI305
(dp315
g9
F0.1346729233320807
sg10
F0.12999530862760988
ssI306
(dp316
g9
F0.9463564085953337
sg10
F0.517543226673857
ssI307
(dp317
g9
F0.8098999210893607
sg10
F0.4009330999347318
ssI308
(dp318
g9
F0.7073464219375819
sg10
F0.07995713128583082
ssI309
(dp319
g9
F0.01579874918235602
sg10
F0.43287197472177663
ssI310
(dp320
g9
F0.731265076875008
sg10
F0.91122825321356
ssI311
(dp321
g9
F0.7937344077189247
sg10
F0.8526410295099813
ssI312
(dp322
g9
F0.6211495827274861
sg10
F0.6334678926524432
ssI313
(dp323
g9
F0.5528837905214445
sg10
F0.17219136746765473
ssI314
(dp324
g9
F0.2232258184543352
sg10
F0.12779650297091594
ssI315
(dp325
g9
F0.9510562578956979
sg10
F0.6753331706398374
ssI316
(dp326
g9
F0.8201202529375178
sg10
F0.9771017348808595
ssI317
(dp327
g9
F0.36773277426686257
sg10
F0.15568000116249636
ssI318
(dp328
g9
F0.0052950604928317935
sg10
F0.6953344886168875
ssI319
(dp329
g9
F0.8117338915279894
sg10
F0.7694025142035827
ssI320
(dp330
g9
F0.033673686989343254
sg10
F0.08942326089998354
ssI321
(dp331
g9
F0.12567618303309247
sg10
F0.7591090695186299
ssI322
(dp332
g9
F0.6038793510190785
sg10
F0.041719160861361404
ssI323
(dp333
g9
F0.6294569042241901
sg10
F0.18502895978586376
ssI324
(dp334
g9
F0.41292488070172917
sg10
F0.24047787804698495
ssI325
(dp335
g9
F0.3027664409113757
sg10
F0.5408352775746554
ssI326
(dp336
g9
F0.28389351179215727
sg10
F0.0012667979579848998
ssI327
(dp337
g9
F0.7747563983053215
sg10
F0.9712921448224177
ssI328
(dp338
g9
F0.5908036942511885
sg10
F0.7625225950405069
ssI329
(dp339
g9
F0.8337086963040488
sg10
F0.7561752987563855
ssI330
(dp340
g9
F0.5466524142660628
sg10
F0.10262141639826627
ssI331
(dp341
g9
F0.48980374839450846
sg10
F0.6661348837946852
ssI332
(dp342
g9
F0.7108710668256386
sg10
F0.19634387579918
ssI333
(dp343
g9
F0.20222686413475555
sg10
F0.4669174610157387
ssI334
(dp344
g9
F0.36905742461348257
sg10
F0.9338173342525432
ssI335
(dp345
g9
F0.5639901864141218
sg10
F0.4830863050628411
ssI336
(dp346
g9
F0.5398880324616849
sg10
F0.9971114548142803
ssI337
(dp347
g9
F0.6330452498633768
sg10
F0.07672851810572945
ssI338
(dp348
g9
F0.030005456263877295
sg10
F0.4000862805865938
ssI339
(dp349
g9
F0.24300871769828114
sg10
F0.24228661781720506
ssI340
(dp350
g9
F0.36542870565511243
sg10
F0.37802476002739305
ssI341
(dp351
g9
F0.3621094283213395
sg10
F0.6697858272170009
ssI342
(dp352
g9
F0.5762646993790154
sg10
F0.9703365495119823
ssI343
(dp353
g9
F0.990759893694038
sg10
F0.7405208041412505
ssI344
(dp354
g9
F0.538090901621069
sg10
F0.4233703701533226
ssI345
(dp355
g9
F0.03409016833219558
sg10
F0.2913566223087587
ssI346
(dp356
g9
F0.5799445672315721
sg10
F0.8995485927855119
ssI347
(dp357
g9
F0.08768839034245124
sg10
F0.179887631169515
ssI348
(dp358
g9
F0.12482697414191812
sg10
F0.3032725314643536
ssI349
(dp359
g9
F0.5363700814767582
sg10
F0.7488221685920733
ssI350
(dp360
g9
F0.07617684276101278
sg10
F0.6335924868394848
ssI351
(dp361
g9
F0.7950798122882837
sg10
F0.42688528074714427
ssI352
(dp362
g9
F0.22876598556662198
sg10
F0.9078560586666579
ssI353
(dp363
g9
F0.9976053171754793
sg10
F0.010467816788236495
ssI354
(dp364
g9
F0.45120147230244234
sg10
F0.899140094142803
ssI355
(dp365
g9
F0.5610999150809823
sg10
F0.504838934428356
ssI356
(dp366
g9
F0.3832149807653493
sg10
F0.9759669404677633
ssI357
(dp367
g9
F0.5348766692919633
sg10
F0.08078219372951179
ssI358
(dp368
g9
F0.7035355827856383
sg10
F0.8885406298130548
ssI359
(dp369
g9
F0.9114560210949956
sg10
F0.7328711659143323
ssI360
(dp370
g9
F0.6496311341068383
sg10
F0.44798386447087013
ssI361
(dp371
g9
F0.7678039390395868
sg10
F0.515799707484942
ssI362
(dp372
g9
F0.006708283703747764
sg10
F0.32260462976583704
ssI363
(dp373
g9
F0.7766543550744283
sg10
F0.324131022400723
ssI364
(dp374
g9
F0.36693837924887174
sg10
F0.11589362836371508
ssI365
(dp375
g9
F0.25300855816091716
sg10
F0.6276849061777755
ssI366
(dp376
g9
F0.420864933806015
sg10
F0.24434377906565863
ssI367
(dp377
g9
F0.5669200993383368
sg10
F0.8096253350397611
ssI368
(dp378
g9
F0.518479858869256
sg10
F0.4082140515972754
ssI369
(dp379
g9
F0.7265712551793351
sg10
F0.2752821528874484
ssI370
(dp380
g9
F0.8470811666330429
sg10
F0.7779213931476056
ssI371
(dp381
g9
F0.25099667107257595
sg10
F0.881976027220509
ssI372
(dp382
g9
F0.7790526945108833
sg10
F0.09585876697409956
ssI373
(dp383
g9
F0.3017357443914913
sg10
F0.21258171354246935
ssI374
(dp384
g9
F0.08905774421457668
sg10
F0.8608555396184957
ssI375
(dp385
g9
F0.20345059262820553
sg10
F0.38494161629784795
ssI376
(dp386
g9
F0.1818529187269936
sg10
F0.2784507132101751
ssI377
(dp387
g9
F0.7251998712145242
sg10
F0.9343299382854978
ssI378
(dp388
g9
F0.712637452711681
sg10
F0.3620253203612114
ssI379
(dp389
g9
F0.43335911799019144
sg10
F0.8847053149169956
ssI380
(dp390
g9
F0.8094754049574407
sg10
F0.9065335845064803
ssI381
(dp391
g9
F0.9391169494392542
sg10
F0.070364513457285
ssI382
(dp392
g9
F0.33479964686267494
sg10
F0.9992043131212361
ssI383
(dp393
g9
F0.021138895536092384
sg10
F0.9109924788584204
ssI384
(dp394
g9
F0.8097315606009847
sg10
F0.5927557207118825
ssI385
(dp395
g9
F0.781632300243792
sg10
F0.614384080483661
ssI386
(dp396
g9
F0.9360319996823463
sg10
F0.1714479496584309
ssI387
(dp397
g9
F0.8279486762008375
sg10
F0.1061322977973902
ssI388
(dp398
g9
F0.7457445028804323
sg10
F0.09103906498991032
ssI389
(dp399
g9
F0.45850436232636693
sg10
F0.38492016974249754
ssI390
(dp400
g9
F0.33405592005953233
sg10
F0.4998840409979932
ssI391
(dp401
g9
F0.8983892757358466
sg10
F0.01655414570770186
ssI392
(dp402
g9
F0.8216752106128726
sg10
F0.5929777710967113
ssI393
(dp403
g9
F0.9406761236442789
sg10
F0.9613790777476086
ssI394
(dp404
g9
F0.4535647693453003
sg10
F0.05119778090849347
ssI395
(dp405
g9
F0.08199930634721575
sg10
F0.16006986804848844
ssI396
(dp406
g9
F0.12089330506085727
sg10
F0.5345289745099207
ssI397
(dp407
g9
F0.6480909641636167
sg10
F0.8639650134874612
ssI398
(dp408
g9
F0.9231882817698447
sg10
F0.9171090042896598
ssI399
(dp409
g9
F0.6637857796489269
sg10
F0.3864076162788992
ssI400
(dp410
g9
F0.5719535468065353
sg10
F0.3913424854328377
ssI401
(dp411
g9
F0.7174885267041082
sg10
F0.4417698438119937
ssI402
(dp412
g9
F0.6300665620747335
sg10
F0.030363742639847535
ssI403
(dp413
g9
F0.5233815712321166
sg10
F0.6884806845517277
ssI404
(dp414
g9
F0.011155649021963865
sg10
F0.560536690632651
ssI405
(dp415
g9
F0.1736754059126323
sg10
F0.6850713253847964
ssI406
(dp416
g9
F0.1432383167146053
sg10
F0.11586870096371804
ssI407
(dp417
g9
F0.7397281601753568
sg10
F0.14547396039922078
ssI408
(dp418
g9
F0.25658606464086053
sg10
F0.9679829659753714
ssI409
(dp419
g9
F0.9613441319014552
sg10
F0.047153350793765814
ssI410
(dp420
g9
F0.8705634831541521
sg10
F0.5508396837409913
ssI411
(dp421
g9
F0.8780399164461671
sg10
F0.8910294370022797
ssI412
(dp422
g9
F0.6427816837435241
sg10
F0.006834336488481085
ssI413
(dp423
g9
F0.23005717627034472
sg10
F0.3737877547490861
ssI414
(dp424
g9
F0.1784016172066828
sg10
F0.6037958768893907
ssI415
(dp425
g9
F0.8173853182877255
sg10
F0.2010210628043394
ssI416
(dp426
g9
F0.5522354675593606
sg10
F0.42967857698946255
ssI417
(dp427
g9
F0.4548063135924776
sg10
F0.7092460787396635
ssI418
(dp428
g9
F0.6373006878770137
sg10
F0.12795244731659794
ssI419
(dp429
g9
F0.0016153710059432225
sg10
F0.010299756688904704
ssI420
(dp430
g9
F0.33043135437393545
sg10
F0.5623033060134224
ssI421
(dp431
g9
F0.3347679795836044
sg10
F0.8560268209407815
ssI422
(dp432
g9
F0.13101003294481883
sg10
F0.5573652355372203
ssI423
(dp433
g9
F0.1397312936109043
sg10
F0.5174639019173599
ssI424
(dp434
g9
F0.26031342336840113
sg10
F0.04573448609956787
ssI425
(dp435
g9
F0.05591691102295482
sg10
F0.514001698782388
ssI426
(dp436
g9
F0.9677633502313442
sg10
F0.16695994582629625
ssI427
(dp437
g9
F0.631027481555562
sg10
F0.847638367184084
ssI428
(dp438
g9
F0.4407846752246982
sg10
F0.91142758040646
ssI429
(dp439
g9
F0.8178137260957984
sg10
F0.9912761188236583
ssI430
(dp440
g9
F0.22461353435768605
sg10
F0.16339219245232017
ssI431
(dp441
g9
F0.654126252079024
sg10
F0.709195053239477
ssI432
(dp442
g9
F0.8327951080155129
sg10
F0.7879879913334517
ssI433
(dp443
g9
F0.5135012373464908
sg10
F0.6939262495013753
ssI434
(dp444
g9
F0.0653643270317682
sg10
F0.3855757256019591
ssI435
(dp445
g9
F0.26492831375201475
sg10
F0.027340467246953604
ssI436
(dp446
g9
F0.6097370696371197
sg10
F0.967495732998615
ssI437
(dp447
g9
F0.9968825407777271
sg10
F0.23900898000369997
ssI438
(dp448
g9
F0.5784587468595083
sg10
F0.5196424121968822
ssI439
(dp449
g9
F0.1337673642901387
sg10
F0.13496550599384838
ssI440
(dp450
g9
F0.6211418175947165
sg10
F0.5205297474729355
ssI441
(dp451
g9
F0.07955605520656261
sg10
F0.16270311204546362
ssI442
(dp452
g9
F0.26029334350749556
sg10
F0.6570123175789484
ssI443
(dp453
g9
F0.9244150822728129
sg10
F0.7737160189137642
ssI444
(dp454
g9
F0.6154101097839861
sg10
F0.8644831970166824
ssI445
(dp455
g9
F0.595247952760887
sg10
F0.9119185710514756
ssI446
(dp456
g9
F0.9681417601388688
sg10
F0.18125798958638906
ssI447
(dp457
g9
F0.13044651453706224
sg10
F0.6310229095690693
ssI448
(dp458
g9
F0.37934507421202757
sg10
F0.5722784357530294
ssI449
(dp459
g9
F0.5080033833459302
sg10
F0.31629070323992514
ssI450
(dp460
g9
F0.03842127174669807
sg10
F0.959549242234625
ssI451
(dp461
g9
F0.04701147560342023
sg10
F0.3425747767074264
ssI452
(dp462
g9
F0.5501075216646658
sg10
F0.18999187449374444
ssI453
(dp463
g9
F0.44976674783939596
sg10
F0.3777723219935164
ssI454
(dp464
g9
F0.3381082188146951
sg10
F0.6458677685020766
ssI455
(dp465
g9
F0.1566997845096062
sg10
F0.725138884875206
ssI456
(dp466
g9
F0.9848375905528559
sg10
F0.5757564272201708
ssI457
(dp467
g9
F0.39775682820119473
sg10
F0.3809909608804526
ssI458
(dp468
g9
F0.8466466162268037
sg10
F0.7429154893103738
ssI459
(dp469
g9
F0.24614804843889848
sg10
F0.8068843186265009
ssI460
(dp470
g9
F0.5402779124599107
sg10
F0.22726248847299513
ssI461
(dp471
g9
F0.39465465190967
sg10
F0.6017323360389729
ssI462
(dp472
g9
F0.6546116356481343
sg10
F0.19324435940321094
ssI463
(dp473
g9
F0.9911985436909323
sg10
F0.19261776845239387
ssI464
(dp474
g9
F0.6001899733998396
sg10
F0.9088028324979225
ssI465
(dp475
g9
F0.25444498829251394
sg10
F0.24669711693974172
ssI466
(dp476
g9
F0.8457235981231193
sg10
F0.9252326669830604
ssI467
(dp477
g9
F0.8108047018989237
sg10
F0.7615258974544254
ssI468
(dp478
g9
F0.5749849658003978
sg10
F0.3522647138533753
ssI469
(dp479
g9
F0.5509187729619128
sg10
F0.9307617564437378
ssI470
(dp480
g9
F0.6358028364499381
sg10
F0.08076583395284032
ssI471
(dp481
g9
F0.9980646666372565
sg10
F0.22778102475721396
ssI472
(dp482
g9
F0.03414748876520135
sg10
F0.1364939779911032
ssI473
(dp483
g9
F0.9738681020494152
sg10
F0.46442384573532947
ssI474
(dp484
g9
F0.11561815404543785
sg10
F0.36675238107095065
ssI475
(dp485
g9
F0.10727831718520286
sg10
F0.927466459630377
ssI476
(dp486
g9
F0.4499853634544042
sg10
F0.4045388818342419
ssI477
(dp487
g9
F0.9176343053741917
sg10
F0.4726012639784346
ssI478
(dp488
g9
F0.5403544746675297
sg10
F0.629026536096627
ssI479
(dp489
g9
F0.4390261149920994
sg10
F0.5667512381622131
ssI480
(dp490
g9
F0.6098601446457734
sg10
F0.28154565429157763
ssI481
(dp491
g9
F0.8293161299848624
sg10
F0.07200796705638812
ssI482
(dp492
g9
F0.9207103811680336
sg10
F0.007649108473465893
ssI483
(dp493
g9
F0.16788249933749932
sg10
F0.029159224668466766
ssI484
(dp494
g9
F0.34451946312633186
sg10
F0.06773548708496935
ssI485
(dp495
g9
F0.1703213113505384
sg10
F0.8282494079454911
ssI486
(dp496
g9
F0.3053090431761376
sg10
F0.47959903081968114
ssI487
(dp497
g9
F0.3086610703246646
sg10
F0.6909598398088939
ssI488
(dp498
g9
F0.10384631785590959
sg10
F0.41941355130562075
ssI489
(dp499
g9
F0.2436862237067885
sg10
F0.07910395015734317
ssI490
(dp500
g9
F0.7996321681636436
sg10
F0.7135819389700266
ssI491
(dp501
g9
F0.17798180375205253
sg10
F0.5442062458310764
ssI492
(dp502
g9
F0.4950311900994304
sg10
F0.5154711613021249
ssI493
(dp503
g9
F0.3062199492041098
sg10
F0.9551126090029796
ssI494
(dp504
g9
F0.8093409625739089
sg10
F0.45163009765077566
ssI495
(dp505
g9
F0.25062411408282825
sg10
F0.22490937908939856
ssI496
(dp506
g9
F0.01186902400371126
sg10
F0.8902469268742912
ssI497
(dp507
g9
F0.6540064344332767
sg10
F0.026613922076031638
ssI498
(dp508
g9
F0.09351894512197034
sg10
F0.9357687135368512
ssI499
(dp509
g9
F0.7149087910688231
sg10
F0.22219970650782872
sssS'node_dict_factory'
p510
c__builtin__
dict
p511
sS'edge_attr_dict_factory'
p512
g511
sS'edge'
p513
(dp514
I0
(dp515
sI1
(dp516
sI2
(dp517
sI3
(dp518
sI4
(dp519
sI5
(dp520
sI6
(dp521
sI7
(dp522
sI8
(dp523
sI9
(dp524
sI10
(dp525
sI11
(dp526
sI12
(dp527
sI13
(dp528
sI14
(dp529
sI15
(dp530
sI16
(dp531
sI17
(dp532
sI18
(dp533
sI19
(dp534
sI20
(dp535
sI21
(dp536
sI22
(dp537
sI23
(dp538
sI24
(dp539
sI25
(dp540
sI26
(dp541
sI27
(dp542
sI28
(dp543
sI29
(dp544
sI30
(dp545
sI31
(dp546
sI32
(dp547
sI33
(dp548
sI34
(dp549
sI35
(dp550
sI36
(dp551
sI37
(dp552
sI38
(dp553
sI39
(dp554
sI40
(dp555
sI41
(dp556
sI42
(dp557
sI43
(dp558
sI44
(dp559
sI45
(dp560
sI46
(dp561
sI47
(dp562
sI48
(dp563
sI49
(dp564
sI50
(dp565
sI51
(dp566
sI52
(dp567
sI53
(dp568
sI54
(dp569
sI55
(dp570
sI56
(dp571
sI57
(dp572
sI58
(dp573
sI59
(dp574
sI60
(dp575
sI61
(dp576
sI62
(dp577
sI63
(dp578
sI64
(dp579
sI65
(dp580
sI66
(dp581
sI67
(dp582
sI68
(dp583
sI69
(dp584
sI70
(dp585
sI71
(dp586
sI72
(dp587
sI73
(dp588
sI74
(dp589
sI75
(dp590
sI76
(dp591
sI77
(dp592
sI78
(dp593
sI79
(dp594
sI80
(dp595
sI81
(dp596
sI82
(dp597
sI83
(dp598
sI84
(dp599
sI85
(dp600
sI86
(dp601
sI87
(dp602
sI88
(dp603
sI89
(dp604
sI90
(dp605
sI91
(dp606
sI92
(dp607
sI93
(dp608
sI94
(dp609
sI95
(dp610
sI96
(dp611
sI97
(dp612
sI98
(dp613
sI99
(dp614
sI100
(dp615
sI101
(dp616
sI102
(dp617
sI103
(dp618
sI104
(dp619
sI105
(dp620
sI106
(dp621
sI107
(dp622
sI108
(dp623
sI109
(dp624
sI110
(dp625
sI111
(dp626
sI112
(dp627
sI113
(dp628
sI114
(dp629
sI115
(dp630
sI116
(dp631
sI117
(dp632
sI118
(dp633
sI119
(dp634
sI120
(dp635
sI121
(dp636
sI122
(dp637
sI123
(dp638
sI124
(dp639
sI125
(dp640
sI126
(dp641
sI127
(dp642
sI128
(dp643
sI129
(dp644
sI130
(dp645
sI131
(dp646
sI132
(dp647
sI133
(dp648
sI134
(dp649
sI135
(dp650
sI136
(dp651
sI137
(dp652
sI138
(dp653
sI139
(dp654
sI140
(dp655
sI141
(dp656
sI142
(dp657
sI143
(dp658
sI144
(dp659
sI145
(dp660
sI146
(dp661
sI147
(dp662
sI148
(dp663
sI149
(dp664
sI150
(dp665
sI151
(dp666
sI152
(dp667
sI153
(dp668
sI154
(dp669
sI155
(dp670
sI156
(dp671
sI157
(dp672
sI158
(dp673
sI159
(dp674
sI160
(dp675
sI161
(dp676
sI162
(dp677
sI163
(dp678
sI164
(dp679
sI165
(dp680
sI166
(dp681
sI167
(dp682
sI168
(dp683
sI169
(dp684
sI170
(dp685
sI171
(dp686
sI172
(dp687
sI173
(dp688
sI174
(dp689
sI175
(dp690
sI176
(dp691
sI177
(dp692
sI178
(dp693
sI179
(dp694
sI180
(dp695
sI181
(dp696
sI182
(dp697
sI183
(dp698
sI184
(dp699
sI185
(dp700
sI186
(dp701
sI187
(dp702
sI188
(dp703
sI189
(dp704
sI190
(dp705
sI191
(dp706
sI192
(dp707
sI193
(dp708
sI194
(dp709
sI195
(dp710
sI196
(dp711
sI197
(dp712
sI198
(dp713
sI199
(dp714
sI200
(dp715
sI201
(dp716
sI202
(dp717
sI203
(dp718
sI204
(dp719
sI205
(dp720
sI206
(dp721
sI207
(dp722
sI208
(dp723
sI209
(dp724
sI210
(dp725
sI211
(dp726
sI212
(dp727
sI213
(dp728
sI214
(dp729
sI215
(dp730
sI216
(dp731
sI217
(dp732
sI218
(dp733
sI219
(dp734
sI220
(dp735
sI221
(dp736
sI222
(dp737
sI223
(dp738
sI224
(dp739
sI225
(dp740
sI226
(dp741
sI227
(dp742
sI228
(dp743
sI229
(dp744
sI230
(dp745
sI231
(dp746
sI232
(dp747
sI233
(dp748
sI234
(dp749
sI235
(dp750
sI236
(dp751
sI237
(dp752
sI238
(dp753
sI239
(dp754
sI240
(dp755
sI241
(dp756
sI242
(dp757
sI243
(dp758
sI244
(dp759
sI245
(dp760
sI246
(dp761
sI247
(dp762
sI248
(dp763
sI249
(dp764
sI250
(dp765
sI251
(dp766
sI252
(dp767
sI253
(dp768
sI254
(dp769
sI255
(dp770
sI256
(dp771
sI257
(dp772
sI258
(dp773
sI259
(dp774
sI260
(dp775
sI261
(dp776
sI262
(dp777
sI263
(dp778
sI264
(dp779
sI265
(dp780
sI266
(dp781
sI267
(dp782
sI268
(dp783
sI269
(dp784
sI270
(dp785
sI271
(dp786
sI272
(dp787
sI273
(dp788
sI274
(dp789
sI275
(dp790
sI276
(dp791
sI277
(dp792
sI278
(dp793
sI279
(dp794
sI280
(dp795
sI281
(dp796
sI282
(dp797
sI283
(dp798
sI284
(dp799
sI285
(dp800
sI286
(dp801
sI287
(dp802
sI288
(dp803
sI289
(dp804
sI290
(dp805
sI291
(dp806
sI292
(dp807
sI293
(dp808
sI294
(dp809
sI295
(dp810
sI296
(dp811
sI297
(dp812
sI298
(dp813
sI299
(dp814
sI300
(dp815
sI301
(dp816
sI302
(dp817
sI303
(dp818
sI304
(dp819
sI305
(dp820
sI306
(dp821
sI307
(dp822
sI308
(dp823
sI309
(dp824
sI310
(dp825
sI311
(dp826
sI312
(dp827
sI313
(dp828
sI314
(dp829
sI315
(dp830
sI316
(dp831
sI317
(dp832
sI318
(dp833
sI319
(dp834
sI320
(dp835
sI321
(dp836
sI322
(dp837
sI323
(dp838
sI324
(dp839
sI325
(dp840
sI326
(dp841
sI327
(dp842
sI328
(dp843
sI329
(dp844
sI330
(dp845
sI331
(dp846
sI332
(dp847
sI333
(dp848
sI334
(dp849
sI335
(dp850
sI336
(dp851
sI337
(dp852
sI338
(dp853
sI339
(dp854
sI340
(dp855
sI341
(dp856
sI342
(dp857
sI343
(dp858
sI344
(dp859
sI345
(dp860
sI346
(dp861
sI347
(dp862
sI348
(dp863
sI349
(dp864
sI350
(dp865
sI351
(dp866
sI352
(dp867
sI353
(dp868
sI354
(dp869
sI355
(dp870
sI356
(dp871
sI357
(dp872
sI358
(dp873
sI359
(dp874
sI360
(dp875
sI361
(dp876
sI362
(dp877
sI363
(dp878
sI364
(dp879
sI365
(dp880
sI366
(dp881
sI367
(dp882
sI368
(dp883
sI369
(dp884
sI370
(dp885
sI371
(dp886
sI372
(dp887
sI373
(dp888
sI374
(dp889
sI375
(dp890
sI376
(dp891
sI377
(dp892
sI378
(dp893
sI379
(dp894
sI380
(dp895
sI381
(dp896
sI382
(dp897
sI383
(dp898
sI384
(dp899
sI385
(dp900
sI386
(dp901
sI387
(dp902
sI388
(dp903
sI389
(dp904
sI390
(dp905
sI391
(dp906
sI392
(dp907
sI393
(dp908
sI394
(dp909
sI395
(dp910
sI396
(dp911
sI397
(dp912
sI398
(dp913
sI399
(dp914
sI400
(dp915
sI401
(dp916
sI402
(dp917
sI403
(dp918
sI404
(dp919
sI405
(dp920
sI406
(dp921
sI407
(dp922
sI408
(dp923
sI409
(dp924
sI410
(dp925
sI411
(dp926
sI412
(dp927
sI413
(dp928
sI414
(dp929
sI415
(dp930
sI416
(dp931
sI417
(dp932
sI418
(dp933
sI419
(dp934
sI420
(dp935
sI421
(dp936
sI422
(dp937
sI423
(dp938
sI424
(dp939
sI425
(dp940
sI426
(dp941
sI427
(dp942
sI428
(dp943
sI429
(dp944
sI430
(dp945
sI431
(dp946
sI432
(dp947
sI433
(dp948
sI434
(dp949
sI435
(dp950
sI436
(dp951
sI437
(dp952
sI438
(dp953
sI439
(dp954
sI440
(dp955
sI441
(dp956
sI442
(dp957
sI443
(dp958
sI444
(dp959
sI445
(dp960
sI446
(dp961
sI447
(dp962
sI448
(dp963
sI449
(dp964
sI450
(dp965
sI451
(dp966
sI452
(dp967
sI453
(dp968
sI454
(dp969
sI455
(dp970
sI456
(dp971
sI457
(dp972
sI458
(dp973
sI459
(dp974
sI460
(dp975
sI461
(dp976
sI462
(dp977
sI463
(dp978
sI464
(dp979
sI465
(dp980
sI466
(dp981
sI467
(dp982
sI468
(dp983
sI469
(dp984
sI470
(dp985
sI471
(dp986
sI472
(dp987
sI473
(dp988
sI474
(dp989
sI475
(dp990
sI476
(dp991
sI477
(dp992
sI478
(dp993
sI479
(dp994
sI480
(dp995
sI481
(dp996
sI482
(dp997
sI483
(dp998
sI484
(dp999
sI485
(dp1000
sI486
(dp1001
sI487
(dp1002
sI488
(dp1003
sI489
(dp1004
sI490
(dp1005
sI491
(dp1006
sI492
(dp1007
sI493
(dp1008
sI494
(dp1009
sI495
(dp1010
sI496
(dp1011
sI497
(dp1012
sI498
(dp1013
sI499
(dp1014
ssS'graph'
p1015
(dp1016
sS'adjlist_dict_factory'
p1017
g511
sS'adj'
p1018
g514
sb.