ccopy_reg
_reconstructor
p0
(cnetworkx.classes.graph
Graph
p1
c__builtin__
object
p2
Ntp3
Rp4
(dp5
S'node'
p6
(dp7
I0
(dp8
S'pos_x'
p9
F0.45524943548058494
sS'pos_y'
p10
F0.9223636395501591
ssI1
(dp11
g9
F0.9985973310824976
sg10
F0.4772951712050195
ssI2
(dp12
g9
F0.5499588831466591
sg10
F0.11546951962963126
ssI3
(dp13
g9
F0.8950668974472634
sg10
F0.5939536098736691
ssI4
(dp14
g9
F0.36913543535548343
sg10
F0.6791126727250467
ssI5
(dp15
g9
F0.6908211914519113
sg10
F0.23324226086591582
ssI6
(dp16
g9
F0.6809174654213735
sg10
F0.5945047485292888
ssI7
(dp17
g9
F0.17077639206206996
sg10
F0.017512961286834883
ssI8
(dp18
g9
F0.6502679576936352
sg10
F0.8611874497567382
ssI9
(dp19
g9
F0.5953505502765792
sg10
F0.6686668829920036
ssI10
(dp20
g9
F0.5821678837959224
sg10
F0.17793475892085664
ssI11
(dp21
g9
F0.19719356668955346
sg10
F0.6216715970311993
ssI12
(dp22
g9
F0.2857576449105129
sg10
F0.9047903743737528
ssI13
(dp23
g9
F0.27200248820592365
sg10
F0.4007903119503372
ssI14
(dp24
g9
F0.027780242241546516
sg10
F0.5339373567173512
ssI15
(dp25
g9
F0.5245484232820764
sg10
F0.7151121237095073
ssI16
(dp26
g9
F0.4976918959619355
sg10
F0.17517338095052704
ssI17
(dp27
g9
F0.4179239623379337
sg10
F0.6303614396988251
ssI18
(dp28
g9
F0.9860596063034099
sg10
F0.6302604401086487
ssI19
(dp29
g9
F0.29116580969645967
sg10
F0.5210528192577268
ssI20
(dp30
g9
F0.8130297946884677
sg10
F0.5129609480805729
ssI21
(dp31
g9
F0.3581284915266507
sg10
F0.685030611934501
ssI22
(dp32
g9
F0.29672512305587495
sg10
F0.08108851862814825
ssI23
(dp33
g9
F0.881542136377596
sg10
F0.0647646379262371
ssI24
(dp34
g9
F0.02052393529801344
sg10
F0.8221500262589547
ssI25
(dp35
g9
F0.4167401850623417
sg10
F0.09891745388108242
ssI26
(dp36
g9
F0.13068536850618662
sg10
F0.40881446798345666
ssI27
(dp37
g9
F0.777127234951766
sg10
F0.6833578434243874
ssI28
(dp38
g9
F0.5476018798838149
sg10
F0.8505943887474455
ssI29
(dp39
g9
F0.7730721672212764
sg10
F0.06669512740503047
ssI30
(dp40
g9
F0.0550162786039996
sg10
F0.2816704348152318
ssI31
(dp41
g9
F0.531236856224935
sg10
F0.5758502088009592
ssI32
(dp42
g9
F0.11356952450099034
sg10
F0.8461933096511636
ssI33
(dp43
g9
F0.8511775556065228
sg10
F0.15238451229710837
ssI34
(dp44
g9
F0.7434445196924928
sg10
F0.7320345175104827
ssI35
(dp45
g9
F0.5635670303047235
sg10
F0.8311363798494414
ssI36
(dp46
g9
F0.8506423279884259
sg10
F0.16659604815818652
ssI37
(dp47
g9
F0.612803009205546
sg10
F0.39257826777351446
ssI38
(dp48
g9
F0.9999718313737279
sg10
F0.8122505031356569
ssI39
(dp49
g9
F0.364539836429849
sg10
F0.7733528724934889
ssI40
(dp50
g9
F0.5231858763847261
sg10
F0.7625664422686935
ssI41
(dp51
g9
F0.8387135169041456
sg10
F0.2377166654237145
ssI42
(dp52
g9
F0.5115777438536284
sg10
F0.8246460396125969
ssI43
(dp53
g9
F0.2877133128352487
sg10
F0.6746644000063549
ssI44
(dp54
g9
F0.5468464787852223
sg10
F0.9418070373609689
ssI45
(dp55
g9
F0.5788675711270134
sg10
F0.6263188935844257
ssI46
(dp56
g9
F0.05932376938087225
sg10
F0.4060065138952479
ssI47
(dp57
g9
F0.4684758389681092
sg10
F0.9847007374588049
ssI48
(dp58
g9
F0.5333664993023495
sg10
F0.6602796861799926
ssI49
(dp59
g9
F0.4003966515413503
sg10
F0.11321336041561791
ssI50
(dp60
g9
F0.2969889492981982
sg10
F0.20256743748600192
ssI51
(dp61
g9
F0.6707091884622751
sg10
F0.427483460694414
ssI52
(dp62
g9
F0.6329196129429636
sg10
F0.6417765402412613
ssI53
(dp63
g9
F0.401515663344306
sg10
F0.6572242201870557
ssI54
(dp64
g9
F0.8339763033775834
sg10
F0.7528297716154436
ssI55
(dp65
g9
F0.3536621505316859
sg10
F0.1693090240646975
ssI56
(dp66
g9
F0.1591251558332737
sg10
F0.20435532503797238
ssI57
(dp67
g9
F0.10452007868229263
sg10
F0.19647837822460434
ssI58
(dp68
g9
F0.9583046025037464
sg10
F0.35340555250875794
ssI59
(dp69
g9
F0.43916476913193814
sg10
F0.3783881990943774
ssI60
(dp70
g9
F0.8619091591281253
sg10
F0.42403127721798506
ssI61
(dp71
g9
F0.5183696739140742
sg10
F0.6741143979089281
ssI62
(dp72
g9
F0.002758660873192653
sg10
F0.11896554445696916
ssI63
(dp73
g9
F0.6466942754841876
sg10
F0.6135959819272964
ssI64
(dp74
g9
F0.33898830645399525
sg10
F0.5911351465256883
ssI65
(dp75
g9
F0.41011852002374194
sg10
F0.9283781132084864
ssI66
(dp76
g9
F0.6405266876579147
sg10
F0.5104013533744758
ssI67
(dp77
g9
F0.6842249824948029
sg10
F0.8777994582493204
ssI68
(dp78
g9
F0.14226900418806043
sg10
F0.9598305997806257
ssI69
(dp79
g9
F0.4261433276023193
sg10
F0.7090838770009504
ssI70
(dp80
g9
F0.974007125153368
sg10
F0.2814646476331475
ssI71
(dp81
g9
F0.11469218210638166
sg10
F0.6286580921501859
ssI72
(dp82
g9
F0.9636490145691476
sg10
F0.40060158664565637
ssI73
(dp83
g9
F0.5166446800599611
sg10
F0.7234926891303911
ssI74
(dp84
g9
F0.9561735806816736
sg10
F0.5440797189496255
ssI75
(dp85
g9
F0.7172063777268869
sg10
F0.13677237329473924
ssI76
(dp86
g9
F0.033880577916287735
sg10
F0.5056236230032831
ssI77
(dp87
g9
F0.4018985423868866
sg10
F0.8011697816001117
ssI78
(dp88
g9
F0.4533642111402133
sg10
F0.8526765944178517
ssI79
(dp89
g9
F0.15602301276599273
sg10
F0.225421010857075
ssI80
(dp90
g9
F0.059915626430012026
sg10
F0.03587735661366309
ssI81
(dp91
g9
F0.5293262619176037
sg10
F0.679015774973221
ssI82
(dp92
g9
F0.4907012000350005
sg10
F0.22530234169449936
ssI83
(dp93
g9
F0.8019656902414133
sg10
F0.1426873069517206
ssI84
(dp94
g9
F0.09587710721734344
sg10
F0.4311386174739781
ssI85
(dp95
g9
F0.8950859002184983
sg10
F0.41417919988034557
ssI86
(dp96
g9
F0.7429232703218268
sg10
F0.9922591764947638
ssI87
(dp97
g9
F0.8651660375516711
sg10
F0.912761341234047
ssI88
(dp98
g9
F0.32338597170315797
sg10
F0.7588531603468849
ssI89
(dp99
g9
F0.20102523847113118
sg10
F0.7411458015169203
ssI90
(dp100
g9
F0.1519474452439047
sg10
F0.18987602918644597
ssI91
(dp101
g9
F0.6645094489988079
sg10
F0.7327308692513776
ssI92
(dp102
g9
F0.31890977588884717
sg10
F0.6936361042382093
ssI93
(dp103
g9
F0.27084862654734876
sg10
F0.08630258368716126
ssI94
(dp104
g9
F0.31005360045507024
sg10
F0.4337442907934711
ssI95
(dp105
g9
F0.048812914387108
sg10
F0.7684595753430694
ssI96
(dp106
g9
F0.9755995351844635
sg10
F0.910106548717116
ssI97
(dp107
g9
F0.608830279465068
sg10
F0.2005115939287101
ssI98
(dp108
g9
F0.8710255059538943
sg10
F0.2613645298533406
ssI99
(dp109
g9
F0.6109133933567436
sg10
F0.5720746448268471
ssI100
(dp110
g9
F0.9024872955298853
sg10
F0.3198078547821547
ssI101
(dp111
g9
F0.5733291281648674
sg10
F0.5616755479154231
ssI102
(dp112
g9
F0.8191239087785389
sg10
F0.9597309667848615
ssI103
(dp113
g9
F0.42093953932623807
sg10
F0.11155263786777014
ssI104
(dp114
g9
F0.08789746796313747
sg10
F0.483779881598866
ssI105
(dp115
g9
F0.6332867025030926
sg10
F0.7795692173862998
ssI106
(dp116
g9
F0.59325098623785
sg10
F0.5549676176873377
ssI107
(dp117
g9
F0.0010267972598311248
sg10
F0.2899642648378039
ssI108
(dp118
g9
F0.020945046871719497
sg10
F0.8298640712382928
ssI109
(dp119
g9
F0.4255737001433173
sg10
F0.21587722025412126
ssI110
(dp120
g9
F0.19679416182183507
sg10
F0.8173914916408718
ssI111
(dp121
g9
F0.4507927156164607
sg10
F0.35576294058475155
ssI112
(dp122
g9
F0.872700052626585
sg10
F0.7470798399610664
ssI113
(dp123
g9
F0.8076441953591981
sg10
F0.5034578020214693
ssI114
(dp124
g9
F0.7757012635757065
sg10
F0.9223677265404627
ssI115
(dp125
g9
F0.012284348229186448
sg10
F0.09433777539510035
ssI116
(dp126
g9
F0.827091406323352
sg10
F0.6507352635412548
ssI117
(dp127
g9
F0.4081791126611737
sg10
F0.5569853246623232
ssI118
(dp128
g9
F0.7477633450170894
sg10
F0.2451358659158004
ssI119
(dp129
g9
F0.09741439363477666
sg10
F0.1968903182707924
ssI120
(dp130
g9
F0.0057227114361153575
sg10
F0.9035814046505691
ssI121
(dp131
g9
F0.9807565785224732
sg10
F0.8903365838360049
ssI122
(dp132
g9
F0.5041070880945412
sg10
F0.3047637825672155
ssI123
(dp133
g9
F0.7642925726242985
sg10
F0.3596607362789759
ssI124
(dp134
g9
F0.790501155209554
sg10
F0.38886147228876
ssI125
(dp135
g9
F0.420104939115166
sg10
F0.6371176002409165
ssI126
(dp136
g9
F0.48705690075473107
sg10
F0.24218352415958444
ssI127
(dp137
g9
F0.915704885299241
sg10
F0.7387940518491038
ssI128
(dp138
g9
F0.530930958580684
sg10
F0.6022952178878147
ssI129
(dp139
g9
F0.40199663197635915
sg10
F0.865914136235115
ssI130
(dp140
g9
F0.17781439958640388
sg10
F0.035167585353461206
ssI131
(dp141
g9
F0.045318412131879815
sg10
F0.6058814996355353
ssI132
(dp142
g9
F0.7927343298564834
sg10
F0.8493710667895331
ssI133
(dp143
g9
F0.019941549097134637
sg10
F0.39158699633088534
ssI134
(dp144
g9
F0.46598374171740486
sg10
F0.7099530313865381
ssI135
(dp145
g9
F0.7735413196535892
sg10
F0.1951047400667022
ssI136
(dp146
g9
F0.32646779563231254
sg10
F0.30574606565154916
ssI137
(dp147
g9
F0.3089488492424637
sg10
F0.8220431181292022
ssI138
(dp148
g9
F0.3745799756668884
sg10
F0.1111928908185853
ssI139
(dp149
g9
F0.9759325599386484
sg10
F0.8798252418302676
ssI140
(dp150
g9
F0.6758241229220716
sg10
F0.7324275789116047
ssI141
(dp151
g9
F0.6581017054626516
sg10
F0.7938919579087242
ssI142
(dp152
g9
F0.5445127317253637
sg10
F0.18669863146962073
ssI143
(dp153
g9
F0.22357360698704187
sg10
F0.6533482018701989
ssI144
(dp154
g9
F0.13081303879446504
sg10
F0.9563138860766446
ssI145
(dp155
g9
F0.17092417205498
sg10
F0.6276763015248112
ssI146
(dp156
g9
F0.18328777704112387
sg10
F0.8968444874544909
ssI147
(dp157
g9
F0.3592505844712389
sg10
F0.8731914902496671
ssI148
(dp158
g9
F0.893203042421777
sg10
F0.6566944657149227
ssI149
(dp159
g9
F0.34077435189846583
sg10
F0.6040811814462603
ssI150
(dp160
g9
F0.044016245691758216
sg10
F0.6696096801457122
ssI151
(dp161
g9
F0.6518962703773316
sg10
F0.24214724128634557
ssI152
(dp162
g9
F0.21688031907662875
sg10
F0.8765250760136085
ssI153
(dp163
g9
F0.14177517683021734
sg10
F0.9279470184120879
ssI154
(dp164
g9
F0.651006600206514
sg10
F0.4453884565672971
ssI155
(dp165
g9
F0.5476432623200098
sg10
F0.046367765961214724
ssI156
(dp166
g9
F0.6714196133313127
sg10
F0.4145011078330413
ssI157
(dp167
g9
F0.5978489050745504
sg10
F0.7478986589859573
ssI158
(dp168
g9
F0.03887080275358501
sg10
F0.6262403069782856
ssI159
(dp169
g9
F0.053727743244667
sg10
F0.2859236191395659
ssI160
(dp170
g9
F0.41731736193087854
sg10
F0.7824643875012058
ssI161
(dp171
g9
F0.23044207192020605
sg10
F0.107106439489415
ssI162
(dp172
g9
F0.08256584262442923
sg10
F0.210368719540433
ssI163
(dp173
g9
F0.3773180443946298
sg10
F0.6469191617952387
ssI164
(dp174
g9
F0.8841889318430917
sg10
F0.08485496351637478
ssI165
(dp175
g9
F0.6337820706398981
sg10
F0.2565945913754971
ssI166
(dp176
g9
F0.20473612273770514
sg10
F0.7247494581134993
ssI167
(dp177
g9
F0.05002013641101466
sg10
F0.19791559908720147
ssI168
(dp178
g9
F0.06801017733246806
sg10
F0.5639196784688643
ssI169
(dp179
g9
F0.8540818261195092
sg10
F0.18841384788819016
ssI170
(dp180
g9
F0.42540071924084066
sg10
F0.25571742463654257
ssI171
(dp181
g9
F0.9100915186665012
sg10
F0.9934637663401472
ssI172
(dp182
g9
F0.44783646973386837
sg10
F0.02390822365997436
ssI173
(dp183
g9
F0.8709909521845831
sg10
F0.06290156900848842
ssI174
(dp184
g9
F0.7441961520357424
sg10
F0.5649787938407473
ssI175
(dp185
g9
F0.2959288039326029
sg10
F0.40714366375647604
ssI176
(dp186
g9
F0.8274035416942558
sg10
F0.8536027967495063
ssI177
(dp187
g9
F0.8123504572113857
sg10
F0.6405330284251811
ssI178
(dp188
g9
F0.8191120113033448
sg10
F0.41330566514371225
ssI179
(dp189
g9
F0.934174443966985
sg10
F0.22304348506458638
ssI180
(dp190
g9
F0.04971394470302193
sg10
F0.06409898238757994
ssI181
(dp191
g9
F0.31138814936588366
sg10
F0.932194217730816
ssI182
(dp192
g9
F0.6921959446477991
sg10
F0.9662951122968554
ssI183
(dp193
g9
F0.8956485745329356
sg10
F0.3633952042029549
ssI184
(dp194
g9
F0.7296812405111557
sg10
F0.07153634547925058
ssI185
(dp195
g9
F0.3368190801612333
sg10
F0.5064335460071564
ssI186
(dp196
g9
F0.5235087538675574
sg10
F0.06244315460258576
ssI187
(dp197
g9
F0.1338829990831566
sg10
F0.06485879442098119
ssI188
(dp198
g9
F0.31669675922587925
sg10
F0.23276505871212272
ssI189
(dp199
g9
F0.6374232471371285
sg10
F0.3529027121847078
ssI190
(dp200
g9
F0.3324544272800246
sg10
F0.8080487234255042
ssI191
(dp201
g9
F0.5438134714618734
sg10
F0.11643979847872987
ssI192
(dp202
g9
F0.7777900159453627
sg10
F0.7556423328940788
ssI193
(dp203
g9
F0.4026966565978849
sg10
F0.533434395001852
ssI194
(dp204
g9
F0.38967849757679707
sg10
F0.3268285681106753
ssI195
(dp205
g9
F0.236688330297252
sg10
F0.13996412416223425
ssI196
(dp206
g9
F0.4468751611305445
sg10
F0.6789574727873571
ssI197
(dp207
g9
F0.6761165873082557
sg10
F0.9659648706735725
ssI198
(dp208
g9
F0.42503567110466944
sg10
F0.32368438747894657
ssI199
(dp209
g9
F0.19819569989720942
sg10
F0.7953450951605051
ssI200
(dp210
g9
F0.19016928743089734
sg10
F0.4951750335922058
ssI201
(dp211
g9
F0.13882304320537542
sg10
F0.4852961379271665
ssI202
(dp212
g9
F0.3288339871303436
sg10
F0.5941190120907608
ssI203
(dp213
g9
F0.4479178396412119
sg10
F0.12609994966547855
ssI204
(dp214
g9
F0.7192900677024028
sg10
F0.18096950571681292
ssI205
(dp215
g9
F0.4352871108863141
sg10
F0.09827428911382308
ssI206
(dp216
g9
F0.49396877268205075
sg10
F0.43230667772030196
ssI207
(dp217
g9
F0.12826636941192038
sg10
F0.680418307197146
ssI208
(dp218
g9
F0.02584861424612306
sg10
F0.8357695952429932
ssI209
(dp219
g9
F0.7484778167971388
sg10
F0.007176209554163981
ssI210
(dp220
g9
F0.259311155841743
sg10
F0.7373236839548941
ssI211
(dp221
g9
F0.10057590720678555
sg10
F0.8991547047835226
ssI212
(dp222
g9
F0.17943352855544226
sg10
F0.4626219051910516
ssI213
(dp223
g9
F0.2638963845200454
sg10
F0.9102117167483313
ssI214
(dp224
g9
F0.9982023903603917
sg10
F0.771556197493171
ssI215
(dp225
g9
F0.132310468150726
sg10
F0.6905904016699169
ssI216
(dp226
g9
F0.6518626269011848
sg10
F0.05438946694081215
ssI217
(dp227
g9
F0.04087441415394377
sg10
F0.7101707552829943
ssI218
(dp228
g9
F0.9925092208178892
sg10
F0.8083348963242818
ssI219
(dp229
g9
F0.12786524672838973
sg10
F0.6282882116133306
ssI220
(dp230
g9
F0.7065375130528916
sg10
F0.5266668899530765
ssI221
(dp231
g9
F0.415635952273705
sg10
F0.2607896409823216
ssI222
(dp232
g9
F0.32487359016153483
sg10
F0.14938095538076768
ssI223
(dp233
g9
F0.6387224012758114
sg10
F0.19570160728289465
ssI224
(dp234
g9
F0.28237115694183557
sg10
F0.0453541404545269
ssI225
(dp235
g9
F0.3652228435421738
sg10
F0.08728252870945219
ssI226
(dp236
g9
F0.3786955890093897
sg10
F0.25051471997480934
ssI227
(dp237
g9
F0.40961542863393907
sg10
F0.49555926156141206
ssI228
(dp238
g9
F0.028351234230483358
sg10
F0.5796496044822614
ssI229
(dp239
g9
F0.7497293097226259
sg10
F0.2644188098088458
ssI230
(dp240
g9
F0.057429521526944693
sg10
F0.5685680468235936
ssI231
(dp241
g9
F0.7289860944467882
sg10
F0.1288327579787233
ssI232
(dp242
g9
F0.5152180369262999
sg10
F0.6709438878993254
ssI233
(dp243
g9
F0.8384236529914643
sg10
F0.9842150979556192
ssI234
(dp244
g9
F0.8128163901529023
sg10
F0.4871047126468917
ssI235
(dp245
g9
F0.03921172325907041
sg10
F0.6552474919978291
ssI236
(dp246
g9
F0.9635746060916739
sg10
F0.30326430316857556
ssI237
(dp247
g9
F0.44499635961013406
sg10
F0.4403579001547213
ssI238
(dp248
g9
F0.2704108644585479
sg10
F0.47114557153256886
ssI239
(dp249
g9
F0.8880614038101515
sg10
F0.7028907494596693
ssI240
(dp250
g9
F0.6155098157016962
sg10
F0.7550755769991158
ssI241
(dp251
g9
F0.3870240431037113
sg10
F0.3548627273934677
ssI242
(dp252
g9
F0.39699661465004776
sg10
F0.015199478338377426
ssI243
(dp253
g9
F0.36595382398989174
sg10
F0.7100343190051659
ssI244
(dp254
g9
F0.3555234380044008
sg10
F0.6846274204797672
ssI245
(dp255
g9
F0.16923132216930803
sg10
F0.236896171925558
ssI246
(dp256
g9
F0.6089011511762169
sg10
F0.3427477747037797
ssI247
(dp257
g9
F0.9188224313756455
sg10
F0.6024634384266757
ssI248
(dp258
g9
F0.7563494567141421
sg10
F0.5490421835887801
ssI249
(dp259
g9
F0.20308322656469524
sg10
F0.1437753170962025
ssI250
(dp260
g9
F0.8975305380291899
sg10
F0.9806100562580166
ssI251
(dp261
g9
F0.45783947608409425
sg10
F0.7029674316291683
ssI252
(dp262
g9
F0.7051711324843147
sg10
F0.5523790975332709
ssI253
(dp263
g9
F0.8641026971359611
sg10
F0.48010995950550317
ssI254
(dp264
g9
F0.9268919926523216
sg10
F0.9520449505640122
ssI255
(dp265
g9
F0.9899668342242188
sg10
F0.351391186065966
ssI256
(dp266
g9
F0.0872038021703142
sg10
F0.878552821718264
ssI257
(dp267
g9
F0.7675312979861395
sg10
F0.19249788206481844
ssI258
(dp268
g9
F0.157322656769464
sg10
F0.7243976028598248
ssI259
(dp269
g9
F0.7995088168420563
sg10
F0.8628183122127552
ssI260
(dp270
g9
F0.435312297232346
sg10
F0.2560199681385378
ssI261
(dp271
g9
F0.6538498360624924
sg10
F0.15538641113706042
ssI262
(dp272
g9
F0.6724027933425296
sg10
F0.11675402045249894
ssI263
(dp273
g9
F0.41431778664370833
sg10
F0.4915431525784546
ssI264
(dp274
g9
F0.08265532930893826
sg10
F0.062254431834526724
ssI265
(dp275
g9
F0.21926479558582745
sg10
F0.6079089557998207
ssI266
(dp276
g9
F0.6770913864072895
sg10
F0.030505743680397712
ssI267
(dp277
g9
F0.15602210039129927
sg10
F0.09007943470035396
ssI268
(dp278
g9
F0.1300111982262031
sg10
F0.36163021199324796
ssI269
(dp279
g9
F0.7538774488986225
sg10
F0.9826234934239944
ssI270
(dp280
g9
F0.5384259145402946
sg10
F0.0026441141379882627
ssI271
(dp281
g9
F0.32079093972396044
sg10
F0.676851190057306
ssI272
(dp282
g9
F0.39500209022885235
sg10
F0.688816128498022
ssI273
(dp283
g9
F0.8095885371187882
sg10
F0.5829353746058832
ssI274
(dp284
g9
F0.7775514112754015
sg10
F0.1061375019415769
ssI275
(dp285
g9
F0.011230689289278284
sg10
F0.22203424311837694
ssI276
(dp286
g9
F0.1215410216110977
sg10
F0.9316212968445543
ssI277
(dp287
g9
F0.7532084130760588
sg10
F0.02316663732393698
ssI278
(dp288
g9
F0.3762587106732165
sg10
F0.05428009766298414
ssI279
(dp289
g9
F0.4255798635029665
sg10
F0.4304433630297426
ssI280
(dp290
g9
F0.10355633019294441
sg10
F0.32258465197285346
ssI281
(dp291
g9
F0.6730751335789101
sg10
F0.492518641518327
ssI282
(dp292
g9
F0.0716035155014838
sg10
F0.17520020539504888
ssI283
(dp293
g9
F0.052512022909307454
sg10
F0.6026646934502767
ssI284
(dp294
g9
F0.80282388039062
sg10
F0.3011251591817844
ssI285
(dp295
g9
F0.17115285846919615
sg10
F0.6651061765314131
ssI286
(dp296
g9
F0.7442974784365384
sg10
F0.5979009873428142
ssI287
(dp297
g9
F0.5937425787361648
sg10
F0.15520841832633636
ssI288
(dp298
g9
F0.23191698101897462
sg10
F0.736474670367423
ssI289
(dp299
g9
F0.6264380158022079
sg10
F0.8197450268833628
ssI290
(dp300
g9
F0.5300371109689026
sg10
F0.5305110446996864
ssI291
(dp301
g9
F0.0461110951903122
sg10
F0.9140835706746888
ssI292
(dp302
g9
F0.7324695925288942
sg10
F0.17209939326795043
ssI293
(dp303
g9
F0.3242845634903232
sg10
F0.0826636500541319
ssI294
(dp304
g9
F0.4671572438416902
sg10
F0.20131595655285328
ssI295
(dp305
g9
F0.6007470806742842
sg10
F0.6651807395583549
ssI296
(dp306
g9
F0.127306005834935
sg10
F0.5984931211024085
ssI297
(dp307
g9
F0.6023666331525356
sg10
F0.3626387481615372
ssI298
(dp308
g9
F0.9880775896052917
sg10
F0.7522980506868842
ssI299
(dp309
g9
F0.8055787950714614
sg10
F0.9963094695923147
ssI300
(dp310
g9
F0.6644626279706953
sg10
F0.2888901478165571
ssI301
(dp311
g9
F0.6837620402280684
sg10
F0.7828136520274966
ssI302
(dp312
g9
F0.004577494187146591
sg10
F0.744778212194315
ssI303
(dp313
g9
F0.2715208432522651
sg10
F0.2291239265034698
ssI304
(dp314
g9
F0.3341764616052949
sg10
F0.7973929098770792
ssI305
(dp315
g9
F0.1868383872493501
sg10
F0.040832974469352634
ssI306
(dp316
g9
F0.8388889769885597
sg10
F0.010869933496980955
ssI307
(dp317
g9
F0.8543160380467656
sg10
F0.46785982855334196
ssI308
(dp318
g9
F0.7928559281957017
sg10
F0.6393728138245077
ssI309
(dp319
g9
F0.7436194808031381
sg10
F0.43144884274995643
ssI310
(dp320
g9
F0.34382871531008674
sg10
F0.45895557484120175
ssI311
(dp321
g9
F0.7713690293340407
sg10
F0.9601300406451204
ssI312
(dp322
g9
F0.9000558808209701
sg10
F0.5448053398711649
ssI313
(dp323
g9
F0.8711395253904166
sg10
F0.9512296019960448
ssI314
(dp324
g9
F0.3274773840756864
sg10
F0.9031378670205324
ssI315
(dp325
g9
F0.12050772676970889
sg10
F0.286583336850014
ssI316
(dp326
g9
F0.6201934694603825
sg10
F0.4451311671502589
ssI317
(dp327
g9
F0.524316412708168
sg10
F0.10533845680815868
ssI318
(dp328
g9
F0.5994059993129269
sg10
F0.522637705794715
ssI319
(dp329
g9
F0.8541698336795204
sg10
F0.19867412040851562
ssI320
(dp330
g9
F0.5615918179485182
sg10
F0.21672433828998205
ssI321
(dp331
g9
F0.3145009257148075
sg10
F0.9060373182423006
ssI322
(dp332
g9
F0.6101867292269055
sg10
F0.6041705064447337
ssI323
(dp333
g9
F0.3639932932417599
sg10
F0.5704469763459035
ssI324
(dp334
g9
F0.17067847173634298
sg10
F0.760830667092179
ssI325
(dp335
g9
F0.4500104944250245
sg10
F0.16185252550219098
ssI326
(dp336
g9
F0.349055351704735
sg10
F0.7779835614635209
ssI327
(dp337
g9
F0.13331833218411093
sg10
F0.7690938822619696
ssI328
(dp338
g9
F0.15263810265611544
sg10
F0.0029306775479125413
ssI329
(dp339
g9
F0.3436459399165547
sg10
F0.6857052897611222
ssI330
(dp340
g9
F0.9896123028591053
sg10
F0.912878782705422
ssI331
(dp341
g9
F0.8562074579897545
sg10
F0.3563845259037849
ssI332
(dp342
g9
F0.0007963995839397331
sg10
F0.017014744009496652
ssI333
(dp343
g9
F0.0792623461507832
sg10
F0.3935055406938439
ssI334
(dp344
g9
F0.5712346249307341
sg10
F0.5163084069989557
ssI335
(dp345
g9
F0.4319306077395526
sg10
F0.9553001375924206
ssI336
(dp346
g9
F0.40121501626661293
sg10
F0.6435135134518896
ssI337
(dp347
g9
F0.5199514627468131
sg10
F0.8020693583049947
ssI338
(dp348
g9
F0.7185238459321821
sg10
F0.16682224781912613
ssI339
(dp349
g9
F0.6711446553797947
sg10
F0.7842701654085709
ssI340
(dp350
g9
F0.6348489071751706
sg10
F0.8471555277951249
ssI341
(dp351
g9
F0.1044210724876784
sg10
F0.8277943006259233
ssI342
(dp352
g9
F0.9674302813822439
sg10
F0.34120890971609885
ssI343
(dp353
g9
F0.26007103292017486
sg10
F0.44487154268502016
ssI344
(dp354
g9
F0.9410544207977195
sg10
F0.8888841718737369
ssI345
(dp355
g9
F0.38738651298286997
sg10
F0.7104151706309966
ssI346
(dp356
g9
F0.6310813522790211
sg10
F0.537103431212452
ssI347
(dp357
g9
F0.16679686587290232
sg10
F0.811608904688153
ssI348
(dp358
g9
F0.8368500817589678
sg10
F0.4568348648848375
ssI349
(dp359
g9
F0.11804420630802437
sg10
F0.7557690831565186
ssI350
(dp360
g9
F0.04015434757633707
sg10
F0.24651420924723577
ssI351
(dp361
g9
F0.4170422380376536
sg10
F0.26555268368528817
ssI352
(dp362
g9
F0.8103431685149018
sg10
F0.8320293355624898
ssI353
(dp363
g9
F0.4768549627899933
sg10
F0.2677696570626934
ssI354
(dp364
g9
F0.1619392357624121
sg10
F0.7088172534750102
ssI355
(dp365
g9
F0.09870841203593783
sg10
F0.10299691132484412
ssI356
(dp366
g9
F0.48655741296219523
sg10
F0.8817580472765709
ssI357
(dp367
g9
F0.6496964080060909
sg10
F0.6748164135901286
ssI358
(dp368
g9
F0.5109847644511724
sg10
F0.42295834472182037
ssI359
(dp369
g9
F0.22411693653760922
sg10
F0.31011093284107805
ssI360
(dp370
g9
F0.3321041016065762
sg10
F0.5671919206459838
ssI361
(dp371
g9
F0.6983943755537451
sg10
F0.49692453541769055
ssI362
(dp372
g9
F0.5561409232937312
sg10
F0.10935811154971453
ssI363
(dp373
g9
F0.19869371931270796
sg10
F0.8305556518670847
ssI364
(dp374
g9
F0.2023581131233182
sg10
F0.8389087928256869
ssI365
(dp375
g9
F0.600533958290037
sg10
F0.5719504523313641
ssI366
(dp376
g9
F0.300911182061259
sg10
F0.5255582091535881
ssI367
(dp377
g9
F0.9019768671855907
sg10
F0.6083185552139667
ssI368
(dp378
g9
F0.3757205681302046
sg10
F0.490451242739666
ssI369
(dp379
g9
F0.9392693370222795
sg10
F0.38193009237773945
ssI370
(dp380
g9
F0.042271523912494224
sg10
F0.18538443229472357
ssI371
(dp381
g9
F0.9952949634427397
sg10
F0.8542005141214564
ssI372
(dp382
g9
F0.38900711269704014
sg10
F0.38749369207270357
ssI373
(dp383
g9
F0.33993131894813977
sg10
F0.3942801341739608
ssI374
(dp384
g9
F0.4636000789446423
sg10
F0.5939376129653754
ssI375
(dp385
g9
F0.400547931230401
sg10
F0.21382180956872954
ssI376
(dp386
g9
F0.729057762208645
sg10
F0.9501743541565035
ssI377
(dp387
g9
F0.09637949547305624
sg10
F0.5864175498010605
ssI378
(dp388
g9
F0.8731612823395746
sg10
F0.792290149341534
ssI379
(dp389
g9
F0.6202082013249961
sg10
F0.7954253961136988
ssI380
(dp390
g9
F0.6587730206956373
sg10
F0.05205512535445078
ssI381
(dp391
g9
F0.7310782084963581
sg10
F0.859392358497464
ssI382
(dp392
g9
F0.24739544506590816
sg10
F0.999225776094233
ssI383
(dp393
g9
F0.16200897570991313
sg10
F0.19997888936128627
ssI384
(dp394
g9
F0.6660899149082077
sg10
F0.18275036745025885
ssI385
(dp395
g9
F0.14662716191378566
sg10
F0.5522312727168555
ssI386
(dp396
g9
F0.5701177141706126
sg10
F0.2780096367603372
ssI387
(dp397
g9
F0.7629353590191702
sg10
F0.8394399174038552
ssI388
(dp398
g9
F0.5745634605829472
sg10
F0.13614485515537933
ssI389
(dp399
g9
F0.3840091718274865
sg10
F0.6632233113264282
ssI390
(dp400
g9
F0.715362064342108
sg10
F0.7835629462799648
ssI391
(dp401
g9
F0.5643896114467462
sg10
F0.944789017959207
ssI392
(dp402
g9
F0.28911292665152466
sg10
F0.35723351180099583
ssI393
(dp403
g9
F0.23408415919032544
sg10
F0.8253588886405778
ssI394
(dp404
g9
F0.6591352333759387
sg10
F0.32855966410666493
ssI395
(dp405
g9
F0.8058637418488329
sg10
F0.7151296574817173
ssI396
(dp406
g9
F0.5140960399029096
sg10
F0.31973221858288714
ssI397
(dp407
g9
F0.10446512099318084
sg10
F0.38292300712683447
ssI398
(dp408
g9
F0.4123256261987873
sg10
F0.8844482696204676
ssI399
(dp409
g9
F0.5850458626625583
sg10
F0.6045657135828894
ssI400
(dp410
g9
F0.3454700500107336
sg10
F0.10290035909857198
ssI401
(dp411
g9
F0.6905699043293417
sg10
F0.9878854413654601
ssI402
(dp412
g9
F0.23473124506519405
sg10
F0.7889326525929149
ssI403
(dp413
g9
F0.10876338205329228
sg10
F0.385181054799445
ssI404
(dp414
g9
F0.1641113873054708
sg10
F0.5140120221828743
ssI405
(dp415
g9
F0.9206475950525225
sg10
F0.31377613488512723
ssI406
(dp416
g9
F0.9760168704222452
sg10
F0.633971009443034
ssI407
(dp417
g9
F0.952224142004678
sg10
F0.8698858910579317
ssI408
(dp418
g9
F0.39041926768529833
sg10
F0.8513086743545856
ssI409
(dp419
g9
F0.30950275256794213
sg10
F0.5857654756941184
ssI410
(dp420
g9
F0.13672328437705117
sg10
F0.9120646999819878
ssI411
(dp421
g9
F0.7653778972683363
sg10
F0.986845998558547
ssI412
(dp422
g9
F0.664602686951674
sg10
F0.011409756233883739
ssI413
(dp423
g9
F0.5785454421720612
sg10
F0.6213903721361025
ssI414
(dp424
g9
F0.618338858881168
sg10
F0.21350504610393584
ssI415
(dp425
g9
F0.587844873519456
sg10
F0.8591843052614332
ssI416
(dp426
g9
F0.7512113252461027
sg10
F0.2528631023123552
ssI417
(dp427
g9
F0.8909308771149055
sg10
F0.17171528699011263
ssI418
(dp428
g9
F0.3019270718133771
sg10
F0.1829172968134667
ssI419
(dp429
g9
F0.7808449416555898
sg10
F0.9934554901611371
ssI420
(dp430
g9
F0.8114520732691491
sg10
F0.6787931137463008
ssI421
(dp431
g9
F0.15626568483810843
sg10
F0.49135423373662857
ssI422
(dp432
g9
F0.20033094369681514
sg10
F0.9436499067033478
ssI423
(dp433
g9
F0.4560728738060822
sg10
F0.30472823936422233
ssI424
(dp434
g9
F0.15199112907673995
sg10
F0.5872345825547151
ssI425
(dp435
g9
F0.2740365077281096
sg10
F0.25554110511992467
ssI426
(dp436
g9
F0.2882301310078571
sg10
F0.11187391708744066
ssI427
(dp437
g9
F0.059930504245839566
sg10
F0.4287279574921412
ssI428
(dp438
g9
F0.831739903682092
sg10
F0.3574227908592936
ssI429
(dp439
g9
F0.8728194996026308
sg10
F0.2966698965679263
ssI430
(dp440
g9
F0.915350868237288
sg10
F0.4937013557590797
ssI431
(dp441
g9
F0.5256435325191094
sg10
F0.38985153273220874
ssI432
(dp442
g9
F0.4360769143379145
sg10
F0.34036292010688673
ssI433
(dp443
g9
F0.165460180858787
sg10
F0.5926269596426488
ssI434
(dp444
g9
F0.30776356459178567
sg10
F0.18740223987252302
ssI435
(dp445
g9
F0.9147781179636617
sg10
F0.771627523687891
ssI436
(dp446
g9
F0.9483478674127857
sg10
F0.35492806011602185
ssI437
(dp447
g9
F0.4127987715809853
sg10
F0.2006027417055679
ssI438
(dp448
g9
F0.9732228895410086
sg10
F0.2071202888129411
ssI439
(dp449
g9
F0.32764838279889563
sg10
F0.09298666529359878
ssI440
(dp450
g9
F0.6151221431759234
sg10
F0.26847684982138287
ssI441
(dp451
g9
F0.19408904695535734
sg10
F0.11743574871915385
ssI442
(dp452
g9
F0.7109386398532023
sg10
F0.213699982117864
ssI443
(dp453
g9
F0.9357397334096583
sg10
F0.8671769417171195
ssI444
(dp454
g9
F0.4518786915036569
sg10
F0.12610190486211714
ssI445
(dp455
g9
F0.07612784094130565
sg10
F0.004944072646047792
ssI446
(dp456
g9
F0.24990604798135196
sg10
F0.20754088378449442
ssI447
(dp457
g9
F0.674224533485973
sg10
F0.9180165788173614
ssI448
(dp458
g9
F0.8810171830353283
sg10
F0.3709008445653451
ssI449
(dp459
g9
F0.5590495158275197
sg10
F0.001224924069231803
ssI450
(dp460
g9
F0.945671494319103
sg10
F0.868608996501076
ssI451
(dp461
g9
F0.03336789838758314
sg10
F0.28845122739112194
ssI452
(dp462
g9
F0.8522477607815261
sg10
F0.7044062355725148
ssI453
(dp463
g9
F0.5500079021439288
sg10
F0.38476677027635664
ssI454
(dp464
g9
F0.8884527839217387
sg10
F0.7557022163596263
ssI455
(dp465
g9
F0.3989143463723822
sg10
F0.8401294942133006
ssI456
(dp466
g9
F0.5985708080415562
sg10
F0.9311034760619445
ssI457
(dp467
g9
F0.13124889719153465
sg10
F0.36055293177418146
ssI458
(dp468
g9
F0.0785711512727938
sg10
F0.7299478699170231
ssI459
(dp469
g9
F0.4172244493121029
sg10
F0.4491847769699008
ssI460
(dp470
g9
F0.17244222152535804
sg10
F0.47356440794866617
ssI461
(dp471
g9
F0.8334743254595082
sg10
F0.7513996901138761
ssI462
(dp472
g9
F0.438072546414888
sg10
F0.08103279376755379
ssI463
(dp473
g9
F0.03169557708226467
sg10
F0.45020007338370005
ssI464
(dp474
g9
F0.46264916650698495
sg10
F0.3229794601197804
ssI465
(dp475
g9
F0.6825385530100471
sg10
F0.4540367183378725
ssI466
(dp476
g9
F0.920408675700393
sg10
F0.12562066351835588
ssI467
(dp477
g9
F0.3808965070078989
sg10
F0.6642284885907724
ssI468
(dp478
g9
F0.2749604417928362
sg10
F0.2955452041642509
ssI469
(dp479
g9
F0.1628051794097758
sg10
F0.22320269914273494
ssI470
(dp480
g9
F0.45901944475649314
sg10
F0.8102389365413766
ssI471
(dp481
g9
F0.8605088975697636
sg10
F0.21558188516432608
ssI472
(dp482
g9
F0.47425875955266816
sg10
F0.7271212502577501
ssI473
(dp483
g9
F0.19137040221232937
sg10
F0.7179896034479232
ssI474
(dp484
g9
F0.9473691905162188
sg10
F0.4244410743544723
ssI475
(dp485
g9
F0.3502643830926824
sg10
F0.8900574603023276
ssI476
(dp486
g9
F0.8625960061362461
sg10
F0.07287422821806677
ssI477
(dp487
g9
F0.2457923143637919
sg10
F0.7160907512499206
ssI478
(dp488
g9
F0.8024200282047171
sg10
F0.11842975199099415
ssI479
(dp489
g9
F0.7306969236460041
sg10
F0.8176862390143222
ssI480
(dp490
g9
F0.17226424605035795
sg10
F0.610309163551003
ssI481
(dp491
g9
F0.11690292533905755
sg10
F0.9205188740297391
ssI482
(dp492
g9
F0.660312575992336
sg10
F0.8479653618032723
ssI483
(dp493
g9
F0.9898253424361416
sg10
F0.8741224219968919
ssI484
(dp494
g9
F0.7923217112502369
sg10
F0.621665603283775
ssI485
(dp495
g9
F0.6957621972768505
sg10
F0.05206315250751248
ssI486
(dp496
g9
F0.3845843575216492
sg10
F0.3108948089618673
ssI487
(dp497
g9
F0.11578640875312418
sg10
F0.13723930611834456
ssI488
(dp498
g9
F0.6099036963349049
sg10
F0.523493585236427
ssI489
(dp499
g9
F0.6869026591186483
sg10
F0.7137728218515944
ssI490
(dp500
g9
F0.5660055475346755
sg10
F0.7534278804069768
ssI491
(dp501
g9
F0.09346468285224374
sg10
F0.969928364812375
ssI492
(dp502
g9
F0.8040487130130082
sg10
F0.9045980057268773
ssI493
(dp503
g9
F0.12946331470574635
sg10
F0.3809551234886136
ssI494
(dp504
g9
F0.7733812518259664
sg10
F0.6383045314799082
ssI495
(dp505
g9
F0.8837122102771205
sg10
F0.11341214820320977
ssI496
(dp506
g9
F0.4402308184271331
sg10
F0.7119465074647339
ssI497
(dp507
g9
F0.1286832540719619
sg10
F0.40794014841325454
ssI498
(dp508
g9
F0.3334294337686521
sg10
F0.8068068029393283
ssI499
(dp509
g9
F0.580206585407017
sg10
F0.897894620773013
sssS'node_dict_factory'
p510
c__builtin__
dict
p511
sS'edge_attr_dict_factory'
p512
g511
sS'edge'
p513
(dp514
I0
(dp515
sI1
(dp516
sI2
(dp517
sI3
(dp518
sI4
(dp519
sI5
(dp520
sI6
(dp521
sI7
(dp522
sI8
(dp523
sI9
(dp524
sI10
(dp525
sI11
(dp526
sI12
(dp527
sI13
(dp528
sI14
(dp529
sI15
(dp530
sI16
(dp531
sI17
(dp532
sI18
(dp533
sI19
(dp534
sI20
(dp535
sI21
(dp536
sI22
(dp537
sI23
(dp538
sI24
(dp539
sI25
(dp540
sI26
(dp541
sI27
(dp542
sI28
(dp543
sI29
(dp544
sI30
(dp545
sI31
(dp546
sI32
(dp547
sI33
(dp548
sI34
(dp549
sI35
(dp550
sI36
(dp551
sI37
(dp552
sI38
(dp553
sI39
(dp554
sI40
(dp555
sI41
(dp556
sI42
(dp557
sI43
(dp558
sI44
(dp559
sI45
(dp560
sI46
(dp561
sI47
(dp562
sI48
(dp563
sI49
(dp564
sI50
(dp565
sI51
(dp566
sI52
(dp567
sI53
(dp568
sI54
(dp569
sI55
(dp570
sI56
(dp571
sI57
(dp572
sI58
(dp573
sI59
(dp574
sI60
(dp575
sI61
(dp576
sI62
(dp577
sI63
(dp578
sI64
(dp579
sI65
(dp580
sI66
(dp581
sI67
(dp582
sI68
(dp583
sI69
(dp584
sI70
(dp585
sI71
(dp586
sI72
(dp587
sI73
(dp588
sI74
(dp589
sI75
(dp590
sI76
(dp591
sI77
(dp592
sI78
(dp593
sI79
(dp594
sI80
(dp595
sI81
(dp596
sI82
(dp597
sI83
(dp598
sI84
(dp599
sI85
(dp600
sI86
(dp601
sI87
(dp602
sI88
(dp603
sI89
(dp604
sI90
(dp605
sI91
(dp606
sI92
(dp607
sI93
(dp608
sI94
(dp609
sI95
(dp610
sI96
(dp611
sI97
(dp612
sI98
(dp613
sI99
(dp614
sI100
(dp615
sI101
(dp616
sI102
(dp617
sI103
(dp618
sI104
(dp619
sI105
(dp620
sI106
(dp621
sI107
(dp622
sI108
(dp623
sI109
(dp624
sI110
(dp625
sI111
(dp626
sI112
(dp627
sI113
(dp628
sI114
(dp629
sI115
(dp630
sI116
(dp631
sI117
(dp632
sI118
(dp633
sI119
(dp634
sI120
(dp635
sI121
(dp636
sI122
(dp637
sI123
(dp638
sI124
(dp639
sI125
(dp640
sI126
(dp641
sI127
(dp642
sI128
(dp643
sI129
(dp644
sI130
(dp645
sI131
(dp646
sI132
(dp647
sI133
(dp648
sI134
(dp649
sI135
(dp650
sI136
(dp651
sI137
(dp652
sI138
(dp653
sI139
(dp654
sI140
(dp655
sI141
(dp656
sI142
(dp657
sI143
(dp658
sI144
(dp659
sI145
(dp660
sI146
(dp661
sI147
(dp662
sI148
(dp663
sI149
(dp664
sI150
(dp665
sI151
(dp666
sI152
(dp667
sI153
(dp668
sI154
(dp669
sI155
(dp670
sI156
(dp671
sI157
(dp672
sI158
(dp673
sI159
(dp674
sI160
(dp675
sI161
(dp676
sI162
(dp677
sI163
(dp678
sI164
(dp679
sI165
(dp680
sI166
(dp681
sI167
(dp682
sI168
(dp683
sI169
(dp684
sI170
(dp685
sI171
(dp686
sI172
(dp687
sI173
(dp688
sI174
(dp689
sI175
(dp690
sI176
(dp691
sI177
(dp692
sI178
(dp693
sI179
(dp694
sI180
(dp695
sI181
(dp696
sI182
(dp697
sI183
(dp698
sI184
(dp699
sI185
(dp700
sI186
(dp701
sI187
(dp702
sI188
(dp703
sI189
(dp704
sI190
(dp705
sI191
(dp706
sI192
(dp707
sI193
(dp708
sI194
(dp709
sI195
(dp710
sI196
(dp711
sI197
(dp712
sI198
(dp713
sI199
(dp714
sI200
(dp715
sI201
(dp716
sI202
(dp717
sI203
(dp718
sI204
(dp719
sI205
(dp720
sI206
(dp721
sI207
(dp722
sI208
(dp723
sI209
(dp724
sI210
(dp725
sI211
(dp726
sI212
(dp727
sI213
(dp728
sI214
(dp729
sI215
(dp730
sI216
(dp731
sI217
(dp732
sI218
(dp733
sI219
(dp734
sI220
(dp735
sI221
(dp736
sI222
(dp737
sI223
(dp738
sI224
(dp739
sI225
(dp740
sI226
(dp741
sI227
(dp742
sI228
(dp743
sI229
(dp744
sI230
(dp745
sI231
(dp746
sI232
(dp747
sI233
(dp748
sI234
(dp749
sI235
(dp750
sI236
(dp751
sI237
(dp752
sI238
(dp753
sI239
(dp754
sI240
(dp755
sI241
(dp756
sI242
(dp757
sI243
(dp758
sI244
(dp759
sI245
(dp760
sI246
(dp761
sI247
(dp762
sI248
(dp763
sI249
(dp764
sI250
(dp765
sI251
(dp766
sI252
(dp767
sI253
(dp768
sI254
(dp769
sI255
(dp770
sI256
(dp771
sI257
(dp772
sI258
(dp773
sI259
(dp774
sI260
(dp775
sI261
(dp776
sI262
(dp777
sI263
(dp778
sI264
(dp779
sI265
(dp780
sI266
(dp781
sI267
(dp782
sI268
(dp783
sI269
(dp784
sI270
(dp785
sI271
(dp786
sI272
(dp787
sI273
(dp788
sI274
(dp789
sI275
(dp790
sI276
(dp791
sI277
(dp792
sI278
(dp793
sI279
(dp794
sI280
(dp795
sI281
(dp796
sI282
(dp797
sI283
(dp798
sI284
(dp799
sI285
(dp800
sI286
(dp801
sI287
(dp802
sI288
(dp803
sI289
(dp804
sI290
(dp805
sI291
(dp806
sI292
(dp807
sI293
(dp808
sI294
(dp809
sI295
(dp810
sI296
(dp811
sI297
(dp812
sI298
(dp813
sI299
(dp814
sI300
(dp815
sI301
(dp816
sI302
(dp817
sI303
(dp818
sI304
(dp819
sI305
(dp820
sI306
(dp821
sI307
(dp822
sI308
(dp823
sI309
(dp824
sI310
(dp825
sI311
(dp826
sI312
(dp827
sI313
(dp828
sI314
(dp829
sI315
(dp830
sI316
(dp831
sI317
(dp832
sI318
(dp833
sI319
(dp834
sI320
(dp835
sI321
(dp836
sI322
(dp837
sI323
(dp838
sI324
(dp839
sI325
(dp840
sI326
(dp841
sI327
(dp842
sI328
(dp843
sI329
(dp844
sI330
(dp845
sI331
(dp846
sI332
(dp847
sI333
(dp848
sI334
(dp849
sI335
(dp850
sI336
(dp851
sI337
(dp852
sI338
(dp853
sI339
(dp854
sI340
(dp855
sI341
(dp856
sI342
(dp857
sI343
(dp858
sI344
(dp859
sI345
(dp860
sI346
(dp861
sI347
(dp862
sI348
(dp863
sI349
(dp864
sI350
(dp865
sI351
(dp866
sI352
(dp867
sI353
(dp868
sI354
(dp869
sI355
(dp870
sI356
(dp871
sI357
(dp872
sI358
(dp873
sI359
(dp874
sI360
(dp875
sI361
(dp876
sI362
(dp877
sI363
(dp878
sI364
(dp879
sI365
(dp880
sI366
(dp881
sI367
(dp882
sI368
(dp883
sI369
(dp884
sI370
(dp885
sI371
(dp886
sI372
(dp887
sI373
(dp888
sI374
(dp889
sI375
(dp890
sI376
(dp891
sI377
(dp892
sI378
(dp893
sI379
(dp894
sI380
(dp895
sI381
(dp896
sI382
(dp897
sI383
(dp898
sI384
(dp899
sI385
(dp900
sI386
(dp901
sI387
(dp902
sI388
(dp903
sI389
(dp904
sI390
(dp905
sI391
(dp906
sI392
(dp907
sI393
(dp908
sI394
(dp909
sI395
(dp910
sI396
(dp911
sI397
(dp912
sI398
(dp913
sI399
(dp914
sI400
(dp915
sI401
(dp916
sI402
(dp917
sI403
(dp918
sI404
(dp919
sI405
(dp920
sI406
(dp921
sI407
(dp922
sI408
(dp923
sI409
(dp924
sI410
(dp925
sI411
(dp926
sI412
(dp927
sI413
(dp928
sI414
(dp929
sI415
(dp930
sI416
(dp931
sI417
(dp932
sI418
(dp933
sI419
(dp934
sI420
(dp935
sI421
(dp936
sI422
(dp937
sI423
(dp938
sI424
(dp939
sI425
(dp940
sI426
(dp941
sI427
(dp942
sI428
(dp943
sI429
(dp944
sI430
(dp945
sI431
(dp946
sI432
(dp947
sI433
(dp948
sI434
(dp949
sI435
(dp950
sI436
(dp951
sI437
(dp952
sI438
(dp953
sI439
(dp954
sI440
(dp955
sI441
(dp956
sI442
(dp957
sI443
(dp958
sI444
(dp959
sI445
(dp960
sI446
(dp961
sI447
(dp962
sI448
(dp963
sI449
(dp964
sI450
(dp965
sI451
(dp966
sI452
(dp967
sI453
(dp968
sI454
(dp969
sI455
(dp970
sI456
(dp971
sI457
(dp972
sI458
(dp973
sI459
(dp974
sI460
(dp975
sI461
(dp976
sI462
(dp977
sI463
(dp978
sI464
(dp979
sI465
(dp980
sI466
(dp981
sI467
(dp982
sI468
(dp983
sI469
(dp984
sI470
(dp985
sI471
(dp986
sI472
(dp987
sI473
(dp988
sI474
(dp989
sI475
(dp990
sI476
(dp991
sI477
(dp992
sI478
(dp993
sI479
(dp994
sI480
(dp995
sI481
(dp996
sI482
(dp997
sI483
(dp998
sI484
(dp999
sI485
(dp1000
sI486
(dp1001
sI487
(dp1002
sI488
(dp1003
sI489
(dp1004
sI490
(dp1005
sI491
(dp1006
sI492
(dp1007
sI493
(dp1008
sI494
(dp1009
sI495
(dp1010
sI496
(dp1011
sI497
(dp1012
sI498
(dp1013
sI499
(dp1014
ssS'graph'
p1015
(dp1016
sS'adjlist_dict_factory'
p1017
g511
sS'adj'
p1018
g514
sb.