ccopy_reg
_reconstructor
p0
(cnetworkx.classes.graph
Graph
p1
c__builtin__
object
p2
Ntp3
Rp4
(dp5
S'node'
p6
(dp7
I0
(dp8
S'pos_x'
p9
F0.5432228297260285
sS'pos_y'
p10
F0.6277768923269208
ssI1
(dp11
g9
F0.5558219298920003
sg10
F0.593037987407514
ssI2
(dp12
g9
F0.957594597612093
sg10
F0.3691578728370922
ssI3
(dp13
g9
F0.34208223053970244
sg10
F0.051607667725596995
ssI4
(dp14
g9
F0.2083280042245852
sg10
F0.36217997503820853
ssI5
(dp15
g9
F0.4717516859835065
sg10
F0.6698514887453918
ssI6
(dp16
g9
F0.2528275632722504
sg10
F0.002265295977559756
ssI7
(dp17
g9
F0.4976563212089402
sg10
F0.5695173223563015
ssI8
(dp18
g9
F0.978900622143438
sg10
F0.8642033661946795
ssI9
(dp19
g9
F0.8399993052875896
sg10
F0.65686796347369
ssI10
(dp20
g9
F0.17615185003326983
sg10
F0.6919776677148242
ssI11
(dp21
g9
F0.04616857990874346
sg10
F0.38460509465467707
ssI12
(dp22
g9
F0.036021267614736896
sg10
F0.35547028116114354
ssI13
(dp23
g9
F0.7905295547096233
sg10
F0.0066789873580320736
ssI14
(dp24
g9
F0.6348475512936554
sg10
F0.5212554235229667
ssI15
(dp25
g9
F0.2854934029784989
sg10
F0.6279579069882216
ssI16
(dp26
g9
F0.023321634904920563
sg10
F0.8264557588060384
ssI17
(dp27
g9
F0.8400047993255072
sg10
F0.8465352033163039
ssI18
(dp28
g9
F0.28563110260603364
sg10
F0.7499084191397547
ssI19
(dp29
g9
F0.10471021412791415
sg10
F0.9580623558626622
ssI20
(dp30
g9
F0.7323517310389153
sg10
F0.5860237032625205
ssI21
(dp31
g9
F0.2858851049131719
sg10
F0.9187554399043372
ssI22
(dp32
g9
F0.9975392934359705
sg10
F0.4336898959818867
ssI23
(dp33
g9
F0.6065108331675867
sg10
F0.7583681098242372
ssI24
(dp34
g9
F0.2337647652323761
sg10
F0.04312409300612874
ssI25
(dp35
g9
F0.8826617655016878
sg10
F0.717261304077451
ssI26
(dp36
g9
F0.8995289414851451
sg10
F0.5186136891257934
ssI27
(dp37
g9
F0.057780297752096144
sg10
F0.964749231590216
ssI28
(dp38
g9
F0.007923412194987267
sg10
F0.8958738799253343
ssI29
(dp39
g9
F0.4110525837045871
sg10
F0.20120803026137457
ssI30
(dp40
g9
F0.770567834087957
sg10
F0.7360257700263728
ssI31
(dp41
g9
F0.6685068061064549
sg10
F0.2980296886456396
ssI32
(dp42
g9
F0.3964568851641751
sg10
F0.11876593889602816
ssI33
(dp43
g9
F0.20934822925301255
sg10
F0.6922370516542614
ssI34
(dp44
g9
F0.9752886082260328
sg10
F0.32183381307799097
ssI35
(dp45
g9
F0.5636868744638663
sg10
F0.9260470418393213
ssI36
(dp46
g9
F0.5184171192821988
sg10
F0.43034283716240207
ssI37
(dp47
g9
F0.8744709612106828
sg10
F0.7125730890608486
ssI38
(dp48
g9
F0.7430078595105724
sg10
F0.9838541669729491
ssI39
(dp49
g9
F0.36442175193215776
sg10
F0.7613698003554069
ssI40
(dp50
g9
F0.5630754228642405
sg10
F0.8113676659866372
ssI41
(dp51
g9
F0.2846036426037285
sg10
F0.5397260289403032
ssI42
(dp52
g9
F0.41428642261783755
sg10
F0.5759038536307158
ssI43
(dp53
g9
F0.09789271277129108
sg10
F0.568481688086462
ssI44
(dp54
g9
F0.05053908200056645
sg10
F0.8590866865045406
ssI45
(dp55
g9
F0.07121205065167102
sg10
F0.36521981485008226
ssI46
(dp56
g9
F0.6547256835452321
sg10
F0.08236266684442684
ssI47
(dp57
g9
F0.6641852649711056
sg10
F0.2559308005591834
ssI48
(dp58
g9
F0.04144288430918186
sg10
F0.8322817684598087
ssI49
(dp59
g9
F0.13485216106199172
sg10
F0.173251332643247
ssI50
(dp60
g9
F0.9775695425054676
sg10
F0.9055059824737973
ssI51
(dp61
g9
F0.30294724365694825
sg10
F0.14644296727868822
ssI52
(dp62
g9
F0.8701155335172753
sg10
F0.36612147308778287
ssI53
(dp63
g9
F0.27143799186017126
sg10
F0.8481293695951728
ssI54
(dp64
g9
F0.7896519802115326
sg10
F0.68035540849579
ssI55
(dp65
g9
F0.03431369287643293
sg10
F0.8595715868576314
ssI56
(dp66
g9
F0.052153870468791164
sg10
F0.4741248187795941
ssI57
(dp67
g9
F0.5608334895765883
sg10
F0.8843190955763585
ssI58
(dp68
g9
F0.36980153972120355
sg10
F0.6429806601500138
ssI59
(dp69
g9
F0.7034176322035044
sg10
F0.8989211936192565
ssI60
(dp70
g9
F0.6825422990049738
sg10
F0.57135737162501
ssI61
(dp71
g9
F0.07687348154259588
sg10
F0.009971530041119281
ssI62
(dp72
g9
F0.06353464303688805
sg10
F0.2708038788664624
ssI63
(dp73
g9
F0.8606650898718707
sg10
F0.39321773184656317
ssI64
(dp74
g9
F0.053528002877680114
sg10
F0.20638829512766066
ssI65
(dp75
g9
F0.7088884826088542
sg10
F0.31497181823593656
ssI66
(dp76
g9
F0.8185726746184868
sg10
F0.8071132199017271
ssI67
(dp77
g9
F0.5419869795243797
sg10
F0.3915475122881884
ssI68
(dp78
g9
F0.7517424481798326
sg10
F0.05757366895763083
ssI69
(dp79
g9
F0.28919714100441263
sg10
F0.736591106021553
ssI70
(dp80
g9
F0.548871809594285
sg10
F0.9124306389753057
ssI71
(dp81
g9
F0.8768681126768397
sg10
F0.49138154174757476
ssI72
(dp82
g9
F0.6779252905758718
sg10
F0.7562654691206135
ssI73
(dp83
g9
F0.22392554990557667
sg10
F0.9202761087620674
ssI74
(dp84
g9
F0.26708151763869203
sg10
F0.7307815320702405
ssI75
(dp85
g9
F0.9777149871092576
sg10
F0.919612073281833
ssI76
(dp86
g9
F0.9457663173475872
sg10
F0.7868943177907444
ssI77
(dp87
g9
F0.46847349364451185
sg10
F0.7284489736410281
ssI78
(dp88
g9
F0.16795995957734067
sg10
F0.021376092055432006
ssI79
(dp89
g9
F0.12103997282771783
sg10
F0.42573908786783066
ssI80
(dp90
g9
F0.39354235012436456
sg10
F0.7484439473532659
ssI81
(dp91
g9
F0.8764087991795929
sg10
F0.9628112288755616
ssI82
(dp92
g9
F0.12880101756457973
sg10
F0.8845581000310978
ssI83
(dp93
g9
F0.9759832217952022
sg10
F0.25833787576544964
ssI84
(dp94
g9
F0.14532589045914013
sg10
F0.9431082084571305
ssI85
(dp95
g9
F0.27946775566716875
sg10
F0.1605275025684938
ssI86
(dp96
g9
F0.8325202838137438
sg10
F0.34042074577651615
ssI87
(dp97
g9
F0.1386693532034009
sg10
F0.9619231575251792
ssI88
(dp98
g9
F0.45717277918030685
sg10
F0.8902009775123315
ssI89
(dp99
g9
F0.8007997621098287
sg10
F0.8573634557669005
ssI90
(dp100
g9
F0.16675378980613453
sg10
F0.7572944271898897
ssI91
(dp101
g9
F0.8148165939691324
sg10
F0.2937099145735085
ssI92
(dp102
g9
F0.19142054825910015
sg10
F0.9934250883552267
ssI93
(dp103
g9
F0.915285888973703
sg10
F0.4928289781736843
ssI94
(dp104
g9
F0.28877833933846675
sg10
F0.6160970645531886
ssI95
(dp105
g9
F0.5562636969473393
sg10
F0.09714977170077632
ssI96
(dp106
g9
F0.15366554945034627
sg10
F0.6195846132897533
ssI97
(dp107
g9
F0.8044920947753329
sg10
F0.6646224369375421
ssI98
(dp108
g9
F0.10643907644306949
sg10
F0.06717046444660646
ssI99
(dp109
g9
F0.28690739142448896
sg10
F0.8698353784911791
ssI100
(dp110
g9
F0.6745184041445018
sg10
F0.47089216108023013
ssI101
(dp111
g9
F0.38685876494693094
sg10
F0.8268493295387186
ssI102
(dp112
g9
F0.8360173461045209
sg10
F0.639642312237672
ssI103
(dp113
g9
F0.8526073003321998
sg10
F0.5273179879192629
ssI104
(dp114
g9
F0.1935644735054758
sg10
F0.8722301004479107
ssI105
(dp115
g9
F0.36617234245818764
sg10
F0.45715203793120507
ssI106
(dp116
g9
F0.44274042981044937
sg10
F0.2041060882939587
ssI107
(dp117
g9
F0.19630284191437553
sg10
F0.32569549267482956
ssI108
(dp118
g9
F0.5932487137208662
sg10
F0.26914805626703076
ssI109
(dp119
g9
F0.8025602967150671
sg10
F0.7756296144836337
ssI110
(dp120
g9
F0.6132614228516565
sg10
F0.20180345119240306
ssI111
(dp121
g9
F0.1486721724699206
sg10
F0.09023295470700488
ssI112
(dp122
g9
F0.5529660582569961
sg10
F0.8004186592276971
ssI113
(dp123
g9
F0.6072443429479532
sg10
F0.5302642184968265
ssI114
(dp124
g9
F0.581082491234343
sg10
F0.15751737655350972
ssI115
(dp125
g9
F0.525683258156856
sg10
F0.5344584337266785
ssI116
(dp126
g9
F0.33408416253191164
sg10
F0.4940618520381286
ssI117
(dp127
g9
F0.7252283812602335
sg10
F0.9601673752061978
ssI118
(dp128
g9
F0.37351508746060935
sg10
F0.8053955191792205
ssI119
(dp129
g9
F0.019777477720653303
sg10
F0.7874948851960617
ssI120
(dp130
g9
F0.7448442718058627
sg10
F0.5193413188185726
ssI121
(dp131
g9
F0.2064495810305469
sg10
F0.5037678785054753
ssI122
(dp132
g9
F0.12531049799493021
sg10
F0.4475024106140466
ssI123
(dp133
g9
F0.9859482047632285
sg10
F0.16740677898345258
ssI124
(dp134
g9
F0.031191116352250803
sg10
F0.6864653250949583
ssI125
(dp135
g9
F0.9664070557027938
sg10
F0.10223586661736772
ssI126
(dp136
g9
F0.9880657332364842
sg10
F0.568458322366707
ssI127
(dp137
g9
F0.6589686035139917
sg10
F0.517247896465855
ssI128
(dp138
g9
F0.7326838531347946
sg10
F0.3002228575071191
ssI129
(dp139
g9
F0.685637083908726
sg10
F0.3098103124131173
ssI130
(dp140
g9
F0.993007929104267
sg10
F0.7588421336184511
ssI131
(dp141
g9
F0.7179482150449522
sg10
F0.499900064244709
ssI132
(dp142
g9
F0.41738646996203577
sg10
F0.5860861477304395
ssI133
(dp143
g9
F0.8564177961990861
sg10
F0.6575899998246278
ssI134
(dp144
g9
F0.905333164797671
sg10
F0.6261278425993355
ssI135
(dp145
g9
F0.6183139871543544
sg10
F0.4347245098940342
ssI136
(dp146
g9
F0.980773980813797
sg10
F0.5412407558817478
ssI137
(dp147
g9
F0.011422796729205875
sg10
F0.05611520316388596
ssI138
(dp148
g9
F0.8163072739551386
sg10
F0.7123759183741644
ssI139
(dp149
g9
F0.717034058738407
sg10
F0.2617802890027129
ssI140
(dp150
g9
F0.7036626317605116
sg10
F0.39088890931729525
ssI141
(dp151
g9
F0.3954096484414359
sg10
F0.05692749572020894
ssI142
(dp152
g9
F0.22778044266285646
sg10
F0.8315192314115468
ssI143
(dp153
g9
F0.24077578940061128
sg10
F0.2606462112999881
ssI144
(dp154
g9
F0.7390219453981902
sg10
F0.1926075830133137
ssI145
(dp155
g9
F0.8641766527218342
sg10
F0.8142758384164455
ssI146
(dp156
g9
F0.8834075155923371
sg10
F0.5144364351554693
ssI147
(dp157
g9
F0.8218854538847746
sg10
F0.4298157686274634
ssI148
(dp158
g9
F0.7142791340696631
sg10
F0.031084174771246698
ssI149
(dp159
g9
F0.8666897665022563
sg10
F0.15789118711132644
ssI150
(dp160
g9
F0.003942539230851971
sg10
F0.8454545878609209
ssI151
(dp161
g9
F0.9487101760267713
sg10
F0.8985891443484334
ssI152
(dp162
g9
F0.4543934800966237
sg10
F0.4229223267244745
ssI153
(dp163
g9
F0.37163229120665997
sg10
F0.3893558386326348
ssI154
(dp164
g9
F0.06779599609034337
sg10
F0.7291372046051497
ssI155
(dp165
g9
F0.7803853148452347
sg10
F0.36817037643328365
ssI156
(dp166
g9
F0.8147998151294551
sg10
F0.46620757331032714
ssI157
(dp167
g9
F0.18109839066988886
sg10
F0.027460359288208447
ssI158
(dp168
g9
F0.6963254972299481
sg10
F0.38258371223644794
ssI159
(dp169
g9
F0.9520071959433386
sg10
F0.9870215740057662
ssI160
(dp170
g9
F0.9156161708361323
sg10
F0.8619649713045359
ssI161
(dp171
g9
F0.5227926712981825
sg10
F0.23563456705766372
ssI162
(dp172
g9
F0.2878545504087975
sg10
F0.6855181322881264
ssI163
(dp173
g9
F0.11332146317155956
sg10
F0.44505801071168904
ssI164
(dp174
g9
F0.25763439690108436
sg10
F0.3703710696970687
ssI165
(dp175
g9
F0.5582378602995791
sg10
F0.23835611406111823
ssI166
(dp176
g9
F0.7340393820335384
sg10
F0.8072328745849491
ssI167
(dp177
g9
F0.8465309568365652
sg10
F0.16830880903877532
ssI168
(dp178
g9
F0.4774947645788732
sg10
F0.44803174922805744
ssI169
(dp179
g9
F0.4864273840060812
sg10
F0.9860752563412192
ssI170
(dp180
g9
F0.7789286751316935
sg10
F0.16068561910219203
ssI171
(dp181
g9
F0.9321432982060667
sg10
F0.22687283642804923
ssI172
(dp182
g9
F0.8971162041025532
sg10
F0.36009521738661054
ssI173
(dp183
g9
F0.7417738576599533
sg10
F0.826789267189701
ssI174
(dp184
g9
F0.8813775748666015
sg10
F0.17672487325534614
ssI175
(dp185
g9
F0.3524156706384082
sg10
F0.23137918020985482
ssI176
(dp186
g9
F0.5939570178925324
sg10
F0.7701458056550142
ssI177
(dp187
g9
F0.6370579662081729
sg10
F0.12772598941639202
ssI178
(dp188
g9
F0.7155023870380102
sg10
F0.9530873435661639
ssI179
(dp189
g9
F0.9290951627869016
sg10
F0.39524927984944536
ssI180
(dp190
g9
F0.5018973832667463
sg10
F0.9578339084501426
ssI181
(dp191
g9
F0.16321274525148022
sg10
F0.4412575961845865
ssI182
(dp192
g9
F0.24047892028100393
sg10
F0.9061157218137627
ssI183
(dp193
g9
F0.9032956238000713
sg10
F0.4466571402706897
ssI184
(dp194
g9
F0.31043921716772216
sg10
F0.6725518111274947
ssI185
(dp195
g9
F9.291122555543652e-06
sg10
F0.9880261627032078
ssI186
(dp196
g9
F0.5033348069318183
sg10
F0.06909924781248533
ssI187
(dp197
g9
F0.44751300045882114
sg10
F0.8198683386975897
ssI188
(dp198
g9
F0.34349787091925255
sg10
F0.9745961670385492
ssI189
(dp199
g9
F0.5070480277706311
sg10
F0.4154554443661167
ssI190
(dp200
g9
F0.5999725657665608
sg10
F0.9707789024562401
ssI191
(dp201
g9
F0.38079221504082483
sg10
F0.04100814209499071
ssI192
(dp202
g9
F0.818975527879069
sg10
F0.7203783922323097
ssI193
(dp203
g9
F0.7148746986562043
sg10
F0.8187112797369803
ssI194
(dp204
g9
F0.403169439177528
sg10
F0.7566573771108172
ssI195
(dp205
g9
F0.38483918186098476
sg10
F0.7368585186808101
ssI196
(dp206
g9
F0.3192972198666516
sg10
F0.9586237235955771
ssI197
(dp207
g9
F0.2652889946308663
sg10
F0.9208837871656345
ssI198
(dp208
g9
F0.24677627509874722
sg10
F0.2734407035396583
ssI199
(dp209
g9
F0.5260908521468675
sg10
F0.5769697512677403
ssI200
(dp210
g9
F0.009827732604669182
sg10
F0.7323769089585672
ssI201
(dp211
g9
F0.7433870106285674
sg10
F0.3355902338978466
ssI202
(dp212
g9
F0.7112944682240764
sg10
F0.7377398301082008
ssI203
(dp213
g9
F0.861103698038215
sg10
F0.5941058676333998
ssI204
(dp214
g9
F0.7451486055445381
sg10
F0.10634842706170877
ssI205
(dp215
g9
F0.40127796703964647
sg10
F0.19469944667675698
ssI206
(dp216
g9
F0.4389670331575053
sg10
F0.8094832506089191
ssI207
(dp217
g9
F0.8636724729321952
sg10
F0.41234761891473193
ssI208
(dp218
g9
F0.9567447681363077
sg10
F0.9557307339896072
ssI209
(dp219
g9
F0.7011848859148814
sg10
F0.8243154019904391
ssI210
(dp220
g9
F0.6006262719044765
sg10
F0.39395429799336246
ssI211
(dp221
g9
F0.5763363064062769
sg10
F0.8051383047471461
ssI212
(dp222
g9
F0.2140969613575877
sg10
F0.08429813683967669
ssI213
(dp223
g9
F0.4173471613530868
sg10
F0.8940795851007491
ssI214
(dp224
g9
F0.4879304304050168
sg10
F0.306132728274086
ssI215
(dp225
g9
F0.7384749298836268
sg10
F0.7140227494598129
ssI216
(dp226
g9
F0.01261088172684266
sg10
F0.8461615629337894
ssI217
(dp227
g9
F0.9344481511485783
sg10
F0.8885994216116778
ssI218
(dp228
g9
F0.17203477508028975
sg10
F0.049466322181864975
ssI219
(dp229
g9
F0.4825340843889937
sg10
F0.8869879966871144
ssI220
(dp230
g9
F0.6602218157253783
sg10
F0.4834193103056026
ssI221
(dp231
g9
F0.6179387127750242
sg10
F0.022370208663631375
ssI222
(dp232
g9
F0.9000771931206104
sg10
F0.15135022265897236
ssI223
(dp233
g9
F0.7157187078111323
sg10
F0.6089549884808386
ssI224
(dp234
g9
F0.10434106052869019
sg10
F0.18466509137357234
ssI225
(dp235
g9
F0.848324044140994
sg10
F0.42956430196526274
ssI226
(dp236
g9
F0.32708852696040236
sg10
F0.469542771635551
ssI227
(dp237
g9
F0.06132982539037879
sg10
F0.8159691690339741
ssI228
(dp238
g9
F0.6381604746540639
sg10
F0.3796017391822962
ssI229
(dp239
g9
F0.7931832268176318
sg10
F0.2733696550936866
ssI230
(dp240
g9
F0.21219784232935635
sg10
F0.8090848039482067
ssI231
(dp241
g9
F0.40542883696730636
sg10
F0.6979835335901512
ssI232
(dp242
g9
F0.8284640653371261
sg10
F0.7542275454776677
ssI233
(dp243
g9
F0.18700136696090985
sg10
F0.19354423304020096
ssI234
(dp244
g9
F0.7743121380457024
sg10
F0.42658550859208344
ssI235
(dp245
g9
F0.5878525122371429
sg10
F0.5682307673870963
ssI236
(dp246
g9
F0.5225395575162283
sg10
F0.1138399276219283
ssI237
(dp247
g9
F0.7200923956963797
sg10
F0.6010681642479646
ssI238
(dp248
g9
F0.519364307495887
sg10
F0.7039145434951404
ssI239
(dp249
g9
F0.3807878977253195
sg10
F0.11090107735417021
ssI240
(dp250
g9
F0.9155382320628868
sg10
F0.06691409482164234
ssI241
(dp251
g9
F0.17150438426343484
sg10
F0.8993396916683861
ssI242
(dp252
g9
F0.09772002849477068
sg10
F0.0656276717875165
ssI243
(dp253
g9
F0.5026457837634882
sg10
F0.33692071777659793
ssI244
(dp254
g9
F0.39461781953238717
sg10
F0.06250346298606158
ssI245
(dp255
g9
F0.4328297609616061
sg10
F0.03078407917805548
ssI246
(dp256
g9
F0.2524081738940256
sg10
F0.10430941662508664
ssI247
(dp257
g9
F0.8413237272759959
sg10
F0.4173268197817599
ssI248
(dp258
g9
F0.5332455426218035
sg10
F0.09104981437028214
ssI249
(dp259
g9
F0.18158630799359354
sg10
F0.8224749957914504
ssI250
(dp260
g9
F0.5518045348529306
sg10
F0.2011451526555078
ssI251
(dp261
g9
F0.6903524000016167
sg10
F0.19040563198744476
ssI252
(dp262
g9
F0.4200004718367182
sg10
F0.33860900052206844
ssI253
(dp263
g9
F0.8457768724597432
sg10
F0.18394391988074454
ssI254
(dp264
g9
F0.4988396281227472
sg10
F0.7402303012855443
ssI255
(dp265
g9
F0.1565973044355915
sg10
F0.42432688604694513
ssI256
(dp266
g9
F0.8732805055242593
sg10
F0.13716498385954357
ssI257
(dp267
g9
F0.981789207856821
sg10
F0.5323804238747551
ssI258
(dp268
g9
F0.8968806419061751
sg10
F0.5290839087948037
ssI259
(dp269
g9
F0.5201922153864165
sg10
F0.0337745959937763
ssI260
(dp270
g9
F0.1370286694709424
sg10
F0.6839290154413392
ssI261
(dp271
g9
F0.8068621673098588
sg10
F0.23559091692723166
ssI262
(dp272
g9
F0.6988503408456349
sg10
F0.7248698876317025
ssI263
(dp273
g9
F0.40986505188339295
sg10
F0.44164048300192205
ssI264
(dp274
g9
F0.5757314113673271
sg10
F0.08010065890011753
ssI265
(dp275
g9
F0.12158524495521905
sg10
F0.3716956444049787
ssI266
(dp276
g9
F0.10923863987374227
sg10
F0.7880820108668821
ssI267
(dp277
g9
F0.16894786195040223
sg10
F0.7913278089208099
ssI268
(dp278
g9
F0.6617898589483857
sg10
F0.4181202677830793
ssI269
(dp279
g9
F0.5212164814431566
sg10
F0.2890955546999918
ssI270
(dp280
g9
F0.30115626945537954
sg10
F0.35846517811119694
ssI271
(dp281
g9
F0.8685405445820161
sg10
F0.3355884625704695
ssI272
(dp282
g9
F0.5641574836678327
sg10
F0.24796416408531308
ssI273
(dp283
g9
F0.1545772512936291
sg10
F0.7894663016904401
ssI274
(dp284
g9
F0.37243033794855074
sg10
F0.1367851079706277
ssI275
(dp285
g9
F0.8516309020956288
sg10
F0.03355176955559713
ssI276
(dp286
g9
F0.19071036171354516
sg10
F0.856617516127395
ssI277
(dp287
g9
F0.7452368835477944
sg10
F0.2993817009313814
ssI278
(dp288
g9
F0.8107153678737153
sg10
F0.5222677525065504
ssI279
(dp289
g9
F0.3692003428738966
sg10
F0.9042362391395717
ssI280
(dp290
g9
F0.24866332739490726
sg10
F0.9828605885811862
ssI281
(dp291
g9
F0.03972786586287669
sg10
F0.9181220477077312
ssI282
(dp292
g9
F0.6867350918319232
sg10
F0.33206963405987655
ssI283
(dp293
g9
F0.5932960558490054
sg10
F0.27015375417538945
ssI284
(dp294
g9
F0.37334669705614176
sg10
F0.22899798162000606
ssI285
(dp295
g9
F0.965579831606647
sg10
F0.3413468676502194
ssI286
(dp296
g9
F0.6066017298263793
sg10
F0.8904854834190243
ssI287
(dp297
g9
F0.6312086495864133
sg10
F0.9361290287798534
ssI288
(dp298
g9
F0.4073480550903015
sg10
F0.3847599544219733
ssI289
(dp299
g9
F0.4558439276022995
sg10
F0.3087468270086762
ssI290
(dp300
g9
F0.34772987211963524
sg10
F0.30658754801314947
ssI291
(dp301
g9
F0.4352073850354211
sg10
F0.6377843703858865
ssI292
(dp302
g9
F0.6384673305185941
sg10
F0.2579668774087285
ssI293
(dp303
g9
F0.1679237774944875
sg10
F0.34751578712477993
ssI294
(dp304
g9
F0.13462442838942879
sg10
F0.34458194109811746
ssI295
(dp305
g9
F0.006282202726252573
sg10
F0.3504181607498551
ssI296
(dp306
g9
F0.23408983593453803
sg10
F0.24216526067260535
ssI297
(dp307
g9
F0.138459584931115
sg10
F0.1979036821128639
ssI298
(dp308
g9
F0.6914914442673021
sg10
F0.12482615651351447
ssI299
(dp309
g9
F0.7362692418020358
sg10
F0.4127659173012166
ssI300
(dp310
g9
F0.2696498239259286
sg10
F0.2836217854763522
ssI301
(dp311
g9
F0.1628615088576063
sg10
F0.1694186518560329
ssI302
(dp312
g9
F0.9006372127857972
sg10
F0.14876246934613613
ssI303
(dp313
g9
F0.574724430064867
sg10
F0.7752665516748491
ssI304
(dp314
g9
F0.18273405761927963
sg10
F0.5136244415820937
ssI305
(dp315
g9
F0.6262545921981408
sg10
F0.17526518653315404
ssI306
(dp316
g9
F0.24106253193264204
sg10
F0.6039954909025688
ssI307
(dp317
g9
F0.8234849802896953
sg10
F0.6946994438694205
ssI308
(dp318
g9
F0.6475227855760519
sg10
F0.10420425829791047
ssI309
(dp319
g9
F0.7629599548442648
sg10
F0.9767596147131926
ssI310
(dp320
g9
F0.04604413417943476
sg10
F0.35013488890716093
ssI311
(dp321
g9
F0.027289890400961192
sg10
F0.18665732117035472
ssI312
(dp322
g9
F0.1206985729719382
sg10
F0.48472223670125525
ssI313
(dp323
g9
F0.6691064078875801
sg10
F0.4357566358463485
ssI314
(dp324
g9
F0.18648072841804542
sg10
F0.48309808062990034
ssI315
(dp325
g9
F0.8268981710257156
sg10
F0.3237866748104721
ssI316
(dp326
g9
F0.502986459575246
sg10
F0.65922459156544
ssI317
(dp327
g9
F0.6217813139524979
sg10
F0.16818490668977004
ssI318
(dp328
g9
F0.15483675304558087
sg10
F0.5781687717940479
ssI319
(dp329
g9
F0.9292195031881336
sg10
F0.3728008681707
ssI320
(dp330
g9
F0.5251173220950578
sg10
F0.4260262058767996
ssI321
(dp331
g9
F0.13010924512454058
sg10
F0.31627668376942686
ssI322
(dp332
g9
F0.7103691761928391
sg10
F0.07092692327753547
ssI323
(dp333
g9
F0.8731043063534222
sg10
F0.6085947127753079
ssI324
(dp334
g9
F0.8477451426726831
sg10
F0.2904812518782527
ssI325
(dp335
g9
F0.14173293866263847
sg10
F0.013093715624881042
ssI326
(dp336
g9
F0.9505083967351423
sg10
F0.017632367344640243
ssI327
(dp337
g9
F0.664722741902975
sg10
F0.5493918798559563
ssI328
(dp338
g9
F0.5965219080738565
sg10
F0.6516274147269852
ssI329
(dp339
g9
F0.7682960473207935
sg10
F0.9772463921696933
ssI330
(dp340
g9
F0.15126123685828108
sg10
F0.23234259900780108
ssI331
(dp341
g9
F0.6402836505111833
sg10
F0.9586795756964693
ssI332
(dp342
g9
F0.10211372712198719
sg10
F0.34738384265724764
ssI333
(dp343
g9
F0.6396752479276907
sg10
F0.5646664713848494
ssI334
(dp344
g9
F0.04979030085954572
sg10
F0.8011317140973414
ssI335
(dp345
g9
F0.25482674160750163
sg10
F0.3668831646722188
ssI336
(dp346
g9
F0.16182957367743933
sg10
F0.9934503692429387
ssI337
(dp347
g9
F0.2690548264433773
sg10
F0.6572922401350079
ssI338
(dp348
g9
F0.2891512154188094
sg10
F0.21890804577888856
ssI339
(dp349
g9
F0.8998405358033741
sg10
F0.9462805019853442
ssI340
(dp350
g9
F0.5499143522648826
sg10
F0.8687139030966348
ssI341
(dp351
g9
F0.7122995618464724
sg10
F0.21663982572025164
ssI342
(dp352
g9
F0.5121607327221123
sg10
F0.862626299726655
ssI343
(dp353
g9
F0.7552078792987659
sg10
F0.27608255307853546
ssI344
(dp354
g9
F0.3787804284833928
sg10
F0.9918212262277791
ssI345
(dp355
g9
F0.18525571222900716
sg10
F0.5490887500527127
ssI346
(dp356
g9
F0.9180407743162722
sg10
F0.9635294086270381
ssI347
(dp357
g9
F0.46627559131929064
sg10
F0.2974413686285494
ssI348
(dp358
g9
F0.2852182997871847
sg10
F0.7625707344937512
ssI349
(dp359
g9
F0.5186887781154484
sg10
F0.9341631401015674
ssI350
(dp360
g9
F0.09463873030985925
sg10
F0.7420277509139388
ssI351
(dp361
g9
F0.11801014151245548
sg10
F0.6758420371356986
ssI352
(dp362
g9
F0.3172970791497334
sg10
F0.4318453813227108
ssI353
(dp363
g9
F0.7148308520777673
sg10
F0.6215329735652111
ssI354
(dp364
g9
F0.3779490301060099
sg10
F0.6143816119185549
ssI355
(dp365
g9
F0.30036249150889227
sg10
F0.37970701729462464
ssI356
(dp366
g9
F0.24362904221309756
sg10
F0.5961386228290315
ssI357
(dp367
g9
F0.8834881572481567
sg10
F0.2757592384498869
ssI358
(dp368
g9
F0.8371032999165275
sg10
F0.8306280222190994
ssI359
(dp369
g9
F0.550127744711071
sg10
F0.012982223240681545
ssI360
(dp370
g9
F0.17955588580743564
sg10
F0.710282912329407
ssI361
(dp371
g9
F0.19267866191589433
sg10
F0.9069844757558316
ssI362
(dp372
g9
F0.4973117316893507
sg10
F0.7375902443735272
ssI363
(dp373
g9
F0.668607933562384
sg10
F0.2443558269237941
ssI364
(dp374
g9
F0.46130966905205295
sg10
F0.08916688924633775
ssI365
(dp375
g9
F0.38512376866091513
sg10
F0.13800607823623223
ssI366
(dp376
g9
F0.03475777798060509
sg10
F0.5368445502519841
ssI367
(dp377
g9
F0.8489285640386465
sg10
F0.2661258272795166
ssI368
(dp378
g9
F0.9370178099901507
sg10
F0.4721669001222326
ssI369
(dp379
g9
F0.6423070888183281
sg10
F0.1262774664047901
ssI370
(dp380
g9
F0.34568324520890836
sg10
F0.650784634310032
ssI371
(dp381
g9
F0.8130716515526691
sg10
F0.36659398290143663
ssI372
(dp382
g9
F0.5973594888551144
sg10
F0.3602105559851734
ssI373
(dp383
g9
F0.5263153819402496
sg10
F0.5012718652164483
ssI374
(dp384
g9
F0.5463277566940135
sg10
F0.5353312120712238
ssI375
(dp385
g9
F0.3445325129670542
sg10
F0.8573761072833891
ssI376
(dp386
g9
F0.6236298531621937
sg10
F0.8799588171972876
ssI377
(dp387
g9
F0.8583644201855652
sg10
F0.5424278485896293
ssI378
(dp388
g9
F0.44160947396889905
sg10
F0.6428979758472168
ssI379
(dp389
g9
F0.6047375691759945
sg10
F0.9435068772159231
ssI380
(dp390
g9
F0.48856743549568993
sg10
F0.17405469481430036
ssI381
(dp391
g9
F0.5252018849212189
sg10
F0.09318959380831726
ssI382
(dp392
g9
F0.5181855804128396
sg10
F0.7103880294832596
ssI383
(dp393
g9
F0.21909533249129343
sg10
F0.2596546511820871
ssI384
(dp394
g9
F0.8904623593554221
sg10
F0.334732548224824
ssI385
(dp395
g9
F0.8585828335818744
sg10
F0.7455573055737612
ssI386
(dp396
g9
F0.5981772564816141
sg10
F0.2071450420306633
ssI387
(dp397
g9
F0.3676817987844123
sg10
F0.7660997917430381
ssI388
(dp398
g9
F0.8006835739504888
sg10
F0.35350274103813306
ssI389
(dp399
g9
F0.1745135367132662
sg10
F0.5039951328734107
ssI390
(dp400
g9
F0.4981812711529683
sg10
F0.8899045122146273
ssI391
(dp401
g9
F0.9605098392962824
sg10
F0.2539081768426139
ssI392
(dp402
g9
F0.6348457792192224
sg10
F0.8078896217851959
ssI393
(dp403
g9
F0.47731071841851347
sg10
F0.09244898803714685
ssI394
(dp404
g9
F0.8811464559109831
sg10
F0.8689214003770089
ssI395
(dp405
g9
F0.17543662849224084
sg10
F0.32228775679850896
ssI396
(dp406
g9
F0.5586179055802777
sg10
F0.009844572246355043
ssI397
(dp407
g9
F0.8575892107401344
sg10
F0.16210000020662185
ssI398
(dp408
g9
F0.9024063756385688
sg10
F0.939461710200074
ssI399
(dp409
g9
F0.27858998608760044
sg10
F0.4517549376673732
ssI400
(dp410
g9
F0.4601388016225588
sg10
F0.8333039834939546
ssI401
(dp411
g9
F0.8987866504319584
sg10
F0.5969968463566604
ssI402
(dp412
g9
F0.4283556277736651
sg10
F0.3532501590616305
ssI403
(dp413
g9
F0.5701686211120849
sg10
F0.2759358445780442
ssI404
(dp414
g9
F0.07159189209587502
sg10
F0.737121509109499
ssI405
(dp415
g9
F0.2437191859719512
sg10
F0.2733228427607287
ssI406
(dp416
g9
F0.4589875227759298
sg10
F0.03040798952461976
ssI407
(dp417
g9
F0.865108654280959
sg10
F0.6576722176435515
ssI408
(dp418
g9
F0.5989300625207092
sg10
F0.744229251069401
ssI409
(dp419
g9
F0.1821628695882458
sg10
F0.8430752852117865
ssI410
(dp420
g9
F0.16633280710049791
sg10
F0.10756570483668626
ssI411
(dp421
g9
F0.0964460074125395
sg10
F0.7862053548125285
ssI412
(dp422
g9
F0.8827626466078508
sg10
F0.3989231190950526
ssI413
(dp423
g9
F0.23447585793132775
sg10
F0.08025427436578059
ssI414
(dp424
g9
F0.4825719372537629
sg10
F0.6965277215724524
ssI415
(dp425
g9
F0.04527816154711606
sg10
F0.2835432281725918
ssI416
(dp426
g9
F0.8372791570119968
sg10
F0.529856204465933
ssI417
(dp427
g9
F0.26780781249212493
sg10
F0.630604571369166
ssI418
(dp428
g9
F0.441121825098292
sg10
F0.5899048472185237
ssI419
(dp429
g9
F0.4577072535072739
sg10
F0.40345832272992344
ssI420
(dp430
g9
F0.13400235796936566
sg10
F0.3699145647853409
ssI421
(dp431
g9
F0.7729326924953237
sg10
F0.7116161132454393
ssI422
(dp432
g9
F0.5699700692123846
sg10
F0.6543550024752064
ssI423
(dp433
g9
F0.2984869808050259
sg10
F0.11232439093833968
ssI424
(dp434
g9
F0.08492983662165687
sg10
F0.23158143777564644
ssI425
(dp435
g9
F0.4313895019006381
sg10
F0.26507858803670326
ssI426
(dp436
g9
F0.7015250019580876
sg10
F0.9713287770965305
ssI427
(dp437
g9
F0.8816119021272503
sg10
F0.682494452029167
ssI428
(dp438
g9
F0.610825489105639
sg10
F0.9136805731816775
ssI429
(dp439
g9
F0.985881598169606
sg10
F0.7759409249366769
ssI430
(dp440
g9
F0.5441888051627634
sg10
F0.09535826424193894
ssI431
(dp441
g9
F0.03783292364513702
sg10
F0.8358428138062184
ssI432
(dp442
g9
F0.23095503843478293
sg10
F0.08226585032507061
ssI433
(dp443
g9
F0.47328588078470046
sg10
F0.3466828050770716
ssI434
(dp444
g9
F0.5825054970403825
sg10
F0.39389054434699433
ssI435
(dp445
g9
F0.5825672736428518
sg10
F0.6994902969216191
ssI436
(dp446
g9
F0.6152375528847555
sg10
F0.2904351610260614
ssI437
(dp447
g9
F0.6192147101392398
sg10
F0.48724060691711923
ssI438
(dp448
g9
F0.8800169130153304
sg10
F0.45973273013003535
ssI439
(dp449
g9
F0.27370952580659935
sg10
F0.3031067726221579
ssI440
(dp450
g9
F0.6078701439569956
sg10
F0.9472987797856475
ssI441
(dp451
g9
F0.7138227181880855
sg10
F0.5028163809553501
ssI442
(dp452
g9
F0.2827253642358384
sg10
F0.16274604066493448
ssI443
(dp453
g9
F0.284563656112261
sg10
F0.2880202508514169
ssI444
(dp454
g9
F0.5600360508843812
sg10
F0.14323559853061885
ssI445
(dp455
g9
F0.5688167455535615
sg10
F0.6634929383316096
ssI446
(dp456
g9
F0.9522234168399899
sg10
F0.43751632042123945
ssI447
(dp457
g9
F0.20985214154373377
sg10
F0.4361313922054715
ssI448
(dp458
g9
F0.9664665073930596
sg10
F0.674474087333208
ssI449
(dp459
g9
F0.066257042514967
sg10
F0.40371083111973016
ssI450
(dp460
g9
F0.04738466213795811
sg10
F0.6477060273205748
ssI451
(dp461
g9
F0.7945726876390006
sg10
F0.18744358527604865
ssI452
(dp462
g9
F0.29293159824528237
sg10
F0.5915313500831366
ssI453
(dp463
g9
F0.9002307392435189
sg10
F0.8166099308287671
ssI454
(dp464
g9
F0.7776992254746139
sg10
F0.9231802265990444
ssI455
(dp465
g9
F0.060787561798056666
sg10
F0.15250281290816947
ssI456
(dp466
g9
F0.5124816059690321
sg10
F0.5620908239777572
ssI457
(dp467
g9
F0.7429504048437237
sg10
F0.8386197313008197
ssI458
(dp468
g9
F0.4626780121226216
sg10
F0.6555419284771461
ssI459
(dp469
g9
F0.8402422235309215
sg10
F0.771497524966109
ssI460
(dp470
g9
F0.4243036144273389
sg10
F0.1070863716753172
ssI461
(dp471
g9
F0.3030228664393757
sg10
F0.13031500874772328
ssI462
(dp472
g9
F0.7886266527766544
sg10
F0.9855522058630505
ssI463
(dp473
g9
F0.12036937630180178
sg10
F0.8866360805961621
ssI464
(dp474
g9
F0.4938445215717644
sg10
F0.24264346567330775
ssI465
(dp475
g9
F0.3239627639366942
sg10
F0.6232847707805368
ssI466
(dp476
g9
F0.8389652446841391
sg10
F0.45992295343883094
ssI467
(dp477
g9
F0.5010424681307154
sg10
F0.6639063187878672
ssI468
(dp478
g9
F0.8460978861414276
sg10
F0.00849611208493406
ssI469
(dp479
g9
F0.21185799872409516
sg10
F0.720285300439738
ssI470
(dp480
g9
F0.9912926497744996
sg10
F0.9199745087468564
ssI471
(dp481
g9
F0.39995410153192645
sg10
F0.8987329297777141
ssI472
(dp482
g9
F0.495418777967606
sg10
F0.07831922163139393
ssI473
(dp483
g9
F0.22152655070187766
sg10
F0.6452339312477915
ssI474
(dp484
g9
F0.31100450363915466
sg10
F0.8783332252659781
ssI475
(dp485
g9
F0.4481393165720443
sg10
F0.9510028470832379
ssI476
(dp486
g9
F0.797212364499056
sg10
F0.9491708139012889
ssI477
(dp487
g9
F0.8282587388586421
sg10
F0.9691855133216423
ssI478
(dp488
g9
F0.10073269387868478
sg10
F0.6696713125087099
ssI479
(dp489
g9
F0.4670258714867841
sg10
F0.6704080523812933
ssI480
(dp490
g9
F0.8771931756089955
sg10
F0.6095139138612894
ssI481
(dp491
g9
F0.5179501619727217
sg10
F0.17649812240155371
ssI482
(dp492
g9
F0.7995334688287855
sg10
F0.1981496862330242
ssI483
(dp493
g9
F0.8404672832190194
sg10
F0.2507741380967915
ssI484
(dp494
g9
F0.8318179776616204
sg10
F0.7620483338028083
ssI485
(dp495
g9
F0.9203326690581014
sg10
F0.15333217246625208
ssI486
(dp496
g9
F0.24222920264402936
sg10
F0.7984754893545554
ssI487
(dp497
g9
F0.7962521453987441
sg10
F0.4071758509549409
ssI488
(dp498
g9
F0.8693306343831478
sg10
F0.4318314194911669
ssI489
(dp499
g9
F0.36090574138323506
sg10
F0.06984721823476592
ssI490
(dp500
g9
F0.3777652904497818
sg10
F0.7089245936313375
ssI491
(dp501
g9
F0.3323694668119269
sg10
F0.0889676481687608
ssI492
(dp502
g9
F0.8931518597435767
sg10
F0.8846640065093838
ssI493
(dp503
g9
F0.21858672290821757
sg10
F0.23604646466606394
ssI494
(dp504
g9
F0.2362985667509233
sg10
F0.09546016170475902
ssI495
(dp505
g9
F0.8872554565023936
sg10
F0.8409909423377803
ssI496
(dp506
g9
F0.1220293665214931
sg10
F0.32836183948199416
ssI497
(dp507
g9
F0.7047959328903137
sg10
F0.1302651120614523
ssI498
(dp508
g9
F0.21772471945247085
sg10
F0.9721077110950023
ssI499
(dp509
g9
F0.5981314573346583
sg10
F0.8173818020904319
sssS'node_dict_factory'
p510
c__builtin__
dict
p511
sS'edge_attr_dict_factory'
p512
g511
sS'edge'
p513
(dp514
I0
(dp515
sI1
(dp516
sI2
(dp517
sI3
(dp518
sI4
(dp519
sI5
(dp520
sI6
(dp521
sI7
(dp522
sI8
(dp523
sI9
(dp524
sI10
(dp525
sI11
(dp526
sI12
(dp527
sI13
(dp528
sI14
(dp529
sI15
(dp530
sI16
(dp531
sI17
(dp532
sI18
(dp533
sI19
(dp534
sI20
(dp535
sI21
(dp536
sI22
(dp537
sI23
(dp538
sI24
(dp539
sI25
(dp540
sI26
(dp541
sI27
(dp542
sI28
(dp543
sI29
(dp544
sI30
(dp545
sI31
(dp546
sI32
(dp547
sI33
(dp548
sI34
(dp549
sI35
(dp550
sI36
(dp551
sI37
(dp552
sI38
(dp553
sI39
(dp554
sI40
(dp555
sI41
(dp556
sI42
(dp557
sI43
(dp558
sI44
(dp559
sI45
(dp560
sI46
(dp561
sI47
(dp562
sI48
(dp563
sI49
(dp564
sI50
(dp565
sI51
(dp566
sI52
(dp567
sI53
(dp568
sI54
(dp569
sI55
(dp570
sI56
(dp571
sI57
(dp572
sI58
(dp573
sI59
(dp574
sI60
(dp575
sI61
(dp576
sI62
(dp577
sI63
(dp578
sI64
(dp579
sI65
(dp580
sI66
(dp581
sI67
(dp582
sI68
(dp583
sI69
(dp584
sI70
(dp585
sI71
(dp586
sI72
(dp587
sI73
(dp588
sI74
(dp589
sI75
(dp590
sI76
(dp591
sI77
(dp592
sI78
(dp593
sI79
(dp594
sI80
(dp595
sI81
(dp596
sI82
(dp597
sI83
(dp598
sI84
(dp599
sI85
(dp600
sI86
(dp601
sI87
(dp602
sI88
(dp603
sI89
(dp604
sI90
(dp605
sI91
(dp606
sI92
(dp607
sI93
(dp608
sI94
(dp609
sI95
(dp610
sI96
(dp611
sI97
(dp612
sI98
(dp613
sI99
(dp614
sI100
(dp615
sI101
(dp616
sI102
(dp617
sI103
(dp618
sI104
(dp619
sI105
(dp620
sI106
(dp621
sI107
(dp622
sI108
(dp623
sI109
(dp624
sI110
(dp625
sI111
(dp626
sI112
(dp627
sI113
(dp628
sI114
(dp629
sI115
(dp630
sI116
(dp631
sI117
(dp632
sI118
(dp633
sI119
(dp634
sI120
(dp635
sI121
(dp636
sI122
(dp637
sI123
(dp638
sI124
(dp639
sI125
(dp640
sI126
(dp641
sI127
(dp642
sI128
(dp643
sI129
(dp644
sI130
(dp645
sI131
(dp646
sI132
(dp647
sI133
(dp648
sI134
(dp649
sI135
(dp650
sI136
(dp651
sI137
(dp652
sI138
(dp653
sI139
(dp654
sI140
(dp655
sI141
(dp656
sI142
(dp657
sI143
(dp658
sI144
(dp659
sI145
(dp660
sI146
(dp661
sI147
(dp662
sI148
(dp663
sI149
(dp664
sI150
(dp665
sI151
(dp666
sI152
(dp667
sI153
(dp668
sI154
(dp669
sI155
(dp670
sI156
(dp671
sI157
(dp672
sI158
(dp673
sI159
(dp674
sI160
(dp675
sI161
(dp676
sI162
(dp677
sI163
(dp678
sI164
(dp679
sI165
(dp680
sI166
(dp681
sI167
(dp682
sI168
(dp683
sI169
(dp684
sI170
(dp685
sI171
(dp686
sI172
(dp687
sI173
(dp688
sI174
(dp689
sI175
(dp690
sI176
(dp691
sI177
(dp692
sI178
(dp693
sI179
(dp694
sI180
(dp695
sI181
(dp696
sI182
(dp697
sI183
(dp698
sI184
(dp699
sI185
(dp700
sI186
(dp701
sI187
(dp702
sI188
(dp703
sI189
(dp704
sI190
(dp705
sI191
(dp706
sI192
(dp707
sI193
(dp708
sI194
(dp709
sI195
(dp710
sI196
(dp711
sI197
(dp712
sI198
(dp713
sI199
(dp714
sI200
(dp715
sI201
(dp716
sI202
(dp717
sI203
(dp718
sI204
(dp719
sI205
(dp720
sI206
(dp721
sI207
(dp722
sI208
(dp723
sI209
(dp724
sI210
(dp725
sI211
(dp726
sI212
(dp727
sI213
(dp728
sI214
(dp729
sI215
(dp730
sI216
(dp731
sI217
(dp732
sI218
(dp733
sI219
(dp734
sI220
(dp735
sI221
(dp736
sI222
(dp737
sI223
(dp738
sI224
(dp739
sI225
(dp740
sI226
(dp741
sI227
(dp742
sI228
(dp743
sI229
(dp744
sI230
(dp745
sI231
(dp746
sI232
(dp747
sI233
(dp748
sI234
(dp749
sI235
(dp750
sI236
(dp751
sI237
(dp752
sI238
(dp753
sI239
(dp754
sI240
(dp755
sI241
(dp756
sI242
(dp757
sI243
(dp758
sI244
(dp759
sI245
(dp760
sI246
(dp761
sI247
(dp762
sI248
(dp763
sI249
(dp764
sI250
(dp765
sI251
(dp766
sI252
(dp767
sI253
(dp768
sI254
(dp769
sI255
(dp770
sI256
(dp771
sI257
(dp772
sI258
(dp773
sI259
(dp774
sI260
(dp775
sI261
(dp776
sI262
(dp777
sI263
(dp778
sI264
(dp779
sI265
(dp780
sI266
(dp781
sI267
(dp782
sI268
(dp783
sI269
(dp784
sI270
(dp785
sI271
(dp786
sI272
(dp787
sI273
(dp788
sI274
(dp789
sI275
(dp790
sI276
(dp791
sI277
(dp792
sI278
(dp793
sI279
(dp794
sI280
(dp795
sI281
(dp796
sI282
(dp797
sI283
(dp798
sI284
(dp799
sI285
(dp800
sI286
(dp801
sI287
(dp802
sI288
(dp803
sI289
(dp804
sI290
(dp805
sI291
(dp806
sI292
(dp807
sI293
(dp808
sI294
(dp809
sI295
(dp810
sI296
(dp811
sI297
(dp812
sI298
(dp813
sI299
(dp814
sI300
(dp815
sI301
(dp816
sI302
(dp817
sI303
(dp818
sI304
(dp819
sI305
(dp820
sI306
(dp821
sI307
(dp822
sI308
(dp823
sI309
(dp824
sI310
(dp825
sI311
(dp826
sI312
(dp827
sI313
(dp828
sI314
(dp829
sI315
(dp830
sI316
(dp831
sI317
(dp832
sI318
(dp833
sI319
(dp834
sI320
(dp835
sI321
(dp836
sI322
(dp837
sI323
(dp838
sI324
(dp839
sI325
(dp840
sI326
(dp841
sI327
(dp842
sI328
(dp843
sI329
(dp844
sI330
(dp845
sI331
(dp846
sI332
(dp847
sI333
(dp848
sI334
(dp849
sI335
(dp850
sI336
(dp851
sI337
(dp852
sI338
(dp853
sI339
(dp854
sI340
(dp855
sI341
(dp856
sI342
(dp857
sI343
(dp858
sI344
(dp859
sI345
(dp860
sI346
(dp861
sI347
(dp862
sI348
(dp863
sI349
(dp864
sI350
(dp865
sI351
(dp866
sI352
(dp867
sI353
(dp868
sI354
(dp869
sI355
(dp870
sI356
(dp871
sI357
(dp872
sI358
(dp873
sI359
(dp874
sI360
(dp875
sI361
(dp876
sI362
(dp877
sI363
(dp878
sI364
(dp879
sI365
(dp880
sI366
(dp881
sI367
(dp882
sI368
(dp883
sI369
(dp884
sI370
(dp885
sI371
(dp886
sI372
(dp887
sI373
(dp888
sI374
(dp889
sI375
(dp890
sI376
(dp891
sI377
(dp892
sI378
(dp893
sI379
(dp894
sI380
(dp895
sI381
(dp896
sI382
(dp897
sI383
(dp898
sI384
(dp899
sI385
(dp900
sI386
(dp901
sI387
(dp902
sI388
(dp903
sI389
(dp904
sI390
(dp905
sI391
(dp906
sI392
(dp907
sI393
(dp908
sI394
(dp909
sI395
(dp910
sI396
(dp911
sI397
(dp912
sI398
(dp913
sI399
(dp914
sI400
(dp915
sI401
(dp916
sI402
(dp917
sI403
(dp918
sI404
(dp919
sI405
(dp920
sI406
(dp921
sI407
(dp922
sI408
(dp923
sI409
(dp924
sI410
(dp925
sI411
(dp926
sI412
(dp927
sI413
(dp928
sI414
(dp929
sI415
(dp930
sI416
(dp931
sI417
(dp932
sI418
(dp933
sI419
(dp934
sI420
(dp935
sI421
(dp936
sI422
(dp937
sI423
(dp938
sI424
(dp939
sI425
(dp940
sI426
(dp941
sI427
(dp942
sI428
(dp943
sI429
(dp944
sI430
(dp945
sI431
(dp946
sI432
(dp947
sI433
(dp948
sI434
(dp949
sI435
(dp950
sI436
(dp951
sI437
(dp952
sI438
(dp953
sI439
(dp954
sI440
(dp955
sI441
(dp956
sI442
(dp957
sI443
(dp958
sI444
(dp959
sI445
(dp960
sI446
(dp961
sI447
(dp962
sI448
(dp963
sI449
(dp964
sI450
(dp965
sI451
(dp966
sI452
(dp967
sI453
(dp968
sI454
(dp969
sI455
(dp970
sI456
(dp971
sI457
(dp972
sI458
(dp973
sI459
(dp974
sI460
(dp975
sI461
(dp976
sI462
(dp977
sI463
(dp978
sI464
(dp979
sI465
(dp980
sI466
(dp981
sI467
(dp982
sI468
(dp983
sI469
(dp984
sI470
(dp985
sI471
(dp986
sI472
(dp987
sI473
(dp988
sI474
(dp989
sI475
(dp990
sI476
(dp991
sI477
(dp992
sI478
(dp993
sI479
(dp994
sI480
(dp995
sI481
(dp996
sI482
(dp997
sI483
(dp998
sI484
(dp999
sI485
(dp1000
sI486
(dp1001
sI487
(dp1002
sI488
(dp1003
sI489
(dp1004
sI490
(dp1005
sI491
(dp1006
sI492
(dp1007
sI493
(dp1008
sI494
(dp1009
sI495
(dp1010
sI496
(dp1011
sI497
(dp1012
sI498
(dp1013
sI499
(dp1014
ssS'graph'
p1015
(dp1016
sS'adjlist_dict_factory'
p1017
g511
sS'adj'
p1018
g514
sb.