ccopy_reg
_reconstructor
p0
(cnetworkx.classes.graph
Graph
p1
c__builtin__
object
p2
Ntp3
Rp4
(dp5
S'node'
p6
(dp7
I0
(dp8
S'pos_x'
p9
F0.34117049803998434
sS'pos_y'
p10
F0.8978983419630621
ssI1
(dp11
g9
F0.8282125106240973
sg10
F0.38635530148850317
ssI2
(dp12
g9
F0.6773104508448389
sg10
F0.35128326423351885
ssI3
(dp13
g9
F0.5928399929052207
sg10
F0.29137459225137774
ssI4
(dp14
g9
F0.005494033645558116
sg10
F0.4802469608145393
ssI5
(dp15
g9
F0.6686549548665589
sg10
F0.6042026547969539
ssI6
(dp16
g9
F0.6216624178566683
sg10
F0.7990054446844176
ssI7
(dp17
g9
F0.542044910109925
sg10
F0.8552510355853442
ssI8
(dp18
g9
F0.4386884963585834
sg10
F0.4043143431864904
ssI9
(dp19
g9
F0.8072291191119652
sg10
F0.9909856820866132
ssI10
(dp20
g9
F0.8592682830521509
sg10
F0.4688807913242614
ssI11
(dp21
g9
F0.747775639453065
sg10
F0.307547276554165
ssI12
(dp22
g9
F0.7957952760291581
sg10
F0.9492723086299224
ssI13
(dp23
g9
F0.9271769289522548
sg10
F0.009132056461497617
ssI14
(dp24
g9
F0.3202793462360358
sg10
F0.17887436985471972
ssI15
(dp25
g9
F0.23179220482399931
sg10
F0.3123690884364295
ssI16
(dp26
g9
F0.4917047434866748
sg10
F0.8215559384772971
ssI17
(dp27
g9
F0.41134222020530764
sg10
F0.7829532084391015
ssI18
(dp28
g9
F0.7373903726949576
sg10
F0.13237270684433322
ssI19
(dp29
g9
F0.07989689829639912
sg10
F0.39674584000523005
ssI20
(dp30
g9
F0.1079070885332799
sg10
F0.7362649844415129
ssI21
(dp31
g9
F0.6440839478580551
sg10
F0.0863512094797031
ssI22
(dp32
g9
F0.4422947478341325
sg10
F0.408183085109436
ssI23
(dp33
g9
F0.2916880098522612
sg10
F0.7027270170566905
ssI24
(dp34
g9
F0.7297929570290469
sg10
F0.2725543293504512
ssI25
(dp35
g9
F0.2557348271998039
sg10
F0.1664178584452537
ssI26
(dp36
g9
F0.9959600963312298
sg10
F0.07398984596808245
ssI27
(dp37
g9
F0.7798626282393344
sg10
F0.8254722400856157
ssI28
(dp38
g9
F0.5550168223164381
sg10
F0.3926604340500687
ssI29
(dp39
g9
F0.0228900333984432
sg10
F0.28803203424734536
ssI30
(dp40
g9
F0.4272806515593762
sg10
F0.857771721828356
ssI31
(dp41
g9
F0.44514259152095126
sg10
F0.876682134786051
ssI32
(dp42
g9
F0.1558324210770221
sg10
F0.9047143735825008
ssI33
(dp43
g9
F0.2756693556359292
sg10
F0.2905798517706728
ssI34
(dp44
g9
F0.46476743223683625
sg10
F0.4812910191081413
ssI35
(dp45
g9
F0.30026929573675
sg10
F0.41070586777175844
ssI36
(dp46
g9
F0.9849077185067027
sg10
F0.012673138380796423
ssI37
(dp47
g9
F0.9512686530380262
sg10
F0.0844482357368963
ssI38
(dp48
g9
F0.17031910303650344
sg10
F0.5344376260951967
ssI39
(dp49
g9
F0.38291046712228305
sg10
F0.38352567640416035
ssI40
(dp50
g9
F0.9552870440765935
sg10
F0.39606283152978683
ssI41
(dp51
g9
F0.5020423995819387
sg10
F0.12924411063779284
ssI42
(dp52
g9
F0.8363114519738362
sg10
F0.27420981268308753
ssI43
(dp53
g9
F0.22320369365297632
sg10
F0.9099354810952412
ssI44
(dp54
g9
F0.6032788587657621
sg10
F0.9267208664218246
ssI45
(dp55
g9
F0.47268644261389847
sg10
F0.42505644089923245
ssI46
(dp56
g9
F0.4962206776402657
sg10
F0.041919772601276106
ssI47
(dp57
g9
F0.09919143924455975
sg10
F0.7860570363102427
ssI48
(dp58
g9
F0.002647032618161793
sg10
F0.2513159609400507
ssI49
(dp59
g9
F0.6606585996097472
sg10
F0.22314987530569197
ssI50
(dp60
g9
F0.032712687888621805
sg10
F0.7986201345682732
ssI51
(dp61
g9
F0.08270308120966408
sg10
F0.49537052529715986
ssI52
(dp62
g9
F0.1623612577870882
sg10
F0.30378996901360145
ssI53
(dp63
g9
F0.22512344174914922
sg10
F0.446982616350204
ssI54
(dp64
g9
F0.40142545774745386
sg10
F0.7273596091406065
ssI55
(dp65
g9
F0.6384464840104228
sg10
F0.7513084320792957
ssI56
(dp66
g9
F0.022035732198822044
sg10
F0.8478127073471459
ssI57
(dp67
g9
F0.5003087087329854
sg10
F0.24315795848153143
ssI58
(dp68
g9
F0.7307920663299518
sg10
F0.27095692538195437
ssI59
(dp69
g9
F0.9592744767325054
sg10
F0.30432739987666346
ssI60
(dp70
g9
F0.32352718285500426
sg10
F0.5979853150261601
ssI61
(dp71
g9
F0.6783254515227954
sg10
F0.6111712355324809
ssI62
(dp72
g9
F0.8011832545164386
sg10
F0.3201130313134821
ssI63
(dp73
g9
F0.015968124389125204
sg10
F0.06980251911077806
ssI64
(dp74
g9
F0.9545262224003923
sg10
F0.6232112715091012
ssI65
(dp75
g9
F0.4974810168682098
sg10
F0.8624767935291616
ssI66
(dp76
g9
F0.552665960463087
sg10
F0.9603224516494441
ssI67
(dp77
g9
F0.1454177427596024
sg10
F0.5056324933712889
ssI68
(dp78
g9
F0.055044289725301176
sg10
F0.8427973575958548
ssI69
(dp79
g9
F0.2578386748044105
sg10
F0.5237497781361553
ssI70
(dp80
g9
F0.45507281167462144
sg10
F0.5983121940722891
ssI71
(dp81
g9
F0.75063764596424
sg10
F0.43526412311332174
ssI72
(dp82
g9
F0.31075289655506055
sg10
F0.42933745297028414
ssI73
(dp83
g9
F0.6398671834015712
sg10
F0.9698203761781121
ssI74
(dp84
g9
F0.3142898149919776
sg10
F0.29898812415587583
ssI75
(dp85
g9
F0.3599652267542178
sg10
F0.7716817870016437
ssI76
(dp86
g9
F0.2521501641475761
sg10
F0.5971711981663085
ssI77
(dp87
g9
F0.8257103939093939
sg10
F0.9530973478640322
ssI78
(dp88
g9
F0.48704142498949166
sg10
F0.9537278280569805
ssI79
(dp89
g9
F0.3695513158288848
sg10
F0.7333366877500133
ssI80
(dp90
g9
F0.9470749560967998
sg10
F0.7340048651472344
ssI81
(dp91
g9
F0.6142608988453603
sg10
F0.7189222987115024
ssI82
(dp92
g9
F0.40215109010149375
sg10
F0.12918983109029447
ssI83
(dp93
g9
F0.5270970260998907
sg10
F0.5083549057297879
ssI84
(dp94
g9
F0.1816893154585828
sg10
F0.9535564310862527
ssI85
(dp95
g9
F0.21079850602843597
sg10
F0.7513389763901669
ssI86
(dp96
g9
F0.7222439262844959
sg10
F0.6589012626489028
ssI87
(dp97
g9
F0.32385394463148465
sg10
F0.396300657369145
ssI88
(dp98
g9
F0.6286421278738855
sg10
F0.8715286907353659
ssI89
(dp99
g9
F0.05291333822412825
sg10
F0.4195597393556463
ssI90
(dp100
g9
F0.41634401461731385
sg10
F0.2001129084736184
ssI91
(dp101
g9
F0.2998465405229538
sg10
F0.7529716267174419
ssI92
(dp102
g9
F0.7074783472615609
sg10
F0.1390740804901619
ssI93
(dp103
g9
F0.8964010537739681
sg10
F0.7332397767653733
ssI94
(dp104
g9
F0.6418206012902955
sg10
F0.6151297762365455
ssI95
(dp105
g9
F0.8224817431546386
sg10
F0.28700582065057423
ssI96
(dp106
g9
F0.06422937769927939
sg10
F0.6590974354860084
ssI97
(dp107
g9
F0.7714154319271807
sg10
F0.6486507546049801
ssI98
(dp108
g9
F0.7363677143634153
sg10
F0.8175100267897049
ssI99
(dp109
g9
F0.7389777853043217
sg10
F0.4206784277071519
ssI100
(dp110
g9
F0.8455562874400533
sg10
F0.6215301080763299
ssI101
(dp111
g9
F0.6595984552519947
sg10
F0.4716881697587645
ssI102
(dp112
g9
F0.6728885453445935
sg10
F0.34316875434983707
ssI103
(dp113
g9
F0.9303080707238937
sg10
F0.6032429475713706
ssI104
(dp114
g9
F0.9002384873760693
sg10
F0.6060941527548468
ssI105
(dp115
g9
F0.11669302473530385
sg10
F0.5951824061441716
ssI106
(dp116
g9
F0.24430929404093593
sg10
F0.5472436619957637
ssI107
(dp117
g9
F0.209956874873781
sg10
F0.8047457945565354
ssI108
(dp118
g9
F0.4844230460649114
sg10
F0.4568882204715947
ssI109
(dp119
g9
F0.6890199118860681
sg10
F0.44147782534388447
ssI110
(dp120
g9
F0.5461125178787576
sg10
F0.27770555089382043
ssI111
(dp121
g9
F0.7779592961848552
sg10
F0.9314673624609021
ssI112
(dp122
g9
F0.3720983105359733
sg10
F0.6760538531226934
ssI113
(dp123
g9
F0.46115423769406605
sg10
F0.5641214249189422
ssI114
(dp124
g9
F0.6043087129847331
sg10
F0.34175509420885275
ssI115
(dp125
g9
F0.7893559489544903
sg10
F0.8527543586098072
ssI116
(dp126
g9
F0.037023410357714504
sg10
F0.2370864615994619
ssI117
(dp127
g9
F0.3582746361002275
sg10
F0.08207808910720638
ssI118
(dp128
g9
F0.5499791524924356
sg10
F0.38720276510312035
ssI119
(dp129
g9
F0.6560980931782914
sg10
F0.6094928416233277
ssI120
(dp130
g9
F0.8705206111313343
sg10
F0.8196130169231727
ssI121
(dp131
g9
F0.6719496652666411
sg10
F0.2344673503758501
ssI122
(dp132
g9
F0.8605060685867972
sg10
F0.9901840734539341
ssI123
(dp133
g9
F0.529645283087145
sg10
F0.9080612714534327
ssI124
(dp134
g9
F0.4820271391414903
sg10
F0.9406690505753192
ssI125
(dp135
g9
F0.5877691087218818
sg10
F0.7858159142877634
ssI126
(dp136
g9
F0.5896993413028141
sg10
F0.4672748025115685
ssI127
(dp137
g9
F0.4021011579992254
sg10
F0.6808181111860226
ssI128
(dp138
g9
F0.4417918719847519
sg10
F0.8543778796258182
ssI129
(dp139
g9
F0.8401764536426761
sg10
F0.4088484430556626
ssI130
(dp140
g9
F0.24401315163137904
sg10
F0.6908943080137494
ssI131
(dp141
g9
F0.01193089662070368
sg10
F0.693451686673568
ssI132
(dp142
g9
F0.0301320768755291
sg10
F0.5463355820268485
ssI133
(dp143
g9
F0.048362995451237234
sg10
F0.8221188714806321
ssI134
(dp144
g9
F0.9486199629713091
sg10
F0.4995454282643004
ssI135
(dp145
g9
F0.4170032657011954
sg10
F0.3103167033341424
ssI136
(dp146
g9
F0.46448094394916584
sg10
F0.2657047555537494
ssI137
(dp147
g9
F0.7358753728215431
sg10
F0.9531830158673853
ssI138
(dp148
g9
F0.6769318059706124
sg10
F0.25550777025967886
ssI139
(dp149
g9
F0.19486356492170698
sg10
F0.3876100665670309
ssI140
(dp150
g9
F0.9444029884015055
sg10
F0.40415974859828707
ssI141
(dp151
g9
F0.42870245809491037
sg10
F0.20182803036478758
ssI142
(dp152
g9
F0.5140674707018247
sg10
F0.829990159748293
ssI143
(dp153
g9
F0.5819993705722191
sg10
F0.39698121765527894
ssI144
(dp154
g9
F0.2805405229812121
sg10
F0.592106877471584
ssI145
(dp155
g9
F0.3112798017561468
sg10
F0.8053678798906566
ssI146
(dp156
g9
F0.7399308566180742
sg10
F0.2542552162039078
ssI147
(dp157
g9
F0.25888875787035925
sg10
F0.9106639390204344
ssI148
(dp158
g9
F0.6855666135131129
sg10
F0.8395563603956582
ssI149
(dp159
g9
F0.319054901146123
sg10
F0.19609439337515644
ssI150
(dp160
g9
F0.6229471527930045
sg10
F0.5882796220617041
ssI151
(dp161
g9
F0.019451798722596503
sg10
F0.2757300430591504
ssI152
(dp162
g9
F0.6974850976542029
sg10
F0.16868037775430755
ssI153
(dp163
g9
F0.4308935087926179
sg10
F0.32370722423311904
ssI154
(dp164
g9
F0.5116943101207976
sg10
F0.9167864115684565
ssI155
(dp165
g9
F0.4499045296318265
sg10
F0.607154639219999
ssI156
(dp166
g9
F0.4776226407669282
sg10
F0.4523217497997932
ssI157
(dp167
g9
F0.5223420702696615
sg10
F0.38090082303207784
ssI158
(dp168
g9
F0.48854825937578195
sg10
F0.6910163870617001
ssI159
(dp169
g9
F0.13158393599202256
sg10
F0.5656435593771925
ssI160
(dp170
g9
F0.39303527132241034
sg10
F0.35234695046759557
ssI161
(dp171
g9
F0.2345517820015528
sg10
F0.888938496852965
ssI162
(dp172
g9
F0.1614240317883755
sg10
F0.2842566093569736
ssI163
(dp173
g9
F0.8404410094411394
sg10
F0.3555342420229446
ssI164
(dp174
g9
F0.2713404516018141
sg10
F0.6056611392587514
ssI165
(dp175
g9
F0.6256994101075272
sg10
F0.9378816080949832
ssI166
(dp176
g9
F0.022730451120763995
sg10
F0.5122982232283164
ssI167
(dp177
g9
F0.2892986754560565
sg10
F0.7732315817935849
ssI168
(dp178
g9
F0.7722131808632958
sg10
F0.9721952028217613
ssI169
(dp179
g9
F0.6454290280749972
sg10
F0.7513265045633645
ssI170
(dp180
g9
F0.7214515839749348
sg10
F0.9096748492717053
ssI171
(dp181
g9
F0.45915221087797964
sg10
F0.0838434121263043
ssI172
(dp182
g9
F0.9595786634623475
sg10
F0.17543703895783758
ssI173
(dp183
g9
F0.15142072821377572
sg10
F0.17920086936739332
ssI174
(dp184
g9
F0.5310127660395505
sg10
F0.9048606829185537
ssI175
(dp185
g9
F0.9000667269830559
sg10
F0.06587802394140307
ssI176
(dp186
g9
F0.6141674779412222
sg10
F0.7652678131404209
ssI177
(dp187
g9
F0.32827089943862786
sg10
F0.6929634941468491
ssI178
(dp188
g9
F0.32441978954555495
sg10
F0.8929171042581066
ssI179
(dp189
g9
F0.6315494989503967
sg10
F0.03256729703492478
ssI180
(dp190
g9
F0.49054308362187926
sg10
F0.11643826870547846
ssI181
(dp191
g9
F0.7259968375720213
sg10
F0.6043233405470858
ssI182
(dp192
g9
F0.9580462617058054
sg10
F0.8261225762871897
ssI183
(dp193
g9
F0.7934598674475706
sg10
F0.07870593847460583
ssI184
(dp194
g9
F0.46109482259395085
sg10
F0.06164074077108417
ssI185
(dp195
g9
F0.19231225993552714
sg10
F0.28623491006330826
ssI186
(dp196
g9
F0.8443848872386372
sg10
F0.1411314502013823
ssI187
(dp197
g9
F0.306841921952118
sg10
F0.08326480123525903
ssI188
(dp198
g9
F0.893126262911673
sg10
F0.23087237550511097
ssI189
(dp199
g9
F0.7872083322708691
sg10
F0.46657588529322347
ssI190
(dp200
g9
F0.38412887219978553
sg10
F0.5803278394993477
ssI191
(dp201
g9
F0.9481148991670205
sg10
F0.6753587381844176
ssI192
(dp202
g9
F0.1241452930005229
sg10
F0.7009128985353809
ssI193
(dp203
g9
F0.6041747570379077
sg10
F0.5056419018802241
ssI194
(dp204
g9
F0.21392480177187478
sg10
F0.07180182337002683
ssI195
(dp205
g9
F0.8490892608006245
sg10
F0.6568668182613611
ssI196
(dp206
g9
F0.1448376472811389
sg10
F0.1766304478532238
ssI197
(dp207
g9
F0.7688248919491952
sg10
F0.84778387477377
ssI198
(dp208
g9
F0.8408877623340573
sg10
F0.6475183247909974
ssI199
(dp209
g9
F0.22452749701735253
sg10
F0.2388057505986928
ssI200
(dp210
g9
F0.33606805047852384
sg10
F0.16440837438272038
ssI201
(dp211
g9
F0.6476921905808142
sg10
F0.4287049643336269
ssI202
(dp212
g9
F0.8858538703647735
sg10
F0.700084454123797
ssI203
(dp213
g9
F0.9991349730688186
sg10
F0.8278614291617358
ssI204
(dp214
g9
F0.4342914545788358
sg10
F0.950035172583858
ssI205
(dp215
g9
F0.5978590911327407
sg10
F0.7796911248246772
ssI206
(dp216
g9
F0.34513269770417865
sg10
F0.7803670795452373
ssI207
(dp217
g9
F0.4608795848013565
sg10
F0.614603427418588
ssI208
(dp218
g9
F0.1007166647794453
sg10
F0.8546482251993378
ssI209
(dp219
g9
F0.8061343769520097
sg10
F0.43385257850114956
ssI210
(dp220
g9
F0.5971460476106295
sg10
F0.5338558867110809
ssI211
(dp221
g9
F0.09881532665474735
sg10
F0.458035377274592
ssI212
(dp222
g9
F0.8888147046914757
sg10
F0.2764575120699976
ssI213
(dp223
g9
F0.10684825976120871
sg10
F0.3325587768207853
ssI214
(dp224
g9
F0.05888860308510879
sg10
F0.11503516900970379
ssI215
(dp225
g9
F0.09400956255412263
sg10
F0.10098965328549248
ssI216
(dp226
g9
F0.1425342317745395
sg10
F0.5608751796183817
ssI217
(dp227
g9
F0.22257303929181427
sg10
F0.4043086617135574
ssI218
(dp228
g9
F0.7523499794660045
sg10
F0.6125530378115269
ssI219
(dp229
g9
F0.5298042476558955
sg10
F0.032747713210880436
ssI220
(dp230
g9
F0.9870971371382794
sg10
F0.19087430255063154
ssI221
(dp231
g9
F0.7429435212085512
sg10
F0.6200694969490239
ssI222
(dp232
g9
F0.8449939427331489
sg10
F0.7705234297140018
ssI223
(dp233
g9
F0.41415955176158215
sg10
F0.5327841609498459
ssI224
(dp234
g9
F0.6776847347800115
sg10
F0.4514002566478842
ssI225
(dp235
g9
F0.9665411469496898
sg10
F0.7483161279233913
ssI226
(dp236
g9
F0.6130242883754571
sg10
F0.7158015725269029
ssI227
(dp237
g9
F0.3060002033872069
sg10
F0.768568621113148
ssI228
(dp238
g9
F0.1294710598771628
sg10
F0.16522813802517233
ssI229
(dp239
g9
F0.20267082212101206
sg10
F0.858811933857169
ssI230
(dp240
g9
F0.8302378172489352
sg10
F0.7870299652659353
ssI231
(dp241
g9
F0.346236949760947
sg10
F0.5093154430119491
ssI232
(dp242
g9
F0.05394906132956345
sg10
F0.7542773303760651
ssI233
(dp243
g9
F0.15101927356437206
sg10
F0.21084610083063537
ssI234
(dp244
g9
F0.48051867727601905
sg10
F0.8438888086759577
ssI235
(dp245
g9
F0.05284282726743639
sg10
F0.903503553486475
ssI236
(dp246
g9
F0.5476188950117811
sg10
F0.05850797484311798
ssI237
(dp247
g9
F0.4501739874597678
sg10
F0.9577234558945906
ssI238
(dp248
g9
F0.2387011072469356
sg10
F0.5949793543281742
ssI239
(dp249
g9
F0.2560018744039546
sg10
F0.035488527113890944
ssI240
(dp250
g9
F0.3120274854773838
sg10
F0.37974167091379163
ssI241
(dp251
g9
F0.7865952806320569
sg10
F0.6252010902509283
ssI242
(dp252
g9
F0.5092785591496739
sg10
F0.9661594333385615
ssI243
(dp253
g9
F0.11291971802743805
sg10
F0.9323327647206953
ssI244
(dp254
g9
F0.5643590440694988
sg10
F0.7618839846175688
ssI245
(dp255
g9
F0.8260705742672549
sg10
F0.4058340435617419
ssI246
(dp256
g9
F0.8335620545014528
sg10
F0.004534410243339448
ssI247
(dp257
g9
F0.962920655241228
sg10
F0.6790574399824388
ssI248
(dp258
g9
F0.037614985900264686
sg10
F0.41225417627857974
ssI249
(dp259
g9
F0.7007325997684513
sg10
F0.32597189190408316
ssI250
(dp260
g9
F0.34977134944632793
sg10
F0.43998405669340646
ssI251
(dp261
g9
F0.7013948152357313
sg10
F0.5456110866474195
ssI252
(dp262
g9
F0.6081367865076369
sg10
F0.9994601195422024
ssI253
(dp263
g9
F0.399171485711737
sg10
F0.9832817896079137
ssI254
(dp264
g9
F0.5014405047522361
sg10
F0.5901131060820315
ssI255
(dp265
g9
F0.6183737113361905
sg10
F0.18226087741056196
ssI256
(dp266
g9
F0.4046606505251483
sg10
F0.3391051424002497
ssI257
(dp267
g9
F0.7756716369553832
sg10
F0.49779648593985915
ssI258
(dp268
g9
F0.48723909450243774
sg10
F0.1019270154754186
ssI259
(dp269
g9
F0.42741018242655404
sg10
F0.5578020655872982
ssI260
(dp270
g9
F0.9745606072563034
sg10
F0.23495000502964702
ssI261
(dp271
g9
F0.46273777403346084
sg10
F0.8259550253867743
ssI262
(dp272
g9
F0.8154655286866617
sg10
F0.24214624695893827
ssI263
(dp273
g9
F0.9062384438545261
sg10
F0.4962920781157266
ssI264
(dp274
g9
F0.34922635242533606
sg10
F0.5188662717825103
ssI265
(dp275
g9
F0.974315516870835
sg10
F0.9751864243493616
ssI266
(dp276
g9
F0.9542137513730331
sg10
F0.5730295983067168
ssI267
(dp277
g9
F0.03116472456354713
sg10
F0.8785922785912377
ssI268
(dp278
g9
F0.20068730343666885
sg10
F0.7389275873861414
ssI269
(dp279
g9
F0.9686187906434174
sg10
F0.9329897004467096
ssI270
(dp280
g9
F0.4130809783446244
sg10
F0.43722195306854184
ssI271
(dp281
g9
F0.5750088226764243
sg10
F0.9089914796152692
ssI272
(dp282
g9
F0.3121271416114374
sg10
F0.06894268222334754
ssI273
(dp283
g9
F0.6766589278480393
sg10
F0.7175625841850912
ssI274
(dp284
g9
F0.683538842633644
sg10
F0.7324862675037738
ssI275
(dp285
g9
F0.8263094941693517
sg10
F0.5688769773385972
ssI276
(dp286
g9
F0.4841966324934275
sg10
F0.4367808899898513
ssI277
(dp287
g9
F0.8049326511784448
sg10
F0.7341773350206046
ssI278
(dp288
g9
F0.8940161288534009
sg10
F0.7800474060436379
ssI279
(dp289
g9
F0.53427841437409
sg10
F0.21242866660295256
ssI280
(dp290
g9
F0.9923694665810547
sg10
F0.05910328848146895
ssI281
(dp291
g9
F0.15212197261460558
sg10
F0.3705250226375344
ssI282
(dp292
g9
F0.6905671385319048
sg10
F0.9085685707770886
ssI283
(dp293
g9
F0.832596701570911
sg10
F0.8101711376355266
ssI284
(dp294
g9
F0.7541528700492394
sg10
F0.6567276108191779
ssI285
(dp295
g9
F0.5134175691968746
sg10
F0.8816150134322266
ssI286
(dp296
g9
F0.424234864174719
sg10
F0.2901247885111865
ssI287
(dp297
g9
F0.33335777549143863
sg10
F0.13549366303562482
ssI288
(dp298
g9
F0.6352548111567332
sg10
F0.740453754028062
ssI289
(dp299
g9
F0.9032782112666533
sg10
F0.7803207134301563
ssI290
(dp300
g9
F0.03457338835220003
sg10
F0.3989782333538314
ssI291
(dp301
g9
F0.8019572722167927
sg10
F0.5262571590009381
ssI292
(dp302
g9
F0.6607185539430441
sg10
F0.988889319636052
ssI293
(dp303
g9
F0.8033770090350703
sg10
F0.23309882489412193
ssI294
(dp304
g9
F0.7649801917286277
sg10
F0.7987247144421589
ssI295
(dp305
g9
F0.8641019123190439
sg10
F0.4642540390449932
ssI296
(dp306
g9
F0.8229392562219172
sg10
F0.2360478136062717
ssI297
(dp307
g9
F0.4349333314125563
sg10
F0.016625329130243838
ssI298
(dp308
g9
F0.22466288156210779
sg10
F0.10148485539492125
ssI299
(dp309
g9
F0.8473538039252958
sg10
F0.26243217893225346
ssI300
(dp310
g9
F0.982427933209477
sg10
F0.8245886249813632
ssI301
(dp311
g9
F0.5675400140165815
sg10
F0.4779730978550192
ssI302
(dp312
g9
F0.07751996396553873
sg10
F0.2259576126489512
ssI303
(dp313
g9
F0.08225508538057813
sg10
F0.5749176655361524
ssI304
(dp314
g9
F0.21900580314896
sg10
F0.043573881025283034
ssI305
(dp315
g9
F0.7246091229497266
sg10
F0.935927520465134
ssI306
(dp316
g9
F0.6237015467071328
sg10
F0.41961176774940356
ssI307
(dp317
g9
F0.48716470698340386
sg10
F0.16445383742207698
ssI308
(dp318
g9
F0.20068420723370728
sg10
F0.6168563915557925
ssI309
(dp319
g9
F0.9092383668249424
sg10
F0.23675940397586814
ssI310
(dp320
g9
F0.6128420055849303
sg10
F0.16290634002534965
ssI311
(dp321
g9
F0.23824479372688745
sg10
F0.2066642643923109
ssI312
(dp322
g9
F0.7256884256932299
sg10
F0.2850015908961887
ssI313
(dp323
g9
F0.1915445397739236
sg10
F0.09931584275684746
ssI314
(dp324
g9
F0.24703697842882943
sg10
F0.049717608692397164
ssI315
(dp325
g9
F0.9410301759825384
sg10
F0.025454237414666903
ssI316
(dp326
g9
F0.29766932538955604
sg10
F0.6039422640802539
ssI317
(dp327
g9
F0.0894176968239041
sg10
F0.3836321401391656
ssI318
(dp328
g9
F0.11629215224051903
sg10
F0.9051108867271964
ssI319
(dp329
g9
F0.15323716778134822
sg10
F0.5062765751635807
ssI320
(dp330
g9
F0.7600467438021651
sg10
F0.0648203394031267
ssI321
(dp331
g9
F0.5319311562201294
sg10
F0.6291949301601643
ssI322
(dp332
g9
F0.04629473414722862
sg10
F0.2441595352688528
ssI323
(dp333
g9
F0.47096598030435877
sg10
F0.8549013006805325
ssI324
(dp334
g9
F0.898054699975711
sg10
F0.25110498304583695
ssI325
(dp335
g9
F0.6585990059741488
sg10
F0.14316740462978705
ssI326
(dp336
g9
F0.09013915645356008
sg10
F0.7456349311729734
ssI327
(dp337
g9
F0.349057535982248
sg10
F0.4160164668551506
ssI328
(dp338
g9
F0.0055915076473225245
sg10
F0.16428988395013555
ssI329
(dp339
g9
F0.48718313283973
sg10
F0.6900788167418527
ssI330
(dp340
g9
F0.18927704135111778
sg10
F0.7333401264106728
ssI331
(dp341
g9
F0.7945894692833005
sg10
F0.8536588805973762
ssI332
(dp342
g9
F0.3182269326802264
sg10
F0.18420512068082895
ssI333
(dp343
g9
F0.751291130872204
sg10
F0.3192797538591339
ssI334
(dp344
g9
F0.07429554473287414
sg10
F0.4695378618934509
ssI335
(dp345
g9
F0.77277314908713
sg10
F0.4180541318436901
ssI336
(dp346
g9
F0.6934831112889926
sg10
F0.11834320181208169
ssI337
(dp347
g9
F0.6490149785749537
sg10
F0.5534547404379287
ssI338
(dp348
g9
F0.46442833907416226
sg10
F0.8247565663566878
ssI339
(dp349
g9
F0.03304814413794421
sg10
F0.49336120581767917
ssI340
(dp350
g9
F0.48477914310410475
sg10
F0.9430646765031789
ssI341
(dp351
g9
F0.09518472834859182
sg10
F0.246166805282639
ssI342
(dp352
g9
F0.6346421262303774
sg10
F0.8315075796635752
ssI343
(dp353
g9
F0.425891459916536
sg10
F0.57458640773185
ssI344
(dp354
g9
F0.8737571558933631
sg10
F0.7198924415038135
ssI345
(dp355
g9
F0.09650569884137039
sg10
F0.1039771221806628
ssI346
(dp356
g9
F0.19004115098199414
sg10
F0.6771700953038627
ssI347
(dp357
g9
F0.2519616127265639
sg10
F0.3883243593297232
ssI348
(dp358
g9
F0.3934174387081747
sg10
F0.5796735751961688
ssI349
(dp359
g9
F0.9963652358055253
sg10
F0.4762062053921151
ssI350
(dp360
g9
F0.6997946436448059
sg10
F0.37862858640119523
ssI351
(dp361
g9
F0.2427907175074161
sg10
F0.994756419681185
ssI352
(dp362
g9
F0.10597883255677176
sg10
F0.028418892520321037
ssI353
(dp363
g9
F0.8635204330317025
sg10
F0.28782505144556725
ssI354
(dp364
g9
F0.1927333908084785
sg10
F0.4785806834286067
ssI355
(dp365
g9
F0.2915453441706888
sg10
F0.6082705590871217
ssI356
(dp366
g9
F0.6924146222012831
sg10
F0.4994953437563767
ssI357
(dp367
g9
F0.5239566541862255
sg10
F0.882930779406749
ssI358
(dp368
g9
F0.06759625652239853
sg10
F0.798864833708074
ssI359
(dp369
g9
F0.3524269136300787
sg10
F0.23805883413964024
ssI360
(dp370
g9
F0.6239323584497316
sg10
F0.8392235114687044
ssI361
(dp371
g9
F0.2517669610226634
sg10
F0.6621917019031043
ssI362
(dp372
g9
F0.7659200224456992
sg10
F0.6575964643799854
ssI363
(dp373
g9
F0.007324652156443179
sg10
F0.5316167470846525
ssI364
(dp374
g9
F0.6638511493505077
sg10
F0.4350590872603691
ssI365
(dp375
g9
F0.7060614583433865
sg10
F0.05841138596796369
ssI366
(dp376
g9
F0.2063965058497902
sg10
F0.730417503587422
ssI367
(dp377
g9
F0.9664830737745342
sg10
F0.8688883462976904
ssI368
(dp378
g9
F0.5898163599953421
sg10
F0.05002640424473903
ssI369
(dp379
g9
F0.28268125099712393
sg10
F0.2775460182337208
ssI370
(dp380
g9
F0.31902884735854764
sg10
F0.7150294790367706
ssI371
(dp381
g9
F0.07225830943490918
sg10
F0.9965614666123271
ssI372
(dp382
g9
F0.3485837320769706
sg10
F0.62481847784727
ssI373
(dp383
g9
F0.3773659222121799
sg10
F0.20620949582768622
ssI374
(dp384
g9
F0.3279080546765266
sg10
F0.16023940821950144
ssI375
(dp385
g9
F0.8550716056438386
sg10
F0.2944353310456794
ssI376
(dp386
g9
F0.5128102167209057
sg10
F0.49499881165486903
ssI377
(dp387
g9
F0.08543747135687396
sg10
F0.0691774578835832
ssI378
(dp388
g9
F0.07478652870202762
sg10
F0.2956781278744651
ssI379
(dp389
g9
F0.3047813234209963
sg10
F0.0816989264804644
ssI380
(dp390
g9
F0.385612927893244
sg10
F0.49571787558075886
ssI381
(dp391
g9
F0.5598523520771216
sg10
F0.8431686948533941
ssI382
(dp392
g9
F0.10945194149404724
sg10
F0.4446213702300944
ssI383
(dp393
g9
F0.852202652126778
sg10
F0.9867205692487556
ssI384
(dp394
g9
F0.6755592103967031
sg10
F0.8403668654258685
ssI385
(dp395
g9
F0.5125873456419223
sg10
F0.18992779589857467
ssI386
(dp396
g9
F0.4690660991260527
sg10
F0.9789275190642917
ssI387
(dp397
g9
F0.09155589750960857
sg10
F0.9877434777642097
ssI388
(dp398
g9
F0.5160737830942566
sg10
F0.44455745540443736
ssI389
(dp399
g9
F0.25190848597237603
sg10
F0.5028610454499438
ssI390
(dp400
g9
F0.18892544938855738
sg10
F0.8489760778085936
ssI391
(dp401
g9
F0.857931380269268
sg10
F0.2539242390695866
ssI392
(dp402
g9
F0.5481607191310137
sg10
F0.5696782742475895
ssI393
(dp403
g9
F0.20437050250016775
sg10
F0.9701003930487807
ssI394
(dp404
g9
F0.5505901539059956
sg10
F0.6196898586229785
ssI395
(dp405
g9
F0.3838467307793908
sg10
F0.4839400765926172
ssI396
(dp406
g9
F0.5277242021618646
sg10
F0.13850852123315782
ssI397
(dp407
g9
F0.52093973882582
sg10
F0.6005077276312345
ssI398
(dp408
g9
F0.18022239871711687
sg10
F0.37657130422251084
ssI399
(dp409
g9
F0.8145851266514944
sg10
F0.9962985243250471
ssI400
(dp410
g9
F0.7238136625823802
sg10
F0.3098046972568028
ssI401
(dp411
g9
F0.02768939744072585
sg10
F0.38998196103590244
ssI402
(dp412
g9
F0.22836531313787467
sg10
F0.03284723442807669
ssI403
(dp413
g9
F0.15430849360830745
sg10
F0.4884799016350879
ssI404
(dp414
g9
F0.17782484799524412
sg10
F0.372490035127216
ssI405
(dp415
g9
F0.277943933665017
sg10
F0.9376499227342034
ssI406
(dp416
g9
F0.2959616136485551
sg10
F0.346427720407527
ssI407
(dp417
g9
F0.0819177749735851
sg10
F0.9476610772897943
ssI408
(dp418
g9
F0.5066621980750685
sg10
F0.8611463987067653
ssI409
(dp419
g9
F0.9566322331085644
sg10
F0.843143744890094
ssI410
(dp420
g9
F0.6262707271502167
sg10
F0.7223222334498421
ssI411
(dp421
g9
F0.7364885297725565
sg10
F0.4767353352337558
ssI412
(dp422
g9
F0.2735636836476085
sg10
F0.455624210757423
ssI413
(dp423
g9
F0.18076947004533783
sg10
F0.783973249655533
ssI414
(dp424
g9
F0.917080032253167
sg10
F0.4273353149596738
ssI415
(dp425
g9
F0.07188029833598153
sg10
F0.7440939162856475
ssI416
(dp426
g9
F0.0405256705822713
sg10
F0.30062651587431866
ssI417
(dp427
g9
F0.4610567720626739
sg10
F0.4001931217146151
ssI418
(dp428
g9
F0.4577657628500328
sg10
F0.7457479621469252
ssI419
(dp429
g9
F0.1891539271676369
sg10
F0.1843883158834556
ssI420
(dp430
g9
F0.928590816496907
sg10
F0.4216107089338519
ssI421
(dp431
g9
F0.8062428471332087
sg10
F0.2804729704777459
ssI422
(dp432
g9
F0.2616398262556151
sg10
F0.4579467358591157
ssI423
(dp433
g9
F0.08283183701949548
sg10
F0.9505289723580874
ssI424
(dp434
g9
F0.8880597743206632
sg10
F0.22470226491168743
ssI425
(dp435
g9
F0.5664115622542677
sg10
F0.4279545127653891
ssI426
(dp436
g9
F0.00018385480944960175
sg10
F0.238136937781665
ssI427
(dp437
g9
F0.33533236232152963
sg10
F0.45325875149331596
ssI428
(dp438
g9
F0.7407733166129994
sg10
F0.24462655514792786
ssI429
(dp439
g9
F0.680078435355924
sg10
F0.3036313475452387
ssI430
(dp440
g9
F0.13712669333155325
sg10
F0.7843461144421249
ssI431
(dp441
g9
F0.5563299936061175
sg10
F0.049512861885739334
ssI432
(dp442
g9
F0.11825507636301835
sg10
F0.9939349368510096
ssI433
(dp443
g9
F0.3349678957332619
sg10
F0.5537855355369199
ssI434
(dp444
g9
F0.11913531976302105
sg10
F0.7649810361725555
ssI435
(dp445
g9
F0.7494789570833196
sg10
F0.14838013199021938
ssI436
(dp446
g9
F0.9116079129280383
sg10
F0.6324048159439096
ssI437
(dp447
g9
F0.4921188152079238
sg10
F0.36257134354662457
ssI438
(dp448
g9
F0.0931504560054992
sg10
F0.18794776873719465
ssI439
(dp449
g9
F0.6772611965515735
sg10
F0.5640630980879379
ssI440
(dp450
g9
F0.884606222241223
sg10
F0.7488947039575277
ssI441
(dp451
g9
F0.5713372654030313
sg10
F0.030064896452624223
ssI442
(dp452
g9
F0.34131823972529973
sg10
F0.9197656391923158
ssI443
(dp453
g9
F0.24478383370636392
sg10
F0.6888649573089053
ssI444
(dp454
g9
F0.9794696609303094
sg10
F0.8801617380824011
ssI445
(dp455
g9
F0.41561975467719814
sg10
F0.5619522249300405
ssI446
(dp456
g9
F0.17946248978235813
sg10
F0.11225222470742502
ssI447
(dp457
g9
F0.8977700021070417
sg10
F0.6316220582427478
ssI448
(dp458
g9
F0.1540171688260198
sg10
F0.5737837030086937
ssI449
(dp459
g9
F0.49004696068698406
sg10
F0.69714409223083
ssI450
(dp460
g9
F0.22479268511701478
sg10
F0.09679058471418267
ssI451
(dp461
g9
F0.7751026646555086
sg10
F0.022251357617931067
ssI452
(dp462
g9
F0.7020138612636682
sg10
F0.6725105309805502
ssI453
(dp463
g9
F0.542774937859693
sg10
F0.49408477637282033
ssI454
(dp464
g9
F0.6053571496220405
sg10
F0.9653448866005541
ssI455
(dp465
g9
F0.9445048021849405
sg10
F0.7990049006407532
ssI456
(dp466
g9
F0.9132333405211502
sg10
F0.4201111821737843
ssI457
(dp467
g9
F0.7728232996803185
sg10
F0.3060327335989347
ssI458
(dp468
g9
F0.4097226822952643
sg10
F0.81132676460421
ssI459
(dp469
g9
F0.029184857502044914
sg10
F0.5082458324031961
ssI460
(dp470
g9
F0.152441927355644
sg10
F0.5094653534238873
ssI461
(dp471
g9
F0.09582047724890275
sg10
F0.3492638063629667
ssI462
(dp472
g9
F0.3922095715219618
sg10
F0.9363581652526886
ssI463
(dp473
g9
F0.22043475962960424
sg10
F0.8624823089557477
ssI464
(dp474
g9
F0.36197116611805624
sg10
F0.7445713601118337
ssI465
(dp475
g9
F0.7757508494279395
sg10
F0.45974963988328943
ssI466
(dp476
g9
F0.6860604555165831
sg10
F0.42956135239705084
ssI467
(dp477
g9
F0.47469622218009944
sg10
F0.2051686278650373
ssI468
(dp478
g9
F0.20970285267718902
sg10
F0.0673711369477279
ssI469
(dp479
g9
F0.5891255131495089
sg10
F0.6056638140215058
ssI470
(dp480
g9
F0.24582964463157453
sg10
F0.6415865511973603
ssI471
(dp481
g9
F0.8790287396943843
sg10
F0.7358570715386772
ssI472
(dp482
g9
F0.09961461415543627
sg10
F0.4225706168679685
ssI473
(dp483
g9
F0.9570047050787699
sg10
F0.014007503298223312
ssI474
(dp484
g9
F0.5587480770697018
sg10
F0.28669808629407023
ssI475
(dp485
g9
F0.36921005346774105
sg10
F0.6932471553460073
ssI476
(dp486
g9
F0.8088885268039028
sg10
F0.6540773970889376
ssI477
(dp487
g9
F0.6961828394288737
sg10
F0.18248640360136048
ssI478
(dp488
g9
F0.694314824879323
sg10
F0.6658084408070373
ssI479
(dp489
g9
F0.8306587357708566
sg10
F0.12539842542968416
ssI480
(dp490
g9
F0.2689666669108508
sg10
F0.2806002955947746
ssI481
(dp491
g9
F0.0031808632693338668
sg10
F0.2453626819023541
ssI482
(dp492
g9
F0.12478319398256432
sg10
F0.11143082436007945
ssI483
(dp493
g9
F0.2773498603949651
sg10
F0.0823121020235894
ssI484
(dp494
g9
F0.12405490540951536
sg10
F0.9542394432084808
ssI485
(dp495
g9
F0.39382725217185677
sg10
F0.6387081498650121
ssI486
(dp496
g9
F0.5592989846309924
sg10
F0.7327204359279188
ssI487
(dp497
g9
F0.589528361050025
sg10
F0.9036280352007097
ssI488
(dp498
g9
F0.4077196289740571
sg10
F0.32660280972423894
ssI489
(dp499
g9
F0.6909520768015106
sg10
F0.803513411788789
ssI490
(dp500
g9
F0.8052003979431736
sg10
F0.16013592352349015
ssI491
(dp501
g9
F0.3349395699512755
sg10
F0.11986774680400059
ssI492
(dp502
g9
F0.6589674030654883
sg10
F0.21262080878869483
ssI493
(dp503
g9
F0.1634120626072495
sg10
F0.723629645245577
ssI494
(dp504
g9
F0.5819946774198055
sg10
F0.7987470278787677
ssI495
(dp505
g9
F0.9342222027146225
sg10
F0.8399196780720231
ssI496
(dp506
g9
F0.7251318323107503
sg10
F0.585596197624294
ssI497
(dp507
g9
F0.6209536718540907
sg10
F0.5934155857028233
ssI498
(dp508
g9
F0.9041104359989596
sg10
F0.3391969753116475
ssI499
(dp509
g9
F0.3507633824783798
sg10
F0.16514355535819136
sssS'node_dict_factory'
p510
c__builtin__
dict
p511
sS'edge_attr_dict_factory'
p512
g511
sS'edge'
p513
(dp514
I0
(dp515
sI1
(dp516
sI2
(dp517
sI3
(dp518
sI4
(dp519
sI5
(dp520
sI6
(dp521
sI7
(dp522
sI8
(dp523
sI9
(dp524
sI10
(dp525
sI11
(dp526
sI12
(dp527
sI13
(dp528
sI14
(dp529
sI15
(dp530
sI16
(dp531
sI17
(dp532
sI18
(dp533
sI19
(dp534
sI20
(dp535
sI21
(dp536
sI22
(dp537
sI23
(dp538
sI24
(dp539
sI25
(dp540
sI26
(dp541
sI27
(dp542
sI28
(dp543
sI29
(dp544
sI30
(dp545
sI31
(dp546
sI32
(dp547
sI33
(dp548
sI34
(dp549
sI35
(dp550
sI36
(dp551
sI37
(dp552
sI38
(dp553
sI39
(dp554
sI40
(dp555
sI41
(dp556
sI42
(dp557
sI43
(dp558
sI44
(dp559
sI45
(dp560
sI46
(dp561
sI47
(dp562
sI48
(dp563
sI49
(dp564
sI50
(dp565
sI51
(dp566
sI52
(dp567
sI53
(dp568
sI54
(dp569
sI55
(dp570
sI56
(dp571
sI57
(dp572
sI58
(dp573
sI59
(dp574
sI60
(dp575
sI61
(dp576
sI62
(dp577
sI63
(dp578
sI64
(dp579
sI65
(dp580
sI66
(dp581
sI67
(dp582
sI68
(dp583
sI69
(dp584
sI70
(dp585
sI71
(dp586
sI72
(dp587
sI73
(dp588
sI74
(dp589
sI75
(dp590
sI76
(dp591
sI77
(dp592
sI78
(dp593
sI79
(dp594
sI80
(dp595
sI81
(dp596
sI82
(dp597
sI83
(dp598
sI84
(dp599
sI85
(dp600
sI86
(dp601
sI87
(dp602
sI88
(dp603
sI89
(dp604
sI90
(dp605
sI91
(dp606
sI92
(dp607
sI93
(dp608
sI94
(dp609
sI95
(dp610
sI96
(dp611
sI97
(dp612
sI98
(dp613
sI99
(dp614
sI100
(dp615
sI101
(dp616
sI102
(dp617
sI103
(dp618
sI104
(dp619
sI105
(dp620
sI106
(dp621
sI107
(dp622
sI108
(dp623
sI109
(dp624
sI110
(dp625
sI111
(dp626
sI112
(dp627
sI113
(dp628
sI114
(dp629
sI115
(dp630
sI116
(dp631
sI117
(dp632
sI118
(dp633
sI119
(dp634
sI120
(dp635
sI121
(dp636
sI122
(dp637
sI123
(dp638
sI124
(dp639
sI125
(dp640
sI126
(dp641
sI127
(dp642
sI128
(dp643
sI129
(dp644
sI130
(dp645
sI131
(dp646
sI132
(dp647
sI133
(dp648
sI134
(dp649
sI135
(dp650
sI136
(dp651
sI137
(dp652
sI138
(dp653
sI139
(dp654
sI140
(dp655
sI141
(dp656
sI142
(dp657
sI143
(dp658
sI144
(dp659
sI145
(dp660
sI146
(dp661
sI147
(dp662
sI148
(dp663
sI149
(dp664
sI150
(dp665
sI151
(dp666
sI152
(dp667
sI153
(dp668
sI154
(dp669
sI155
(dp670
sI156
(dp671
sI157
(dp672
sI158
(dp673
sI159
(dp674
sI160
(dp675
sI161
(dp676
sI162
(dp677
sI163
(dp678
sI164
(dp679
sI165
(dp680
sI166
(dp681
sI167
(dp682
sI168
(dp683
sI169
(dp684
sI170
(dp685
sI171
(dp686
sI172
(dp687
sI173
(dp688
sI174
(dp689
sI175
(dp690
sI176
(dp691
sI177
(dp692
sI178
(dp693
sI179
(dp694
sI180
(dp695
sI181
(dp696
sI182
(dp697
sI183
(dp698
sI184
(dp699
sI185
(dp700
sI186
(dp701
sI187
(dp702
sI188
(dp703
sI189
(dp704
sI190
(dp705
sI191
(dp706
sI192
(dp707
sI193
(dp708
sI194
(dp709
sI195
(dp710
sI196
(dp711
sI197
(dp712
sI198
(dp713
sI199
(dp714
sI200
(dp715
sI201
(dp716
sI202
(dp717
sI203
(dp718
sI204
(dp719
sI205
(dp720
sI206
(dp721
sI207
(dp722
sI208
(dp723
sI209
(dp724
sI210
(dp725
sI211
(dp726
sI212
(dp727
sI213
(dp728
sI214
(dp729
sI215
(dp730
sI216
(dp731
sI217
(dp732
sI218
(dp733
sI219
(dp734
sI220
(dp735
sI221
(dp736
sI222
(dp737
sI223
(dp738
sI224
(dp739
sI225
(dp740
sI226
(dp741
sI227
(dp742
sI228
(dp743
sI229
(dp744
sI230
(dp745
sI231
(dp746
sI232
(dp747
sI233
(dp748
sI234
(dp749
sI235
(dp750
sI236
(dp751
sI237
(dp752
sI238
(dp753
sI239
(dp754
sI240
(dp755
sI241
(dp756
sI242
(dp757
sI243
(dp758
sI244
(dp759
sI245
(dp760
sI246
(dp761
sI247
(dp762
sI248
(dp763
sI249
(dp764
sI250
(dp765
sI251
(dp766
sI252
(dp767
sI253
(dp768
sI254
(dp769
sI255
(dp770
sI256
(dp771
sI257
(dp772
sI258
(dp773
sI259
(dp774
sI260
(dp775
sI261
(dp776
sI262
(dp777
sI263
(dp778
sI264
(dp779
sI265
(dp780
sI266
(dp781
sI267
(dp782
sI268
(dp783
sI269
(dp784
sI270
(dp785
sI271
(dp786
sI272
(dp787
sI273
(dp788
sI274
(dp789
sI275
(dp790
sI276
(dp791
sI277
(dp792
sI278
(dp793
sI279
(dp794
sI280
(dp795
sI281
(dp796
sI282
(dp797
sI283
(dp798
sI284
(dp799
sI285
(dp800
sI286
(dp801
sI287
(dp802
sI288
(dp803
sI289
(dp804
sI290
(dp805
sI291
(dp806
sI292
(dp807
sI293
(dp808
sI294
(dp809
sI295
(dp810
sI296
(dp811
sI297
(dp812
sI298
(dp813
sI299
(dp814
sI300
(dp815
sI301
(dp816
sI302
(dp817
sI303
(dp818
sI304
(dp819
sI305
(dp820
sI306
(dp821
sI307
(dp822
sI308
(dp823
sI309
(dp824
sI310
(dp825
sI311
(dp826
sI312
(dp827
sI313
(dp828
sI314
(dp829
sI315
(dp830
sI316
(dp831
sI317
(dp832
sI318
(dp833
sI319
(dp834
sI320
(dp835
sI321
(dp836
sI322
(dp837
sI323
(dp838
sI324
(dp839
sI325
(dp840
sI326
(dp841
sI327
(dp842
sI328
(dp843
sI329
(dp844
sI330
(dp845
sI331
(dp846
sI332
(dp847
sI333
(dp848
sI334
(dp849
sI335
(dp850
sI336
(dp851
sI337
(dp852
sI338
(dp853
sI339
(dp854
sI340
(dp855
sI341
(dp856
sI342
(dp857
sI343
(dp858
sI344
(dp859
sI345
(dp860
sI346
(dp861
sI347
(dp862
sI348
(dp863
sI349
(dp864
sI350
(dp865
sI351
(dp866
sI352
(dp867
sI353
(dp868
sI354
(dp869
sI355
(dp870
sI356
(dp871
sI357
(dp872
sI358
(dp873
sI359
(dp874
sI360
(dp875
sI361
(dp876
sI362
(dp877
sI363
(dp878
sI364
(dp879
sI365
(dp880
sI366
(dp881
sI367
(dp882
sI368
(dp883
sI369
(dp884
sI370
(dp885
sI371
(dp886
sI372
(dp887
sI373
(dp888
sI374
(dp889
sI375
(dp890
sI376
(dp891
sI377
(dp892
sI378
(dp893
sI379
(dp894
sI380
(dp895
sI381
(dp896
sI382
(dp897
sI383
(dp898
sI384
(dp899
sI385
(dp900
sI386
(dp901
sI387
(dp902
sI388
(dp903
sI389
(dp904
sI390
(dp905
sI391
(dp906
sI392
(dp907
sI393
(dp908
sI394
(dp909
sI395
(dp910
sI396
(dp911
sI397
(dp912
sI398
(dp913
sI399
(dp914
sI400
(dp915
sI401
(dp916
sI402
(dp917
sI403
(dp918
sI404
(dp919
sI405
(dp920
sI406
(dp921
sI407
(dp922
sI408
(dp923
sI409
(dp924
sI410
(dp925
sI411
(dp926
sI412
(dp927
sI413
(dp928
sI414
(dp929
sI415
(dp930
sI416
(dp931
sI417
(dp932
sI418
(dp933
sI419
(dp934
sI420
(dp935
sI421
(dp936
sI422
(dp937
sI423
(dp938
sI424
(dp939
sI425
(dp940
sI426
(dp941
sI427
(dp942
sI428
(dp943
sI429
(dp944
sI430
(dp945
sI431
(dp946
sI432
(dp947
sI433
(dp948
sI434
(dp949
sI435
(dp950
sI436
(dp951
sI437
(dp952
sI438
(dp953
sI439
(dp954
sI440
(dp955
sI441
(dp956
sI442
(dp957
sI443
(dp958
sI444
(dp959
sI445
(dp960
sI446
(dp961
sI447
(dp962
sI448
(dp963
sI449
(dp964
sI450
(dp965
sI451
(dp966
sI452
(dp967
sI453
(dp968
sI454
(dp969
sI455
(dp970
sI456
(dp971
sI457
(dp972
sI458
(dp973
sI459
(dp974
sI460
(dp975
sI461
(dp976
sI462
(dp977
sI463
(dp978
sI464
(dp979
sI465
(dp980
sI466
(dp981
sI467
(dp982
sI468
(dp983
sI469
(dp984
sI470
(dp985
sI471
(dp986
sI472
(dp987
sI473
(dp988
sI474
(dp989
sI475
(dp990
sI476
(dp991
sI477
(dp992
sI478
(dp993
sI479
(dp994
sI480
(dp995
sI481
(dp996
sI482
(dp997
sI483
(dp998
sI484
(dp999
sI485
(dp1000
sI486
(dp1001
sI487
(dp1002
sI488
(dp1003
sI489
(dp1004
sI490
(dp1005
sI491
(dp1006
sI492
(dp1007
sI493
(dp1008
sI494
(dp1009
sI495
(dp1010
sI496
(dp1011
sI497
(dp1012
sI498
(dp1013
sI499
(dp1014
ssS'graph'
p1015
(dp1016
sS'adjlist_dict_factory'
p1017
g511
sS'adj'
p1018
g514
sb.