ccopy_reg
_reconstructor
p0
(cnetworkx.classes.graph
Graph
p1
c__builtin__
object
p2
Ntp3
Rp4
(dp5
S'node'
p6
(dp7
I0
(dp8
S'pos_x'
p9
F0.34526622102489424
sS'pos_y'
p10
F0.1714385201048486
ssI1
(dp11
g9
F0.7257482975262046
sg10
F0.1691979773992216
ssI2
(dp12
g9
F0.796779086481795
sg10
F0.17868394595440473
ssI3
(dp13
g9
F0.3408726276057087
sg10
F0.5146365847280315
ssI4
(dp14
g9
F0.7299863486030994
sg10
F0.48016917787344027
ssI5
(dp15
g9
F0.060306569305014546
sg10
F0.5262320563633878
ssI6
(dp16
g9
F0.8260734133077173
sg10
F0.9835617236550805
ssI7
(dp17
g9
F0.1792234022614917
sg10
F0.5741864931023967
ssI8
(dp18
g9
F0.6142364612565278
sg10
F0.15343306349389274
ssI9
(dp19
g9
F0.7752573621847222
sg10
F0.23020647567607244
ssI10
(dp20
g9
F0.5074362461699463
sg10
F0.31663611882407205
ssI11
(dp21
g9
F0.3731099088189377
sg10
F0.8427438358853173
ssI12
(dp22
g9
F0.7640374532824159
sg10
F0.08729576746819523
ssI13
(dp23
g9
F0.06936117368005568
sg10
F0.054133688468669616
ssI14
(dp24
g9
F0.1505081942559846
sg10
F0.7121011124541088
ssI15
(dp25
g9
F0.6729357481980173
sg10
F0.7955894081210926
ssI16
(dp26
g9
F0.8719780748876634
sg10
F0.42169231681081865
ssI17
(dp27
g9
F0.049952325838326095
sg10
F0.01258956054357696
ssI18
(dp28
g9
F0.7695797357147368
sg10
F0.8186779176033575
ssI19
(dp29
g9
F0.48972759603303373
sg10
F0.45977880283540107
ssI20
(dp30
g9
F0.7635285615764142
sg10
F0.9456753519902954
ssI21
(dp31
g9
F0.2810057191026909
sg10
F0.21462743289917496
ssI22
(dp32
g9
F0.27596341201017993
sg10
F0.6703481933568445
ssI23
(dp33
g9
F0.2372860320438398
sg10
F0.0016888686594519475
ssI24
(dp34
g9
F0.6755240393610354
sg10
F0.27816640488752664
ssI25
(dp35
g9
F0.795541705324986
sg10
F0.9236443815320134
ssI26
(dp36
g9
F0.24690173762432654
sg10
F0.23693421773440204
ssI27
(dp37
g9
F0.247434079690944
sg10
F0.6271103137648029
ssI28
(dp38
g9
F0.31017632396317996
sg10
F0.7043835026904067
ssI29
(dp39
g9
F0.3439661069646256
sg10
F0.782493962363863
ssI30
(dp40
g9
F0.1581855799396653
sg10
F0.9925261487342474
ssI31
(dp41
g9
F0.24179143820057092
sg10
F0.44209953865572693
ssI32
(dp42
g9
F0.11081628654647568
sg10
F0.9230533403205881
ssI33
(dp43
g9
F0.3311485071262834
sg10
F0.02843442453500078
ssI34
(dp44
g9
F0.0312267007996071
sg10
F0.7578687923398724
ssI35
(dp45
g9
F0.5669339265338292
sg10
F0.69835382810214
ssI36
(dp46
g9
F0.39993418443562667
sg10
F0.7450724130957449
ssI37
(dp47
g9
F0.8036269842547771
sg10
F0.7566286787306981
ssI38
(dp48
g9
F0.8994195298218356
sg10
F0.42817885016388646
ssI39
(dp49
g9
F0.13767431112885165
sg10
F0.6855956794177718
ssI40
(dp50
g9
F0.9268557255459123
sg10
F0.41006226077247254
ssI41
(dp51
g9
F0.6412428141314723
sg10
F0.600205642975742
ssI42
(dp52
g9
F0.58012019144624
sg10
F0.113537996989856
ssI43
(dp53
g9
F0.5961442674562516
sg10
F0.6724262382600913
ssI44
(dp54
g9
F0.09788957568795409
sg10
F0.7201452477328963
ssI45
(dp55
g9
F0.9875707472582632
sg10
F0.6875845549673104
ssI46
(dp56
g9
F0.37300356446320615
sg10
F0.5434459591852082
ssI47
(dp57
g9
F0.766246747503207
sg10
F0.6425919447932593
ssI48
(dp58
g9
F0.6837929398493571
sg10
F0.7251836418206057
ssI49
(dp59
g9
F0.6015292000267742
sg10
F0.8677788027145035
ssI50
(dp60
g9
F0.6786765457874697
sg10
F0.8302478585430909
ssI51
(dp61
g9
F0.39697295241460595
sg10
F0.1783255403877122
ssI52
(dp62
g9
F0.3921160086194685
sg10
F0.6540635018823802
ssI53
(dp63
g9
F0.13014642495529094
sg10
F0.6512652430477881
ssI54
(dp64
g9
F0.05287785879676976
sg10
F0.06037236292381343
ssI55
(dp65
g9
F0.543729796664827
sg10
F0.8356626107785965
ssI56
(dp66
g9
F0.7609736006877414
sg10
F0.8387458210022364
ssI57
(dp67
g9
F0.9684195951530447
sg10
F0.7550356549071032
ssI58
(dp68
g9
F0.07077017178428979
sg10
F0.4513799776561266
ssI59
(dp69
g9
F0.18431218971139152
sg10
F0.21441341520612678
ssI60
(dp70
g9
F0.6139217000354443
sg10
F0.16014050778993527
ssI61
(dp71
g9
F0.06382968625437946
sg10
F0.24947757020719097
ssI62
(dp72
g9
F0.4652850263965326
sg10
F0.7634845165664045
ssI63
(dp73
g9
F0.13960078866428982
sg10
F0.28383585033037373
ssI64
(dp74
g9
F0.955765555418124
sg10
F0.5179092084807191
ssI65
(dp75
g9
F0.30361652616247314
sg10
F0.9821377634591052
ssI66
(dp76
g9
F0.9063187091460081
sg10
F0.902972951031962
ssI67
(dp77
g9
F0.9486971357480094
sg10
F0.053793018836115536
ssI68
(dp78
g9
F0.3039977578073565
sg10
F0.9719515394521279
ssI69
(dp79
g9
F0.26130052318795194
sg10
F0.524525439312113
ssI70
(dp80
g9
F0.06967703039559847
sg10
F0.6276591256173004
ssI71
(dp81
g9
F0.16681537904329213
sg10
F0.5462460241632456
ssI72
(dp82
g9
F0.8401182011150987
sg10
F0.7475037750904089
ssI73
(dp83
g9
F0.02620637386255853
sg10
F0.482851164016044
ssI74
(dp84
g9
F0.005694864654420928
sg10
F0.26187884909231274
ssI75
(dp85
g9
F0.7544795914968143
sg10
F0.7865424922850124
ssI76
(dp86
g9
F0.8990625944118124
sg10
F0.22192550148136336
ssI77
(dp87
g9
F0.7849660687685779
sg10
F0.15341472466341288
ssI78
(dp88
g9
F0.5826134061602422
sg10
F0.45785793508713457
ssI79
(dp89
g9
F0.41739621371622726
sg10
F0.34705111945073064
ssI80
(dp90
g9
F0.0688089177778729
sg10
F0.04615220660813513
ssI81
(dp91
g9
F0.7078491883559147
sg10
F0.4791334915534352
ssI82
(dp92
g9
F0.06094118322187503
sg10
F0.027624551754552917
ssI83
(dp93
g9
F0.721179189616687
sg10
F0.6508503356788693
ssI84
(dp94
g9
F0.1923478268215414
sg10
F0.14489555338537552
ssI85
(dp95
g9
F0.37385709383083787
sg10
F0.6554181824911247
ssI86
(dp96
g9
F0.3798984889949881
sg10
F0.6870889159723187
ssI87
(dp97
g9
F0.6423523205022134
sg10
F0.2855556918188402
ssI88
(dp98
g9
F0.06936542336450491
sg10
F0.016449267018833758
ssI89
(dp99
g9
F0.20869576706575632
sg10
F0.3531209076537185
ssI90
(dp100
g9
F0.9975831001633632
sg10
F0.5503010891363624
ssI91
(dp101
g9
F0.39186120153355686
sg10
F0.6652902468394071
ssI92
(dp102
g9
F0.36126013569376236
sg10
F0.8334865256096833
ssI93
(dp103
g9
F0.004854660820761136
sg10
F0.20574102141845607
ssI94
(dp104
g9
F0.5428987107350237
sg10
F0.9466144514323217
ssI95
(dp105
g9
F0.22051764771993165
sg10
F0.45854655229734864
ssI96
(dp106
g9
F0.40244215184959997
sg10
F0.5488095101361584
ssI97
(dp107
g9
F0.3244553072965908
sg10
F0.43106296039057024
ssI98
(dp108
g9
F0.3242317037270507
sg10
F0.06914441202923172
ssI99
(dp109
g9
F0.6012771819421661
sg10
F0.5418165585243336
ssI100
(dp110
g9
F0.9902544909049714
sg10
F0.41283337283762167
ssI101
(dp111
g9
F0.48790429645160616
sg10
F0.31619581125600693
ssI102
(dp112
g9
F0.17569665896835007
sg10
F0.6049483450416405
ssI103
(dp113
g9
F0.6599956133827567
sg10
F0.554499275169032
ssI104
(dp114
g9
F0.9447623148667817
sg10
F0.6035672358192341
ssI105
(dp115
g9
F0.11423022451777154
sg10
F0.5970714326069355
ssI106
(dp116
g9
F0.932479813801533
sg10
F0.27562994161016063
ssI107
(dp117
g9
F0.7344369379608189
sg10
F0.8706566029015312
ssI108
(dp118
g9
F0.851688592935576
sg10
F0.7880251496297931
ssI109
(dp119
g9
F0.5748529922331753
sg10
F0.6833649006228328
ssI110
(dp120
g9
F0.5920118834052329
sg10
F0.5390406193664962
ssI111
(dp121
g9
F0.05495102872206825
sg10
F0.6098610757953494
ssI112
(dp122
g9
F0.02764925099685922
sg10
F0.10846938597479072
ssI113
(dp123
g9
F0.8119640613865473
sg10
F0.8677278873973517
ssI114
(dp124
g9
F0.7391434021448925
sg10
F0.4490808911445823
ssI115
(dp125
g9
F0.5797665216143172
sg10
F0.33569620382592724
ssI116
(dp126
g9
F0.21116003295799846
sg10
F0.12876961919764207
ssI117
(dp127
g9
F0.2808109076606068
sg10
F0.7641578695804194
ssI118
(dp128
g9
F0.26962899100629323
sg10
F0.6071213266636308
ssI119
(dp129
g9
F0.9211968489109388
sg10
F0.7454116983180307
ssI120
(dp130
g9
F0.6545625289049036
sg10
F0.25603840051543836
ssI121
(dp131
g9
F0.2250642439124334
sg10
F0.5167016803729427
ssI122
(dp132
g9
F0.15880936419156233
sg10
F0.9133872088551899
ssI123
(dp133
g9
F0.3749795572326049
sg10
F0.16171352368380232
ssI124
(dp134
g9
F0.6013918219916836
sg10
F0.5909431132751773
ssI125
(dp135
g9
F0.3452495996593129
sg10
F0.6712472166128425
ssI126
(dp136
g9
F0.7737883349183733
sg10
F0.011512132356051086
ssI127
(dp137
g9
F0.9202047134710732
sg10
F0.6716509035031913
ssI128
(dp138
g9
F0.8607426251577837
sg10
F0.21575798592884965
ssI129
(dp139
g9
F0.8615844036018607
sg10
F0.7736008141669743
ssI130
(dp140
g9
F0.9191194290910114
sg10
F0.6284585257757173
ssI131
(dp141
g9
F0.8968613534189438
sg10
F0.0684625473730669
ssI132
(dp142
g9
F0.5596834496426571
sg10
F0.45139232391237993
ssI133
(dp143
g9
F0.35250387904232794
sg10
F0.5628089507496842
ssI134
(dp144
g9
F0.8917854809070423
sg10
F0.4480192012604032
ssI135
(dp145
g9
F0.7267774635036078
sg10
F0.7487541671407555
ssI136
(dp146
g9
F0.352322118012806
sg10
F0.7030275901121671
ssI137
(dp147
g9
F0.26408143250487537
sg10
F0.2847459638708296
ssI138
(dp148
g9
F0.15053305224500335
sg10
F0.3688322016680242
ssI139
(dp149
g9
F0.0676589181869427
sg10
F0.4586973610776346
ssI140
(dp150
g9
F0.47408469055320057
sg10
F0.693164752965778
ssI141
(dp151
g9
F0.9491733641794797
sg10
F0.8317693050961539
ssI142
(dp152
g9
F0.6000244372791235
sg10
F0.2538563402547678
ssI143
(dp153
g9
F0.5919093705404551
sg10
F0.3103496439896587
ssI144
(dp154
g9
F0.3890573983016211
sg10
F0.2034180973547497
ssI145
(dp155
g9
F0.2584333996044549
sg10
F0.08555552772445452
ssI146
(dp156
g9
F0.9812625587818146
sg10
F0.1914479586246044
ssI147
(dp157
g9
F0.98052844139439
sg10
F0.9895824731386534
ssI148
(dp158
g9
F0.31310995765960137
sg10
F0.8116407735823862
ssI149
(dp159
g9
F0.9100433512306084
sg10
F0.23801613038490932
ssI150
(dp160
g9
F0.09252520866632885
sg10
F0.28657078153296567
ssI151
(dp161
g9
F0.6097076606665601
sg10
F0.45496664931628517
ssI152
(dp162
g9
F0.8110728934703108
sg10
F0.5135378608421347
ssI153
(dp163
g9
F0.7057169299788557
sg10
F0.9453243916866647
ssI154
(dp164
g9
F0.6116310657186395
sg10
F0.7674809840639968
ssI155
(dp165
g9
F0.5508473053291408
sg10
F0.28708397260603424
ssI156
(dp166
g9
F0.8437848270695741
sg10
F0.6911356819446877
ssI157
(dp167
g9
F0.4022532247641455
sg10
F0.37440771831230424
ssI158
(dp168
g9
F0.9990424625767732
sg10
F0.5516028070356923
ssI159
(dp169
g9
F0.055758961562015874
sg10
F0.058738049566459116
ssI160
(dp170
g9
F0.7730758964218712
sg10
F0.3605002594207165
ssI161
(dp171
g9
F0.7867740370658937
sg10
F0.15442727354846097
ssI162
(dp172
g9
F0.07918164676054007
sg10
F0.10759036761796914
ssI163
(dp173
g9
F0.39033100373030205
sg10
F0.8674642337945849
ssI164
(dp174
g9
F0.8838897605125076
sg10
F0.8720025828035077
ssI165
(dp175
g9
F0.05669118813718699
sg10
F0.6878382479113387
ssI166
(dp176
g9
F0.4348314581097463
sg10
F0.9538624398636423
ssI167
(dp177
g9
F0.7413477803597354
sg10
F0.7081508576676582
ssI168
(dp178
g9
F0.5533907261166815
sg10
F0.05897253417826809
ssI169
(dp179
g9
F0.30538435632355465
sg10
F0.7169048159429011
ssI170
(dp180
g9
F0.49036336136359326
sg10
F0.14474567862500143
ssI171
(dp181
g9
F0.10611322232484655
sg10
F0.5134670285347976
ssI172
(dp182
g9
F0.23023984927277985
sg10
F0.04743107464686358
ssI173
(dp183
g9
F0.7218511292417037
sg10
F0.7631409456725236
ssI174
(dp184
g9
F0.5459640343587376
sg10
F0.030707786729608166
ssI175
(dp185
g9
F0.7859492639514823
sg10
F0.2367393989422144
ssI176
(dp186
g9
F0.2981585619477526
sg10
F0.4940867515208952
ssI177
(dp187
g9
F0.9680533276260879
sg10
F0.618786708835932
ssI178
(dp188
g9
F0.5876122010242033
sg10
F0.9431753333725643
ssI179
(dp189
g9
F0.2113546942978337
sg10
F0.4388574114748651
ssI180
(dp190
g9
F0.3971428529795523
sg10
F0.24375662165949508
ssI181
(dp191
g9
F0.04649566533146743
sg10
F0.0016240205325289692
ssI182
(dp192
g9
F0.199469555410957
sg10
F0.3789236581033998
ssI183
(dp193
g9
F0.7305372643432724
sg10
F0.22369230392228434
ssI184
(dp194
g9
F0.4124127304406653
sg10
F0.3841769468024464
ssI185
(dp195
g9
F0.7281265801400433
sg10
F0.020839575697227386
ssI186
(dp196
g9
F0.8928701765725856
sg10
F0.12590159908389809
ssI187
(dp197
g9
F0.8449870746312139
sg10
F0.5348929420175839
ssI188
(dp198
g9
F0.9141428524373335
sg10
F0.6495631403595254
ssI189
(dp199
g9
F0.6228090931646703
sg10
F0.2839892454931674
ssI190
(dp200
g9
F0.2396222254194439
sg10
F0.6504991386643125
ssI191
(dp201
g9
F0.3985853778773074
sg10
F0.0721431983867511
ssI192
(dp202
g9
F0.549737448038232
sg10
F0.8632249528723038
ssI193
(dp203
g9
F0.4301212138314793
sg10
F0.8294382860255187
ssI194
(dp204
g9
F0.7069267203900482
sg10
F0.9904701866243254
ssI195
(dp205
g9
F0.4507716590957235
sg10
F0.740852116740769
ssI196
(dp206
g9
F0.5411302305838552
sg10
F0.18449008633850372
ssI197
(dp207
g9
F0.14803360252118813
sg10
F0.17514580697567095
ssI198
(dp208
g9
F0.8346798275113664
sg10
F0.6504578470120395
ssI199
(dp209
g9
F0.8822878527628509
sg10
F0.7356252627838568
ssI200
(dp210
g9
F0.019058971455882534
sg10
F0.6646566842557425
ssI201
(dp211
g9
F0.7047799432000099
sg10
F0.8870703513876153
ssI202
(dp212
g9
F0.5722197699104428
sg10
F0.023057527079073603
ssI203
(dp213
g9
F0.34213587134616463
sg10
F0.6923350904912158
ssI204
(dp214
g9
F0.02673540816802822
sg10
F0.11177672223690516
ssI205
(dp215
g9
F0.7207211534777678
sg10
F0.07135402250579503
ssI206
(dp216
g9
F0.15619419476841145
sg10
F0.18158417513794167
ssI207
(dp217
g9
F0.9317416215386005
sg10
F0.5766841058986697
ssI208
(dp218
g9
F0.34153963523380426
sg10
F0.7939133046592411
ssI209
(dp219
g9
F0.4528067182375567
sg10
F0.2941808649906834
ssI210
(dp220
g9
F0.17592314541627863
sg10
F0.556141421761254
ssI211
(dp221
g9
F0.6694386881714676
sg10
F0.3586031709281947
ssI212
(dp222
g9
F0.4122992705663959
sg10
F0.9689169749245778
ssI213
(dp223
g9
F0.7011688002346848
sg10
F0.06451625983618647
ssI214
(dp224
g9
F0.22516637960624086
sg10
F0.8945659717481107
ssI215
(dp225
g9
F0.6565477389379694
sg10
F0.42107804390609194
ssI216
(dp226
g9
F0.17269106256965894
sg10
F0.2903789906942207
ssI217
(dp227
g9
F0.6646356144030197
sg10
F0.43618025237689806
ssI218
(dp228
g9
F0.056309877992654744
sg10
F0.09658434299359042
ssI219
(dp229
g9
F0.23979562732017046
sg10
F0.1535251600854226
ssI220
(dp230
g9
F0.3535038711071965
sg10
F0.7487942221031375
ssI221
(dp231
g9
F0.0168748472712561
sg10
F0.3418109726007025
ssI222
(dp232
g9
F0.3919251374941305
sg10
F0.7635288512044783
ssI223
(dp233
g9
F0.8726326094365398
sg10
F0.1658127664510588
ssI224
(dp234
g9
F0.7630497113990146
sg10
F0.0003226344929383451
ssI225
(dp235
g9
F0.8080988183760647
sg10
F0.8693925301980069
ssI226
(dp236
g9
F0.2555557979136408
sg10
F0.5679329211069493
ssI227
(dp237
g9
F0.3374121876416848
sg10
F0.1901184092360365
ssI228
(dp238
g9
F0.9031277565866426
sg10
F0.4184696847579231
ssI229
(dp239
g9
F0.5162092694398147
sg10
F0.33639267403521456
ssI230
(dp240
g9
F0.7205655750509414
sg10
F0.02974954578360478
ssI231
(dp241
g9
F0.3715726841847622
sg10
F0.19125965457834326
ssI232
(dp242
g9
F0.4915428276623346
sg10
F0.8452141984089843
ssI233
(dp243
g9
F0.1742514611485504
sg10
F0.6778924181544265
ssI234
(dp244
g9
F0.5667835282647388
sg10
F0.9473019357290243
ssI235
(dp245
g9
F0.9516587382085714
sg10
F0.04233956579299791
ssI236
(dp246
g9
F0.9491460660793656
sg10
F0.5645954594712698
ssI237
(dp247
g9
F0.8835063078163259
sg10
F0.9202958546807248
ssI238
(dp248
g9
F0.4587990155724395
sg10
F0.1769732680493562
ssI239
(dp249
g9
F0.81066078756207
sg10
F0.9188828115782052
ssI240
(dp250
g9
F0.8947018378622932
sg10
F0.4698002813599519
ssI241
(dp251
g9
F0.5945395864068045
sg10
F0.6836062804217952
ssI242
(dp252
g9
F0.1616555775862064
sg10
F0.8930842135176149
ssI243
(dp253
g9
F0.1625962204573841
sg10
F0.5067837313302735
ssI244
(dp254
g9
F0.8042390752626569
sg10
F0.8062617012712784
ssI245
(dp255
g9
F0.5389558397628759
sg10
F0.3840861329248715
ssI246
(dp256
g9
F0.12794651235589583
sg10
F0.9904318676770816
ssI247
(dp257
g9
F0.682989544064166
sg10
F0.3847388313974164
ssI248
(dp258
g9
F0.09951731415736742
sg10
F0.5471204278885841
ssI249
(dp259
g9
F0.4997208048315439
sg10
F0.8844950765333218
ssI250
(dp260
g9
F0.24213712904153906
sg10
F0.1683912234186462
ssI251
(dp261
g9
F0.26747581902870254
sg10
F0.3305228611025791
ssI252
(dp262
g9
F0.9404542192889789
sg10
F0.15372623769264315
ssI253
(dp263
g9
F0.1644966231381233
sg10
F0.8336182615582276
ssI254
(dp264
g9
F0.33369261667305894
sg10
F0.2313568145849214
ssI255
(dp265
g9
F0.21419881883640934
sg10
F0.7001268454876113
ssI256
(dp266
g9
F0.7961619901946818
sg10
F0.28574299901724864
ssI257
(dp267
g9
F0.5530659851368124
sg10
F0.16433503728810228
ssI258
(dp268
g9
F0.4743006314369338
sg10
F0.229727243048089
ssI259
(dp269
g9
F0.34388777254097624
sg10
F0.3463330365345395
ssI260
(dp270
g9
F0.291431244685571
sg10
F0.03399532056311916
ssI261
(dp271
g9
F0.7581306997403446
sg10
F0.8945008778836573
ssI262
(dp272
g9
F0.13320613528315473
sg10
F0.4944566882168857
ssI263
(dp273
g9
F0.6386270354006716
sg10
F0.48256948147171186
ssI264
(dp274
g9
F0.39041906253856107
sg10
F0.16254770508569316
ssI265
(dp275
g9
F0.6979754166546711
sg10
F0.6636710004258879
ssI266
(dp276
g9
F0.1848753092616343
sg10
F0.10610505656065194
ssI267
(dp277
g9
F0.7179514289410044
sg10
F0.8527330792134554
ssI268
(dp278
g9
F0.39946122165464815
sg10
F0.8406788669057604
ssI269
(dp279
g9
F0.023502590498529763
sg10
F0.16336592362378832
ssI270
(dp280
g9
F0.928998540531661
sg10
F0.9496122818932181
ssI271
(dp281
g9
F0.044813519745759534
sg10
F0.22831046719555004
ssI272
(dp282
g9
F0.20120489310057965
sg10
F0.8914789556853444
ssI273
(dp283
g9
F0.5591442407602415
sg10
F0.281182048720922
ssI274
(dp284
g9
F0.13673688291757635
sg10
F0.341933886220923
ssI275
(dp285
g9
F0.043780037149685924
sg10
F0.0966262154387123
ssI276
(dp286
g9
F0.41250254617172033
sg10
F0.5404724381379118
ssI277
(dp287
g9
F0.41472001224238997
sg10
F0.5587338450617909
ssI278
(dp288
g9
F0.13748708402635246
sg10
F0.9969530455972174
ssI279
(dp289
g9
F0.2139051638137831
sg10
F0.2640386997509664
ssI280
(dp290
g9
F0.0868680082924359
sg10
F0.2818592176089907
ssI281
(dp291
g9
F0.758398250090161
sg10
F0.7367394694476258
ssI282
(dp292
g9
F0.8310198613736243
sg10
F0.9911731967049664
ssI283
(dp293
g9
F0.6812898135155289
sg10
F0.32167677152255336
ssI284
(dp294
g9
F0.33913726009291334
sg10
F0.522607728844947
ssI285
(dp295
g9
F0.2713220174785307
sg10
F0.16540120213580833
ssI286
(dp296
g9
F0.5430687189091914
sg10
F0.10401779011237677
ssI287
(dp297
g9
F0.6276405903193799
sg10
F0.6282855488552388
ssI288
(dp298
g9
F0.08369235036597944
sg10
F0.6572403347435477
ssI289
(dp299
g9
F0.359115172157388
sg10
F0.39089468427282814
ssI290
(dp300
g9
F0.03816198931836601
sg10
F0.9083301827529701
ssI291
(dp301
g9
F0.44288173515465157
sg10
F0.2545828421720935
ssI292
(dp302
g9
F0.8826291961622076
sg10
F0.422471784269962
ssI293
(dp303
g9
F0.4329701778290387
sg10
F0.5138165327198199
ssI294
(dp304
g9
F0.9868326261738889
sg10
F0.9161419452899325
ssI295
(dp305
g9
F0.8347104883320341
sg10
F0.6627775078910579
ssI296
(dp306
g9
F0.793664333889336
sg10
F0.05988208189822952
ssI297
(dp307
g9
F0.4823561875259258
sg10
F0.7062572470342423
ssI298
(dp308
g9
F0.9454570207887788
sg10
F0.5906838818195926
ssI299
(dp309
g9
F0.861325857728671
sg10
F0.5540541032313181
ssI300
(dp310
g9
F0.9462419573006572
sg10
F0.32512486672474816
ssI301
(dp311
g9
F0.2644814407131374
sg10
F0.9761192102085414
ssI302
(dp312
g9
F0.9347670470690916
sg10
F0.22888122322529592
ssI303
(dp313
g9
F0.2200164348427972
sg10
F0.022237888032466402
ssI304
(dp314
g9
F0.8156777194216708
sg10
F0.5149768706493181
ssI305
(dp315
g9
F0.738275777011065
sg10
F0.4271329069497025
ssI306
(dp316
g9
F0.20362575961445584
sg10
F0.3153822539343014
ssI307
(dp317
g9
F0.686045710955925
sg10
F0.747508687201773
ssI308
(dp318
g9
F0.48505674908483853
sg10
F0.8967101090579007
ssI309
(dp319
g9
F0.7994033869971902
sg10
F0.19342526206595356
ssI310
(dp320
g9
F0.6460783537809957
sg10
F0.3130260530654967
ssI311
(dp321
g9
F0.5266741333728855
sg10
F0.32282846018237377
ssI312
(dp322
g9
F0.8230011671027244
sg10
F0.25364073752378447
ssI313
(dp323
g9
F0.06391127498990401
sg10
F0.6121870447768497
ssI314
(dp324
g9
F0.07227050923961165
sg10
F0.2834981971006131
ssI315
(dp325
g9
F0.5522779244299024
sg10
F0.24799015781695222
ssI316
(dp326
g9
F0.9307280694132416
sg10
F0.7348676456489797
ssI317
(dp327
g9
F0.5725988694783464
sg10
F0.14094727117029893
ssI318
(dp328
g9
F0.5327252023975511
sg10
F0.3244010276066359
ssI319
(dp329
g9
F0.9764262048592167
sg10
F0.3978294734345096
ssI320
(dp330
g9
F0.1647537767029742
sg10
F0.07795624585714556
ssI321
(dp331
g9
F0.8816831191358379
sg10
F0.8375359942573488
ssI322
(dp332
g9
F0.07333103263169283
sg10
F0.07864628658406558
ssI323
(dp333
g9
F0.6286866470227093
sg10
F0.2630194751096585
ssI324
(dp334
g9
F0.2686328911870839
sg10
F0.7829004998496825
ssI325
(dp335
g9
F0.21080082208020612
sg10
F0.22105515598505343
ssI326
(dp336
g9
F0.6086578324822495
sg10
F0.9217552412658504
ssI327
(dp337
g9
F0.2539880075916898
sg10
F0.19569392521669138
ssI328
(dp338
g9
F0.9860399557796267
sg10
F0.7323672886047092
ssI329
(dp339
g9
F0.23845796087422844
sg10
F0.8456131626471632
ssI330
(dp340
g9
F0.09616460902105961
sg10
F0.011871900849064976
ssI331
(dp341
g9
F0.8307409263547721
sg10
F0.16864013088918361
ssI332
(dp342
g9
F0.4755997817011187
sg10
F0.6478229715553495
ssI333
(dp343
g9
F0.04070312129471054
sg10
F0.562654551336514
ssI334
(dp344
g9
F0.10809927398882135
sg10
F0.6982456375293646
ssI335
(dp345
g9
F0.5993914713698435
sg10
F0.5447280831010712
ssI336
(dp346
g9
F0.7476434577321809
sg10
F0.20728402718885208
ssI337
(dp347
g9
F0.2955670157290188
sg10
F0.8519288085950425
ssI338
(dp348
g9
F0.5546187781219946
sg10
F0.047013834636924545
ssI339
(dp349
g9
F0.5907833359720678
sg10
F0.3637525859321157
ssI340
(dp350
g9
F0.09433695142714638
sg10
F0.5260898109048717
ssI341
(dp351
g9
F0.014891519889264848
sg10
F0.5398266936841892
ssI342
(dp352
g9
F0.09329287926299479
sg10
F0.21757122437907617
ssI343
(dp353
g9
F0.5221511255947953
sg10
F0.9498557977431942
ssI344
(dp354
g9
F0.8317012140512845
sg10
F0.3601209238630264
ssI345
(dp355
g9
F0.2276377348713614
sg10
F0.8297977477579884
ssI346
(dp356
g9
F0.17074582450240217
sg10
F0.04128740064189995
ssI347
(dp357
g9
F0.8709611463170421
sg10
F0.2401782561931497
ssI348
(dp358
g9
F0.1267135278485132
sg10
F0.17732786514315002
ssI349
(dp359
g9
F0.8805567831906362
sg10
F0.3848702251606382
ssI350
(dp360
g9
F0.7635615545669415
sg10
F0.8236163626425779
ssI351
(dp361
g9
F0.021358346316616927
sg10
F0.1461614234075983
ssI352
(dp362
g9
F0.5761727556082482
sg10
F0.9759746757586449
ssI353
(dp363
g9
F0.5000945881311628
sg10
F0.5315717753309994
ssI354
(dp364
g9
F0.8008544798949178
sg10
F0.7116558091711587
ssI355
(dp365
g9
F0.7091339039566374
sg10
F0.8462812501834452
ssI356
(dp366
g9
F0.35561406258592976
sg10
F0.9767810336947056
ssI357
(dp367
g9
F0.5393738797713243
sg10
F0.1390914846479604
ssI358
(dp368
g9
F0.24076085438998884
sg10
F0.7110463593676268
ssI359
(dp369
g9
F0.7250281468278554
sg10
F0.7891914092227793
ssI360
(dp370
g9
F0.0002399927813540037
sg10
F0.04773945161539883
ssI361
(dp371
g9
F0.6149046861027957
sg10
F0.05764550451835937
ssI362
(dp372
g9
F0.4960048819028492
sg10
F0.5832481797602936
ssI363
(dp373
g9
F0.5119893814125693
sg10
F0.1085681460575959
ssI364
(dp374
g9
F0.21563106065143978
sg10
F0.7085292228278025
ssI365
(dp375
g9
F0.046660683408644044
sg10
F0.9852952494873879
ssI366
(dp376
g9
F0.8604820365065333
sg10
F0.5737675313181213
ssI367
(dp377
g9
F0.8440618958447773
sg10
F0.5802924716100999
ssI368
(dp378
g9
F0.4009383967946004
sg10
F0.25832583256155695
ssI369
(dp379
g9
F0.5799418680158952
sg10
F0.2963385331416658
ssI370
(dp380
g9
F0.03207119783726342
sg10
F0.931861688709407
ssI371
(dp381
g9
F0.07157092014380606
sg10
F0.4112048332357794
ssI372
(dp382
g9
F0.6393073392461985
sg10
F0.07169366287765411
ssI373
(dp383
g9
F0.30648665505999295
sg10
F0.03725532825529243
ssI374
(dp384
g9
F0.7243716265795507
sg10
F0.17862089149455906
ssI375
(dp385
g9
F0.1995495421184892
sg10
F0.309520875963864
ssI376
(dp386
g9
F0.12293430118929782
sg10
F0.2630580316858837
ssI377
(dp387
g9
F0.19311432936488282
sg10
F0.7303170133518481
ssI378
(dp388
g9
F0.07808641933767535
sg10
F0.3764392216043372
ssI379
(dp389
g9
F0.9273725420049819
sg10
F0.6383125778479907
ssI380
(dp390
g9
F0.5308446190239784
sg10
F0.922314369991049
ssI381
(dp391
g9
F0.776774017762383
sg10
F0.8099273082887052
ssI382
(dp392
g9
F0.4882434424474049
sg10
F0.79614148673721
ssI383
(dp393
g9
F0.18056764654972512
sg10
F0.6431306325526036
ssI384
(dp394
g9
F0.4600556828235731
sg10
F0.258791319712104
ssI385
(dp395
g9
F0.39721830486211973
sg10
F0.8823743673949627
ssI386
(dp396
g9
F0.863517392435066
sg10
F0.7522033524475833
ssI387
(dp397
g9
F0.7485479657045905
sg10
F0.3511058537692614
ssI388
(dp398
g9
F0.985562945575976
sg10
F0.2583320378584535
ssI389
(dp399
g9
F0.7636350371371476
sg10
F0.059075573465442566
ssI390
(dp400
g9
F0.20652427682713514
sg10
F0.3882879919097385
ssI391
(dp401
g9
F0.23260606341883905
sg10
F0.9564538694498671
ssI392
(dp402
g9
F0.8494551563648586
sg10
F0.18563097112359372
ssI393
(dp403
g9
F0.2711307994332107
sg10
F0.9942960523976356
ssI394
(dp404
g9
F0.905571422438871
sg10
F0.45599013850880343
ssI395
(dp405
g9
F0.8431613753147508
sg10
F0.6218571777525181
ssI396
(dp406
g9
F0.8077544940296938
sg10
F0.7208487842001625
ssI397
(dp407
g9
F0.14081852659488392
sg10
F0.9527591649110966
ssI398
(dp408
g9
F0.2679321115215272
sg10
F0.8170194638555119
ssI399
(dp409
g9
F0.6008886207421115
sg10
F0.3187954611589109
ssI400
(dp410
g9
F0.7679078702226906
sg10
F0.45247907995323877
ssI401
(dp411
g9
F0.3128079248113369
sg10
F0.2694843053244259
ssI402
(dp412
g9
F0.5498707128292688
sg10
F0.9846810535928077
ssI403
(dp413
g9
F0.19784758965702864
sg10
F0.38065754455387557
ssI404
(dp414
g9
F0.035270563197913885
sg10
F0.08155707836359105
ssI405
(dp415
g9
F0.6861365149097246
sg10
F0.11426978128552978
ssI406
(dp416
g9
F0.6557917211870781
sg10
F0.6424665725851871
ssI407
(dp417
g9
F0.9172241838348086
sg10
F0.9319167801738563
ssI408
(dp418
g9
F0.017460546888770412
sg10
F0.8114925166050481
ssI409
(dp419
g9
F0.6218912948559981
sg10
F0.3417030130611529
ssI410
(dp420
g9
F0.7900170000127154
sg10
F0.9373590090060855
ssI411
(dp421
g9
F0.26075704454439663
sg10
F0.8652597644073708
ssI412
(dp422
g9
F0.7032398083662288
sg10
F0.840306748671382
ssI413
(dp423
g9
F0.6751544021061194
sg10
F0.1314101127095998
ssI414
(dp424
g9
F0.2783059620611825
sg10
F0.2448735033732109
ssI415
(dp425
g9
F0.870782183776279
sg10
F0.33758449105540467
ssI416
(dp426
g9
F0.26225926311796854
sg10
F0.27600693353192896
ssI417
(dp427
g9
F0.34059922353607475
sg10
F0.8552688103284849
ssI418
(dp428
g9
F0.12975399100081086
sg10
F0.08933815243948595
ssI419
(dp429
g9
F0.7643355687267953
sg10
F0.13000286295652197
ssI420
(dp430
g9
F0.31341846808984153
sg10
F0.2722727077192473
ssI421
(dp431
g9
F0.877409582335724
sg10
F0.1090577340650638
ssI422
(dp432
g9
F0.7658150925104596
sg10
F0.523195764689126
ssI423
(dp433
g9
F0.9724544052398132
sg10
F0.4333891836308922
ssI424
(dp434
g9
F0.946296221420449
sg10
F0.9894926546869924
ssI425
(dp435
g9
F0.8839963679137152
sg10
F0.5502261192229564
ssI426
(dp436
g9
F0.043062841440255184
sg10
F0.5301089442961682
ssI427
(dp437
g9
F0.24734766194685198
sg10
F0.8832403392477762
ssI428
(dp438
g9
F0.9919155578926321
sg10
F0.19565959539584532
ssI429
(dp439
g9
F0.27561534655326414
sg10
F0.42726522901083364
ssI430
(dp440
g9
F0.7354091808862788
sg10
F0.03086116128126737
ssI431
(dp441
g9
F0.13579282429429718
sg10
F0.34712028383266225
ssI432
(dp442
g9
F0.9827753379819385
sg10
F0.6477769678057547
ssI433
(dp443
g9
F0.9597274869209951
sg10
F0.8126887941877023
ssI434
(dp444
g9
F0.8451794111073833
sg10
F0.04357377200218793
ssI435
(dp445
g9
F0.8599778401226524
sg10
F0.9963654642841648
ssI436
(dp446
g9
F0.019157178532091312
sg10
F0.9389046837688815
ssI437
(dp447
g9
F0.40797464067069944
sg10
F0.26674820662462073
ssI438
(dp448
g9
F0.7771675600693136
sg10
F0.43238685879389627
ssI439
(dp449
g9
F0.7685496385227609
sg10
F0.6938876513237744
ssI440
(dp450
g9
F0.203056234620406
sg10
F0.7643367909745459
ssI441
(dp451
g9
F0.33672499896344776
sg10
F0.9081474535760071
ssI442
(dp452
g9
F0.11932220503136082
sg10
F0.6436656059651727
ssI443
(dp453
g9
F0.44247075679392966
sg10
F0.17128192854691604
ssI444
(dp454
g9
F0.1932036322599474
sg10
F0.10630247656164815
ssI445
(dp455
g9
F0.9913376379096731
sg10
F0.8542709426563321
ssI446
(dp456
g9
F0.20416763002767402
sg10
F0.9621348805056088
ssI447
(dp457
g9
F0.6739409431726978
sg10
F0.8211857569896136
ssI448
(dp458
g9
F0.8569999753898535
sg10
F0.5870981773828017
ssI449
(dp459
g9
F0.45120606215798675
sg10
F0.7420967866688577
ssI450
(dp460
g9
F0.47821364791567655
sg10
F0.7528057383938173
ssI451
(dp461
g9
F0.5711481078212162
sg10
F0.11089661791388106
ssI452
(dp462
g9
F0.40207328095285366
sg10
F0.06759860770653603
ssI453
(dp463
g9
F0.3766377474302798
sg10
F0.2108022883356805
ssI454
(dp464
g9
F0.792446120985645
sg10
F0.3718564734067765
ssI455
(dp465
g9
F0.2525391647823112
sg10
F0.16699387073448335
ssI456
(dp466
g9
F0.34658737663859585
sg10
F0.14816970903361304
ssI457
(dp467
g9
F0.5355918138293655
sg10
F0.38846507338316405
ssI458
(dp468
g9
F0.9689048723847362
sg10
F0.9275768842790345
ssI459
(dp469
g9
F0.6497448294028678
sg10
F0.6184761097330849
ssI460
(dp470
g9
F0.12332001623964906
sg10
F0.42248715731160613
ssI461
(dp471
g9
F0.5621236636982897
sg10
F0.836327587504683
ssI462
(dp472
g9
F0.7741817726616077
sg10
F0.45559193256956054
ssI463
(dp473
g9
F0.8269853702333024
sg10
F0.590150227853593
ssI464
(dp474
g9
F0.8416070067225249
sg10
F0.41149147361463034
ssI465
(dp475
g9
F0.09433356955442063
sg10
F0.9425110530228945
ssI466
(dp476
g9
F0.5265390153379612
sg10
F0.08942089107842766
ssI467
(dp477
g9
F0.20226525829951403
sg10
F0.14644841246467732
ssI468
(dp478
g9
F0.41478204146761066
sg10
F0.39788747692321436
ssI469
(dp479
g9
F0.13718975389370625
sg10
F0.1890339769684547
ssI470
(dp480
g9
F0.5677142263298884
sg10
F0.884841171707576
ssI471
(dp481
g9
F0.8200991400633871
sg10
F0.3318765334926561
ssI472
(dp482
g9
F0.4936282796516285
sg10
F0.01918823937232439
ssI473
(dp483
g9
F0.6393246805907151
sg10
F0.7273757590084252
ssI474
(dp484
g9
F0.6174941290061908
sg10
F0.9028439271582395
ssI475
(dp485
g9
F0.9437397155122397
sg10
F0.741836263628032
ssI476
(dp486
g9
F0.3131999233477777
sg10
F0.05388360452603935
ssI477
(dp487
g9
F0.22344295788949486
sg10
F0.9552267765574504
ssI478
(dp488
g9
F0.0232631622654057
sg10
F0.9933153631911825
ssI479
(dp489
g9
F0.8100711607058472
sg10
F0.10122639570349612
ssI480
(dp490
g9
F0.16302465288523604
sg10
F0.9488347857696171
ssI481
(dp491
g9
F0.7801400616395054
sg10
F0.11382121365936171
ssI482
(dp492
g9
F0.8599064654165766
sg10
F0.8555807061984332
ssI483
(dp493
g9
F0.7996803300388542
sg10
F0.4737612928207213
ssI484
(dp494
g9
F0.3415567065387821
sg10
F0.6023914769311081
ssI485
(dp495
g9
F0.14093617959640725
sg10
F0.5985017844824772
ssI486
(dp496
g9
F0.6414942246431271
sg10
F0.885764137666281
ssI487
(dp497
g9
F0.18699178341339995
sg10
F0.3503996482120141
ssI488
(dp498
g9
F0.7448258955670101
sg10
F0.18589782049078962
ssI489
(dp499
g9
F0.5703751336826982
sg10
F0.07095553816000888
ssI490
(dp500
g9
F0.3764684631886239
sg10
F0.5769055557612454
ssI491
(dp501
g9
F0.252224601363057
sg10
F0.6428007698603505
ssI492
(dp502
g9
F0.35782875730488806
sg10
F0.9017564013890843
ssI493
(dp503
g9
F0.5143833975630913
sg10
F0.8875676792468179
ssI494
(dp504
g9
F0.8163229522061751
sg10
F0.6820132263965613
ssI495
(dp505
g9
F0.7629405240045636
sg10
F0.7093016579585483
ssI496
(dp506
g9
F0.5473195692147901
sg10
F0.11144736888840434
ssI497
(dp507
g9
F0.057570623179225455
sg10
F0.9647070312727206
ssI498
(dp508
g9
F0.19566655101937214
sg10
F0.6660569892102044
ssI499
(dp509
g9
F0.9428810476159531
sg10
F0.8084659944223088
sssS'node_dict_factory'
p510
c__builtin__
dict
p511
sS'edge_attr_dict_factory'
p512
g511
sS'edge'
p513
(dp514
I0
(dp515
sI1
(dp516
sI2
(dp517
sI3
(dp518
sI4
(dp519
sI5
(dp520
sI6
(dp521
sI7
(dp522
sI8
(dp523
sI9
(dp524
sI10
(dp525
sI11
(dp526
sI12
(dp527
sI13
(dp528
sI14
(dp529
sI15
(dp530
sI16
(dp531
sI17
(dp532
sI18
(dp533
sI19
(dp534
sI20
(dp535
sI21
(dp536
sI22
(dp537
sI23
(dp538
sI24
(dp539
sI25
(dp540
sI26
(dp541
sI27
(dp542
sI28
(dp543
sI29
(dp544
sI30
(dp545
sI31
(dp546
sI32
(dp547
sI33
(dp548
sI34
(dp549
sI35
(dp550
sI36
(dp551
sI37
(dp552
sI38
(dp553
sI39
(dp554
sI40
(dp555
sI41
(dp556
sI42
(dp557
sI43
(dp558
sI44
(dp559
sI45
(dp560
sI46
(dp561
sI47
(dp562
sI48
(dp563
sI49
(dp564
sI50
(dp565
sI51
(dp566
sI52
(dp567
sI53
(dp568
sI54
(dp569
sI55
(dp570
sI56
(dp571
sI57
(dp572
sI58
(dp573
sI59
(dp574
sI60
(dp575
sI61
(dp576
sI62
(dp577
sI63
(dp578
sI64
(dp579
sI65
(dp580
sI66
(dp581
sI67
(dp582
sI68
(dp583
sI69
(dp584
sI70
(dp585
sI71
(dp586
sI72
(dp587
sI73
(dp588
sI74
(dp589
sI75
(dp590
sI76
(dp591
sI77
(dp592
sI78
(dp593
sI79
(dp594
sI80
(dp595
sI81
(dp596
sI82
(dp597
sI83
(dp598
sI84
(dp599
sI85
(dp600
sI86
(dp601
sI87
(dp602
sI88
(dp603
sI89
(dp604
sI90
(dp605
sI91
(dp606
sI92
(dp607
sI93
(dp608
sI94
(dp609
sI95
(dp610
sI96
(dp611
sI97
(dp612
sI98
(dp613
sI99
(dp614
sI100
(dp615
sI101
(dp616
sI102
(dp617
sI103
(dp618
sI104
(dp619
sI105
(dp620
sI106
(dp621
sI107
(dp622
sI108
(dp623
sI109
(dp624
sI110
(dp625
sI111
(dp626
sI112
(dp627
sI113
(dp628
sI114
(dp629
sI115
(dp630
sI116
(dp631
sI117
(dp632
sI118
(dp633
sI119
(dp634
sI120
(dp635
sI121
(dp636
sI122
(dp637
sI123
(dp638
sI124
(dp639
sI125
(dp640
sI126
(dp641
sI127
(dp642
sI128
(dp643
sI129
(dp644
sI130
(dp645
sI131
(dp646
sI132
(dp647
sI133
(dp648
sI134
(dp649
sI135
(dp650
sI136
(dp651
sI137
(dp652
sI138
(dp653
sI139
(dp654
sI140
(dp655
sI141
(dp656
sI142
(dp657
sI143
(dp658
sI144
(dp659
sI145
(dp660
sI146
(dp661
sI147
(dp662
sI148
(dp663
sI149
(dp664
sI150
(dp665
sI151
(dp666
sI152
(dp667
sI153
(dp668
sI154
(dp669
sI155
(dp670
sI156
(dp671
sI157
(dp672
sI158
(dp673
sI159
(dp674
sI160
(dp675
sI161
(dp676
sI162
(dp677
sI163
(dp678
sI164
(dp679
sI165
(dp680
sI166
(dp681
sI167
(dp682
sI168
(dp683
sI169
(dp684
sI170
(dp685
sI171
(dp686
sI172
(dp687
sI173
(dp688
sI174
(dp689
sI175
(dp690
sI176
(dp691
sI177
(dp692
sI178
(dp693
sI179
(dp694
sI180
(dp695
sI181
(dp696
sI182
(dp697
sI183
(dp698
sI184
(dp699
sI185
(dp700
sI186
(dp701
sI187
(dp702
sI188
(dp703
sI189
(dp704
sI190
(dp705
sI191
(dp706
sI192
(dp707
sI193
(dp708
sI194
(dp709
sI195
(dp710
sI196
(dp711
sI197
(dp712
sI198
(dp713
sI199
(dp714
sI200
(dp715
sI201
(dp716
sI202
(dp717
sI203
(dp718
sI204
(dp719
sI205
(dp720
sI206
(dp721
sI207
(dp722
sI208
(dp723
sI209
(dp724
sI210
(dp725
sI211
(dp726
sI212
(dp727
sI213
(dp728
sI214
(dp729
sI215
(dp730
sI216
(dp731
sI217
(dp732
sI218
(dp733
sI219
(dp734
sI220
(dp735
sI221
(dp736
sI222
(dp737
sI223
(dp738
sI224
(dp739
sI225
(dp740
sI226
(dp741
sI227
(dp742
sI228
(dp743
sI229
(dp744
sI230
(dp745
sI231
(dp746
sI232
(dp747
sI233
(dp748
sI234
(dp749
sI235
(dp750
sI236
(dp751
sI237
(dp752
sI238
(dp753
sI239
(dp754
sI240
(dp755
sI241
(dp756
sI242
(dp757
sI243
(dp758
sI244
(dp759
sI245
(dp760
sI246
(dp761
sI247
(dp762
sI248
(dp763
sI249
(dp764
sI250
(dp765
sI251
(dp766
sI252
(dp767
sI253
(dp768
sI254
(dp769
sI255
(dp770
sI256
(dp771
sI257
(dp772
sI258
(dp773
sI259
(dp774
sI260
(dp775
sI261
(dp776
sI262
(dp777
sI263
(dp778
sI264
(dp779
sI265
(dp780
sI266
(dp781
sI267
(dp782
sI268
(dp783
sI269
(dp784
sI270
(dp785
sI271
(dp786
sI272
(dp787
sI273
(dp788
sI274
(dp789
sI275
(dp790
sI276
(dp791
sI277
(dp792
sI278
(dp793
sI279
(dp794
sI280
(dp795
sI281
(dp796
sI282
(dp797
sI283
(dp798
sI284
(dp799
sI285
(dp800
sI286
(dp801
sI287
(dp802
sI288
(dp803
sI289
(dp804
sI290
(dp805
sI291
(dp806
sI292
(dp807
sI293
(dp808
sI294
(dp809
sI295
(dp810
sI296
(dp811
sI297
(dp812
sI298
(dp813
sI299
(dp814
sI300
(dp815
sI301
(dp816
sI302
(dp817
sI303
(dp818
sI304
(dp819
sI305
(dp820
sI306
(dp821
sI307
(dp822
sI308
(dp823
sI309
(dp824
sI310
(dp825
sI311
(dp826
sI312
(dp827
sI313
(dp828
sI314
(dp829
sI315
(dp830
sI316
(dp831
sI317
(dp832
sI318
(dp833
sI319
(dp834
sI320
(dp835
sI321
(dp836
sI322
(dp837
sI323
(dp838
sI324
(dp839
sI325
(dp840
sI326
(dp841
sI327
(dp842
sI328
(dp843
sI329
(dp844
sI330
(dp845
sI331
(dp846
sI332
(dp847
sI333
(dp848
sI334
(dp849
sI335
(dp850
sI336
(dp851
sI337
(dp852
sI338
(dp853
sI339
(dp854
sI340
(dp855
sI341
(dp856
sI342
(dp857
sI343
(dp858
sI344
(dp859
sI345
(dp860
sI346
(dp861
sI347
(dp862
sI348
(dp863
sI349
(dp864
sI350
(dp865
sI351
(dp866
sI352
(dp867
sI353
(dp868
sI354
(dp869
sI355
(dp870
sI356
(dp871
sI357
(dp872
sI358
(dp873
sI359
(dp874
sI360
(dp875
sI361
(dp876
sI362
(dp877
sI363
(dp878
sI364
(dp879
sI365
(dp880
sI366
(dp881
sI367
(dp882
sI368
(dp883
sI369
(dp884
sI370
(dp885
sI371
(dp886
sI372
(dp887
sI373
(dp888
sI374
(dp889
sI375
(dp890
sI376
(dp891
sI377
(dp892
sI378
(dp893
sI379
(dp894
sI380
(dp895
sI381
(dp896
sI382
(dp897
sI383
(dp898
sI384
(dp899
sI385
(dp900
sI386
(dp901
sI387
(dp902
sI388
(dp903
sI389
(dp904
sI390
(dp905
sI391
(dp906
sI392
(dp907
sI393
(dp908
sI394
(dp909
sI395
(dp910
sI396
(dp911
sI397
(dp912
sI398
(dp913
sI399
(dp914
sI400
(dp915
sI401
(dp916
sI402
(dp917
sI403
(dp918
sI404
(dp919
sI405
(dp920
sI406
(dp921
sI407
(dp922
sI408
(dp923
sI409
(dp924
sI410
(dp925
sI411
(dp926
sI412
(dp927
sI413
(dp928
sI414
(dp929
sI415
(dp930
sI416
(dp931
sI417
(dp932
sI418
(dp933
sI419
(dp934
sI420
(dp935
sI421
(dp936
sI422
(dp937
sI423
(dp938
sI424
(dp939
sI425
(dp940
sI426
(dp941
sI427
(dp942
sI428
(dp943
sI429
(dp944
sI430
(dp945
sI431
(dp946
sI432
(dp947
sI433
(dp948
sI434
(dp949
sI435
(dp950
sI436
(dp951
sI437
(dp952
sI438
(dp953
sI439
(dp954
sI440
(dp955
sI441
(dp956
sI442
(dp957
sI443
(dp958
sI444
(dp959
sI445
(dp960
sI446
(dp961
sI447
(dp962
sI448
(dp963
sI449
(dp964
sI450
(dp965
sI451
(dp966
sI452
(dp967
sI453
(dp968
sI454
(dp969
sI455
(dp970
sI456
(dp971
sI457
(dp972
sI458
(dp973
sI459
(dp974
sI460
(dp975
sI461
(dp976
sI462
(dp977
sI463
(dp978
sI464
(dp979
sI465
(dp980
sI466
(dp981
sI467
(dp982
sI468
(dp983
sI469
(dp984
sI470
(dp985
sI471
(dp986
sI472
(dp987
sI473
(dp988
sI474
(dp989
sI475
(dp990
sI476
(dp991
sI477
(dp992
sI478
(dp993
sI479
(dp994
sI480
(dp995
sI481
(dp996
sI482
(dp997
sI483
(dp998
sI484
(dp999
sI485
(dp1000
sI486
(dp1001
sI487
(dp1002
sI488
(dp1003
sI489
(dp1004
sI490
(dp1005
sI491
(dp1006
sI492
(dp1007
sI493
(dp1008
sI494
(dp1009
sI495
(dp1010
sI496
(dp1011
sI497
(dp1012
sI498
(dp1013
sI499
(dp1014
ssS'graph'
p1015
(dp1016
sS'adjlist_dict_factory'
p1017
g511
sS'adj'
p1018
g514
sb.