ccopy_reg
_reconstructor
p0
(cnetworkx.classes.graph
Graph
p1
c__builtin__
object
p2
Ntp3
Rp4
(dp5
S'node'
p6
(dp7
I0
(dp8
S'pos_x'
p9
F0.15722855635212496
sS'pos_y'
p10
F0.01863293598493765
ssI1
(dp11
g9
F0.5437756981322418
sg10
F0.7368195416932183
ssI2
(dp12
g9
F0.9037623591691268
sg10
F0.8212270529575264
ssI3
(dp13
g9
F0.5393511748269822
sg10
F0.17313179555871316
ssI4
(dp14
g9
F0.9847034070597572
sg10
F0.8305378904060315
ssI5
(dp15
g9
F0.14602921833132476
sg10
F0.9226556666346787
ssI6
(dp16
g9
F0.37293057247114314
sg10
F0.48299746455305737
ssI7
(dp17
g9
F0.06478522909664086
sg10
F0.9525628051119344
ssI8
(dp18
g9
F0.04610109685714148
sg10
F0.5531546595670056
ssI9
(dp19
g9
F0.7879124644939228
sg10
F0.7067158850820305
ssI10
(dp20
g9
F0.3148216532842507
sg10
F0.9417590654957306
ssI11
(dp21
g9
F0.3690262162538679
sg10
F0.2621970411895642
ssI12
(dp22
g9
F0.25654589349793855
sg10
F0.27478074888792603
ssI13
(dp23
g9
F0.28883781856314716
sg10
F0.5744849284778946
ssI14
(dp24
g9
F0.4791591412099593
sg10
F0.34132389858816437
ssI15
(dp25
g9
F0.9240213608292336
sg10
F0.47903440039675915
ssI16
(dp26
g9
F0.31879394163233454
sg10
F0.5040330329175777
ssI17
(dp27
g9
F0.37778881797321373
sg10
F0.09164627393976565
ssI18
(dp28
g9
F0.8720297993647077
sg10
F0.9175118717759992
ssI19
(dp29
g9
F0.49639649137451236
sg10
F0.6690340985630551
ssI20
(dp30
g9
F0.7693995848834967
sg10
F0.3237624357313651
ssI21
(dp31
g9
F0.01539409896733357
sg10
F0.3833220862668384
ssI22
(dp32
g9
F0.2175181835540657
sg10
F0.043469310134197636
ssI23
(dp33
g9
F0.9571088206345839
sg10
F0.23685995187446718
ssI24
(dp34
g9
F0.7162490375831029
sg10
F0.25150884897866865
ssI25
(dp35
g9
F0.2188557179694678
sg10
F0.7470554955829845
ssI26
(dp36
g9
F0.913644876058053
sg10
F0.19914561512731532
ssI27
(dp37
g9
F0.6865115178015805
sg10
F0.612982369517636
ssI28
(dp38
g9
F0.867291017296699
sg10
F0.2375820812761793
ssI29
(dp39
g9
F0.3526370624512164
sg10
F0.4999114616498882
ssI30
(dp40
g9
F0.17095808522778644
sg10
F0.15865636593108823
ssI31
(dp41
g9
F0.6085101372492997
sg10
F0.4440002213634493
ssI32
(dp42
g9
F0.4952447037190747
sg10
F0.8485940036039493
ssI33
(dp43
g9
F0.19903680665932177
sg10
F0.051314636140219694
ssI34
(dp44
g9
F0.561090281135295
sg10
F0.7003390062123418
ssI35
(dp45
g9
F0.7312922610281943
sg10
F0.12095104995676287
ssI36
(dp46
g9
F0.6424341593634812
sg10
F0.8192928136536934
ssI37
(dp47
g9
F0.5651369001858486
sg10
F0.4467106902975706
ssI38
(dp48
g9
F0.4604216540264703
sg10
F0.013838894786249223
ssI39
(dp49
g9
F0.528344288404184
sg10
F0.7428474374172603
ssI40
(dp50
g9
F0.6817412950049102
sg10
F0.44070236154821263
ssI41
(dp51
g9
F0.7754641320843947
sg10
F0.8889482582413031
ssI42
(dp52
g9
F0.6741749475056973
sg10
F0.15356230127922177
ssI43
(dp53
g9
F0.4976729736692235
sg10
F0.7797849480514367
ssI44
(dp54
g9
F0.48545733520417733
sg10
F0.3406168687375679
ssI45
(dp55
g9
F0.5809999750584972
sg10
F0.8485710572164186
ssI46
(dp56
g9
F0.139655045169773
sg10
F0.9247149302303597
ssI47
(dp57
g9
F0.577088702687346
sg10
F0.46574740932795566
ssI48
(dp58
g9
F0.5323972027413293
sg10
F0.6937983131453065
ssI49
(dp59
g9
F0.23763723323689823
sg10
F0.27914801022172875
ssI50
(dp60
g9
F0.40212909627206495
sg10
F0.4342482278321069
ssI51
(dp61
g9
F0.6366038070953562
sg10
F0.5582630340989055
ssI52
(dp62
g9
F0.9374614677637864
sg10
F0.959242709685088
ssI53
(dp63
g9
F0.8755663905104737
sg10
F0.3313392735138029
ssI54
(dp64
g9
F0.6306749291212327
sg10
F0.41191843439576614
ssI55
(dp65
g9
F0.6481061575245529
sg10
F0.6155237682251158
ssI56
(dp66
g9
F0.924448120777655
sg10
F0.9137138090612296
ssI57
(dp67
g9
F0.8909896502184648
sg10
F0.33816556918195706
ssI58
(dp68
g9
F0.4254786322769607
sg10
F0.7056347236373429
ssI59
(dp69
g9
F0.44896059233153385
sg10
F0.48690044593681625
ssI60
(dp70
g9
F0.1684130678245348
sg10
F0.5354604207668978
ssI61
(dp71
g9
F0.01675257344747494
sg10
F0.45899014052977316
ssI62
(dp72
g9
F0.8024644812057757
sg10
F0.9174755760232358
ssI63
(dp73
g9
F0.33185074530199066
sg10
F0.7533040045796512
ssI64
(dp74
g9
F0.8522550660380901
sg10
F0.3601639955253777
ssI65
(dp75
g9
F0.3604167127905551
sg10
F0.4378613087579748
ssI66
(dp76
g9
F0.7620014381984027
sg10
F0.7930117530063618
ssI67
(dp77
g9
F0.09655475486412146
sg10
F0.309881564732877
ssI68
(dp78
g9
F0.31684332014207395
sg10
F0.8380400996664062
ssI69
(dp79
g9
F0.9528288101812759
sg10
F0.08524225011529685
ssI70
(dp80
g9
F0.18748971666834324
sg10
F0.8963560838406448
ssI71
(dp81
g9
F0.9463955387863972
sg10
F0.45328157725560103
ssI72
(dp82
g9
F0.3970837785445531
sg10
F0.879428679067486
ssI73
(dp83
g9
F0.881619912605221
sg10
F0.5134909095319584
ssI74
(dp84
g9
F0.43813532609933636
sg10
F0.26343403663675247
ssI75
(dp85
g9
F0.23766374723312966
sg10
F0.08650210504747935
ssI76
(dp86
g9
F0.8490385430133843
sg10
F0.6176351453594724
ssI77
(dp87
g9
F0.3095968377161479
sg10
F0.8008982106642853
ssI78
(dp88
g9
F0.9425558056793881
sg10
F0.6457203720658723
ssI79
(dp89
g9
F0.6131186871313623
sg10
F0.6407358084421055
ssI80
(dp90
g9
F0.8199718391880496
sg10
F0.23269190012171603
ssI81
(dp91
g9
F0.3089021824865448
sg10
F0.013771099926001007
ssI82
(dp92
g9
F0.9929502267331076
sg10
F0.3129106330004009
ssI83
(dp93
g9
F0.5793323959846352
sg10
F0.8684450218901203
ssI84
(dp94
g9
F0.17045465262625736
sg10
F0.7804051288741629
ssI85
(dp95
g9
F0.7191655312483634
sg10
F0.013702502026469499
ssI86
(dp96
g9
F0.17194890103634664
sg10
F0.8065690416815001
ssI87
(dp97
g9
F0.6134908727845946
sg10
F0.15326157623832104
ssI88
(dp98
g9
F0.2764109804770277
sg10
F0.2873513066486767
ssI89
(dp99
g9
F0.65504185912142
sg10
F0.5470819353644272
ssI90
(dp100
g9
F0.8109179503283547
sg10
F0.7335015765610844
ssI91
(dp101
g9
F0.9362642266023279
sg10
F0.2349099954860896
ssI92
(dp102
g9
F0.6351984153822907
sg10
F0.8936681292928303
ssI93
(dp103
g9
F0.9885290287716404
sg10
F0.8554860184270422
ssI94
(dp104
g9
F0.7922127791512596
sg10
F0.4118230747062296
ssI95
(dp105
g9
F0.02471732214331035
sg10
F0.6115110460599616
ssI96
(dp106
g9
F0.32320702886567654
sg10
F0.5225786017991023
ssI97
(dp107
g9
F0.11611950204125487
sg10
F0.7015809091998697
ssI98
(dp108
g9
F0.009817294416130995
sg10
F0.022910784405397844
ssI99
(dp109
g9
F0.9937633384463151
sg10
F0.875790717465139
ssI100
(dp110
g9
F0.49073047229913946
sg10
F0.09392691782744478
ssI101
(dp111
g9
F0.8990874424752346
sg10
F0.5126542131679658
ssI102
(dp112
g9
F0.5334555660832223
sg10
F0.5527108357809004
ssI103
(dp113
g9
F0.49706662588298856
sg10
F0.06342009168291562
ssI104
(dp114
g9
F0.6355712013083101
sg10
F0.21899024391988242
ssI105
(dp115
g9
F0.7468158989663809
sg10
F0.37334061522142115
ssI106
(dp116
g9
F0.36692210733723074
sg10
F0.9960212768979609
ssI107
(dp117
g9
F0.794607497666852
sg10
F0.8492259407857933
ssI108
(dp118
g9
F0.8920334810608181
sg10
F0.4828990034475319
ssI109
(dp119
g9
F0.8463857190136984
sg10
F0.5224809383530797
ssI110
(dp120
g9
F0.8138961604831513
sg10
F0.935756282470272
ssI111
(dp121
g9
F0.825410843018656
sg10
F0.6180040291542422
ssI112
(dp122
g9
F0.9784158012337014
sg10
F0.9251639388550507
ssI113
(dp123
g9
F0.6150053094573993
sg10
F0.6677462457529162
ssI114
(dp124
g9
F0.16878931134874608
sg10
F0.9764305945077693
ssI115
(dp125
g9
F0.2645577656259348
sg10
F0.8405008166463741
ssI116
(dp126
g9
F0.7307080303832002
sg10
F0.9848507342979899
ssI117
(dp127
g9
F0.7659761345674497
sg10
F0.952953307047608
ssI118
(dp128
g9
F0.6386928567539292
sg10
F0.40803380455166216
ssI119
(dp129
g9
F0.5584453382512067
sg10
F0.5410579746995579
ssI120
(dp130
g9
F0.4218144702769654
sg10
F0.630190525461423
ssI121
(dp131
g9
F0.4920675913307804
sg10
F0.19188291761761211
ssI122
(dp132
g9
F0.3591097602388149
sg10
F0.3558075667293634
ssI123
(dp133
g9
F0.10778383246638745
sg10
F0.6339582756285792
ssI124
(dp134
g9
F0.5835928704808523
sg10
F0.37724839024816137
ssI125
(dp135
g9
F0.701370139452705
sg10
F0.2984392655679897
ssI126
(dp136
g9
F0.524739552618199
sg10
F0.9430387856848305
ssI127
(dp137
g9
F0.6256679032101687
sg10
F0.4794508744060343
ssI128
(dp138
g9
F0.6791257852463136
sg10
F0.5506726891045145
ssI129
(dp139
g9
F0.989462943737966
sg10
F0.6080473611353251
ssI130
(dp140
g9
F0.6505843367896872
sg10
F0.2755782956145383
ssI131
(dp141
g9
F0.09804721708423414
sg10
F0.8424675115093377
ssI132
(dp142
g9
F0.3873445282973922
sg10
F0.11887215870283963
ssI133
(dp143
g9
F0.9066496319230156
sg10
F0.5162373808424888
ssI134
(dp144
g9
F0.7387425003470374
sg10
F0.8245290165428875
ssI135
(dp145
g9
F0.25823980298993476
sg10
F0.971478869377136
ssI136
(dp146
g9
F0.25665904211457624
sg10
F0.057233435290362844
ssI137
(dp147
g9
F0.03329211993798842
sg10
F0.8377428866198839
ssI138
(dp148
g9
F0.27829029095448743
sg10
F0.38658399924882336
ssI139
(dp149
g9
F0.03219126987251397
sg10
F0.7699927365942522
ssI140
(dp150
g9
F0.9662756356964128
sg10
F0.9224248503658151
ssI141
(dp151
g9
F0.07543226053519048
sg10
F0.2640739200900859
ssI142
(dp152
g9
F0.18853315128767156
sg10
F0.6992894982507158
ssI143
(dp153
g9
F0.6906421116918408
sg10
F0.8259767702113611
ssI144
(dp154
g9
F0.5788641087395763
sg10
F0.028654646762747427
ssI145
(dp155
g9
F0.1820498395164306
sg10
F0.2836931546077017
ssI146
(dp156
g9
F0.8807471134113244
sg10
F0.4805225696334595
ssI147
(dp157
g9
F0.3247293765112731
sg10
F0.47724473298690406
ssI148
(dp158
g9
F0.5513796755949028
sg10
F0.30554300008143775
ssI149
(dp159
g9
F0.7765107290823797
sg10
F0.5967931154793095
ssI150
(dp160
g9
F0.11621086659389723
sg10
F0.971925545774229
ssI151
(dp161
g9
F0.02675823086243323
sg10
F0.3552312491293915
ssI152
(dp162
g9
F0.5774328462858884
sg10
F0.4035856093160183
ssI153
(dp163
g9
F0.7379412484889865
sg10
F0.7254264161544277
ssI154
(dp164
g9
F0.9098149925309836
sg10
F0.7190744857350742
ssI155
(dp165
g9
F0.24731859105384524
sg10
F0.1170637991097917
ssI156
(dp166
g9
F0.6981738339791091
sg10
F0.539997765812713
ssI157
(dp167
g9
F0.7202794536986222
sg10
F0.878507255658132
ssI158
(dp168
g9
F0.6916849866480593
sg10
F0.0931114156664471
ssI159
(dp169
g9
F0.3163826518995755
sg10
F0.9711056786002246
ssI160
(dp170
g9
F0.4449464617818275
sg10
F0.15935942569777117
ssI161
(dp171
g9
F0.7154270818311707
sg10
F0.011225202959640246
ssI162
(dp172
g9
F0.9801810148535763
sg10
F0.3527669796738906
ssI163
(dp173
g9
F0.8610478431748708
sg10
F0.027137039831683585
ssI164
(dp174
g9
F0.9295176446575937
sg10
F0.3122451530450219
ssI165
(dp175
g9
F0.1209728350717234
sg10
F0.3072064605009429
ssI166
(dp176
g9
F0.08088530921080694
sg10
F0.7587808329504416
ssI167
(dp177
g9
F0.833865490266382
sg10
F0.37010851602291783
ssI168
(dp178
g9
F0.8703903695583984
sg10
F0.8186346415034336
ssI169
(dp179
g9
F0.6359570520150557
sg10
F0.8927473831441616
ssI170
(dp180
g9
F0.44655717507984183
sg10
F0.2158199457101826
ssI171
(dp181
g9
F0.10019981115589005
sg10
F0.9512506826748783
ssI172
(dp182
g9
F0.5502445128931416
sg10
F0.5562411717141704
ssI173
(dp183
g9
F0.16083357860361025
sg10
F0.2944316157345106
ssI174
(dp184
g9
F0.2874716066747205
sg10
F0.08851676551483001
ssI175
(dp185
g9
F0.9043743284033176
sg10
F0.6823045675574917
ssI176
(dp186
g9
F0.5552757221337545
sg10
F0.8823849314166282
ssI177
(dp187
g9
F0.6261263623787305
sg10
F0.4441296755577029
ssI178
(dp188
g9
F0.43757219032766126
sg10
F0.7892159589240515
ssI179
(dp189
g9
F0.33711161763802866
sg10
F0.6482721604672954
ssI180
(dp190
g9
F0.43331900233417153
sg10
F0.9843382321487001
ssI181
(dp191
g9
F0.7670874456510934
sg10
F0.17349074262429431
ssI182
(dp192
g9
F0.9153741485999216
sg10
F0.6828344172287565
ssI183
(dp193
g9
F0.7504759399936624
sg10
F0.06141144812227506
ssI184
(dp194
g9
F0.010404161000985845
sg10
F0.9351834122587676
ssI185
(dp195
g9
F0.8137748427113112
sg10
F0.8553281159258361
ssI186
(dp196
g9
F0.22972119048338524
sg10
F0.25055295394248134
ssI187
(dp197
g9
F0.17931977356850437
sg10
F0.27209465567484525
ssI188
(dp198
g9
F0.2797164805747038
sg10
F0.2609501718461308
ssI189
(dp199
g9
F0.4438149424221709
sg10
F0.24219176152819977
ssI190
(dp200
g9
F0.2725573396612955
sg10
F0.3841599603787349
ssI191
(dp201
g9
F0.16099065587536932
sg10
F0.2804311196051892
ssI192
(dp202
g9
F0.2964104548844301
sg10
F0.23028574455843587
ssI193
(dp203
g9
F0.5873237106248206
sg10
F0.6162889193891555
ssI194
(dp204
g9
F0.9096024750087025
sg10
F0.6269643203705096
ssI195
(dp205
g9
F0.0879667683235984
sg10
F0.4811847844195476
ssI196
(dp206
g9
F0.5622457457557309
sg10
F0.490963700032756
ssI197
(dp207
g9
F0.26976415193121484
sg10
F0.09531100990142527
ssI198
(dp208
g9
F0.6729047360964542
sg10
F0.12528059923175405
ssI199
(dp209
g9
F0.6038814237517987
sg10
F0.7850804696845313
ssI200
(dp210
g9
F0.08698329276648475
sg10
F0.5954743580696255
ssI201
(dp211
g9
F0.35096049470516233
sg10
F0.9299106054968331
ssI202
(dp212
g9
F0.069376731762676
sg10
F0.7910783624220301
ssI203
(dp213
g9
F0.4910499708015965
sg10
F0.40052293321547994
ssI204
(dp214
g9
F0.15829486734002862
sg10
F0.4043070288149565
ssI205
(dp215
g9
F0.16568014197066983
sg10
F0.17538102250100884
ssI206
(dp216
g9
F0.4928090238787999
sg10
F0.47533441838057655
ssI207
(dp217
g9
F0.4658145585382395
sg10
F0.39006942899662933
ssI208
(dp218
g9
F0.4051083672024558
sg10
F0.7069494677497159
ssI209
(dp219
g9
F0.4286444028005636
sg10
F0.8269852170592183
ssI210
(dp220
g9
F0.42128587606943524
sg10
F0.5902934018070255
ssI211
(dp221
g9
F0.90133170104342
sg10
F0.016516997786988452
ssI212
(dp222
g9
F0.9160797648346435
sg10
F0.2942006609868475
ssI213
(dp223
g9
F0.354891248474956
sg10
F0.38531808976912063
ssI214
(dp224
g9
F0.7615772276814651
sg10
F0.3522498005587783
ssI215
(dp225
g9
F0.5846872513024852
sg10
F0.4577629013617478
ssI216
(dp226
g9
F0.43490314850921397
sg10
F0.9012353601226366
ssI217
(dp227
g9
F0.2573833003956738
sg10
F0.7161729247139954
ssI218
(dp228
g9
F0.34047173302860256
sg10
F0.7128063487310609
ssI219
(dp229
g9
F0.0257781696627436
sg10
F0.8804000328096397
ssI220
(dp230
g9
F0.8813020522441816
sg10
F0.24867389927008654
ssI221
(dp231
g9
F0.21476038337801096
sg10
F0.8051137942116342
ssI222
(dp232
g9
F0.5350018889567116
sg10
F0.4341641222102345
ssI223
(dp233
g9
F0.14061964370496882
sg10
F0.9520697585233384
ssI224
(dp234
g9
F0.3274888090919065
sg10
F0.06974178927366026
ssI225
(dp235
g9
F0.028897005658560126
sg10
F0.7778919329372599
ssI226
(dp236
g9
F0.6517772389480689
sg10
F0.028542652179580408
ssI227
(dp237
g9
F0.10652297090844842
sg10
F0.4103626918057086
ssI228
(dp238
g9
F0.10066112741289523
sg10
F0.3422668398506308
ssI229
(dp239
g9
F0.2613682821976706
sg10
F0.5364452191438442
ssI230
(dp240
g9
F0.6121274602618763
sg10
F0.7905163530312808
ssI231
(dp241
g9
F0.9835803324663297
sg10
F0.2595235575384909
ssI232
(dp242
g9
F0.40064812681126716
sg10
F0.19579920781037263
ssI233
(dp243
g9
F0.14389821810111003
sg10
F0.9028175870255797
ssI234
(dp244
g9
F0.908640506166868
sg10
F0.47780526258479916
ssI235
(dp245
g9
F0.7501736933568789
sg10
F0.12279753984216657
ssI236
(dp246
g9
F0.542679938398132
sg10
F0.616764944647059
ssI237
(dp247
g9
F0.12522706241273274
sg10
F0.8495881551894607
ssI238
(dp248
g9
F0.6600543200769301
sg10
F0.9121484421423272
ssI239
(dp249
g9
F0.4813939314476561
sg10
F0.023346450310134936
ssI240
(dp250
g9
F0.5390997597133931
sg10
F0.524799957410007
ssI241
(dp251
g9
F0.5058783613535861
sg10
F0.8829881477686147
ssI242
(dp252
g9
F0.4604341396474997
sg10
F0.7126527501623515
ssI243
(dp253
g9
F0.31931166688131296
sg10
F0.5411586475522394
ssI244
(dp254
g9
F0.09448990870133778
sg10
F0.8579044124024381
ssI245
(dp255
g9
F0.6870170409334013
sg10
F0.1759715901572384
ssI246
(dp256
g9
F0.5589658505400781
sg10
F0.7481340869753629
ssI247
(dp257
g9
F0.8231055245465491
sg10
F0.37477780572975816
ssI248
(dp258
g9
F0.7471030536223499
sg10
F0.5041975229224478
ssI249
(dp259
g9
F0.1151536220849092
sg10
F0.3925343191942777
ssI250
(dp260
g9
F0.9959024085401629
sg10
F0.2379744993815337
ssI251
(dp261
g9
F0.15811421929619474
sg10
F0.015264514071781976
ssI252
(dp262
g9
F0.04979979424294312
sg10
F0.38529294234097045
ssI253
(dp263
g9
F0.795954180378832
sg10
F0.24282813191803398
ssI254
(dp264
g9
F0.4373167391263574
sg10
F0.8095455956659463
ssI255
(dp265
g9
F0.4542376589576632
sg10
F0.11288002374831996
ssI256
(dp266
g9
F0.7285647559268857
sg10
F0.6528316112915363
ssI257
(dp267
g9
F0.493250851899505
sg10
F0.6076878216012568
ssI258
(dp268
g9
F0.1673424496903697
sg10
F0.6467506772711221
ssI259
(dp269
g9
F0.6279664228118305
sg10
F0.4759726751279091
ssI260
(dp270
g9
F0.451017222579972
sg10
F0.2209152310627579
ssI261
(dp271
g9
F0.9019379363598553
sg10
F0.03424873439364229
ssI262
(dp272
g9
F0.2671216564382317
sg10
F0.3967016875499718
ssI263
(dp273
g9
F0.2817197296587096
sg10
F0.34992736132890623
ssI264
(dp274
g9
F0.30325471004664206
sg10
F0.2692242894285882
ssI265
(dp275
g9
F0.7753384791920808
sg10
F0.7733919903087753
ssI266
(dp276
g9
F0.2726137932175491
sg10
F0.2854952453710371
ssI267
(dp277
g9
F0.06304305401186372
sg10
F0.9920005253500589
ssI268
(dp278
g9
F0.779273941578335
sg10
F0.6658406952168692
ssI269
(dp279
g9
F0.4403698041396761
sg10
F0.18961669555243588
ssI270
(dp280
g9
F0.6977453174246477
sg10
F0.4224947456748882
ssI271
(dp281
g9
F0.9833127356724115
sg10
F0.7581206307120139
ssI272
(dp282
g9
F0.24406896540102452
sg10
F0.7355810722464479
ssI273
(dp283
g9
F0.7047301923398241
sg10
F0.46641398483282814
ssI274
(dp284
g9
F0.7450359937458845
sg10
F0.5513355867365881
ssI275
(dp285
g9
F0.6966669459591257
sg10
F0.8517286586959846
ssI276
(dp286
g9
F0.7372973391606774
sg10
F0.9478436585232581
ssI277
(dp287
g9
F0.9468876646974266
sg10
F0.2503041394893546
ssI278
(dp288
g9
F0.4021105153940566
sg10
F0.4464062863409075
ssI279
(dp289
g9
F0.45372498346294887
sg10
F0.8544570970090765
ssI280
(dp290
g9
F0.41520165909763707
sg10
F0.8235910146040666
ssI281
(dp291
g9
F0.6119325552519571
sg10
F0.6172374571341416
ssI282
(dp292
g9
F0.5344574384642814
sg10
F0.9450505571223018
ssI283
(dp293
g9
F0.5738023882372473
sg10
F0.3135645497416556
ssI284
(dp294
g9
F0.09299316553318204
sg10
F0.6105883475632492
ssI285
(dp295
g9
F0.7864215387132677
sg10
F0.1109317698451816
ssI286
(dp296
g9
F0.8804473664381358
sg10
F0.5865336261925639
ssI287
(dp297
g9
F0.1329125287047339
sg10
F0.6161822158903191
ssI288
(dp298
g9
F0.09310509031694258
sg10
F0.7231895157866638
ssI289
(dp299
g9
F0.27922663583063545
sg10
F0.03642627883154337
ssI290
(dp300
g9
F0.7776533112754126
sg10
F0.8550931400187017
ssI291
(dp301
g9
F0.9206105917406737
sg10
F0.6497699317646254
ssI292
(dp302
g9
F0.2647757067129345
sg10
F0.5379259491340601
ssI293
(dp303
g9
F0.09562848623220177
sg10
F0.9429405253434563
ssI294
(dp304
g9
F0.8465367122697324
sg10
F0.7207473619263557
ssI295
(dp305
g9
F0.5474835796515924
sg10
F0.9759695150431273
ssI296
(dp306
g9
F0.0917365457079965
sg10
F0.8636750214780043
ssI297
(dp307
g9
F0.8702067567935561
sg10
F0.5113181166893391
ssI298
(dp308
g9
F0.6038269437775411
sg10
F0.5672753943346905
ssI299
(dp309
g9
F0.5029059870747934
sg10
F0.07261565008829951
ssI300
(dp310
g9
F0.1280187842923537
sg10
F0.04661314567624841
ssI301
(dp311
g9
F0.7549652749764971
sg10
F0.5256866472064715
ssI302
(dp312
g9
F0.8156117560937028
sg10
F0.652322821532613
ssI303
(dp313
g9
F0.3380145702081563
sg10
F0.41758625191988186
ssI304
(dp314
g9
F0.35721201578130246
sg10
F0.9118916062456284
ssI305
(dp315
g9
F0.8825476399256524
sg10
F0.45767981726091433
ssI306
(dp316
g9
F0.8428310837962167
sg10
F0.5581292676043896
ssI307
(dp317
g9
F0.46305280065726795
sg10
F0.23223761014753064
ssI308
(dp318
g9
F0.12435214490273128
sg10
F0.7295187679642667
ssI309
(dp319
g9
F0.028078974747578256
sg10
F0.18471416459073609
ssI310
(dp320
g9
F0.40659392438191144
sg10
F0.5119595425610334
ssI311
(dp321
g9
F0.6407522786411307
sg10
F0.37515689928256957
ssI312
(dp322
g9
F0.5159812585866808
sg10
F0.8464596881548925
ssI313
(dp323
g9
F0.5785384096204106
sg10
F0.6638082861116514
ssI314
(dp324
g9
F0.5830685367993536
sg10
F0.9306605909770148
ssI315
(dp325
g9
F0.027025839261369033
sg10
F0.3172503682685114
ssI316
(dp326
g9
F0.7519011639425505
sg10
F0.6680603603795479
ssI317
(dp327
g9
F0.12526609764147123
sg10
F0.1237377093456341
ssI318
(dp328
g9
F0.971256185107822
sg10
F0.056270051115685615
ssI319
(dp329
g9
F0.8734700838530383
sg10
F0.6783809090418151
ssI320
(dp330
g9
F0.029617193623241223
sg10
F0.12309987989701743
ssI321
(dp331
g9
F0.05063052622716513
sg10
F0.7823874334024639
ssI322
(dp332
g9
F0.7317572861702671
sg10
F0.30835736147516346
ssI323
(dp333
g9
F0.07469915483702316
sg10
F0.4892400770483556
ssI324
(dp334
g9
F0.050965777332817375
sg10
F0.8127551524481207
ssI325
(dp335
g9
F0.7979983668937084
sg10
F0.28407389329730537
ssI326
(dp336
g9
F0.23756318208866267
sg10
F0.3427327125467181
ssI327
(dp337
g9
F0.2998584561289328
sg10
F0.6966845638885291
ssI328
(dp338
g9
F0.33181561202642973
sg10
F0.2601366457463624
ssI329
(dp339
g9
F0.5364234251640972
sg10
F0.904509296293393
ssI330
(dp340
g9
F0.5200396974296222
sg10
F0.6079304845703576
ssI331
(dp341
g9
F0.5454100594982424
sg10
F0.6378640413298879
ssI332
(dp342
g9
F0.700964128263209
sg10
F0.12586759386373836
ssI333
(dp343
g9
F0.4971171615084786
sg10
F0.3665502564912013
ssI334
(dp344
g9
F0.3569780544714688
sg10
F0.9560683780384173
ssI335
(dp345
g9
F0.596684689849057
sg10
F0.9819399134237036
ssI336
(dp346
g9
F0.7346176316727832
sg10
F0.7545966236838907
ssI337
(dp347
g9
F0.8400282236237671
sg10
F0.6930165755094285
ssI338
(dp348
g9
F0.8562225046257534
sg10
F0.9753150767706577
ssI339
(dp349
g9
F0.5447370996737059
sg10
F0.17006776699762594
ssI340
(dp350
g9
F0.9924047612223289
sg10
F0.04703990490141263
ssI341
(dp351
g9
F0.3603111096318803
sg10
F0.877036857152604
ssI342
(dp352
g9
F0.617489960661069
sg10
F0.17164754876380628
ssI343
(dp353
g9
F0.673439671371449
sg10
F0.19565356262498523
ssI344
(dp354
g9
F0.9281587889712847
sg10
F0.30847261710405793
ssI345
(dp355
g9
F0.5910986668243604
sg10
F0.7900569076329542
ssI346
(dp356
g9
F0.7884715386604646
sg10
F0.2961866692537254
ssI347
(dp357
g9
F0.5455968523728424
sg10
F0.0252569297619073
ssI348
(dp358
g9
F0.03952004919628427
sg10
F0.2580249408147818
ssI349
(dp359
g9
F0.9099536185338576
sg10
F0.10230941794580728
ssI350
(dp360
g9
F0.31572738030564373
sg10
F0.14229716988346797
ssI351
(dp361
g9
F0.968609781223782
sg10
F0.4465952121092014
ssI352
(dp362
g9
F0.03202874794003596
sg10
F0.40059844145838774
ssI353
(dp363
g9
F0.6933856718891698
sg10
F0.7326674561163343
ssI354
(dp364
g9
F0.17847825386114746
sg10
F0.8457206428376832
ssI355
(dp365
g9
F0.7499610596906409
sg10
F0.5660792830483325
ssI356
(dp366
g9
F0.6197473611788238
sg10
F0.34253267630341144
ssI357
(dp367
g9
F0.07124043556184667
sg10
F0.03536817371807499
ssI358
(dp368
g9
F0.26503294277181144
sg10
F0.40826786085590117
ssI359
(dp369
g9
F0.23964902331001126
sg10
F0.9257313153963567
ssI360
(dp370
g9
F0.056556115862802736
sg10
F0.1776934097224825
ssI361
(dp371
g9
F0.9696509703705336
sg10
F0.9715696141708102
ssI362
(dp372
g9
F0.5915098078413102
sg10
F0.10226632468663654
ssI363
(dp373
g9
F0.36928853458155275
sg10
F0.39675612082903045
ssI364
(dp374
g9
F0.6772304611303568
sg10
F0.4433503430364715
ssI365
(dp375
g9
F0.6195396322462534
sg10
F0.5247635796748223
ssI366
(dp376
g9
F0.5053592270806038
sg10
F0.3882798941390391
ssI367
(dp377
g9
F0.9791281193832844
sg10
F0.6100654545507121
ssI368
(dp378
g9
F0.3083310368864346
sg10
F0.5367464701208577
ssI369
(dp379
g9
F0.564346650112444
sg10
F0.3524705487154486
ssI370
(dp380
g9
F0.168744440835343
sg10
F0.12946959051890095
ssI371
(dp381
g9
F0.8410996216350399
sg10
F0.9214211829695687
ssI372
(dp382
g9
F0.9820229745345448
sg10
F0.8344848265033948
ssI373
(dp383
g9
F0.21375807136754854
sg10
F0.48011144611633016
ssI374
(dp384
g9
F0.10009491418034044
sg10
F0.018212042165556497
ssI375
(dp385
g9
F0.4594251271570594
sg10
F0.043408032795227536
ssI376
(dp386
g9
F0.6023521313303616
sg10
F0.5356364499153395
ssI377
(dp387
g9
F0.6695308006188825
sg10
F0.7069071158520094
ssI378
(dp388
g9
F0.8956587889027828
sg10
F0.7577691183875594
ssI379
(dp389
g9
F0.2807192694893542
sg10
F0.45317001771927046
ssI380
(dp390
g9
F0.8995088558579107
sg10
F0.8817956325849411
ssI381
(dp391
g9
F0.4409300888924935
sg10
F0.9838408113867062
ssI382
(dp392
g9
F0.48114558785199746
sg10
F0.8858687274157981
ssI383
(dp393
g9
F0.6695954808784536
sg10
F0.6944727240797516
ssI384
(dp394
g9
F0.026089870559399042
sg10
F0.2620298076338221
ssI385
(dp395
g9
F0.23925903166457374
sg10
F0.47373940876328713
ssI386
(dp396
g9
F0.6976060073039808
sg10
F0.3963355315538347
ssI387
(dp397
g9
F0.9887507795225853
sg10
F0.0965977727265539
ssI388
(dp398
g9
F0.2058585902531871
sg10
F0.558691717531261
ssI389
(dp399
g9
F0.8275005197417091
sg10
F0.07655165870966951
ssI390
(dp400
g9
F0.035888407161623004
sg10
F0.41143558615175546
ssI391
(dp401
g9
F0.6585820203499261
sg10
F0.16310957991347907
ssI392
(dp402
g9
F0.5328628735200948
sg10
F0.1881075248793307
ssI393
(dp403
g9
F0.6083885318835192
sg10
F0.5202007531570166
ssI394
(dp404
g9
F0.7331494825123716
sg10
F0.41173372826930066
ssI395
(dp405
g9
F0.13901512665548332
sg10
F0.9062435119348776
ssI396
(dp406
g9
F0.7485230980927741
sg10
F0.7049779379229063
ssI397
(dp407
g9
F0.2933706044855272
sg10
F0.8585922736849881
ssI398
(dp408
g9
F0.41214366210141307
sg10
F0.6518751308079626
ssI399
(dp409
g9
F0.6349849751704939
sg10
F0.5913700309340822
ssI400
(dp410
g9
F0.3030786105268991
sg10
F0.13370885026290968
ssI401
(dp411
g9
F0.15531310443227098
sg10
F0.050338216970946315
ssI402
(dp412
g9
F0.1982522808050614
sg10
F0.0073504495580114515
ssI403
(dp413
g9
F0.4195423747667223
sg10
F0.3723816598915216
ssI404
(dp414
g9
F0.5006898646923593
sg10
F0.2135251412789284
ssI405
(dp415
g9
F0.6444672806889497
sg10
F0.5340685406504506
ssI406
(dp416
g9
F0.6608857429257304
sg10
F0.6378977024636101
ssI407
(dp417
g9
F0.8144974182561859
sg10
F0.9695332452968218
ssI408
(dp418
g9
F0.6231350633441625
sg10
F0.9544677622481428
ssI409
(dp419
g9
F0.3561279443239418
sg10
F0.5256488891301817
ssI410
(dp420
g9
F0.15580299602753522
sg10
F0.4168798612946254
ssI411
(dp421
g9
F0.16020471963324112
sg10
F0.3565824534195915
ssI412
(dp422
g9
F0.10991279553459532
sg10
F0.5576109323374797
ssI413
(dp423
g9
F0.5246622257821917
sg10
F0.5412713537676478
ssI414
(dp424
g9
F0.9848658935482346
sg10
F0.829071852522682
ssI415
(dp425
g9
F0.42581640065061155
sg10
F0.8832451685268474
ssI416
(dp426
g9
F0.18956622273895507
sg10
F0.9041896147492788
ssI417
(dp427
g9
F0.4471763722661998
sg10
F0.622321807996501
ssI418
(dp428
g9
F0.043511607242962325
sg10
F0.9420186223760935
ssI419
(dp429
g9
F0.9353411306788479
sg10
F0.16672812911322443
ssI420
(dp430
g9
F0.23952833497020165
sg10
F0.250115817200645
ssI421
(dp431
g9
F0.4414125743527726
sg10
F0.7352815963366167
ssI422
(dp432
g9
F0.4095370150993479
sg10
F0.8393405428292996
ssI423
(dp433
g9
F0.9612681214178712
sg10
F0.2451415752481353
ssI424
(dp434
g9
F0.5344236091624395
sg10
F0.6432324972092508
ssI425
(dp435
g9
F0.8128541358901513
sg10
F0.024946212321413697
ssI426
(dp436
g9
F0.5391819549372403
sg10
F0.09305449086250783
ssI427
(dp437
g9
F0.3866485405058644
sg10
F0.4723963680562593
ssI428
(dp438
g9
F0.6740307033016572
sg10
F0.16930728793409155
ssI429
(dp439
g9
F0.5030905539266572
sg10
F0.9546817551028547
ssI430
(dp440
g9
F0.8751928206084065
sg10
F0.8706413012190621
ssI431
(dp441
g9
F0.7777994396704404
sg10
F0.5685216909805129
ssI432
(dp442
g9
F0.7506526675767302
sg10
F0.055196653987905075
ssI433
(dp443
g9
F0.5895290104919692
sg10
F0.33135712207780754
ssI434
(dp444
g9
F0.5962695249080292
sg10
F0.7880746559852546
ssI435
(dp445
g9
F0.20283781668436884
sg10
F0.4983270484624258
ssI436
(dp446
g9
F0.1157549225377299
sg10
F0.28898320475960904
ssI437
(dp447
g9
F0.1513693591277221
sg10
F0.6582903590588923
ssI438
(dp448
g9
F0.8524607463439434
sg10
F0.9668538652087865
ssI439
(dp449
g9
F0.7514190613307272
sg10
F0.007788145184135953
ssI440
(dp450
g9
F0.5082708238543976
sg10
F0.17611702594016876
ssI441
(dp451
g9
F0.5072986728106208
sg10
F0.6155402266588427
ssI442
(dp452
g9
F0.30439809417154373
sg10
F0.28752689963825373
ssI443
(dp453
g9
F0.6455591150358453
sg10
F0.8467751466949249
ssI444
(dp454
g9
F0.9298494945956961
sg10
F0.142510989158536
ssI445
(dp455
g9
F0.21702491807236834
sg10
F0.3103563196739111
ssI446
(dp456
g9
F0.18224107938404288
sg10
F0.4292035440786993
ssI447
(dp457
g9
F0.7132141401026243
sg10
F0.3634790402521252
ssI448
(dp458
g9
F0.6601421417392377
sg10
F0.2955256090850237
ssI449
(dp459
g9
F0.9243463725594713
sg10
F0.2866864697439604
ssI450
(dp460
g9
F0.4985353979648619
sg10
F0.24701108764747826
ssI451
(dp461
g9
F0.8398981531008184
sg10
F0.29656916098375696
ssI452
(dp462
g9
F0.7497859694652631
sg10
F0.7091980704797728
ssI453
(dp463
g9
F0.683790722885359
sg10
F0.9926006358342806
ssI454
(dp464
g9
F0.6839839570544101
sg10
F0.24238040437923203
ssI455
(dp465
g9
F0.25414059070898554
sg10
F0.5762372487652526
ssI456
(dp466
g9
F0.3461685063882165
sg10
F0.9076642091675439
ssI457
(dp467
g9
F0.3550767454587752
sg10
F0.486074299411537
ssI458
(dp468
g9
F0.25044501852073775
sg10
F0.843959558892801
ssI459
(dp469
g9
F0.9345149734858998
sg10
F0.2240783544968229
ssI460
(dp470
g9
F0.1664907915714321
sg10
F0.48217472531465744
ssI461
(dp471
g9
F0.4501569494835751
sg10
F0.038941842513049885
ssI462
(dp472
g9
F0.20544753810127214
sg10
F0.6600236058619676
ssI463
(dp473
g9
F0.6703736091463403
sg10
F0.5633410320455453
ssI464
(dp474
g9
F0.7419239718345667
sg10
F0.3660469723009847
ssI465
(dp475
g9
F0.8646410292369948
sg10
F0.03526121255875658
ssI466
(dp476
g9
F0.4677368680679972
sg10
F0.030686467118417826
ssI467
(dp477
g9
F0.8145632482094721
sg10
F0.24869859930305704
ssI468
(dp478
g9
F0.14598864054956595
sg10
F0.12875436443023658
ssI469
(dp479
g9
F0.23742300833580932
sg10
F0.9305963518536646
ssI470
(dp480
g9
F0.5401236203662312
sg10
F0.010228716891122924
ssI471
(dp481
g9
F0.48581193861526106
sg10
F0.2924640769944933
ssI472
(dp482
g9
F0.32622291876048104
sg10
F0.8527805771825799
ssI473
(dp483
g9
F0.217787148745884
sg10
F0.2025900060835074
ssI474
(dp484
g9
F0.5766845072317994
sg10
F0.9799183488565673
ssI475
(dp485
g9
F0.38988031288863445
sg10
F0.9490937464870149
ssI476
(dp486
g9
F0.46464367526780426
sg10
F0.5823829035399135
ssI477
(dp487
g9
F0.5649284523136819
sg10
F0.016838043515854606
ssI478
(dp488
g9
F0.46533015358981766
sg10
F0.500993891520306
ssI479
(dp489
g9
F0.5523556478413216
sg10
F0.5859233281797316
ssI480
(dp490
g9
F0.233799183634804
sg10
F0.45952998062177974
ssI481
(dp491
g9
F0.8843763835887157
sg10
F0.6251382978120802
ssI482
(dp492
g9
F0.9101466903065207
sg10
F0.4428157649909509
ssI483
(dp493
g9
F0.9805787544306839
sg10
F0.7243882896356979
ssI484
(dp494
g9
F0.09510552362188174
sg10
F0.6325002205139201
ssI485
(dp495
g9
F0.22581964387580455
sg10
F0.12208994839003295
ssI486
(dp496
g9
F0.17173756950844554
sg10
F0.9639850380786442
ssI487
(dp497
g9
F0.14017464653795464
sg10
F0.12797122318442344
ssI488
(dp498
g9
F0.7379125349842205
sg10
F0.6949951710933808
ssI489
(dp499
g9
F0.29319503308624795
sg10
F0.8492513497807964
ssI490
(dp500
g9
F0.9788232856784
sg10
F0.14535964762494236
ssI491
(dp501
g9
F0.178565410209929
sg10
F0.2963974564521906
ssI492
(dp502
g9
F0.45179572349875563
sg10
F0.12542434323855378
ssI493
(dp503
g9
F0.0606507893119006
sg10
F0.7156607509472498
ssI494
(dp504
g9
F0.4862125557980459
sg10
F0.05610406006991275
ssI495
(dp505
g9
F0.5487918129699668
sg10
F0.6198285924541356
ssI496
(dp506
g9
F0.678365544290912
sg10
F0.23149504295083567
ssI497
(dp507
g9
F0.4233192105578416
sg10
F0.15614029137348928
ssI498
(dp508
g9
F0.28017293673799626
sg10
F0.1004629899336883
ssI499
(dp509
g9
F0.31569034919579686
sg10
F0.8308805438472452
sssS'node_dict_factory'
p510
c__builtin__
dict
p511
sS'edge_attr_dict_factory'
p512
g511
sS'edge'
p513
(dp514
I0
(dp515
sI1
(dp516
sI2
(dp517
sI3
(dp518
sI4
(dp519
sI5
(dp520
sI6
(dp521
sI7
(dp522
sI8
(dp523
sI9
(dp524
sI10
(dp525
sI11
(dp526
sI12
(dp527
sI13
(dp528
sI14
(dp529
sI15
(dp530
sI16
(dp531
sI17
(dp532
sI18
(dp533
sI19
(dp534
sI20
(dp535
sI21
(dp536
sI22
(dp537
sI23
(dp538
sI24
(dp539
sI25
(dp540
sI26
(dp541
sI27
(dp542
sI28
(dp543
sI29
(dp544
sI30
(dp545
sI31
(dp546
sI32
(dp547
sI33
(dp548
sI34
(dp549
sI35
(dp550
sI36
(dp551
sI37
(dp552
sI38
(dp553
sI39
(dp554
sI40
(dp555
sI41
(dp556
sI42
(dp557
sI43
(dp558
sI44
(dp559
sI45
(dp560
sI46
(dp561
sI47
(dp562
sI48
(dp563
sI49
(dp564
sI50
(dp565
sI51
(dp566
sI52
(dp567
sI53
(dp568
sI54
(dp569
sI55
(dp570
sI56
(dp571
sI57
(dp572
sI58
(dp573
sI59
(dp574
sI60
(dp575
sI61
(dp576
sI62
(dp577
sI63
(dp578
sI64
(dp579
sI65
(dp580
sI66
(dp581
sI67
(dp582
sI68
(dp583
sI69
(dp584
sI70
(dp585
sI71
(dp586
sI72
(dp587
sI73
(dp588
sI74
(dp589
sI75
(dp590
sI76
(dp591
sI77
(dp592
sI78
(dp593
sI79
(dp594
sI80
(dp595
sI81
(dp596
sI82
(dp597
sI83
(dp598
sI84
(dp599
sI85
(dp600
sI86
(dp601
sI87
(dp602
sI88
(dp603
sI89
(dp604
sI90
(dp605
sI91
(dp606
sI92
(dp607
sI93
(dp608
sI94
(dp609
sI95
(dp610
sI96
(dp611
sI97
(dp612
sI98
(dp613
sI99
(dp614
sI100
(dp615
sI101
(dp616
sI102
(dp617
sI103
(dp618
sI104
(dp619
sI105
(dp620
sI106
(dp621
sI107
(dp622
sI108
(dp623
sI109
(dp624
sI110
(dp625
sI111
(dp626
sI112
(dp627
sI113
(dp628
sI114
(dp629
sI115
(dp630
sI116
(dp631
sI117
(dp632
sI118
(dp633
sI119
(dp634
sI120
(dp635
sI121
(dp636
sI122
(dp637
sI123
(dp638
sI124
(dp639
sI125
(dp640
sI126
(dp641
sI127
(dp642
sI128
(dp643
sI129
(dp644
sI130
(dp645
sI131
(dp646
sI132
(dp647
sI133
(dp648
sI134
(dp649
sI135
(dp650
sI136
(dp651
sI137
(dp652
sI138
(dp653
sI139
(dp654
sI140
(dp655
sI141
(dp656
sI142
(dp657
sI143
(dp658
sI144
(dp659
sI145
(dp660
sI146
(dp661
sI147
(dp662
sI148
(dp663
sI149
(dp664
sI150
(dp665
sI151
(dp666
sI152
(dp667
sI153
(dp668
sI154
(dp669
sI155
(dp670
sI156
(dp671
sI157
(dp672
sI158
(dp673
sI159
(dp674
sI160
(dp675
sI161
(dp676
sI162
(dp677
sI163
(dp678
sI164
(dp679
sI165
(dp680
sI166
(dp681
sI167
(dp682
sI168
(dp683
sI169
(dp684
sI170
(dp685
sI171
(dp686
sI172
(dp687
sI173
(dp688
sI174
(dp689
sI175
(dp690
sI176
(dp691
sI177
(dp692
sI178
(dp693
sI179
(dp694
sI180
(dp695
sI181
(dp696
sI182
(dp697
sI183
(dp698
sI184
(dp699
sI185
(dp700
sI186
(dp701
sI187
(dp702
sI188
(dp703
sI189
(dp704
sI190
(dp705
sI191
(dp706
sI192
(dp707
sI193
(dp708
sI194
(dp709
sI195
(dp710
sI196
(dp711
sI197
(dp712
sI198
(dp713
sI199
(dp714
sI200
(dp715
sI201
(dp716
sI202
(dp717
sI203
(dp718
sI204
(dp719
sI205
(dp720
sI206
(dp721
sI207
(dp722
sI208
(dp723
sI209
(dp724
sI210
(dp725
sI211
(dp726
sI212
(dp727
sI213
(dp728
sI214
(dp729
sI215
(dp730
sI216
(dp731
sI217
(dp732
sI218
(dp733
sI219
(dp734
sI220
(dp735
sI221
(dp736
sI222
(dp737
sI223
(dp738
sI224
(dp739
sI225
(dp740
sI226
(dp741
sI227
(dp742
sI228
(dp743
sI229
(dp744
sI230
(dp745
sI231
(dp746
sI232
(dp747
sI233
(dp748
sI234
(dp749
sI235
(dp750
sI236
(dp751
sI237
(dp752
sI238
(dp753
sI239
(dp754
sI240
(dp755
sI241
(dp756
sI242
(dp757
sI243
(dp758
sI244
(dp759
sI245
(dp760
sI246
(dp761
sI247
(dp762
sI248
(dp763
sI249
(dp764
sI250
(dp765
sI251
(dp766
sI252
(dp767
sI253
(dp768
sI254
(dp769
sI255
(dp770
sI256
(dp771
sI257
(dp772
sI258
(dp773
sI259
(dp774
sI260
(dp775
sI261
(dp776
sI262
(dp777
sI263
(dp778
sI264
(dp779
sI265
(dp780
sI266
(dp781
sI267
(dp782
sI268
(dp783
sI269
(dp784
sI270
(dp785
sI271
(dp786
sI272
(dp787
sI273
(dp788
sI274
(dp789
sI275
(dp790
sI276
(dp791
sI277
(dp792
sI278
(dp793
sI279
(dp794
sI280
(dp795
sI281
(dp796
sI282
(dp797
sI283
(dp798
sI284
(dp799
sI285
(dp800
sI286
(dp801
sI287
(dp802
sI288
(dp803
sI289
(dp804
sI290
(dp805
sI291
(dp806
sI292
(dp807
sI293
(dp808
sI294
(dp809
sI295
(dp810
sI296
(dp811
sI297
(dp812
sI298
(dp813
sI299
(dp814
sI300
(dp815
sI301
(dp816
sI302
(dp817
sI303
(dp818
sI304
(dp819
sI305
(dp820
sI306
(dp821
sI307
(dp822
sI308
(dp823
sI309
(dp824
sI310
(dp825
sI311
(dp826
sI312
(dp827
sI313
(dp828
sI314
(dp829
sI315
(dp830
sI316
(dp831
sI317
(dp832
sI318
(dp833
sI319
(dp834
sI320
(dp835
sI321
(dp836
sI322
(dp837
sI323
(dp838
sI324
(dp839
sI325
(dp840
sI326
(dp841
sI327
(dp842
sI328
(dp843
sI329
(dp844
sI330
(dp845
sI331
(dp846
sI332
(dp847
sI333
(dp848
sI334
(dp849
sI335
(dp850
sI336
(dp851
sI337
(dp852
sI338
(dp853
sI339
(dp854
sI340
(dp855
sI341
(dp856
sI342
(dp857
sI343
(dp858
sI344
(dp859
sI345
(dp860
sI346
(dp861
sI347
(dp862
sI348
(dp863
sI349
(dp864
sI350
(dp865
sI351
(dp866
sI352
(dp867
sI353
(dp868
sI354
(dp869
sI355
(dp870
sI356
(dp871
sI357
(dp872
sI358
(dp873
sI359
(dp874
sI360
(dp875
sI361
(dp876
sI362
(dp877
sI363
(dp878
sI364
(dp879
sI365
(dp880
sI366
(dp881
sI367
(dp882
sI368
(dp883
sI369
(dp884
sI370
(dp885
sI371
(dp886
sI372
(dp887
sI373
(dp888
sI374
(dp889
sI375
(dp890
sI376
(dp891
sI377
(dp892
sI378
(dp893
sI379
(dp894
sI380
(dp895
sI381
(dp896
sI382
(dp897
sI383
(dp898
sI384
(dp899
sI385
(dp900
sI386
(dp901
sI387
(dp902
sI388
(dp903
sI389
(dp904
sI390
(dp905
sI391
(dp906
sI392
(dp907
sI393
(dp908
sI394
(dp909
sI395
(dp910
sI396
(dp911
sI397
(dp912
sI398
(dp913
sI399
(dp914
sI400
(dp915
sI401
(dp916
sI402
(dp917
sI403
(dp918
sI404
(dp919
sI405
(dp920
sI406
(dp921
sI407
(dp922
sI408
(dp923
sI409
(dp924
sI410
(dp925
sI411
(dp926
sI412
(dp927
sI413
(dp928
sI414
(dp929
sI415
(dp930
sI416
(dp931
sI417
(dp932
sI418
(dp933
sI419
(dp934
sI420
(dp935
sI421
(dp936
sI422
(dp937
sI423
(dp938
sI424
(dp939
sI425
(dp940
sI426
(dp941
sI427
(dp942
sI428
(dp943
sI429
(dp944
sI430
(dp945
sI431
(dp946
sI432
(dp947
sI433
(dp948
sI434
(dp949
sI435
(dp950
sI436
(dp951
sI437
(dp952
sI438
(dp953
sI439
(dp954
sI440
(dp955
sI441
(dp956
sI442
(dp957
sI443
(dp958
sI444
(dp959
sI445
(dp960
sI446
(dp961
sI447
(dp962
sI448
(dp963
sI449
(dp964
sI450
(dp965
sI451
(dp966
sI452
(dp967
sI453
(dp968
sI454
(dp969
sI455
(dp970
sI456
(dp971
sI457
(dp972
sI458
(dp973
sI459
(dp974
sI460
(dp975
sI461
(dp976
sI462
(dp977
sI463
(dp978
sI464
(dp979
sI465
(dp980
sI466
(dp981
sI467
(dp982
sI468
(dp983
sI469
(dp984
sI470
(dp985
sI471
(dp986
sI472
(dp987
sI473
(dp988
sI474
(dp989
sI475
(dp990
sI476
(dp991
sI477
(dp992
sI478
(dp993
sI479
(dp994
sI480
(dp995
sI481
(dp996
sI482
(dp997
sI483
(dp998
sI484
(dp999
sI485
(dp1000
sI486
(dp1001
sI487
(dp1002
sI488
(dp1003
sI489
(dp1004
sI490
(dp1005
sI491
(dp1006
sI492
(dp1007
sI493
(dp1008
sI494
(dp1009
sI495
(dp1010
sI496
(dp1011
sI497
(dp1012
sI498
(dp1013
sI499
(dp1014
ssS'graph'
p1015
(dp1016
sS'adjlist_dict_factory'
p1017
g511
sS'adj'
p1018
g514
sb.