ccopy_reg
_reconstructor
p0
(cnetworkx.classes.graph
Graph
p1
c__builtin__
object
p2
Ntp3
Rp4
(dp5
S'node'
p6
(dp7
I0
(dp8
S'pos_x'
p9
F0.42061161629986354
sS'pos_y'
p10
F0.5804713783509703
ssI1
(dp11
g9
F0.036055682186224014
sg10
F0.5705921330654994
ssI2
(dp12
g9
F0.866093961548696
sg10
F0.9430126788711745
ssI3
(dp13
g9
F0.9348458364513326
sg10
F0.9159372636500742
ssI4
(dp14
g9
F0.799589940067865
sg10
F0.8404395210684406
ssI5
(dp15
g9
F0.4916416556669463
sg10
F0.9437216219478977
ssI6
(dp16
g9
F0.8405233394062497
sg10
F0.4350496976214432
ssI7
(dp17
g9
F0.4220447851791801
sg10
F0.11133493678521311
ssI8
(dp18
g9
F0.9134289669562714
sg10
F0.384493862936207
ssI9
(dp19
g9
F0.3036763833176298
sg10
F0.894984091834122
ssI10
(dp20
g9
F0.657834329132931
sg10
F0.6553235558372987
ssI11
(dp21
g9
F0.5134779749282622
sg10
F0.36667592704807717
ssI12
(dp22
g9
F0.44897920616061426
sg10
F0.3020343104921075
ssI13
(dp23
g9
F0.4303412511823099
sg10
F0.19134188653296647
ssI14
(dp24
g9
F0.5056767570851259
sg10
F0.5387308792671596
ssI15
(dp25
g9
F0.8198599501513082
sg10
F0.7614371451053092
ssI16
(dp26
g9
F0.7800557729380817
sg10
F0.3061667979929227
ssI17
(dp27
g9
F0.6170177641906082
sg10
F0.18627146350906088
ssI18
(dp28
g9
F0.8514480822092908
sg10
F0.7260728459780564
ssI19
(dp29
g9
F0.494969733064749
sg10
F0.512845345459439
ssI20
(dp30
g9
F0.7995160357625312
sg10
F0.3061728342580886
ssI21
(dp31
g9
F0.6784999592004213
sg10
F0.8374816556629748
ssI22
(dp32
g9
F0.5534917067499869
sg10
F0.9638516236502463
ssI23
(dp33
g9
F0.8444592589897179
sg10
F0.3461022928628533
ssI24
(dp34
g9
F0.559640627358582
sg10
F0.5397432472458643
ssI25
(dp35
g9
F0.05986126750534815
sg10
F0.6997609292866865
ssI26
(dp36
g9
F0.4622317311121893
sg10
F0.4913325870143054
ssI27
(dp37
g9
F0.3561400598112846
sg10
F0.27926143570058237
ssI28
(dp38
g9
F0.7767661059026816
sg10
F0.5604164181652239
ssI29
(dp39
g9
F0.8808338009648847
sg10
F0.3525409021609688
ssI30
(dp40
g9
F0.8358888773472007
sg10
F0.47674101394571744
ssI31
(dp41
g9
F0.5306411026198777
sg10
F0.5734018090151037
ssI32
(dp42
g9
F0.932570625093805
sg10
F0.2869416291194422
ssI33
(dp43
g9
F0.0004518356860857553
sg10
F0.24615222342818355
ssI34
(dp44
g9
F0.235773243892349
sg10
F0.6461880816135159
ssI35
(dp45
g9
F0.9327149247715489
sg10
F0.9654527292835334
ssI36
(dp46
g9
F0.9313733607114706
sg10
F0.3819188396394172
ssI37
(dp47
g9
F0.9858381413424159
sg10
F0.20465534225412485
ssI38
(dp48
g9
F0.04461042423345496
sg10
F0.40471958218471915
ssI39
(dp49
g9
F0.628917540511947
sg10
F0.36359701807584066
ssI40
(dp50
g9
F0.6980636390977487
sg10
F0.6971604428864372
ssI41
(dp51
g9
F0.9808687780017774
sg10
F0.43494019718092625
ssI42
(dp52
g9
F0.027178455136811497
sg10
F0.6295069064155308
ssI43
(dp53
g9
F0.3699370663344742
sg10
F0.9096759831984245
ssI44
(dp54
g9
F0.946928305761418
sg10
F0.7894315863090751
ssI45
(dp55
g9
F0.21418713527741717
sg10
F0.7268271839899177
ssI46
(dp56
g9
F0.5397839139056123
sg10
F0.6373561920903459
ssI47
(dp57
g9
F0.01838297731732863
sg10
F0.7655741810725396
ssI48
(dp58
g9
F0.9745896674168262
sg10
F0.14217747326824315
ssI49
(dp59
g9
F0.4740713843961408
sg10
F0.537661866696533
ssI50
(dp60
g9
F0.4252567869530176
sg10
F0.19983689239345603
ssI51
(dp61
g9
F0.842637084400828
sg10
F0.4259164102196007
ssI52
(dp62
g9
F0.48247150404665484
sg10
F0.5135815638392068
ssI53
(dp63
g9
F0.04773761972097357
sg10
F0.5875228238635966
ssI54
(dp64
g9
F0.1100820775053909
sg10
F0.006262535763694288
ssI55
(dp65
g9
F0.4655365708507988
sg10
F0.07706909874786483
ssI56
(dp66
g9
F0.6733476929988226
sg10
F0.7057811954278415
ssI57
(dp67
g9
F0.8341977267385295
sg10
F0.337935112001304
ssI58
(dp68
g9
F0.3788994460113956
sg10
F0.07922054117454636
ssI59
(dp69
g9
F0.24293257052839423
sg10
F0.1415152593591269
ssI60
(dp70
g9
F0.5373057557766463
sg10
F0.03186489974608775
ssI61
(dp71
g9
F0.9296012644560047
sg10
F0.6225204565732897
ssI62
(dp72
g9
F0.24223924073560588
sg10
F0.650734475341836
ssI63
(dp73
g9
F0.8712793954374922
sg10
F0.013042288635306098
ssI64
(dp74
g9
F0.8937011378234228
sg10
F0.12525502020778412
ssI65
(dp75
g9
F0.22907014407033122
sg10
F0.7095940854586584
ssI66
(dp76
g9
F0.9638743635775813
sg10
F0.5886479766397078
ssI67
(dp77
g9
F0.9301733524895469
sg10
F0.9727062625487665
ssI68
(dp78
g9
F0.8460274744187414
sg10
F0.48102536362488046
ssI69
(dp79
g9
F0.5098277822075977
sg10
F0.2591149144729865
ssI70
(dp80
g9
F0.5622808376348427
sg10
F0.026184180370073085
ssI71
(dp81
g9
F0.8068426495652211
sg10
F0.8877134015270032
ssI72
(dp82
g9
F0.21695608463872085
sg10
F0.9536839236672494
ssI73
(dp83
g9
F0.004255991043554563
sg10
F0.020277514851444134
ssI74
(dp84
g9
F0.5544506347010391
sg10
F0.8558222519971318
ssI75
(dp85
g9
F0.06511957694147241
sg10
F0.7220260213228628
ssI76
(dp86
g9
F0.7368959710009925
sg10
F0.7054723070575236
ssI77
(dp87
g9
F0.6878374426080243
sg10
F0.9515320245735494
ssI78
(dp88
g9
F0.005004887100742539
sg10
F0.36261723209595487
ssI79
(dp89
g9
F0.36832144553934987
sg10
F0.24082486442429285
ssI80
(dp90
g9
F0.258264213989139
sg10
F0.6529876483283669
ssI81
(dp91
g9
F0.2865663001207517
sg10
F0.6151431766274419
ssI82
(dp92
g9
F0.46246569119432424
sg10
F0.8772662759678338
ssI83
(dp93
g9
F0.49788780901032714
sg10
F0.09834622520795222
ssI84
(dp94
g9
F0.4993124498808923
sg10
F0.24230393378785475
ssI85
(dp95
g9
F0.5311127279629725
sg10
F0.625411954928822
ssI86
(dp96
g9
F0.04249975369924652
sg10
F0.8083183012558428
ssI87
(dp97
g9
F0.5817541096711971
sg10
F0.9243932777706169
ssI88
(dp98
g9
F0.4110879951619345
sg10
F0.6344325367421485
ssI89
(dp99
g9
F0.5045139067938722
sg10
F0.2617681162389318
ssI90
(dp100
g9
F0.45203226376570915
sg10
F0.11400491687507897
ssI91
(dp101
g9
F0.7274507196136365
sg10
F0.5860494738257929
ssI92
(dp102
g9
F0.19395377327021102
sg10
F0.11492455776151189
ssI93
(dp103
g9
F0.5171712012762886
sg10
F0.8095658304860682
ssI94
(dp104
g9
F0.6248726827942996
sg10
F0.7262273243613558
ssI95
(dp105
g9
F0.8273443819373655
sg10
F0.6003188955836489
ssI96
(dp106
g9
F0.12464812273252701
sg10
F0.8545738427483539
ssI97
(dp107
g9
F0.20718338879248444
sg10
F0.7367732170162575
ssI98
(dp108
g9
F0.9881919680147087
sg10
F0.8935406555914794
ssI99
(dp109
g9
F0.7509525645688628
sg10
F0.5323585121238916
ssI100
(dp110
g9
F0.6582113610653111
sg10
F0.41021131116650567
ssI101
(dp111
g9
F0.38855463770594934
sg10
F0.8796599458580463
ssI102
(dp112
g9
F0.7403891712903826
sg10
F0.08409425386970737
ssI103
(dp113
g9
F0.6018098154139732
sg10
F0.27854982069457723
ssI104
(dp114
g9
F0.8324093095714251
sg10
F0.7565967996996522
ssI105
(dp115
g9
F0.5945802179498275
sg10
F0.030537276255614976
ssI106
(dp116
g9
F0.6300726735537872
sg10
F0.5338897417086838
ssI107
(dp117
g9
F0.5200700083211812
sg10
F0.6677528810589566
ssI108
(dp118
g9
F0.010180953966976714
sg10
F0.5724535349761192
ssI109
(dp119
g9
F0.6353975285441755
sg10
F0.9139850525439998
ssI110
(dp120
g9
F0.11047719141046708
sg10
F0.023607294627625452
ssI111
(dp121
g9
F0.5895850365735218
sg10
F0.5099822284144595
ssI112
(dp122
g9
F0.3372565826500744
sg10
F0.09762772145580612
ssI113
(dp123
g9
F0.029802428559208782
sg10
F0.9531421582878498
ssI114
(dp124
g9
F0.751932341181356
sg10
F0.7858293362192575
ssI115
(dp125
g9
F0.34694862079817057
sg10
F0.805283514454416
ssI116
(dp126
g9
F0.8763807789542781
sg10
F0.7298880189416401
ssI117
(dp127
g9
F0.06656554937149006
sg10
F0.13236427815417107
ssI118
(dp128
g9
F0.37525314058944015
sg10
F0.8641548633335092
ssI119
(dp129
g9
F0.6346331586675564
sg10
F0.4695002525850034
ssI120
(dp130
g9
F0.4095987477596096
sg10
F0.9898898600822907
ssI121
(dp131
g9
F0.3561898473774976
sg10
F0.29209077580174525
ssI122
(dp132
g9
F0.7541244777232259
sg10
F0.9380074508464882
ssI123
(dp133
g9
F0.47514540065218624
sg10
F0.9305485077919889
ssI124
(dp134
g9
F0.7904108482683758
sg10
F0.249195788338736
ssI125
(dp135
g9
F0.011266388058915777
sg10
F0.49060029693780216
ssI126
(dp136
g9
F0.739293439928823
sg10
F0.18266582588435087
ssI127
(dp137
g9
F0.03309274227318437
sg10
F0.7775406942918945
ssI128
(dp138
g9
F0.38245715049795903
sg10
F0.4051567452866257
ssI129
(dp139
g9
F0.20504810340086466
sg10
F0.21931750246178328
ssI130
(dp140
g9
F0.7965821807459081
sg10
F0.4744451705145992
ssI131
(dp141
g9
F0.31739067219085637
sg10
F0.3252975244728362
ssI132
(dp142
g9
F0.15132132927381936
sg10
F0.08409921926059205
ssI133
(dp143
g9
F0.10049836756179609
sg10
F0.3492729903663848
ssI134
(dp144
g9
F0.33172366593180136
sg10
F0.652893098950208
ssI135
(dp145
g9
F0.9241945968421409
sg10
F0.18143442279699773
ssI136
(dp146
g9
F0.8579743644558152
sg10
F0.5737157774045489
ssI137
(dp147
g9
F0.6689357571935802
sg10
F0.6071763159265985
ssI138
(dp148
g9
F0.2031421779065088
sg10
F0.9321291500105977
ssI139
(dp149
g9
F0.3744347798019124
sg10
F0.7624566209148335
ssI140
(dp150
g9
F0.7558772176654692
sg10
F0.43672286590099074
ssI141
(dp151
g9
F0.09316455517459699
sg10
F0.37056890914059004
ssI142
(dp152
g9
F0.1688925572505724
sg10
F0.3142568351715791
ssI143
(dp153
g9
F0.1918505660608325
sg10
F0.5848576681378749
ssI144
(dp154
g9
F0.6651296138193954
sg10
F0.3786875788845657
ssI145
(dp155
g9
F0.36411583014404003
sg10
F0.10472458211453439
ssI146
(dp156
g9
F0.3811455859778041
sg10
F0.42662540054886167
ssI147
(dp157
g9
F0.814220422037056
sg10
F0.452104550770842
ssI148
(dp158
g9
F0.6011437044242289
sg10
F0.28316129844707083
ssI149
(dp159
g9
F0.29630277405311756
sg10
F0.9288698256456895
ssI150
(dp160
g9
F0.4098759962387136
sg10
F0.6921560103650274
ssI151
(dp161
g9
F0.2539496310387481
sg10
F0.7344026567574017
ssI152
(dp162
g9
F0.3438896745124478
sg10
F0.1229077267724139
ssI153
(dp163
g9
F0.08515874588992811
sg10
F0.6943269528103576
ssI154
(dp164
g9
F0.8622526398415251
sg10
F0.08388992311976806
ssI155
(dp165
g9
F0.49066578748807443
sg10
F0.3604255253581339
ssI156
(dp166
g9
F0.5018577423359976
sg10
F0.13122396938860736
ssI157
(dp167
g9
F0.5227955133300258
sg10
F0.8191929118532463
ssI158
(dp168
g9
F0.5379287828205128
sg10
F0.5639400613568623
ssI159
(dp169
g9
F0.06074109924465232
sg10
F0.6917164693054361
ssI160
(dp170
g9
F0.8938402220633672
sg10
F0.09075339763327739
ssI161
(dp171
g9
F0.17595939223552137
sg10
F0.18364275223053883
ssI162
(dp172
g9
F0.4652878779370151
sg10
F0.5601958497049607
ssI163
(dp173
g9
F0.9201366414414034
sg10
F0.24202496482120983
ssI164
(dp174
g9
F0.33546685434087975
sg10
F0.7566703909462111
ssI165
(dp175
g9
F0.9274409718532599
sg10
F0.5269237043696278
ssI166
(dp176
g9
F0.9741457880391974
sg10
F0.6074365650097626
ssI167
(dp177
g9
F0.28597628629291805
sg10
F0.6376518281101973
ssI168
(dp178
g9
F0.8788732868498954
sg10
F0.2141977957819179
ssI169
(dp179
g9
F0.9138165320801173
sg10
F0.1151365085124817
ssI170
(dp180
g9
F0.6673827619447138
sg10
F0.23957782787375792
ssI171
(dp181
g9
F0.4627970368052937
sg10
F0.8891147281857322
ssI172
(dp182
g9
F0.7421392909525096
sg10
F0.4614972394269342
ssI173
(dp183
g9
F0.5307028040355268
sg10
F0.6548223413567709
ssI174
(dp184
g9
F0.20321768574827082
sg10
F0.332799305954368
ssI175
(dp185
g9
F0.5526700460711492
sg10
F0.5599941309171913
ssI176
(dp186
g9
F0.8961935559289501
sg10
F0.7348837434620699
ssI177
(dp187
g9
F0.8479106584867069
sg10
F0.37085327655784406
ssI178
(dp188
g9
F0.869560688345201
sg10
F0.7362630577589556
ssI179
(dp189
g9
F0.7432833199593152
sg10
F0.7405418424061379
ssI180
(dp190
g9
F0.02272447690424051
sg10
F0.24732256716479217
ssI181
(dp191
g9
F0.6083126330154599
sg10
F0.2690259553480877
ssI182
(dp192
g9
F0.35916573361298154
sg10
F0.8658429682892235
ssI183
(dp193
g9
F0.8527439011295598
sg10
F0.8361340528730778
ssI184
(dp194
g9
F0.19876195372119054
sg10
F0.2982914909419395
ssI185
(dp195
g9
F0.25432752565626915
sg10
F0.44709186829672676
ssI186
(dp196
g9
F0.22652594753524558
sg10
F0.5323101141225749
ssI187
(dp197
g9
F0.9069938890882927
sg10
F0.42319733745392385
ssI188
(dp198
g9
F0.7754216611075951
sg10
F0.26722174839007173
ssI189
(dp199
g9
F0.6826083381243171
sg10
F0.2899264315588965
ssI190
(dp200
g9
F0.9560014911608811
sg10
F0.9458492254085538
ssI191
(dp201
g9
F0.25510848009439036
sg10
F0.4602344227538039
ssI192
(dp202
g9
F0.3707042189691825
sg10
F0.31530528756253073
ssI193
(dp203
g9
F0.5424523183260536
sg10
F0.39232279707250883
ssI194
(dp204
g9
F0.5935270927175271
sg10
F0.6521548683563128
ssI195
(dp205
g9
F0.21019132870143598
sg10
F0.6178359762909351
ssI196
(dp206
g9
F0.6122441534825361
sg10
F0.9926429257449771
ssI197
(dp207
g9
F0.1284816709143033
sg10
F0.5872445974279422
ssI198
(dp208
g9
F0.38403353680288366
sg10
F0.36945242631239006
ssI199
(dp209
g9
F0.5698212083117672
sg10
F0.11120384717846377
ssI200
(dp210
g9
F0.488698135184343
sg10
F0.9492695576867931
ssI201
(dp211
g9
F0.32661788984614315
sg10
F0.696621030411902
ssI202
(dp212
g9
F0.8735301390243945
sg10
F0.9671110897324589
ssI203
(dp213
g9
F0.7374204142049142
sg10
F0.680378715396002
ssI204
(dp214
g9
F0.6664460422457043
sg10
F0.04313310949407256
ssI205
(dp215
g9
F0.6818807045605325
sg10
F0.4442874630258118
ssI206
(dp216
g9
F0.7421161942373815
sg10
F0.7603757826680476
ssI207
(dp217
g9
F0.008790915524473086
sg10
F0.7111816529142564
ssI208
(dp218
g9
F0.9752125003631358
sg10
F0.7550523414939522
ssI209
(dp219
g9
F0.5315586026775914
sg10
F0.33538193034924413
ssI210
(dp220
g9
F0.597508880516554
sg10
F0.14939948879794762
ssI211
(dp221
g9
F0.4800153545309752
sg10
F0.24003269635818958
ssI212
(dp222
g9
F0.96355375175721
sg10
F0.8620487133044283
ssI213
(dp223
g9
F0.4854651236115407
sg10
F0.7180598366974547
ssI214
(dp224
g9
F0.06240444830994507
sg10
F0.07050428128963337
ssI215
(dp225
g9
F0.6285540055274597
sg10
F0.4124457503572577
ssI216
(dp226
g9
F0.02976987086031535
sg10
F0.018474040069158204
ssI217
(dp227
g9
F0.5363308396126851
sg10
F0.5878882827291458
ssI218
(dp228
g9
F0.6677038584203966
sg10
F0.31117148922335314
ssI219
(dp229
g9
F0.06353626508027788
sg10
F0.7867034190734259
ssI220
(dp230
g9
F0.500582189994719
sg10
F0.8943907983945516
ssI221
(dp231
g9
F0.10746335624729864
sg10
F0.9525659647964044
ssI222
(dp232
g9
F0.2655107420134848
sg10
F0.09882153985759612
ssI223
(dp233
g9
F0.3896026040837399
sg10
F0.021838320768823527
ssI224
(dp234
g9
F0.6031569720104101
sg10
F0.28247622888588486
ssI225
(dp235
g9
F0.15335325819430923
sg10
F0.7673649705336753
ssI226
(dp236
g9
F0.18440583278167466
sg10
F0.873737255712522
ssI227
(dp237
g9
F0.8904793201809418
sg10
F0.08055458283366723
ssI228
(dp238
g9
F0.945062815174471
sg10
F0.9168397512105348
ssI229
(dp239
g9
F0.8998148327255346
sg10
F0.5471247849551031
ssI230
(dp240
g9
F0.19596836569540432
sg10
F0.5914056251022823
ssI231
(dp241
g9
F0.9469133351046742
sg10
F0.6580374532894849
ssI232
(dp242
g9
F0.20793813861257626
sg10
F0.44955993729461285
ssI233
(dp243
g9
F0.01808174064767254
sg10
F0.29101080275457025
ssI234
(dp244
g9
F0.5195321732794737
sg10
F0.5558675866450116
ssI235
(dp245
g9
F0.42175654245470573
sg10
F0.9900437771209409
ssI236
(dp246
g9
F0.23998751339551494
sg10
F0.6697065499264114
ssI237
(dp247
g9
F0.008985498966282202
sg10
F0.24489985345391607
ssI238
(dp248
g9
F0.8783575667257676
sg10
F0.3561580564213006
ssI239
(dp249
g9
F0.669196910671098
sg10
F0.022490677942384463
ssI240
(dp250
g9
F0.3847642753567072
sg10
F0.7700515125769724
ssI241
(dp251
g9
F0.7536399001077159
sg10
F0.5327196840120695
ssI242
(dp252
g9
F0.4672171228778753
sg10
F0.2835061946510684
ssI243
(dp253
g9
F0.5318807486687471
sg10
F0.45269905538482114
ssI244
(dp254
g9
F0.4947673040798253
sg10
F0.5345178920403869
ssI245
(dp255
g9
F0.48018642168219716
sg10
F0.24384466715567354
ssI246
(dp256
g9
F0.2208366910835774
sg10
F0.09234330429764692
ssI247
(dp257
g9
F0.2914968543910603
sg10
F0.8279215859352512
ssI248
(dp258
g9
F0.462080292718421
sg10
F0.7013615356466321
ssI249
(dp259
g9
F0.8389398914673285
sg10
F0.16831161148194218
ssI250
(dp260
g9
F0.40114098049986713
sg10
F0.3109505215068611
ssI251
(dp261
g9
F0.8486062712333005
sg10
F0.266232120033135
ssI252
(dp262
g9
F0.956310207521674
sg10
F0.6050551012975135
ssI253
(dp263
g9
F0.8921182049553664
sg10
F0.6797429932656123
ssI254
(dp264
g9
F0.48581280108778657
sg10
F0.608605632647105
ssI255
(dp265
g9
F0.9915080124606532
sg10
F0.891971810224681
ssI256
(dp266
g9
F0.4454006767187574
sg10
F0.5457679650374835
ssI257
(dp267
g9
F0.5053136220587926
sg10
F0.8849585318751219
ssI258
(dp268
g9
F0.027159314910550347
sg10
F0.7345173184793262
ssI259
(dp269
g9
F0.8568703240960676
sg10
F0.28364644023727836
ssI260
(dp270
g9
F0.08617912702916641
sg10
F0.8883684527730735
ssI261
(dp271
g9
F0.7059495076859806
sg10
F0.9185809872932393
ssI262
(dp272
g9
F0.35897634854041205
sg10
F0.9285231486509549
ssI263
(dp273
g9
F0.5763147884529368
sg10
F0.6592884929185121
ssI264
(dp274
g9
F0.5373585828508465
sg10
F0.6048831109913406
ssI265
(dp275
g9
F0.17603627464094596
sg10
F0.687574439045198
ssI266
(dp276
g9
F0.13778698060494377
sg10
F0.12223145589996143
ssI267
(dp277
g9
F0.9720092914900721
sg10
F0.6141621025607195
ssI268
(dp278
g9
F0.02889012528094137
sg10
F0.21439082348523097
ssI269
(dp279
g9
F0.05275511588175741
sg10
F0.3480368862439456
ssI270
(dp280
g9
F0.6325576769504783
sg10
F0.3683203400089312
ssI271
(dp281
g9
F0.3167230384684795
sg10
F0.4853102796967611
ssI272
(dp282
g9
F0.4570970999048857
sg10
F0.4476147111248525
ssI273
(dp283
g9
F0.4118739311130559
sg10
F0.8966535434109056
ssI274
(dp284
g9
F0.8187108797162603
sg10
F0.2209643560421758
ssI275
(dp285
g9
F0.6946591818850523
sg10
F0.6100136841943643
ssI276
(dp286
g9
F0.7794331806641106
sg10
F0.10215340271115947
ssI277
(dp287
g9
F0.6525233694549022
sg10
F0.2680049128988221
ssI278
(dp288
g9
F0.19785695044076412
sg10
F0.48584362395870206
ssI279
(dp289
g9
F0.5954969163618026
sg10
F0.7265500542718281
ssI280
(dp290
g9
F0.2084298308386382
sg10
F0.38748846302820905
ssI281
(dp291
g9
F0.5355423549317067
sg10
F0.42466146559524287
ssI282
(dp292
g9
F0.666322829418506
sg10
F0.7340560468414546
ssI283
(dp293
g9
F0.3179833921217279
sg10
F0.5034488235301178
ssI284
(dp294
g9
F0.9389742877523793
sg10
F0.631548532621204
ssI285
(dp295
g9
F0.313780031268043
sg10
F0.49442920445964555
ssI286
(dp296
g9
F0.7562533167720541
sg10
F0.023265233323865542
ssI287
(dp297
g9
F0.4852920706167677
sg10
F0.9257550210180395
ssI288
(dp298
g9
F0.13994915917242956
sg10
F0.5992332899876831
ssI289
(dp299
g9
F0.15162150684777642
sg10
F0.567788012372516
ssI290
(dp300
g9
F0.36476278497778314
sg10
F0.02743664129520973
ssI291
(dp301
g9
F0.6661029741367097
sg10
F0.7930066975026729
ssI292
(dp302
g9
F0.8685070440215678
sg10
F0.5058025410597735
ssI293
(dp303
g9
F0.7297410257997288
sg10
F0.044149983334503484
ssI294
(dp304
g9
F0.6886264976813572
sg10
F0.5416992873935361
ssI295
(dp305
g9
F0.8644077822058621
sg10
F0.2709138239591241
ssI296
(dp306
g9
F0.37579944252213415
sg10
F0.2719532459574111
ssI297
(dp307
g9
F0.13320397695285258
sg10
F0.40943885908542543
ssI298
(dp308
g9
F0.12109653925679631
sg10
F0.44762188139022496
ssI299
(dp309
g9
F0.08998675622793473
sg10
F0.46029131922251243
ssI300
(dp310
g9
F0.8527906087371754
sg10
F0.7992949619946773
ssI301
(dp311
g9
F0.49259143370585545
sg10
F0.9655662091141302
ssI302
(dp312
g9
F0.6181066109126508
sg10
F0.8887103515724956
ssI303
(dp313
g9
F0.36380849424963835
sg10
F0.6617642802634162
ssI304
(dp314
g9
F0.9086854943383086
sg10
F0.673494207002305
ssI305
(dp315
g9
F0.2678489133687092
sg10
F0.6261810009623058
ssI306
(dp316
g9
F0.9594978902962477
sg10
F0.24180946967467565
ssI307
(dp317
g9
F0.389805986297033
sg10
F0.2546922820253398
ssI308
(dp318
g9
F0.7423244328634514
sg10
F0.2566971143157163
ssI309
(dp319
g9
F0.07106538633968296
sg10
F0.7360558938007411
ssI310
(dp320
g9
F0.1276557063110504
sg10
F0.5976602939985123
ssI311
(dp321
g9
F0.18466964318057177
sg10
F0.6369009717940544
ssI312
(dp322
g9
F0.6921303345909082
sg10
F0.9898097249915935
ssI313
(dp323
g9
F0.8840175653036876
sg10
F0.09911014967399079
ssI314
(dp324
g9
F0.42642407070930843
sg10
F0.07521417661518603
ssI315
(dp325
g9
F0.7046535193781462
sg10
F0.8155295842182333
ssI316
(dp326
g9
F0.7034076130099922
sg10
F0.5384875382969069
ssI317
(dp327
g9
F0.7298543769167269
sg10
F0.5442515841089833
ssI318
(dp328
g9
F0.5580745001536669
sg10
F0.7160323902737149
ssI319
(dp329
g9
F0.4068468122135127
sg10
F0.6740472468243544
ssI320
(dp330
g9
F0.20194303295165938
sg10
F0.6115969332958983
ssI321
(dp331
g9
F0.760848434225608
sg10
F0.279477525126668
ssI322
(dp332
g9
F0.36728948923239324
sg10
F0.5285069290125349
ssI323
(dp333
g9
F0.15412183951194414
sg10
F0.633583859539758
ssI324
(dp334
g9
F0.010093811757791782
sg10
F0.7017674042545919
ssI325
(dp335
g9
F0.37411076948589794
sg10
F0.13352007260545617
ssI326
(dp336
g9
F0.6562102900861632
sg10
F0.2272637963898626
ssI327
(dp337
g9
F0.2116704138119132
sg10
F0.49602599859845176
ssI328
(dp338
g9
F0.0510553673086922
sg10
F0.7785157473827766
ssI329
(dp339
g9
F0.5992696748242972
sg10
F0.14444427032622142
ssI330
(dp340
g9
F0.6721871919114436
sg10
F0.15346270344713642
ssI331
(dp341
g9
F0.3387082814649912
sg10
F0.4633456931692519
ssI332
(dp342
g9
F0.7088334014403791
sg10
F0.029291164768483702
ssI333
(dp343
g9
F0.8522561403390669
sg10
F0.5345668765963855
ssI334
(dp344
g9
F0.19145981694128622
sg10
F0.3610414505161108
ssI335
(dp345
g9
F0.47774004763658007
sg10
F0.5101786747582061
ssI336
(dp346
g9
F0.8237052322086872
sg10
F0.2611343208190571
ssI337
(dp347
g9
F0.4299820867408607
sg10
F0.738193896427132
ssI338
(dp348
g9
F0.10995328858494902
sg10
F0.750551717134655
ssI339
(dp349
g9
F0.5097028912160054
sg10
F0.6711590136758963
ssI340
(dp350
g9
F0.3517882777241703
sg10
F0.8985580534052949
ssI341
(dp351
g9
F0.6705521771846932
sg10
F0.14267178581802276
ssI342
(dp352
g9
F0.5199766344745598
sg10
F0.24481130837755793
ssI343
(dp353
g9
F0.1513698803654363
sg10
F0.25333564379669293
ssI344
(dp354
g9
F0.4626105590394125
sg10
F0.05204316712675161
ssI345
(dp355
g9
F0.9991230452109207
sg10
F0.2604606692500251
ssI346
(dp356
g9
F0.1486000092129297
sg10
F0.024277516145448153
ssI347
(dp357
g9
F0.9612111790269922
sg10
F0.8128742754162066
ssI348
(dp358
g9
F0.7377826447510056
sg10
F0.4548569296212026
ssI349
(dp359
g9
F0.6273959773556331
sg10
F0.27475229981091187
ssI350
(dp360
g9
F0.9549159476130553
sg10
F0.8066645319484504
ssI351
(dp361
g9
F0.8384447184130384
sg10
F0.5341509447104654
ssI352
(dp362
g9
F0.7706393007361116
sg10
F0.08056063011353898
ssI353
(dp363
g9
F0.41770816244335485
sg10
F0.9642496639994432
ssI354
(dp364
g9
F0.241277886248344
sg10
F0.028369804955599265
ssI355
(dp365
g9
F0.6205212195990144
sg10
F0.2875899976359624
ssI356
(dp366
g9
F0.5803018939326503
sg10
F0.18799639865917228
ssI357
(dp367
g9
F0.25577601158591423
sg10
F0.10314976374289597
ssI358
(dp368
g9
F0.8319210722722766
sg10
F0.8458553847265204
ssI359
(dp369
g9
F0.7402729582536699
sg10
F0.0380275434102868
ssI360
(dp370
g9
F0.8406039044405825
sg10
F0.3195868205362222
ssI361
(dp371
g9
F0.05735871493340383
sg10
F0.7724296790219267
ssI362
(dp372
g9
F0.08585615948587877
sg10
F0.7889106466000104
ssI363
(dp373
g9
F0.659686111811572
sg10
F0.15899144135013865
ssI364
(dp374
g9
F0.7722093689261481
sg10
F0.6383887113428592
ssI365
(dp375
g9
F0.18253211890770538
sg10
F0.06324415182847298
ssI366
(dp376
g9
F0.06590685475594982
sg10
F0.7413494057681661
ssI367
(dp377
g9
F0.5473800142239794
sg10
F0.7373194203096267
ssI368
(dp378
g9
F0.9148296677015298
sg10
F0.33898098213375794
ssI369
(dp379
g9
F0.09209185812482323
sg10
F0.1384716137931391
ssI370
(dp380
g9
F0.010955501666850775
sg10
F0.5171554966570544
ssI371
(dp381
g9
F0.8438055720546632
sg10
F0.8029464660873318
ssI372
(dp382
g9
F0.2422199595998351
sg10
F0.2719180021021941
ssI373
(dp383
g9
F0.9630906979315486
sg10
F0.5185079766382233
ssI374
(dp384
g9
F0.7202512611780372
sg10
F0.9665730689786756
ssI375
(dp385
g9
F0.5921094156800598
sg10
F0.8317146365172292
ssI376
(dp386
g9
F0.2732982950387691
sg10
F0.5804181719312912
ssI377
(dp387
g9
F0.8789064964357604
sg10
F0.29353304724385976
ssI378
(dp388
g9
F0.8528919792934397
sg10
F0.34068706488433587
ssI379
(dp389
g9
F0.37939241820411196
sg10
F0.3691254491954773
ssI380
(dp390
g9
F0.8025547719485694
sg10
F0.21546846344145199
ssI381
(dp391
g9
F0.02799740868546552
sg10
F0.5956424143511949
ssI382
(dp392
g9
F0.24789230613184066
sg10
F0.8644939806504323
ssI383
(dp393
g9
F0.70440385990121
sg10
F0.5621653383076537
ssI384
(dp394
g9
F0.6973554453570946
sg10
F0.6196446902361873
ssI385
(dp395
g9
F0.753598252912104
sg10
F0.2768978439939309
ssI386
(dp396
g9
F0.3609957964315108
sg10
F0.9740543126761816
ssI387
(dp397
g9
F0.6573634457737155
sg10
F0.2017739814970354
ssI388
(dp398
g9
F0.6995126865622421
sg10
F0.18407989285862736
ssI389
(dp399
g9
F0.3320893107682009
sg10
F0.19058260201453336
ssI390
(dp400
g9
F0.390906061096158
sg10
F0.22926564947357564
ssI391
(dp401
g9
F0.5477740477863632
sg10
F0.4576821530003222
ssI392
(dp402
g9
F0.12234807276348425
sg10
F0.4641011808787129
ssI393
(dp403
g9
F0.40047632306659764
sg10
F0.43015651529408405
ssI394
(dp404
g9
F0.3925937363086245
sg10
F0.8788636118881301
ssI395
(dp405
g9
F0.5389899296367563
sg10
F0.4568272158010719
ssI396
(dp406
g9
F0.0713432637046022
sg10
F0.25747869949178015
ssI397
(dp407
g9
F0.05725921474929008
sg10
F0.3549025467874485
ssI398
(dp408
g9
F0.8071174939402666
sg10
F0.950960352256338
ssI399
(dp409
g9
F0.8459443211860905
sg10
F0.3489178058235244
ssI400
(dp410
g9
F0.9596720910628072
sg10
F0.6078231206620971
ssI401
(dp411
g9
F0.5699888087785531
sg10
F0.5890432124085444
ssI402
(dp412
g9
F0.7536979976175027
sg10
F0.7725845828530421
ssI403
(dp413
g9
F0.47857644065654315
sg10
F0.6689428235339169
ssI404
(dp414
g9
F0.0744042602315258
sg10
F0.01643760267596661
ssI405
(dp415
g9
F0.7517482775007682
sg10
F0.9474079184017253
ssI406
(dp416
g9
F0.6249971780244644
sg10
F0.5166195545783082
ssI407
(dp417
g9
F0.8579792408157343
sg10
F0.6328530945343636
ssI408
(dp418
g9
F0.7959872005018674
sg10
F0.668872550878361
ssI409
(dp419
g9
F0.6334180186168437
sg10
F0.8306891946219289
ssI410
(dp420
g9
F0.08805824649289407
sg10
F0.6241236577160771
ssI411
(dp421
g9
F0.08551530970349541
sg10
F0.955799050973698
ssI412
(dp422
g9
F0.766278139336196
sg10
F0.008102817708277366
ssI413
(dp423
g9
F0.6372950922656084
sg10
F0.523203398609385
ssI414
(dp424
g9
F0.5278708807904324
sg10
F0.27499313637033196
ssI415
(dp425
g9
F0.3956100963106606
sg10
F0.2554349203780337
ssI416
(dp426
g9
F0.635896402047168
sg10
F0.43797007717224634
ssI417
(dp427
g9
F0.9156794882308931
sg10
F0.5982717204441009
ssI418
(dp428
g9
F0.950598163147224
sg10
F0.4704542788223861
ssI419
(dp429
g9
F0.5764314783773388
sg10
F0.44202208776385243
ssI420
(dp430
g9
F0.4657361282062653
sg10
F0.9597351392433632
ssI421
(dp431
g9
F0.7216197497887014
sg10
F0.23646294738341966
ssI422
(dp432
g9
F0.18725409731194964
sg10
F0.0581642329164056
ssI423
(dp433
g9
F0.3566400228936246
sg10
F0.6899829018021096
ssI424
(dp434
g9
F0.9559027920489362
sg10
F0.36921441788116094
ssI425
(dp435
g9
F0.3362978200808454
sg10
F0.30905815861547004
ssI426
(dp436
g9
F0.7582428577391305
sg10
F0.4015332510193441
ssI427
(dp437
g9
F0.48720231190631846
sg10
F0.278047714212474
ssI428
(dp438
g9
F0.6770010670496159
sg10
F0.8446718634204694
ssI429
(dp439
g9
F0.9340854466501545
sg10
F0.5492895650925002
ssI430
(dp440
g9
F0.6294725273646359
sg10
F0.037144486830856915
ssI431
(dp441
g9
F0.47127040157652855
sg10
F0.40559167769944204
ssI432
(dp442
g9
F0.17932644883712412
sg10
F0.34169559355573087
ssI433
(dp443
g9
F0.943130752195069
sg10
F0.08724766515586901
ssI434
(dp444
g9
F0.6531869666953212
sg10
F0.009591824258345705
ssI435
(dp445
g9
F0.46711041359523475
sg10
F0.9643139319385285
ssI436
(dp446
g9
F0.16611987256708372
sg10
F0.4780404799985446
ssI437
(dp447
g9
F0.12006142190826763
sg10
F0.7028539983465185
ssI438
(dp448
g9
F0.4693929340455073
sg10
F0.5154365517263013
ssI439
(dp449
g9
F0.23231839414868316
sg10
F0.6567360728549444
ssI440
(dp450
g9
F0.30462223223712637
sg10
F0.3700998777135758
ssI441
(dp451
g9
F0.14683614135341538
sg10
F0.9144928107582829
ssI442
(dp452
g9
F0.012598924784201437
sg10
F0.21172317671381602
ssI443
(dp453
g9
F0.30045688596359
sg10
F0.798977258153549
ssI444
(dp454
g9
F0.641789996546185
sg10
F0.18264549470124425
ssI445
(dp455
g9
F0.5091302268733068
sg10
F0.13031133614991897
ssI446
(dp456
g9
F0.7555363979012761
sg10
F0.4701593942261527
ssI447
(dp457
g9
F0.7591533176443889
sg10
F0.6934961127818045
ssI448
(dp458
g9
F0.051275726221966966
sg10
F0.7402235197213541
ssI449
(dp459
g9
F0.8158291606085508
sg10
F0.039534018501496626
ssI450
(dp460
g9
F0.7933165514017052
sg10
F0.7468340216367207
ssI451
(dp461
g9
F0.8029913608573134
sg10
F0.7843297044139632
ssI452
(dp462
g9
F0.9046742299328419
sg10
F0.90741031707146
ssI453
(dp463
g9
F0.13305350019610085
sg10
F0.5309071136794248
ssI454
(dp464
g9
F0.16447578186665823
sg10
F0.371359008968177
ssI455
(dp465
g9
F0.5739337643408668
sg10
F0.3297002288037415
ssI456
(dp466
g9
F0.26089212914436555
sg10
F0.4143689032127227
ssI457
(dp467
g9
F0.6253162407844677
sg10
F0.7921705605409979
ssI458
(dp468
g9
F0.626286169440313
sg10
F0.21473705068500792
ssI459
(dp469
g9
F0.7257338701362479
sg10
F0.9445187049732272
ssI460
(dp470
g9
F0.24873433272172585
sg10
F0.5563956538303513
ssI461
(dp471
g9
F0.6481225347927523
sg10
F0.05530600059323809
ssI462
(dp472
g9
F0.7153458806001276
sg10
F0.6012454194550958
ssI463
(dp473
g9
F0.16200776566830077
sg10
F0.17786286551496355
ssI464
(dp474
g9
F0.9824736691897593
sg10
F0.261910527265642
ssI465
(dp475
g9
F0.988495269280465
sg10
F0.07327788417639336
ssI466
(dp476
g9
F0.6927953061928579
sg10
F0.42124145760043485
ssI467
(dp477
g9
F0.002346360146494697
sg10
F0.376874751679114
ssI468
(dp478
g9
F0.7471503707024293
sg10
F0.4562826765593464
ssI469
(dp479
g9
F0.7712390984651778
sg10
F0.8734371148312329
ssI470
(dp480
g9
F0.7284123672495566
sg10
F0.46181749093532065
ssI471
(dp481
g9
F0.851469520138153
sg10
F0.5511283092850001
ssI472
(dp482
g9
F0.2747593022844038
sg10
F0.6300544074786272
ssI473
(dp483
g9
F0.7324918190866815
sg10
F0.7716993378517495
ssI474
(dp484
g9
F0.5051459035195036
sg10
F0.6362721744343479
ssI475
(dp485
g9
F0.430046103121983
sg10
F0.06973630999468838
ssI476
(dp486
g9
F0.3893301065536722
sg10
F0.5146768664776531
ssI477
(dp487
g9
F0.1295736979602995
sg10
F0.5972206298720577
ssI478
(dp488
g9
F0.07777624805402594
sg10
F0.053533181353784154
ssI479
(dp489
g9
F0.4624866346040608
sg10
F0.5559134907531136
ssI480
(dp490
g9
F0.190110026466228
sg10
F0.06458068367875969
ssI481
(dp491
g9
F0.9189999060011691
sg10
F0.6686320937144259
ssI482
(dp492
g9
F0.019501331360959995
sg10
F0.03942383170620367
ssI483
(dp493
g9
F0.15058090605169294
sg10
F0.7397917763353272
ssI484
(dp494
g9
F0.8595116581184079
sg10
F0.6162180965033954
ssI485
(dp495
g9
F0.19108257055313738
sg10
F0.5360493303815069
ssI486
(dp496
g9
F0.858921488641595
sg10
F0.8399915134524525
ssI487
(dp497
g9
F0.8575374170877567
sg10
F0.016704419381547875
ssI488
(dp498
g9
F0.7789082844305403
sg10
F0.6618136237019135
ssI489
(dp499
g9
F0.09764690774731122
sg10
F0.3459369580923617
ssI490
(dp500
g9
F0.08500371477451207
sg10
F0.11182839107815967
ssI491
(dp501
g9
F0.38742358876227423
sg10
F0.10301730290401945
ssI492
(dp502
g9
F0.14755150100420245
sg10
F0.27920638615590876
ssI493
(dp503
g9
F0.013784794356023644
sg10
F0.8852835097745861
ssI494
(dp504
g9
F0.5153259066254614
sg10
F0.008412349110282435
ssI495
(dp505
g9
F0.7215572773163033
sg10
F0.6120452067443529
ssI496
(dp506
g9
F0.036655239199634426
sg10
F0.9565377380341432
ssI497
(dp507
g9
F0.5879894322980871
sg10
F0.24771109030804017
ssI498
(dp508
g9
F0.5922787049719987
sg10
F0.5343459706240762
ssI499
(dp509
g9
F0.6147466889623154
sg10
F0.2181988604822338
sssS'node_dict_factory'
p510
c__builtin__
dict
p511
sS'edge_attr_dict_factory'
p512
g511
sS'edge'
p513
(dp514
I0
(dp515
sI1
(dp516
sI2
(dp517
sI3
(dp518
sI4
(dp519
sI5
(dp520
sI6
(dp521
sI7
(dp522
sI8
(dp523
sI9
(dp524
sI10
(dp525
sI11
(dp526
sI12
(dp527
sI13
(dp528
sI14
(dp529
sI15
(dp530
sI16
(dp531
sI17
(dp532
sI18
(dp533
sI19
(dp534
sI20
(dp535
sI21
(dp536
sI22
(dp537
sI23
(dp538
sI24
(dp539
sI25
(dp540
sI26
(dp541
sI27
(dp542
sI28
(dp543
sI29
(dp544
sI30
(dp545
sI31
(dp546
sI32
(dp547
sI33
(dp548
sI34
(dp549
sI35
(dp550
sI36
(dp551
sI37
(dp552
sI38
(dp553
sI39
(dp554
sI40
(dp555
sI41
(dp556
sI42
(dp557
sI43
(dp558
sI44
(dp559
sI45
(dp560
sI46
(dp561
sI47
(dp562
sI48
(dp563
sI49
(dp564
sI50
(dp565
sI51
(dp566
sI52
(dp567
sI53
(dp568
sI54
(dp569
sI55
(dp570
sI56
(dp571
sI57
(dp572
sI58
(dp573
sI59
(dp574
sI60
(dp575
sI61
(dp576
sI62
(dp577
sI63
(dp578
sI64
(dp579
sI65
(dp580
sI66
(dp581
sI67
(dp582
sI68
(dp583
sI69
(dp584
sI70
(dp585
sI71
(dp586
sI72
(dp587
sI73
(dp588
sI74
(dp589
sI75
(dp590
sI76
(dp591
sI77
(dp592
sI78
(dp593
sI79
(dp594
sI80
(dp595
sI81
(dp596
sI82
(dp597
sI83
(dp598
sI84
(dp599
sI85
(dp600
sI86
(dp601
sI87
(dp602
sI88
(dp603
sI89
(dp604
sI90
(dp605
sI91
(dp606
sI92
(dp607
sI93
(dp608
sI94
(dp609
sI95
(dp610
sI96
(dp611
sI97
(dp612
sI98
(dp613
sI99
(dp614
sI100
(dp615
sI101
(dp616
sI102
(dp617
sI103
(dp618
sI104
(dp619
sI105
(dp620
sI106
(dp621
sI107
(dp622
sI108
(dp623
sI109
(dp624
sI110
(dp625
sI111
(dp626
sI112
(dp627
sI113
(dp628
sI114
(dp629
sI115
(dp630
sI116
(dp631
sI117
(dp632
sI118
(dp633
sI119
(dp634
sI120
(dp635
sI121
(dp636
sI122
(dp637
sI123
(dp638
sI124
(dp639
sI125
(dp640
sI126
(dp641
sI127
(dp642
sI128
(dp643
sI129
(dp644
sI130
(dp645
sI131
(dp646
sI132
(dp647
sI133
(dp648
sI134
(dp649
sI135
(dp650
sI136
(dp651
sI137
(dp652
sI138
(dp653
sI139
(dp654
sI140
(dp655
sI141
(dp656
sI142
(dp657
sI143
(dp658
sI144
(dp659
sI145
(dp660
sI146
(dp661
sI147
(dp662
sI148
(dp663
sI149
(dp664
sI150
(dp665
sI151
(dp666
sI152
(dp667
sI153
(dp668
sI154
(dp669
sI155
(dp670
sI156
(dp671
sI157
(dp672
sI158
(dp673
sI159
(dp674
sI160
(dp675
sI161
(dp676
sI162
(dp677
sI163
(dp678
sI164
(dp679
sI165
(dp680
sI166
(dp681
sI167
(dp682
sI168
(dp683
sI169
(dp684
sI170
(dp685
sI171
(dp686
sI172
(dp687
sI173
(dp688
sI174
(dp689
sI175
(dp690
sI176
(dp691
sI177
(dp692
sI178
(dp693
sI179
(dp694
sI180
(dp695
sI181
(dp696
sI182
(dp697
sI183
(dp698
sI184
(dp699
sI185
(dp700
sI186
(dp701
sI187
(dp702
sI188
(dp703
sI189
(dp704
sI190
(dp705
sI191
(dp706
sI192
(dp707
sI193
(dp708
sI194
(dp709
sI195
(dp710
sI196
(dp711
sI197
(dp712
sI198
(dp713
sI199
(dp714
sI200
(dp715
sI201
(dp716
sI202
(dp717
sI203
(dp718
sI204
(dp719
sI205
(dp720
sI206
(dp721
sI207
(dp722
sI208
(dp723
sI209
(dp724
sI210
(dp725
sI211
(dp726
sI212
(dp727
sI213
(dp728
sI214
(dp729
sI215
(dp730
sI216
(dp731
sI217
(dp732
sI218
(dp733
sI219
(dp734
sI220
(dp735
sI221
(dp736
sI222
(dp737
sI223
(dp738
sI224
(dp739
sI225
(dp740
sI226
(dp741
sI227
(dp742
sI228
(dp743
sI229
(dp744
sI230
(dp745
sI231
(dp746
sI232
(dp747
sI233
(dp748
sI234
(dp749
sI235
(dp750
sI236
(dp751
sI237
(dp752
sI238
(dp753
sI239
(dp754
sI240
(dp755
sI241
(dp756
sI242
(dp757
sI243
(dp758
sI244
(dp759
sI245
(dp760
sI246
(dp761
sI247
(dp762
sI248
(dp763
sI249
(dp764
sI250
(dp765
sI251
(dp766
sI252
(dp767
sI253
(dp768
sI254
(dp769
sI255
(dp770
sI256
(dp771
sI257
(dp772
sI258
(dp773
sI259
(dp774
sI260
(dp775
sI261
(dp776
sI262
(dp777
sI263
(dp778
sI264
(dp779
sI265
(dp780
sI266
(dp781
sI267
(dp782
sI268
(dp783
sI269
(dp784
sI270
(dp785
sI271
(dp786
sI272
(dp787
sI273
(dp788
sI274
(dp789
sI275
(dp790
sI276
(dp791
sI277
(dp792
sI278
(dp793
sI279
(dp794
sI280
(dp795
sI281
(dp796
sI282
(dp797
sI283
(dp798
sI284
(dp799
sI285
(dp800
sI286
(dp801
sI287
(dp802
sI288
(dp803
sI289
(dp804
sI290
(dp805
sI291
(dp806
sI292
(dp807
sI293
(dp808
sI294
(dp809
sI295
(dp810
sI296
(dp811
sI297
(dp812
sI298
(dp813
sI299
(dp814
sI300
(dp815
sI301
(dp816
sI302
(dp817
sI303
(dp818
sI304
(dp819
sI305
(dp820
sI306
(dp821
sI307
(dp822
sI308
(dp823
sI309
(dp824
sI310
(dp825
sI311
(dp826
sI312
(dp827
sI313
(dp828
sI314
(dp829
sI315
(dp830
sI316
(dp831
sI317
(dp832
sI318
(dp833
sI319
(dp834
sI320
(dp835
sI321
(dp836
sI322
(dp837
sI323
(dp838
sI324
(dp839
sI325
(dp840
sI326
(dp841
sI327
(dp842
sI328
(dp843
sI329
(dp844
sI330
(dp845
sI331
(dp846
sI332
(dp847
sI333
(dp848
sI334
(dp849
sI335
(dp850
sI336
(dp851
sI337
(dp852
sI338
(dp853
sI339
(dp854
sI340
(dp855
sI341
(dp856
sI342
(dp857
sI343
(dp858
sI344
(dp859
sI345
(dp860
sI346
(dp861
sI347
(dp862
sI348
(dp863
sI349
(dp864
sI350
(dp865
sI351
(dp866
sI352
(dp867
sI353
(dp868
sI354
(dp869
sI355
(dp870
sI356
(dp871
sI357
(dp872
sI358
(dp873
sI359
(dp874
sI360
(dp875
sI361
(dp876
sI362
(dp877
sI363
(dp878
sI364
(dp879
sI365
(dp880
sI366
(dp881
sI367
(dp882
sI368
(dp883
sI369
(dp884
sI370
(dp885
sI371
(dp886
sI372
(dp887
sI373
(dp888
sI374
(dp889
sI375
(dp890
sI376
(dp891
sI377
(dp892
sI378
(dp893
sI379
(dp894
sI380
(dp895
sI381
(dp896
sI382
(dp897
sI383
(dp898
sI384
(dp899
sI385
(dp900
sI386
(dp901
sI387
(dp902
sI388
(dp903
sI389
(dp904
sI390
(dp905
sI391
(dp906
sI392
(dp907
sI393
(dp908
sI394
(dp909
sI395
(dp910
sI396
(dp911
sI397
(dp912
sI398
(dp913
sI399
(dp914
sI400
(dp915
sI401
(dp916
sI402
(dp917
sI403
(dp918
sI404
(dp919
sI405
(dp920
sI406
(dp921
sI407
(dp922
sI408
(dp923
sI409
(dp924
sI410
(dp925
sI411
(dp926
sI412
(dp927
sI413
(dp928
sI414
(dp929
sI415
(dp930
sI416
(dp931
sI417
(dp932
sI418
(dp933
sI419
(dp934
sI420
(dp935
sI421
(dp936
sI422
(dp937
sI423
(dp938
sI424
(dp939
sI425
(dp940
sI426
(dp941
sI427
(dp942
sI428
(dp943
sI429
(dp944
sI430
(dp945
sI431
(dp946
sI432
(dp947
sI433
(dp948
sI434
(dp949
sI435
(dp950
sI436
(dp951
sI437
(dp952
sI438
(dp953
sI439
(dp954
sI440
(dp955
sI441
(dp956
sI442
(dp957
sI443
(dp958
sI444
(dp959
sI445
(dp960
sI446
(dp961
sI447
(dp962
sI448
(dp963
sI449
(dp964
sI450
(dp965
sI451
(dp966
sI452
(dp967
sI453
(dp968
sI454
(dp969
sI455
(dp970
sI456
(dp971
sI457
(dp972
sI458
(dp973
sI459
(dp974
sI460
(dp975
sI461
(dp976
sI462
(dp977
sI463
(dp978
sI464
(dp979
sI465
(dp980
sI466
(dp981
sI467
(dp982
sI468
(dp983
sI469
(dp984
sI470
(dp985
sI471
(dp986
sI472
(dp987
sI473
(dp988
sI474
(dp989
sI475
(dp990
sI476
(dp991
sI477
(dp992
sI478
(dp993
sI479
(dp994
sI480
(dp995
sI481
(dp996
sI482
(dp997
sI483
(dp998
sI484
(dp999
sI485
(dp1000
sI486
(dp1001
sI487
(dp1002
sI488
(dp1003
sI489
(dp1004
sI490
(dp1005
sI491
(dp1006
sI492
(dp1007
sI493
(dp1008
sI494
(dp1009
sI495
(dp1010
sI496
(dp1011
sI497
(dp1012
sI498
(dp1013
sI499
(dp1014
ssS'graph'
p1015
(dp1016
sS'adjlist_dict_factory'
p1017
g511
sS'adj'
p1018
g514
sb.