ccopy_reg
_reconstructor
p0
(cnetworkx.classes.graph
Graph
p1
c__builtin__
object
p2
Ntp3
Rp4
(dp5
S'node'
p6
(dp7
I0
(dp8
S'pos_x'
p9
F0.9567690295703418
sS'pos_y'
p10
F0.70271087813616
ssI1
(dp11
g9
F0.1114900067890433
sg10
F0.415122147057261
ssI2
(dp12
g9
F0.4167126390088357
sg10
F0.06942822779262925
ssI3
(dp13
g9
F0.4697908468828823
sg10
F0.37889477984633735
ssI4
(dp14
g9
F0.024934179863448036
sg10
F0.8756579168369341
ssI5
(dp15
g9
F0.025024264496914195
sg10
F0.37620979353337713
ssI6
(dp16
g9
F0.13529352377517156
sg10
F0.6394781297344877
ssI7
(dp17
g9
F0.20366406869398457
sg10
F0.45170070232750403
ssI8
(dp18
g9
F0.2819056008131322
sg10
F0.9912356828823343
ssI9
(dp19
g9
F0.5834945977370571
sg10
F0.7698785552787522
ssI10
(dp20
g9
F0.4372528359112148
sg10
F0.7000455599443135
ssI11
(dp21
g9
F0.11649598298636932
sg10
F0.3447355646675172
ssI12
(dp22
g9
F0.0802392559179228
sg10
F0.567561482295595
ssI13
(dp23
g9
F0.8292312618363646
sg10
F0.4322206801085726
ssI14
(dp24
g9
F0.8274701829907979
sg10
F0.3242765982158138
ssI15
(dp25
g9
F0.610559330918048
sg10
F0.14109603489149147
ssI16
(dp26
g9
F0.13717746356449323
sg10
F0.7737569498914463
ssI17
(dp27
g9
F0.20153011402148402
sg10
F0.25067815114620384
ssI18
(dp28
g9
F0.3831775082544959
sg10
F0.22808513736689418
ssI19
(dp29
g9
F0.701098371563468
sg10
F0.2970881410029059
ssI20
(dp30
g9
F0.7767623839703002
sg10
F0.7498610793274175
ssI21
(dp31
g9
F0.5624687724671321
sg10
F0.4380368462465244
ssI22
(dp32
g9
F0.3778512708345164
sg10
F0.5741238933469068
ssI23
(dp33
g9
F0.7467376540225796
sg10
F0.6574052875389379
ssI24
(dp34
g9
F0.886528279675444
sg10
F0.8622416280609451
ssI25
(dp35
g9
F0.7530552992031891
sg10
F0.7023032247755374
ssI26
(dp36
g9
F0.013605814589205956
sg10
F0.6369373124520855
ssI27
(dp37
g9
F0.7180094751461681
sg10
F0.5439915391389792
ssI28
(dp38
g9
F0.3658095711649184
sg10
F0.8342137281296794
ssI29
(dp39
g9
F0.6701029943448559
sg10
F0.9922006474404479
ssI30
(dp40
g9
F0.6588631094176576
sg10
F0.6339728471890242
ssI31
(dp41
g9
F0.8108130184906496
sg10
F0.8459051503321128
ssI32
(dp42
g9
F0.18005244827107403
sg10
F0.8683556702710709
ssI33
(dp43
g9
F0.06380829266486576
sg10
F0.8463165365285443
ssI34
(dp44
g9
F0.34326123743972947
sg10
F0.786408166325943
ssI35
(dp45
g9
F0.8050878894439818
sg10
F0.7709102831288216
ssI36
(dp46
g9
F0.7083416914916786
sg10
F0.9360369601994537
ssI37
(dp47
g9
F0.25746395937623046
sg10
F0.23683708260252423
ssI38
(dp48
g9
F0.9461669914018112
sg10
F0.05410609317008408
ssI39
(dp49
g9
F0.002132703358812771
sg10
F0.6982717663848682
ssI40
(dp50
g9
F0.43257984713487596
sg10
F0.145588963745799
ssI41
(dp51
g9
F0.07578765294995604
sg10
F0.6878087207905966
ssI42
(dp52
g9
F0.3894774048531584
sg10
F0.0526952199213333
ssI43
(dp53
g9
F0.9695025769115099
sg10
F0.9162784206538559
ssI44
(dp54
g9
F0.04997257815130507
sg10
F0.634720852229327
ssI45
(dp55
g9
F0.10549689683523689
sg10
F0.24132292001558542
ssI46
(dp56
g9
F0.5007732568539656
sg10
F0.1468097361421674
ssI47
(dp57
g9
F0.429100433784656
sg10
F0.8422267066812087
ssI48
(dp58
g9
F0.5493653555402214
sg10
F0.786170816800035
ssI49
(dp59
g9
F0.5383015969587328
sg10
F0.33089895214129994
ssI50
(dp60
g9
F0.6506024472806387
sg10
F0.8632016923392947
ssI51
(dp61
g9
F0.7005548681619134
sg10
F0.6625752998802354
ssI52
(dp62
g9
F0.02945050090340917
sg10
F0.37050391581378306
ssI53
(dp63
g9
F0.8954583129081392
sg10
F0.7314286202373833
ssI54
(dp64
g9
F0.6826338314813496
sg10
F0.6206167726628633
ssI55
(dp65
g9
F0.09726067691156304
sg10
F0.5316324280470128
ssI56
(dp66
g9
F0.10607063380504245
sg10
F0.15868212197752563
ssI57
(dp67
g9
F0.20436439697016895
sg10
F0.9146067726028155
ssI58
(dp68
g9
F0.2695028053955604
sg10
F0.4667968794409536
ssI59
(dp69
g9
F0.5535288249644197
sg10
F0.88955719626706
ssI60
(dp70
g9
F0.30880899899839487
sg10
F0.8774423159420075
ssI61
(dp71
g9
F0.7353828579961925
sg10
F0.44290026603408084
ssI62
(dp72
g9
F0.2960142775950493
sg10
F0.8557203023305083
ssI63
(dp73
g9
F0.389539311307434
sg10
F0.04977927822752448
ssI64
(dp74
g9
F0.43477508937280307
sg10
F0.06250428396847019
ssI65
(dp75
g9
F0.8195565984091362
sg10
F0.4390563729599477
ssI66
(dp76
g9
F0.6168923680206639
sg10
F0.5695534903208764
ssI67
(dp77
g9
F0.007386572346004372
sg10
F0.10425698022200591
ssI68
(dp78
g9
F0.7924596254647727
sg10
F0.8073791192352454
ssI69
(dp79
g9
F0.6140459165268036
sg10
F0.48404143866681615
ssI70
(dp80
g9
F0.10459207810221105
sg10
F0.22224157945704714
ssI71
(dp81
g9
F0.6816285589482213
sg10
F0.5943799037341462
ssI72
(dp82
g9
F0.8590242949362513
sg10
F0.2947919124458791
ssI73
(dp83
g9
F0.5463405553604834
sg10
F0.9165506928887545
ssI74
(dp84
g9
F0.11523699869339055
sg10
F0.4549582852637468
ssI75
(dp85
g9
F0.3879192465661244
sg10
F0.8336215319135167
ssI76
(dp86
g9
F0.15888441467188152
sg10
F0.9629573105259811
ssI77
(dp87
g9
F0.4062050959037631
sg10
F0.803252627337438
ssI78
(dp88
g9
F0.743536455931482
sg10
F0.45175623437012247
ssI79
(dp89
g9
F0.5812287663583888
sg10
F0.7677479734647399
ssI80
(dp90
g9
F0.6713100553277347
sg10
F0.6124366924457436
ssI81
(dp91
g9
F0.6036588248348159
sg10
F0.16663003758198824
ssI82
(dp92
g9
F0.5415122871334361
sg10
F0.18344971991508507
ssI83
(dp93
g9
F0.10188414800833934
sg10
F0.9559381779895479
ssI84
(dp94
g9
F0.9522090958262956
sg10
F0.07434261976080137
ssI85
(dp95
g9
F0.34345781007423337
sg10
F0.7135023359414773
ssI86
(dp96
g9
F0.3049854855032412
sg10
F0.46643514189111945
ssI87
(dp97
g9
F0.3867047596561096
sg10
F0.5808771147988219
ssI88
(dp98
g9
F0.9795673116688083
sg10
F0.6807133861974248
ssI89
(dp99
g9
F0.74591547122069
sg10
F0.13448877712008944
ssI90
(dp100
g9
F0.5449296507109291
sg10
F0.6916617764379159
ssI91
(dp101
g9
F0.0358960304648035
sg10
F0.4311392101847412
ssI92
(dp102
g9
F0.3823634718195241
sg10
F0.6360918152073392
ssI93
(dp103
g9
F0.5235750643941561
sg10
F0.08205218510294232
ssI94
(dp104
g9
F0.5886445005027099
sg10
F0.9472869409324399
ssI95
(dp105
g9
F0.7992733676266193
sg10
F0.9960528451027126
ssI96
(dp106
g9
F0.023240748115967436
sg10
F0.5305257046162586
ssI97
(dp107
g9
F0.8513768886671275
sg10
F0.2908792379775579
ssI98
(dp108
g9
F0.26335082266301035
sg10
F0.587783003965678
ssI99
(dp109
g9
F0.9201395977856177
sg10
F0.09805979562818823
ssI100
(dp110
g9
F0.013408663207158833
sg10
F0.9417910644395899
ssI101
(dp111
g9
F0.19269148179595463
sg10
F0.00025170442489019784
ssI102
(dp112
g9
F0.7855780639584855
sg10
F0.8542609577644349
ssI103
(dp113
g9
F0.9663371940150024
sg10
F0.6000374627607988
ssI104
(dp114
g9
F0.12139083832878272
sg10
F0.776282609535687
ssI105
(dp115
g9
F0.854471268036517
sg10
F0.8630401224334289
ssI106
(dp116
g9
F0.05979186034918904
sg10
F0.26337467091418043
ssI107
(dp117
g9
F0.7999353480992191
sg10
F0.62671769186645
ssI108
(dp118
g9
F0.5957005813633964
sg10
F0.09515672525269137
ssI109
(dp119
g9
F0.8813904599774213
sg10
F0.754351960365764
ssI110
(dp120
g9
F0.36312398604235574
sg10
F0.08455223740951512
ssI111
(dp121
g9
F0.9933760760051755
sg10
F0.3322218439540132
ssI112
(dp122
g9
F0.24045725277142538
sg10
F0.16024854805549993
ssI113
(dp123
g9
F0.4893016897999348
sg10
F0.7978542508076953
ssI114
(dp124
g9
F0.24041279874083676
sg10
F0.010931856982452026
ssI115
(dp125
g9
F0.9138881716446251
sg10
F0.6452337081118993
ssI116
(dp126
g9
F0.29060176541954585
sg10
F0.7056721473012966
ssI117
(dp127
g9
F0.2272306577584905
sg10
F0.7599749136369064
ssI118
(dp128
g9
F0.7863211748106878
sg10
F0.2866568046353536
ssI119
(dp129
g9
F0.34077389943641045
sg10
F0.9011115885742833
ssI120
(dp130
g9
F0.887335719587501
sg10
F0.1855734092518393
ssI121
(dp131
g9
F0.6730662521769225
sg10
F0.07815163471064734
ssI122
(dp132
g9
F0.19521636485457805
sg10
F0.22917525478541567
ssI123
(dp133
g9
F0.013376177749187868
sg10
F0.9130734133696637
ssI124
(dp134
g9
F0.2574158974139539
sg10
F0.6809418585561915
ssI125
(dp135
g9
F0.9769185664725597
sg10
F0.3063169602790913
ssI126
(dp136
g9
F0.3046887896871646
sg10
F0.25204157950756545
ssI127
(dp137
g9
F0.747333937229512
sg10
F0.9625659720290561
ssI128
(dp138
g9
F0.42018778019543135
sg10
F0.07442384743533481
ssI129
(dp139
g9
F0.48875864322465934
sg10
F0.4113784028543592
ssI130
(dp140
g9
F0.2179631232118464
sg10
F0.4993378528299818
ssI131
(dp141
g9
F0.4506366563062011
sg10
F0.6603883486793324
ssI132
(dp142
g9
F0.6719364984405714
sg10
F0.5059545194930952
ssI133
(dp143
g9
F0.17060744601815114
sg10
F0.9067312828797152
ssI134
(dp144
g9
F0.8907336123088413
sg10
F0.7103253176550347
ssI135
(dp145
g9
F0.27139291893303963
sg10
F0.7904244786453759
ssI136
(dp146
g9
F0.5164774572160165
sg10
F0.6439878540439109
ssI137
(dp147
g9
F0.49460343924266315
sg10
F0.15302407942840757
ssI138
(dp148
g9
F0.662495242811328
sg10
F0.9760461371595389
ssI139
(dp149
g9
F0.9093635206136526
sg10
F0.741494548279587
ssI140
(dp150
g9
F0.6477033495899986
sg10
F0.6349303460014714
ssI141
(dp151
g9
F0.3074450555244487
sg10
F0.012570925722385384
ssI142
(dp152
g9
F0.22961790319471898
sg10
F0.12883336999079986
ssI143
(dp153
g9
F0.18518107108699522
sg10
F0.08689198419500488
ssI144
(dp154
g9
F0.81412295416641
sg10
F0.6570516298703303
ssI145
(dp155
g9
F0.5943124120237798
sg10
F0.8029146193806087
ssI146
(dp156
g9
F0.05535963663736443
sg10
F0.6791389559637414
ssI147
(dp157
g9
F0.2739285935819008
sg10
F0.8004847916696806
ssI148
(dp158
g9
F0.20605358098239068
sg10
F0.25490445986903076
ssI149
(dp159
g9
F0.9642511501713161
sg10
F0.7664393744243828
ssI150
(dp160
g9
F0.08479619185270582
sg10
F0.739769115502978
ssI151
(dp161
g9
F0.5935842260139822
sg10
F0.44099949820027295
ssI152
(dp162
g9
F0.700075756217975
sg10
F0.36394708799579367
ssI153
(dp163
g9
F0.3971991944008222
sg10
F0.5357540046245192
ssI154
(dp164
g9
F0.16800082511603653
sg10
F0.538888812688027
ssI155
(dp165
g9
F0.70339824593342
sg10
F0.17517680171029903
ssI156
(dp166
g9
F0.43189166721699357
sg10
F0.5545999171432142
ssI157
(dp167
g9
F0.9426382004947106
sg10
F0.6940464833647078
ssI158
(dp168
g9
F0.05933111429344262
sg10
F0.9220002929174987
ssI159
(dp169
g9
F0.1797887627465118
sg10
F0.7499314831777308
ssI160
(dp170
g9
F0.4292453387757532
sg10
F0.6715542026494814
ssI161
(dp171
g9
F0.25153478301889975
sg10
F0.08101999357452339
ssI162
(dp172
g9
F0.9574586682512407
sg10
F0.6861047830198319
ssI163
(dp173
g9
F0.6311595302382567
sg10
F0.7787824129455423
ssI164
(dp174
g9
F0.8617016167304031
sg10
F0.0063629177637493095
ssI165
(dp175
g9
F0.8626894703713578
sg10
F0.2930683420219332
ssI166
(dp176
g9
F0.597583554256563
sg10
F0.3295229555150888
ssI167
(dp177
g9
F0.10576671778019375
sg10
F0.3013843352382026
ssI168
(dp178
g9
F0.49831505268830945
sg10
F0.962412190145363
ssI169
(dp179
g9
F0.2296989588723788
sg10
F0.296530180187344
ssI170
(dp180
g9
F0.953286329259277
sg10
F0.06924948309933654
ssI171
(dp181
g9
F0.04747783727672383
sg10
F0.6781074155137778
ssI172
(dp182
g9
F0.4579281916346196
sg10
F0.4149855364043392
ssI173
(dp183
g9
F0.8341331751851694
sg10
F0.23737109626704211
ssI174
(dp184
g9
F0.33976798693343846
sg10
F0.33298058269893505
ssI175
(dp185
g9
F0.3879865811961388
sg10
F0.4253812790585987
ssI176
(dp186
g9
F0.24684740463279364
sg10
F0.6232907334957916
ssI177
(dp187
g9
F0.4253201579332637
sg10
F0.9165548775907113
ssI178
(dp188
g9
F0.8605134921761468
sg10
F0.8915523257950321
ssI179
(dp189
g9
F0.5829512502466652
sg10
F0.940936623383729
ssI180
(dp190
g9
F0.9917870535579929
sg10
F0.704463926297604
ssI181
(dp191
g9
F0.03209789205585312
sg10
F0.3222894801307138
ssI182
(dp192
g9
F0.46381796509071616
sg10
F0.9505842258668218
ssI183
(dp193
g9
F0.6202393681581924
sg10
F0.029741096861465754
ssI184
(dp194
g9
F0.9645109530552161
sg10
F0.21048700000035736
ssI185
(dp195
g9
F0.7180690715959295
sg10
F0.3380393191148249
ssI186
(dp196
g9
F0.6086087980742617
sg10
F0.4475475557107794
ssI187
(dp197
g9
F0.912618328031798
sg10
F0.2858954114747624
ssI188
(dp198
g9
F0.514292251122593
sg10
F0.027491310347533937
ssI189
(dp199
g9
F0.6099264809117116
sg10
F0.6622460220294072
ssI190
(dp200
g9
F0.44811138390960004
sg10
F0.14059673895066727
ssI191
(dp201
g9
F0.42441126915177685
sg10
F0.495636526569203
ssI192
(dp202
g9
F0.21593534409933335
sg10
F0.8221514242696267
ssI193
(dp203
g9
F0.14231516469552685
sg10
F0.6711720691589547
ssI194
(dp204
g9
F0.2825821046507865
sg10
F0.4152008955073093
ssI195
(dp205
g9
F0.8798707089715655
sg10
F0.5955670073729865
ssI196
(dp206
g9
F0.04779276371562813
sg10
F0.674264687697605
ssI197
(dp207
g9
F0.23559714426100686
sg10
F0.06405282312559568
ssI198
(dp208
g9
F0.24932272565130298
sg10
F0.5764015402634547
ssI199
(dp209
g9
F0.9518809588252582
sg10
F0.8665873802011655
ssI200
(dp210
g9
F0.34121597055526165
sg10
F0.9451060841640435
ssI201
(dp211
g9
F0.39504110244567237
sg10
F0.10863354052752106
ssI202
(dp212
g9
F0.5687355749086053
sg10
F0.4412706806112322
ssI203
(dp213
g9
F0.6328264153174615
sg10
F0.22817993730683583
ssI204
(dp214
g9
F0.22748344443230328
sg10
F0.392279897358776
ssI205
(dp215
g9
F0.7870341744550677
sg10
F0.3528513591141861
ssI206
(dp216
g9
F0.31855773849362956
sg10
F0.66735714306842
ssI207
(dp217
g9
F0.08528847287016594
sg10
F0.39674451561130486
ssI208
(dp218
g9
F0.7569403653171033
sg10
F0.6182726176886385
ssI209
(dp219
g9
F0.5297975134414423
sg10
F0.9964057655641545
ssI210
(dp220
g9
F0.39970841936048285
sg10
F0.9683963515178
ssI211
(dp221
g9
F0.7292431702503325
sg10
F0.05493152890474118
ssI212
(dp222
g9
F0.45491583912634015
sg10
F0.14868661586684828
ssI213
(dp223
g9
F0.6109414419096192
sg10
F0.49915477982221657
ssI214
(dp224
g9
F0.7238657441509481
sg10
F0.20927469997807835
ssI215
(dp225
g9
F0.09813495783346005
sg10
F0.5011040745809373
ssI216
(dp226
g9
F0.28681618037502676
sg10
F0.5898123506956386
ssI217
(dp227
g9
F0.6329055615266928
sg10
F0.5839435009640883
ssI218
(dp228
g9
F0.6966154611544257
sg10
F0.57933900368787
ssI219
(dp229
g9
F0.6636503109770806
sg10
F0.7865738286627606
ssI220
(dp230
g9
F0.6673923573514672
sg10
F0.17256332372055272
ssI221
(dp231
g9
F0.5338272134640998
sg10
F0.030548140455257333
ssI222
(dp232
g9
F0.748162720272586
sg10
F0.6820350940564556
ssI223
(dp233
g9
F0.69433249860305
sg10
F0.4884420369313516
ssI224
(dp234
g9
F0.9741608857839779
sg10
F0.46010400400609774
ssI225
(dp235
g9
F0.6615487526173768
sg10
F0.2811623981980925
ssI226
(dp236
g9
F0.7116588630092158
sg10
F0.34219157737127537
ssI227
(dp237
g9
F0.20902219984202042
sg10
F0.32220997565831444
ssI228
(dp238
g9
F0.593082738370139
sg10
F0.6051118700821729
ssI229
(dp239
g9
F0.9464185506802661
sg10
F0.10919520650683168
ssI230
(dp240
g9
F0.7678577329495798
sg10
F0.8065944595258163
ssI231
(dp241
g9
F0.211455432185934
sg10
F0.782639440016554
ssI232
(dp242
g9
F0.9286700273222206
sg10
F0.3497760486011724
ssI233
(dp243
g9
F0.3999096479682721
sg10
F0.07061525086023268
ssI234
(dp244
g9
F0.20569789110366166
sg10
F0.18731862947919642
ssI235
(dp245
g9
F0.2552071089118524
sg10
F0.6461837672903373
ssI236
(dp246
g9
F0.9414860577259119
sg10
F0.2637068164003189
ssI237
(dp247
g9
F0.40057480429511494
sg10
F0.5331384335970566
ssI238
(dp248
g9
F0.654333921616853
sg10
F0.3004894378703319
ssI239
(dp249
g9
F0.18403074255440577
sg10
F0.3295809014962887
ssI240
(dp250
g9
F0.29994943318669964
sg10
F0.573812489570256
ssI241
(dp251
g9
F0.6274258230241675
sg10
F0.25086838896326247
ssI242
(dp252
g9
F0.38660730192629766
sg10
F0.2145070006972818
ssI243
(dp253
g9
F0.5679937237911025
sg10
F0.1940704151945496
ssI244
(dp254
g9
F0.3152128312155811
sg10
F0.3663791809248108
ssI245
(dp255
g9
F0.2420800781033875
sg10
F0.56715703216108
ssI246
(dp256
g9
F0.18478965649057322
sg10
F0.1842916679714688
ssI247
(dp257
g9
F0.7201438560320248
sg10
F0.031418752443792
ssI248
(dp258
g9
F0.6534739918988515
sg10
F0.8301164268857286
ssI249
(dp259
g9
F0.7126574757055402
sg10
F0.22048693938786024
ssI250
(dp260
g9
F0.4722541281764696
sg10
F0.8115798306007319
ssI251
(dp261
g9
F0.6054906965927175
sg10
F0.4500189199540787
ssI252
(dp262
g9
F0.9475749286384442
sg10
F0.058432056678098254
ssI253
(dp263
g9
F0.06299400555548762
sg10
F0.02553433935860383
ssI254
(dp264
g9
F0.5684495764459138
sg10
F0.6603231816281415
ssI255
(dp265
g9
F0.5614267030789729
sg10
F0.2912127586637119
ssI256
(dp266
g9
F0.4013946229118721
sg10
F0.10156662541715522
ssI257
(dp267
g9
F0.3201268765577321
sg10
F0.28480013882445065
ssI258
(dp268
g9
F0.3108281654632773
sg10
F0.6059483689753855
ssI259
(dp269
g9
F0.5247479622669061
sg10
F0.4925274643371603
ssI260
(dp270
g9
F0.7786405653686201
sg10
F0.3034298709434803
ssI261
(dp271
g9
F0.8057066419687797
sg10
F0.859884738789015
ssI262
(dp272
g9
F0.45800912763291557
sg10
F0.6910209825897219
ssI263
(dp273
g9
F0.3594668331426981
sg10
F0.0019162280591720204
ssI264
(dp274
g9
F0.4976983827230269
sg10
F0.8070955623015456
ssI265
(dp275
g9
F0.1564184629649079
sg10
F0.4356554940825115
ssI266
(dp276
g9
F0.7921426915351221
sg10
F0.16714686383920896
ssI267
(dp277
g9
F0.40196629515512716
sg10
F0.4908644791437161
ssI268
(dp278
g9
F0.4006553347770918
sg10
F0.11185872113520368
ssI269
(dp279
g9
F0.41980763200154547
sg10
F0.6264171474340836
ssI270
(dp280
g9
F0.07137411945049565
sg10
F0.728454174913688
ssI271
(dp281
g9
F0.33704039768065497
sg10
F0.17391062856860318
ssI272
(dp282
g9
F0.9281224268469603
sg10
F0.23341660692736654
ssI273
(dp283
g9
F0.554192663671155
sg10
F0.6774730011594357
ssI274
(dp284
g9
F0.7447895287350283
sg10
F0.11187844966698035
ssI275
(dp285
g9
F0.6239769025578684
sg10
F0.06840980264806895
ssI276
(dp286
g9
F0.7108714818050302
sg10
F0.6388870644767732
ssI277
(dp287
g9
F0.9451248527536011
sg10
F0.8912529172725305
ssI278
(dp288
g9
F0.3704949329704158
sg10
F0.014795414542892238
ssI279
(dp289
g9
F0.37137160199587005
sg10
F0.8929078743410799
ssI280
(dp290
g9
F0.43829012196945716
sg10
F0.756182337416307
ssI281
(dp291
g9
F0.40420880258966785
sg10
F0.19992983860967461
ssI282
(dp292
g9
F0.32018346933504327
sg10
F0.5512598288942896
ssI283
(dp293
g9
F0.18033897252435793
sg10
F0.7213143359909389
ssI284
(dp294
g9
F0.27357350484622966
sg10
F0.14832097665215638
ssI285
(dp295
g9
F0.04318961692018708
sg10
F0.8889480618323568
ssI286
(dp296
g9
F0.08344030242750944
sg10
F0.5931832137671502
ssI287
(dp297
g9
F0.42589881328772916
sg10
F0.8437370047280522
ssI288
(dp298
g9
F0.680310104451364
sg10
F0.6895939988120758
ssI289
(dp299
g9
F0.09591355945472269
sg10
F0.047740783452313584
ssI290
(dp300
g9
F0.4041204021342256
sg10
F0.2495365749394216
ssI291
(dp301
g9
F0.4822880519196401
sg10
F0.5024479831417071
ssI292
(dp302
g9
F0.22767743292508769
sg10
F0.035798179131647734
ssI293
(dp303
g9
F0.9248132736036607
sg10
F0.6743184003488729
ssI294
(dp304
g9
F0.42827185277374014
sg10
F0.22226423997021894
ssI295
(dp305
g9
F0.33523508054000095
sg10
F0.6504717427795743
ssI296
(dp306
g9
F0.6604361178145036
sg10
F0.27487265372523373
ssI297
(dp307
g9
F0.5224927253727637
sg10
F0.19181122764852365
ssI298
(dp308
g9
F0.5091135680222604
sg10
F0.6825804634073794
ssI299
(dp309
g9
F0.6944916676445317
sg10
F0.8460702013366144
ssI300
(dp310
g9
F0.5067109947288403
sg10
F0.8612452991708526
ssI301
(dp311
g9
F0.1611218466569857
sg10
F0.6274991565429221
ssI302
(dp312
g9
F0.6375640356388351
sg10
F0.6664507395590119
ssI303
(dp313
g9
F0.7937642725718866
sg10
F0.8138283524886628
ssI304
(dp314
g9
F0.4805237143722342
sg10
F0.3237128499005678
ssI305
(dp315
g9
F0.9504955088616084
sg10
F0.42377033355060856
ssI306
(dp316
g9
F0.7652819628108621
sg10
F0.4122211875666911
ssI307
(dp317
g9
F0.941551357130914
sg10
F0.6683141281752656
ssI308
(dp318
g9
F0.6473659697049745
sg10
F0.23546192480951056
ssI309
(dp319
g9
F0.19741112317867682
sg10
F0.5882190791395945
ssI310
(dp320
g9
F0.15288381529810735
sg10
F0.5345192492806589
ssI311
(dp321
g9
F0.7206073847029159
sg10
F0.17343795740274814
ssI312
(dp322
g9
F0.3540611454549636
sg10
F0.27941728057982473
ssI313
(dp323
g9
F0.5007768626284793
sg10
F0.23577140942365937
ssI314
(dp324
g9
F0.33633066824963076
sg10
F0.10367052440908231
ssI315
(dp325
g9
F0.2440795668050989
sg10
F0.0028004147981879335
ssI316
(dp326
g9
F0.16141136776551812
sg10
F0.28212330936637664
ssI317
(dp327
g9
F0.027946515610591027
sg10
F0.9243244395825571
ssI318
(dp328
g9
F0.9544254781405301
sg10
F0.8102543310890737
ssI319
(dp329
g9
F0.7897529246641423
sg10
F0.27591713683110186
ssI320
(dp330
g9
F0.6149611401966757
sg10
F0.5917318903946502
ssI321
(dp331
g9
F0.1293858936327933
sg10
F0.8978989086678603
ssI322
(dp332
g9
F0.14408797924706507
sg10
F0.25152979583939805
ssI323
(dp333
g9
F0.26922221753094566
sg10
F0.7358784690658561
ssI324
(dp334
g9
F0.7134841082540623
sg10
F0.07020200323029235
ssI325
(dp335
g9
F0.6047641452348147
sg10
F0.18123790574129472
ssI326
(dp336
g9
F0.3835900349356848
sg10
F0.9392406060389606
ssI327
(dp337
g9
F0.7372950630190724
sg10
F0.9848612540789268
ssI328
(dp338
g9
F0.10320873617570081
sg10
F0.179775966562168
ssI329
(dp339
g9
F0.5224929228914383
sg10
F0.049616991772797325
ssI330
(dp340
g9
F0.06080484403241537
sg10
F0.12064567324839548
ssI331
(dp341
g9
F0.7461378387696171
sg10
F0.7956139903415153
ssI332
(dp342
g9
F0.47178828259454575
sg10
F0.34538917542227854
ssI333
(dp343
g9
F0.5310886744252821
sg10
F0.9589135855452842
ssI334
(dp344
g9
F0.9002316439580881
sg10
F0.8359597157687969
ssI335
(dp345
g9
F0.2794414961100806
sg10
F0.2554950058610981
ssI336
(dp346
g9
F0.5554797268213663
sg10
F0.28439527852739344
ssI337
(dp347
g9
F0.7184933053306592
sg10
F0.8239933064950479
ssI338
(dp348
g9
F0.8648346108023179
sg10
F0.14688395000936239
ssI339
(dp349
g9
F0.39987259233036687
sg10
F0.1831034598392406
ssI340
(dp350
g9
F0.6025639138734018
sg10
F0.9785418094738297
ssI341
(dp351
g9
F0.07039104856223877
sg10
F0.7317620495441515
ssI342
(dp352
g9
F0.6387038950816482
sg10
F0.7318992452700496
ssI343
(dp353
g9
F0.3424136637422991
sg10
F0.7109929121814095
ssI344
(dp354
g9
F0.692501657986101
sg10
F0.8311500117112367
ssI345
(dp355
g9
F0.021639558757143296
sg10
F0.5530318917337959
ssI346
(dp356
g9
F0.7746893998192858
sg10
F0.5035032533435883
ssI347
(dp357
g9
F0.26017532110283814
sg10
F0.19467520487306544
ssI348
(dp358
g9
F0.6523000794260392
sg10
F0.9131148998212937
ssI349
(dp359
g9
F0.0968305961268906
sg10
F0.9209983670360367
ssI350
(dp360
g9
F0.7411806321497567
sg10
F0.21051742655269357
ssI351
(dp361
g9
F0.6277847038453781
sg10
F0.744267420411694
ssI352
(dp362
g9
F0.821495459084813
sg10
F0.025532208255960587
ssI353
(dp363
g9
F0.29628664669303295
sg10
F0.17958115924513995
ssI354
(dp364
g9
F0.7465544587507172
sg10
F0.11662418782197925
ssI355
(dp365
g9
F0.09240973518492757
sg10
F0.5168729064604063
ssI356
(dp366
g9
F0.7035713750961052
sg10
F0.3099484666926601
ssI357
(dp367
g9
F0.9967216511333791
sg10
F0.3039052310182938
ssI358
(dp368
g9
F0.8970627857526341
sg10
F0.06820698901531719
ssI359
(dp369
g9
F0.5195309739804752
sg10
F0.5267928425152825
ssI360
(dp370
g9
F0.05195082809442464
sg10
F0.8879177663159006
ssI361
(dp371
g9
F0.7466018569641963
sg10
F0.3284498413143656
ssI362
(dp372
g9
F0.821940180327166
sg10
F0.1615822113824571
ssI363
(dp373
g9
F0.3647536674267625
sg10
F0.8758485553137412
ssI364
(dp374
g9
F0.3545816100987581
sg10
F0.7230151065272754
ssI365
(dp375
g9
F0.7341371219159363
sg10
F0.30350478534973024
ssI366
(dp376
g9
F0.14511981814104413
sg10
F0.10726771924231215
ssI367
(dp377
g9
F0.385893308399889
sg10
F0.8888154678795523
ssI368
(dp378
g9
F0.31231487587678064
sg10
F0.47917681699936854
ssI369
(dp379
g9
F0.34794294755769395
sg10
F0.6663039896346982
ssI370
(dp380
g9
F0.7967710445861308
sg10
F0.4698035507264088
ssI371
(dp381
g9
F0.2473659606385218
sg10
F0.5594531798259231
ssI372
(dp382
g9
F0.3856854316410767
sg10
F0.4926415119393749
ssI373
(dp383
g9
F0.44229832945073
sg10
F0.7514385297759926
ssI374
(dp384
g9
F0.5454694075968672
sg10
F0.1796622965379554
ssI375
(dp385
g9
F0.9816656039891993
sg10
F0.11144815705000355
ssI376
(dp386
g9
F0.44637235789428953
sg10
F0.069164542692698
ssI377
(dp387
g9
F0.8830390601074112
sg10
F0.17601047631371025
ssI378
(dp388
g9
F0.28941975791533103
sg10
F0.43975454859380836
ssI379
(dp389
g9
F0.49515901968457676
sg10
F0.5007438539555978
ssI380
(dp390
g9
F0.814896019818967
sg10
F0.6271769093399069
ssI381
(dp391
g9
F0.3351670894530213
sg10
F0.738511006308256
ssI382
(dp392
g9
F0.1979465871088465
sg10
F0.16656955419779795
ssI383
(dp393
g9
F0.9023259191078704
sg10
F0.8325646360097736
ssI384
(dp394
g9
F0.1988984005299309
sg10
F0.7046702726852089
ssI385
(dp395
g9
F0.4847852520150171
sg10
F0.5699875372846513
ssI386
(dp396
g9
F0.30395706033780556
sg10
F0.947031934469925
ssI387
(dp397
g9
F0.9656565526942095
sg10
F0.5851195600758405
ssI388
(dp398
g9
F0.6306099481891952
sg10
F0.29938284766029766
ssI389
(dp399
g9
F0.4958670491459891
sg10
F0.5694874336880936
ssI390
(dp400
g9
F0.14841666871355452
sg10
F0.5592642842674422
ssI391
(dp401
g9
F0.5874505324778493
sg10
F0.8092734082136908
ssI392
(dp402
g9
F0.20623090438346392
sg10
F0.4774458031620735
ssI393
(dp403
g9
F0.21649509922906218
sg10
F0.7015162294476485
ssI394
(dp404
g9
F0.62395546302778
sg10
F0.31570275649190516
ssI395
(dp405
g9
F0.4722752709938861
sg10
F0.8340240893561578
ssI396
(dp406
g9
F0.6411673429542657
sg10
F0.841795230031507
ssI397
(dp407
g9
F0.5831881865154288
sg10
F0.7042197478214834
ssI398
(dp408
g9
F0.6558112730308933
sg10
F0.29482266425413484
ssI399
(dp409
g9
F0.04747611085398207
sg10
F0.9562008797359797
ssI400
(dp410
g9
F0.6919873639951349
sg10
F0.9527818891475079
ssI401
(dp411
g9
F0.3789129978563649
sg10
F0.2708108578995254
ssI402
(dp412
g9
F0.7438715170577976
sg10
F0.8364207597978848
ssI403
(dp413
g9
F0.3453557872841959
sg10
F0.7435565945445795
ssI404
(dp414
g9
F0.57238320919238
sg10
F0.4978090231548138
ssI405
(dp415
g9
F0.8912197960890502
sg10
F0.3407949305753164
ssI406
(dp416
g9
F0.8169275217223023
sg10
F0.7688999008910709
ssI407
(dp417
g9
F0.7028374962896744
sg10
F0.03292392743870087
ssI408
(dp418
g9
F0.6855483307040139
sg10
F0.9151753653133687
ssI409
(dp419
g9
F0.6931017492209813
sg10
F0.6829014100210055
ssI410
(dp420
g9
F0.7665345392080942
sg10
F0.5391589914833198
ssI411
(dp421
g9
F0.058789056633396175
sg10
F0.9096738908421619
ssI412
(dp422
g9
F0.9587494662754854
sg10
F0.4966441658520131
ssI413
(dp423
g9
F0.576768406522071
sg10
F0.07562802601105933
ssI414
(dp424
g9
F0.6616053309272881
sg10
F0.574185596194528
ssI415
(dp425
g9
F0.30837183263620016
sg10
F0.3793528341379687
ssI416
(dp426
g9
F0.35734541713992884
sg10
F0.47061520151186687
ssI417
(dp427
g9
F0.003207698679386084
sg10
F0.441264702124723
ssI418
(dp428
g9
F0.546478770238989
sg10
F0.8662231047280612
ssI419
(dp429
g9
F0.8807934474880793
sg10
F0.45514836215876975
ssI420
(dp430
g9
F0.30003101028737555
sg10
F0.912757445243242
ssI421
(dp431
g9
F0.25253695831493617
sg10
F0.5400643579488409
ssI422
(dp432
g9
F0.07805541006325234
sg10
F0.10908466605578226
ssI423
(dp433
g9
F0.9407550987950161
sg10
F0.5361657303354445
ssI424
(dp434
g9
F0.6883661642364093
sg10
F0.2044784565516633
ssI425
(dp435
g9
F0.5896914126212095
sg10
F0.7106106409093338
ssI426
(dp436
g9
F0.9091226512656047
sg10
F0.0020367625861850147
ssI427
(dp437
g9
F0.8047505082898658
sg10
F0.5131775662380796
ssI428
(dp438
g9
F0.5109854952057867
sg10
F0.29358698547412143
ssI429
(dp439
g9
F0.7866830383830747
sg10
F0.9498665719911203
ssI430
(dp440
g9
F0.7593852035680605
sg10
F0.8238883949936197
ssI431
(dp441
g9
F0.25732690475605535
sg10
F0.9174674521127864
ssI432
(dp442
g9
F0.573313032521478
sg10
F0.8593159192819269
ssI433
(dp443
g9
F0.1934089555459223
sg10
F0.6904318386150972
ssI434
(dp444
g9
F0.40960434574997284
sg10
F0.8702350045812693
ssI435
(dp445
g9
F0.9158460226161313
sg10
F0.19697181640737793
ssI436
(dp446
g9
F0.816272351159701
sg10
F0.6967366669009211
ssI437
(dp447
g9
F0.4677627356538827
sg10
F0.9768100883629627
ssI438
(dp448
g9
F0.7689034702926153
sg10
F0.057822161420035045
ssI439
(dp449
g9
F0.40382248308563873
sg10
F0.036887961143373116
ssI440
(dp450
g9
F0.9437149729592356
sg10
F0.2548778483507713
ssI441
(dp451
g9
F0.7856604911689665
sg10
F0.5763053961156572
ssI442
(dp452
g9
F0.7130175161941391
sg10
F0.889072184891839
ssI443
(dp453
g9
F0.4836379907312873
sg10
F0.15876311978627433
ssI444
(dp454
g9
F0.33343315392317974
sg10
F0.772545146315866
ssI445
(dp455
g9
F0.19401197361767508
sg10
F0.0781791224119226
ssI446
(dp456
g9
F0.3587155271741268
sg10
F0.7074965910455941
ssI447
(dp457
g9
F0.8802492885866886
sg10
F0.23986462234210681
ssI448
(dp458
g9
F0.9962712509111729
sg10
F0.6177219803153908
ssI449
(dp459
g9
F0.8517996418589604
sg10
F0.817377796671916
ssI450
(dp460
g9
F0.500004669896133
sg10
F0.9544288645042066
ssI451
(dp461
g9
F0.008880199538929379
sg10
F0.6315456764897867
ssI452
(dp462
g9
F0.9760113382332481
sg10
F0.9553273225927493
ssI453
(dp463
g9
F0.6175699387490107
sg10
F0.044865060685574165
ssI454
(dp464
g9
F0.3661737974073833
sg10
F0.37739002299714164
ssI455
(dp465
g9
F0.9464934391742644
sg10
F0.282568848690658
ssI456
(dp466
g9
F0.21219920424658345
sg10
F0.23614244140170504
ssI457
(dp467
g9
F0.28156108334694674
sg10
F0.7205560825055566
ssI458
(dp468
g9
F0.6531204465069743
sg10
F0.49066884188353144
ssI459
(dp469
g9
F0.9906405014104269
sg10
F0.17229914477148578
ssI460
(dp470
g9
F0.5880432180537402
sg10
F0.3534672881493838
ssI461
(dp471
g9
F0.10207666250927194
sg10
F0.6084358700221872
ssI462
(dp472
g9
F0.9367721790062701
sg10
F0.32265725056937467
ssI463
(dp473
g9
F0.33715700744641086
sg10
F0.7712483631175389
ssI464
(dp474
g9
F0.18259166637189717
sg10
F0.39366752286885165
ssI465
(dp475
g9
F0.6937344611979697
sg10
F0.8116734016864272
ssI466
(dp476
g9
F0.4381466284939385
sg10
F0.7728749437408412
ssI467
(dp477
g9
F0.600741560081902
sg10
F0.6749783841301243
ssI468
(dp478
g9
F0.5268729931327745
sg10
F0.8502651242344367
ssI469
(dp479
g9
F0.27116684854277606
sg10
F0.6227805162043645
ssI470
(dp480
g9
F0.9825845107716805
sg10
F0.5636381378068201
ssI471
(dp481
g9
F0.5689795541340473
sg10
F0.46020531847329205
ssI472
(dp482
g9
F0.528866946753773
sg10
F0.35939294239568464
ssI473
(dp483
g9
F0.9485970268560965
sg10
F0.20516081549941412
ssI474
(dp484
g9
F0.6878957218994161
sg10
F0.09145425514859085
ssI475
(dp485
g9
F0.9819982937221566
sg10
F0.47508042405941764
ssI476
(dp486
g9
F0.22494831982741137
sg10
F0.4864759190917245
ssI477
(dp487
g9
F0.6542041107465972
sg10
F0.13408696542059162
ssI478
(dp488
g9
F0.48290711357048255
sg10
F0.6580254984126395
ssI479
(dp489
g9
F0.48081680965447404
sg10
F0.9306993471150586
ssI480
(dp490
g9
F0.09130254155951467
sg10
F0.5242144443091207
ssI481
(dp491
g9
F0.5516008300022887
sg10
F0.632173064842104
ssI482
(dp492
g9
F0.45828781112477457
sg10
F0.4749174013589573
ssI483
(dp493
g9
F0.28964719003355865
sg10
F0.4539516936339031
ssI484
(dp494
g9
F0.3293000306377011
sg10
F0.37040125309496463
ssI485
(dp495
g9
F0.09172773342892737
sg10
F0.7782576357029833
ssI486
(dp496
g9
F0.9472960195027568
sg10
F0.012400703469041097
ssI487
(dp497
g9
F0.12442427087733776
sg10
F0.4959376298849095
ssI488
(dp498
g9
F0.36563090178600377
sg10
F0.6373955813765054
ssI489
(dp499
g9
F0.290925211885912
sg10
F0.6184222234619953
ssI490
(dp500
g9
F0.19634124207561632
sg10
F0.7454416070163252
ssI491
(dp501
g9
F0.8733623680271047
sg10
F0.4533936856794394
ssI492
(dp502
g9
F0.10040925188740324
sg10
F0.6030994043681634
ssI493
(dp503
g9
F0.3643104589614601
sg10
F0.1791740942997586
ssI494
(dp504
g9
F0.7128753602583042
sg10
F0.4605114630073245
ssI495
(dp505
g9
F0.12031894283153965
sg10
F0.3851726796562157
ssI496
(dp506
g9
F0.7023347687760451
sg10
F0.319415890679386
ssI497
(dp507
g9
F0.3056404650683652
sg10
F0.622543783371098
ssI498
(dp508
g9
F0.3241460729948683
sg10
F0.5009579955618251
ssI499
(dp509
g9
F0.08263523323501609
sg10
F0.12039716055507244
sssS'node_dict_factory'
p510
c__builtin__
dict
p511
sS'edge_attr_dict_factory'
p512
g511
sS'edge'
p513
(dp514
I0
(dp515
sI1
(dp516
sI2
(dp517
sI3
(dp518
sI4
(dp519
sI5
(dp520
sI6
(dp521
sI7
(dp522
sI8
(dp523
sI9
(dp524
sI10
(dp525
sI11
(dp526
sI12
(dp527
sI13
(dp528
sI14
(dp529
sI15
(dp530
sI16
(dp531
sI17
(dp532
sI18
(dp533
sI19
(dp534
sI20
(dp535
sI21
(dp536
sI22
(dp537
sI23
(dp538
sI24
(dp539
sI25
(dp540
sI26
(dp541
sI27
(dp542
sI28
(dp543
sI29
(dp544
sI30
(dp545
sI31
(dp546
sI32
(dp547
sI33
(dp548
sI34
(dp549
sI35
(dp550
sI36
(dp551
sI37
(dp552
sI38
(dp553
sI39
(dp554
sI40
(dp555
sI41
(dp556
sI42
(dp557
sI43
(dp558
sI44
(dp559
sI45
(dp560
sI46
(dp561
sI47
(dp562
sI48
(dp563
sI49
(dp564
sI50
(dp565
sI51
(dp566
sI52
(dp567
sI53
(dp568
sI54
(dp569
sI55
(dp570
sI56
(dp571
sI57
(dp572
sI58
(dp573
sI59
(dp574
sI60
(dp575
sI61
(dp576
sI62
(dp577
sI63
(dp578
sI64
(dp579
sI65
(dp580
sI66
(dp581
sI67
(dp582
sI68
(dp583
sI69
(dp584
sI70
(dp585
sI71
(dp586
sI72
(dp587
sI73
(dp588
sI74
(dp589
sI75
(dp590
sI76
(dp591
sI77
(dp592
sI78
(dp593
sI79
(dp594
sI80
(dp595
sI81
(dp596
sI82
(dp597
sI83
(dp598
sI84
(dp599
sI85
(dp600
sI86
(dp601
sI87
(dp602
sI88
(dp603
sI89
(dp604
sI90
(dp605
sI91
(dp606
sI92
(dp607
sI93
(dp608
sI94
(dp609
sI95
(dp610
sI96
(dp611
sI97
(dp612
sI98
(dp613
sI99
(dp614
sI100
(dp615
sI101
(dp616
sI102
(dp617
sI103
(dp618
sI104
(dp619
sI105
(dp620
sI106
(dp621
sI107
(dp622
sI108
(dp623
sI109
(dp624
sI110
(dp625
sI111
(dp626
sI112
(dp627
sI113
(dp628
sI114
(dp629
sI115
(dp630
sI116
(dp631
sI117
(dp632
sI118
(dp633
sI119
(dp634
sI120
(dp635
sI121
(dp636
sI122
(dp637
sI123
(dp638
sI124
(dp639
sI125
(dp640
sI126
(dp641
sI127
(dp642
sI128
(dp643
sI129
(dp644
sI130
(dp645
sI131
(dp646
sI132
(dp647
sI133
(dp648
sI134
(dp649
sI135
(dp650
sI136
(dp651
sI137
(dp652
sI138
(dp653
sI139
(dp654
sI140
(dp655
sI141
(dp656
sI142
(dp657
sI143
(dp658
sI144
(dp659
sI145
(dp660
sI146
(dp661
sI147
(dp662
sI148
(dp663
sI149
(dp664
sI150
(dp665
sI151
(dp666
sI152
(dp667
sI153
(dp668
sI154
(dp669
sI155
(dp670
sI156
(dp671
sI157
(dp672
sI158
(dp673
sI159
(dp674
sI160
(dp675
sI161
(dp676
sI162
(dp677
sI163
(dp678
sI164
(dp679
sI165
(dp680
sI166
(dp681
sI167
(dp682
sI168
(dp683
sI169
(dp684
sI170
(dp685
sI171
(dp686
sI172
(dp687
sI173
(dp688
sI174
(dp689
sI175
(dp690
sI176
(dp691
sI177
(dp692
sI178
(dp693
sI179
(dp694
sI180
(dp695
sI181
(dp696
sI182
(dp697
sI183
(dp698
sI184
(dp699
sI185
(dp700
sI186
(dp701
sI187
(dp702
sI188
(dp703
sI189
(dp704
sI190
(dp705
sI191
(dp706
sI192
(dp707
sI193
(dp708
sI194
(dp709
sI195
(dp710
sI196
(dp711
sI197
(dp712
sI198
(dp713
sI199
(dp714
sI200
(dp715
sI201
(dp716
sI202
(dp717
sI203
(dp718
sI204
(dp719
sI205
(dp720
sI206
(dp721
sI207
(dp722
sI208
(dp723
sI209
(dp724
sI210
(dp725
sI211
(dp726
sI212
(dp727
sI213
(dp728
sI214
(dp729
sI215
(dp730
sI216
(dp731
sI217
(dp732
sI218
(dp733
sI219
(dp734
sI220
(dp735
sI221
(dp736
sI222
(dp737
sI223
(dp738
sI224
(dp739
sI225
(dp740
sI226
(dp741
sI227
(dp742
sI228
(dp743
sI229
(dp744
sI230
(dp745
sI231
(dp746
sI232
(dp747
sI233
(dp748
sI234
(dp749
sI235
(dp750
sI236
(dp751
sI237
(dp752
sI238
(dp753
sI239
(dp754
sI240
(dp755
sI241
(dp756
sI242
(dp757
sI243
(dp758
sI244
(dp759
sI245
(dp760
sI246
(dp761
sI247
(dp762
sI248
(dp763
sI249
(dp764
sI250
(dp765
sI251
(dp766
sI252
(dp767
sI253
(dp768
sI254
(dp769
sI255
(dp770
sI256
(dp771
sI257
(dp772
sI258
(dp773
sI259
(dp774
sI260
(dp775
sI261
(dp776
sI262
(dp777
sI263
(dp778
sI264
(dp779
sI265
(dp780
sI266
(dp781
sI267
(dp782
sI268
(dp783
sI269
(dp784
sI270
(dp785
sI271
(dp786
sI272
(dp787
sI273
(dp788
sI274
(dp789
sI275
(dp790
sI276
(dp791
sI277
(dp792
sI278
(dp793
sI279
(dp794
sI280
(dp795
sI281
(dp796
sI282
(dp797
sI283
(dp798
sI284
(dp799
sI285
(dp800
sI286
(dp801
sI287
(dp802
sI288
(dp803
sI289
(dp804
sI290
(dp805
sI291
(dp806
sI292
(dp807
sI293
(dp808
sI294
(dp809
sI295
(dp810
sI296
(dp811
sI297
(dp812
sI298
(dp813
sI299
(dp814
sI300
(dp815
sI301
(dp816
sI302
(dp817
sI303
(dp818
sI304
(dp819
sI305
(dp820
sI306
(dp821
sI307
(dp822
sI308
(dp823
sI309
(dp824
sI310
(dp825
sI311
(dp826
sI312
(dp827
sI313
(dp828
sI314
(dp829
sI315
(dp830
sI316
(dp831
sI317
(dp832
sI318
(dp833
sI319
(dp834
sI320
(dp835
sI321
(dp836
sI322
(dp837
sI323
(dp838
sI324
(dp839
sI325
(dp840
sI326
(dp841
sI327
(dp842
sI328
(dp843
sI329
(dp844
sI330
(dp845
sI331
(dp846
sI332
(dp847
sI333
(dp848
sI334
(dp849
sI335
(dp850
sI336
(dp851
sI337
(dp852
sI338
(dp853
sI339
(dp854
sI340
(dp855
sI341
(dp856
sI342
(dp857
sI343
(dp858
sI344
(dp859
sI345
(dp860
sI346
(dp861
sI347
(dp862
sI348
(dp863
sI349
(dp864
sI350
(dp865
sI351
(dp866
sI352
(dp867
sI353
(dp868
sI354
(dp869
sI355
(dp870
sI356
(dp871
sI357
(dp872
sI358
(dp873
sI359
(dp874
sI360
(dp875
sI361
(dp876
sI362
(dp877
sI363
(dp878
sI364
(dp879
sI365
(dp880
sI366
(dp881
sI367
(dp882
sI368
(dp883
sI369
(dp884
sI370
(dp885
sI371
(dp886
sI372
(dp887
sI373
(dp888
sI374
(dp889
sI375
(dp890
sI376
(dp891
sI377
(dp892
sI378
(dp893
sI379
(dp894
sI380
(dp895
sI381
(dp896
sI382
(dp897
sI383
(dp898
sI384
(dp899
sI385
(dp900
sI386
(dp901
sI387
(dp902
sI388
(dp903
sI389
(dp904
sI390
(dp905
sI391
(dp906
sI392
(dp907
sI393
(dp908
sI394
(dp909
sI395
(dp910
sI396
(dp911
sI397
(dp912
sI398
(dp913
sI399
(dp914
sI400
(dp915
sI401
(dp916
sI402
(dp917
sI403
(dp918
sI404
(dp919
sI405
(dp920
sI406
(dp921
sI407
(dp922
sI408
(dp923
sI409
(dp924
sI410
(dp925
sI411
(dp926
sI412
(dp927
sI413
(dp928
sI414
(dp929
sI415
(dp930
sI416
(dp931
sI417
(dp932
sI418
(dp933
sI419
(dp934
sI420
(dp935
sI421
(dp936
sI422
(dp937
sI423
(dp938
sI424
(dp939
sI425
(dp940
sI426
(dp941
sI427
(dp942
sI428
(dp943
sI429
(dp944
sI430
(dp945
sI431
(dp946
sI432
(dp947
sI433
(dp948
sI434
(dp949
sI435
(dp950
sI436
(dp951
sI437
(dp952
sI438
(dp953
sI439
(dp954
sI440
(dp955
sI441
(dp956
sI442
(dp957
sI443
(dp958
sI444
(dp959
sI445
(dp960
sI446
(dp961
sI447
(dp962
sI448
(dp963
sI449
(dp964
sI450
(dp965
sI451
(dp966
sI452
(dp967
sI453
(dp968
sI454
(dp969
sI455
(dp970
sI456
(dp971
sI457
(dp972
sI458
(dp973
sI459
(dp974
sI460
(dp975
sI461
(dp976
sI462
(dp977
sI463
(dp978
sI464
(dp979
sI465
(dp980
sI466
(dp981
sI467
(dp982
sI468
(dp983
sI469
(dp984
sI470
(dp985
sI471
(dp986
sI472
(dp987
sI473
(dp988
sI474
(dp989
sI475
(dp990
sI476
(dp991
sI477
(dp992
sI478
(dp993
sI479
(dp994
sI480
(dp995
sI481
(dp996
sI482
(dp997
sI483
(dp998
sI484
(dp999
sI485
(dp1000
sI486
(dp1001
sI487
(dp1002
sI488
(dp1003
sI489
(dp1004
sI490
(dp1005
sI491
(dp1006
sI492
(dp1007
sI493
(dp1008
sI494
(dp1009
sI495
(dp1010
sI496
(dp1011
sI497
(dp1012
sI498
(dp1013
sI499
(dp1014
ssS'graph'
p1015
(dp1016
sS'adjlist_dict_factory'
p1017
g511
sS'adj'
p1018
g514
sb.