ccopy_reg
_reconstructor
p0
(cnetworkx.classes.graph
Graph
p1
c__builtin__
object
p2
Ntp3
Rp4
(dp5
S'node'
p6
(dp7
I0
(dp8
S'pos_x'
p9
F0.7447982403224789
sS'pos_y'
p10
F0.12725872564518748
ssI1
(dp11
g9
F0.9914457539002782
sg10
F0.548177368546101
ssI2
(dp12
g9
F0.6096626636641266
sg10
F0.2720401630024968
ssI3
(dp13
g9
F0.47289351582767525
sg10
F0.17410422603024223
ssI4
(dp14
g9
F0.9212083503512168
sg10
F0.11708369418912812
ssI5
(dp15
g9
F0.564112940079765
sg10
F0.17008278257974618
ssI6
(dp16
g9
F0.4420645144999673
sg10
F0.23594694797131432
ssI7
(dp17
g9
F0.6860253328017389
sg10
F0.740604110723007
ssI8
(dp18
g9
F0.10573547523734117
sg10
F0.252550826312379
ssI9
(dp19
g9
F0.2624141844244703
sg10
F0.38071923996873713
ssI10
(dp20
g9
F0.4903159374159073
sg10
F0.9241382666412917
ssI11
(dp21
g9
F0.5923833874799102
sg10
F0.05597940235379717
ssI12
(dp22
g9
F0.7215245374674151
sg10
F0.9150017796597377
ssI13
(dp23
g9
F0.1825549460784902
sg10
F0.45148777450354105
ssI14
(dp24
g9
F0.7775312471275388
sg10
F0.39788322915170626
ssI15
(dp25
g9
F0.450248506138923
sg10
F0.21655627591090498
ssI16
(dp26
g9
F0.33452638472610197
sg10
F0.04383573290839782
ssI17
(dp27
g9
F0.9307462270616524
sg10
F0.4729790190812526
ssI18
(dp28
g9
F0.6493379639658262
sg10
F0.2900167928173917
ssI19
(dp29
g9
F0.686690520049572
sg10
F0.7466170594617608
ssI20
(dp30
g9
F0.4770363656114611
sg10
F0.26733999025631583
ssI21
(dp31
g9
F0.5971028658394214
sg10
F0.22691687474858635
ssI22
(dp32
g9
F0.2828894546839731
sg10
F0.8778513798578724
ssI23
(dp33
g9
F0.8142546870123284
sg10
F0.9903185625294685
ssI24
(dp34
g9
F0.6834832311359874
sg10
F0.7786439808420534
ssI25
(dp35
g9
F0.37843310172082556
sg10
F0.19118538129847562
ssI26
(dp36
g9
F0.649761085062956
sg10
F0.10279030722029325
ssI27
(dp37
g9
F0.10102492605024815
sg10
F0.024964527173318762
ssI28
(dp38
g9
F0.9719613498478833
sg10
F0.8350325870463385
ssI29
(dp39
g9
F0.6261039113041732
sg10
F0.6994056415540053
ssI30
(dp40
g9
F0.7701529747580481
sg10
F0.8186211113668818
ssI31
(dp41
g9
F0.5857211931046487
sg10
F0.8698650076004131
ssI32
(dp42
g9
F0.3494514790746942
sg10
F0.8565440621352335
ssI33
(dp43
g9
F0.8131238853870298
sg10
F0.7008635054472908
ssI34
(dp44
g9
F0.820092358572964
sg10
F0.22454271963704786
ssI35
(dp45
g9
F0.36002513389992186
sg10
F0.1536402052596899
ssI36
(dp46
g9
F0.7927697723635632
sg10
F0.7919821035050378
ssI37
(dp47
g9
F0.30817798305220456
sg10
F0.08140860038520614
ssI38
(dp48
g9
F0.23217403203931752
sg10
F0.8336231482883222
ssI39
(dp49
g9
F0.9688738011950974
sg10
F0.3731208391125319
ssI40
(dp50
g9
F0.07261875682203589
sg10
F0.5996772351104962
ssI41
(dp51
g9
F0.43099067812877556
sg10
F0.7934555096071109
ssI42
(dp52
g9
F0.6129323047628968
sg10
F0.1166370510982424
ssI43
(dp53
g9
F0.10974789346929326
sg10
F0.3603601576245792
ssI44
(dp54
g9
F0.3760131262642298
sg10
F0.506638751906024
ssI45
(dp55
g9
F0.1427190921076974
sg10
F0.5467374601089962
ssI46
(dp56
g9
F0.7216212243163057
sg10
F0.6617340426582443
ssI47
(dp57
g9
F0.3100170454788427
sg10
F0.19571596262541413
ssI48
(dp58
g9
F0.8750196279899454
sg10
F0.18129767844002942
ssI49
(dp59
g9
F0.30649032342991456
sg10
F0.5124652375482958
ssI50
(dp60
g9
F0.11176141804964579
sg10
F0.06283139732796617
ssI51
(dp61
g9
F0.8481688258897634
sg10
F0.1832892745370498
ssI52
(dp62
g9
F0.7025396143082214
sg10
F0.23515124007877297
ssI53
(dp63
g9
F0.912324597111762
sg10
F0.2149905946366395
ssI54
(dp64
g9
F0.9054690737103699
sg10
F0.7785190053469652
ssI55
(dp65
g9
F0.5469877310471372
sg10
F0.3749890376364913
ssI56
(dp66
g9
F0.3444955418584642
sg10
F0.8479360335276407
ssI57
(dp67
g9
F0.41536817816400384
sg10
F0.71363935947566
ssI58
(dp68
g9
F0.9780717355325358
sg10
F0.0718334089028605
ssI59
(dp69
g9
F0.9085098827051987
sg10
F0.34908947293190595
ssI60
(dp70
g9
F0.5143305155102218
sg10
F0.5268380014611259
ssI61
(dp71
g9
F0.02757326769515811
sg10
F0.4394659372143078
ssI62
(dp72
g9
F0.08654569917359622
sg10
F0.9101056823126671
ssI63
(dp73
g9
F0.8539461027436672
sg10
F0.793113424959496
ssI64
(dp74
g9
F0.8413256910182019
sg10
F0.9298639194698822
ssI65
(dp75
g9
F0.906553903555076
sg10
F0.48365399281005317
ssI66
(dp76
g9
F0.7130339473414924
sg10
F0.36073420758486374
ssI67
(dp77
g9
F0.7488371288879856
sg10
F0.1494628666961748
ssI68
(dp78
g9
F0.99288658325289
sg10
F0.786552466895965
ssI69
(dp79
g9
F0.3968935474949181
sg10
F0.5891948048525157
ssI70
(dp80
g9
F0.08541064865991721
sg10
F0.5101442552419326
ssI71
(dp81
g9
F0.3386870598664229
sg10
F0.5290514418251168
ssI72
(dp82
g9
F0.6769299321198532
sg10
F0.5606350460633109
ssI73
(dp83
g9
F0.47792794522773396
sg10
F0.03812187559941582
ssI74
(dp84
g9
F0.6115248058012943
sg10
F0.4436777083721347
ssI75
(dp85
g9
F0.6745863322022174
sg10
F0.447080106556782
ssI76
(dp86
g9
F0.09401965454324401
sg10
F0.5763796248514301
ssI77
(dp87
g9
F0.5868413232845389
sg10
F0.8347936149361601
ssI78
(dp88
g9
F0.5571879167962536
sg10
F0.956714896723989
ssI79
(dp89
g9
F0.48031899846328674
sg10
F0.16944762680780312
ssI80
(dp90
g9
F0.5890210768906649
sg10
F0.04844735072514328
ssI81
(dp91
g9
F0.09806941027394633
sg10
F0.2322245293109254
ssI82
(dp92
g9
F0.6258861520648653
sg10
F0.48421314058756926
ssI83
(dp93
g9
F0.04042485485084857
sg10
F0.7472389192943171
ssI84
(dp94
g9
F0.10411162583070066
sg10
F0.583198773362972
ssI85
(dp95
g9
F0.6479133510743273
sg10
F0.8437821931207656
ssI86
(dp96
g9
F0.6432319876615024
sg10
F0.3179742935347646
ssI87
(dp97
g9
F0.96199948668312
sg10
F0.35755966755976976
ssI88
(dp98
g9
F0.2759406269163569
sg10
F0.3947324852312759
ssI89
(dp99
g9
F0.3549965519185003
sg10
F0.5393329345538179
ssI90
(dp100
g9
F0.0939683580730647
sg10
F0.30685950947929286
ssI91
(dp101
g9
F0.014563275052897118
sg10
F0.14312023511010052
ssI92
(dp102
g9
F0.2838841266843213
sg10
F0.8437635040400775
ssI93
(dp103
g9
F0.3253406628818375
sg10
F0.6724303585289151
ssI94
(dp104
g9
F0.007627856019756019
sg10
F0.5882071364151141
ssI95
(dp105
g9
F0.9693537974499254
sg10
F0.752686020336604
ssI96
(dp106
g9
F0.3811054183123894
sg10
F0.12912959605026497
ssI97
(dp107
g9
F0.5154796478692135
sg10
F0.99763143378009
ssI98
(dp108
g9
F0.3791332172387816
sg10
F0.19921522535565883
ssI99
(dp109
g9
F0.7566504633129539
sg10
F0.819689882785381
ssI100
(dp110
g9
F0.4944267640174125
sg10
F0.3852081693905921
ssI101
(dp111
g9
F0.8604045912829197
sg10
F0.6843017857865246
ssI102
(dp112
g9
F0.6483849332232775
sg10
F0.578731111159601
ssI103
(dp113
g9
F0.3868015282086217
sg10
F0.12127865522365999
ssI104
(dp114
g9
F0.8076951205660018
sg10
F0.26556557527334934
ssI105
(dp115
g9
F0.37831979364299195
sg10
F0.695654798270411
ssI106
(dp116
g9
F0.35849393014428155
sg10
F0.48781179618205617
ssI107
(dp117
g9
F0.16444785463206846
sg10
F0.44924813600295177
ssI108
(dp118
g9
F0.6237799941242306
sg10
F0.48961787351619346
ssI109
(dp119
g9
F0.0934555817229673
sg10
F0.29423568244075615
ssI110
(dp120
g9
F0.3775348637240311
sg10
F0.003994695637895784
ssI111
(dp121
g9
F0.5747050712507406
sg10
F0.3933124043099322
ssI112
(dp122
g9
F0.012067503963478887
sg10
F0.6497757879462376
ssI113
(dp123
g9
F0.24565175549190965
sg10
F0.31157085132694484
ssI114
(dp124
g9
F0.22820628811801824
sg10
F0.8016266515793532
ssI115
(dp125
g9
F0.3901009665538199
sg10
F0.405986487598224
ssI116
(dp126
g9
F0.9735700109950662
sg10
F0.4903865587305344
ssI117
(dp127
g9
F0.19505015956814564
sg10
F0.8962592506959731
ssI118
(dp128
g9
F0.207190434635649
sg10
F0.04026125727997498
ssI119
(dp129
g9
F0.9490069303947392
sg10
F0.4780907136458715
ssI120
(dp130
g9
F0.05259526227573896
sg10
F0.4166716339742452
ssI121
(dp131
g9
F0.6466817660217927
sg10
F0.7509863996471414
ssI122
(dp132
g9
F0.1749033771238354
sg10
F0.08929521028692933
ssI123
(dp133
g9
F0.8294800903762815
sg10
F0.1981618542900343
ssI124
(dp134
g9
F0.8553165550747317
sg10
F0.2486697055684599
ssI125
(dp135
g9
F0.18813308179494037
sg10
F0.7932746365773934
ssI126
(dp136
g9
F0.12735850942575377
sg10
F0.2220814728207714
ssI127
(dp137
g9
F0.6862159704013885
sg10
F0.8359163740554122
ssI128
(dp138
g9
F0.469322523047331
sg10
F0.2986391372026841
ssI129
(dp139
g9
F0.06850069860216179
sg10
F0.1359741978108865
ssI130
(dp140
g9
F0.4771899084162502
sg10
F0.9407794700315574
ssI131
(dp141
g9
F0.7447885494823447
sg10
F0.20441419133524663
ssI132
(dp142
g9
F0.4279178518918585
sg10
F0.5650322664240526
ssI133
(dp143
g9
F0.3709937981141336
sg10
F0.16147736729086792
ssI134
(dp144
g9
F0.07305344620221244
sg10
F0.6072652373341585
ssI135
(dp145
g9
F0.8749299588614432
sg10
F0.914526889311551
ssI136
(dp146
g9
F0.5061511205188839
sg10
F0.35995366813625274
ssI137
(dp147
g9
F0.9931828063409389
sg10
F0.3672134699737918
ssI138
(dp148
g9
F0.5154515179409752
sg10
F0.35892551685428653
ssI139
(dp149
g9
F0.6337143313837769
sg10
F0.21627953637895148
ssI140
(dp150
g9
F0.8036709580808393
sg10
F0.36390145112465166
ssI141
(dp151
g9
F0.5575331213337843
sg10
F0.5198544563256141
ssI142
(dp152
g9
F0.912747010558763
sg10
F0.5045543923362987
ssI143
(dp153
g9
F0.6570665643968635
sg10
F0.39267830379386226
ssI144
(dp154
g9
F0.9635321110543764
sg10
F0.5546273180741704
ssI145
(dp155
g9
F0.6447238855375014
sg10
F0.8617385612974054
ssI146
(dp156
g9
F0.027626612476506662
sg10
F0.46311209907521345
ssI147
(dp157
g9
F0.4828402384506367
sg10
F0.019015318229524403
ssI148
(dp158
g9
F0.5177347600562991
sg10
F0.6426472823345911
ssI149
(dp159
g9
F0.5693239748326302
sg10
F0.49756852218457337
ssI150
(dp160
g9
F0.6998588849849025
sg10
F0.8353291841102279
ssI151
(dp161
g9
F0.6596678473902406
sg10
F0.443829904119568
ssI152
(dp162
g9
F0.01224622773179751
sg10
F0.9218320208616034
ssI153
(dp163
g9
F0.571227356657737
sg10
F0.25455822419092833
ssI154
(dp164
g9
F0.9738959723401638
sg10
F0.5362543090268398
ssI155
(dp165
g9
F0.26921170384550375
sg10
F0.1391549501038496
ssI156
(dp166
g9
F0.7852040033905623
sg10
F0.167809768616353
ssI157
(dp167
g9
F0.9096996315459177
sg10
F0.6281113545010598
ssI158
(dp168
g9
F0.5232965792196419
sg10
F0.4218304232548987
ssI159
(dp169
g9
F0.5068881761435718
sg10
F0.7446684303587213
ssI160
(dp170
g9
F0.7045840373212722
sg10
F0.3060192056475338
ssI161
(dp171
g9
F0.7930933106273542
sg10
F0.10035676591229525
ssI162
(dp172
g9
F0.31320440780196157
sg10
F0.6605044543820233
ssI163
(dp173
g9
F0.39698558624924574
sg10
F0.3069039338914722
ssI164
(dp174
g9
F0.6597634451723273
sg10
F0.1718063089256593
ssI165
(dp175
g9
F0.5833754809846388
sg10
F0.807912257666947
ssI166
(dp176
g9
F0.5964723354079771
sg10
F0.27505175560550976
ssI167
(dp177
g9
F0.7364992369114391
sg10
F0.862477002233763
ssI168
(dp178
g9
F0.9832287223944428
sg10
F0.572041165140271
ssI169
(dp179
g9
F0.183546298704941
sg10
F0.7772579860145254
ssI170
(dp180
g9
F0.6284804021180922
sg10
F0.9487608661628564
ssI171
(dp181
g9
F0.2805840269933544
sg10
F0.5419261488245374
ssI172
(dp182
g9
F0.3632578300106092
sg10
F0.14509544177110445
ssI173
(dp183
g9
F0.9754771934702618
sg10
F0.8942589289518184
ssI174
(dp184
g9
F0.35626478037006637
sg10
F0.22011557230052115
ssI175
(dp185
g9
F0.2056301031193868
sg10
F0.15806243120076613
ssI176
(dp186
g9
F0.5197170028622606
sg10
F0.8474996567407985
ssI177
(dp187
g9
F0.8102520739924766
sg10
F0.7535935055772153
ssI178
(dp188
g9
F0.5625355436099216
sg10
F0.8562060659579888
ssI179
(dp189
g9
F0.2884742934657687
sg10
F0.5127733293580163
ssI180
(dp190
g9
F0.8071809303259561
sg10
F0.6112348800387526
ssI181
(dp191
g9
F0.20578494494086597
sg10
F0.7480157390768177
ssI182
(dp192
g9
F0.3617344256667451
sg10
F0.9804017319933439
ssI183
(dp193
g9
F0.05341177959238674
sg10
F0.6383443131399559
ssI184
(dp194
g9
F0.3016332795930897
sg10
F0.28112451881105993
ssI185
(dp195
g9
F0.36663715529652174
sg10
F0.8153575381441504
ssI186
(dp196
g9
F0.7994442255517471
sg10
F0.2913491935343764
ssI187
(dp197
g9
F0.8191988067897578
sg10
F0.6805181902020356
ssI188
(dp198
g9
F0.9822479293691945
sg10
F0.8421968188307454
ssI189
(dp199
g9
F0.5787381479040189
sg10
F0.3528702050408059
ssI190
(dp200
g9
F0.4876291132139624
sg10
F0.2150648929480462
ssI191
(dp201
g9
F0.9553745025526008
sg10
F0.8766968463063924
ssI192
(dp202
g9
F0.40657256443464596
sg10
F0.8541098105283432
ssI193
(dp203
g9
F0.26385202175715106
sg10
F0.628852127265602
ssI194
(dp204
g9
F0.7133074690377034
sg10
F0.9522848123872457
ssI195
(dp205
g9
F0.15653657919195008
sg10
F0.8034715774029461
ssI196
(dp206
g9
F0.7011221502661821
sg10
F0.6530138791068707
ssI197
(dp207
g9
F0.07750301438335538
sg10
F0.19994769806314527
ssI198
(dp208
g9
F0.26721053055057
sg10
F0.033686800902873015
ssI199
(dp209
g9
F0.3831613594866823
sg10
F0.18058326638889577
sssS'node_dict_factory'
p210
c__builtin__
dict
p211
sS'edge_attr_dict_factory'
p212
g211
sS'edge'
p213
(dp214
I0
(dp215
sI1
(dp216
sI2
(dp217
sI3
(dp218
sI4
(dp219
sI5
(dp220
sI6
(dp221
sI7
(dp222
sI8
(dp223
sI9
(dp224
sI10
(dp225
sI11
(dp226
sI12
(dp227
sI13
(dp228
sI14
(dp229
sI15
(dp230
sI16
(dp231
sI17
(dp232
sI18
(dp233
sI19
(dp234
sI20
(dp235
sI21
(dp236
sI22
(dp237
sI23
(dp238
sI24
(dp239
sI25
(dp240
sI26
(dp241
sI27
(dp242
sI28
(dp243
sI29
(dp244
sI30
(dp245
sI31
(dp246
sI32
(dp247
sI33
(dp248
sI34
(dp249
sI35
(dp250
sI36
(dp251
sI37
(dp252
sI38
(dp253
sI39
(dp254
sI40
(dp255
sI41
(dp256
sI42
(dp257
sI43
(dp258
sI44
(dp259
sI45
(dp260
sI46
(dp261
sI47
(dp262
sI48
(dp263
sI49
(dp264
sI50
(dp265
sI51
(dp266
sI52
(dp267
sI53
(dp268
sI54
(dp269
sI55
(dp270
sI56
(dp271
sI57
(dp272
sI58
(dp273
sI59
(dp274
sI60
(dp275
sI61
(dp276
sI62
(dp277
sI63
(dp278
sI64
(dp279
sI65
(dp280
sI66
(dp281
sI67
(dp282
sI68
(dp283
sI69
(dp284
sI70
(dp285
sI71
(dp286
sI72
(dp287
sI73
(dp288
sI74
(dp289
sI75
(dp290
sI76
(dp291
sI77
(dp292
sI78
(dp293
sI79
(dp294
sI80
(dp295
sI81
(dp296
sI82
(dp297
sI83
(dp298
sI84
(dp299
sI85
(dp300
sI86
(dp301
sI87
(dp302
sI88
(dp303
sI89
(dp304
sI90
(dp305
sI91
(dp306
sI92
(dp307
sI93
(dp308
sI94
(dp309
sI95
(dp310
sI96
(dp311
sI97
(dp312
sI98
(dp313
sI99
(dp314
sI100
(dp315
sI101
(dp316
sI102
(dp317
sI103
(dp318
sI104
(dp319
sI105
(dp320
sI106
(dp321
sI107
(dp322
sI108
(dp323
sI109
(dp324
sI110
(dp325
sI111
(dp326
sI112
(dp327
sI113
(dp328
sI114
(dp329
sI115
(dp330
sI116
(dp331
sI117
(dp332
sI118
(dp333
sI119
(dp334
sI120
(dp335
sI121
(dp336
sI122
(dp337
sI123
(dp338
sI124
(dp339
sI125
(dp340
sI126
(dp341
sI127
(dp342
sI128
(dp343
sI129
(dp344
sI130
(dp345
sI131
(dp346
sI132
(dp347
sI133
(dp348
sI134
(dp349
sI135
(dp350
sI136
(dp351
sI137
(dp352
sI138
(dp353
sI139
(dp354
sI140
(dp355
sI141
(dp356
sI142
(dp357
sI143
(dp358
sI144
(dp359
sI145
(dp360
sI146
(dp361
sI147
(dp362
sI148
(dp363
sI149
(dp364
sI150
(dp365
sI151
(dp366
sI152
(dp367
sI153
(dp368
sI154
(dp369
sI155
(dp370
sI156
(dp371
sI157
(dp372
sI158
(dp373
sI159
(dp374
sI160
(dp375
sI161
(dp376
sI162
(dp377
sI163
(dp378
sI164
(dp379
sI165
(dp380
sI166
(dp381
sI167
(dp382
sI168
(dp383
sI169
(dp384
sI170
(dp385
sI171
(dp386
sI172
(dp387
sI173
(dp388
sI174
(dp389
sI175
(dp390
sI176
(dp391
sI177
(dp392
sI178
(dp393
sI179
(dp394
sI180
(dp395
sI181
(dp396
sI182
(dp397
sI183
(dp398
sI184
(dp399
sI185
(dp400
sI186
(dp401
sI187
(dp402
sI188
(dp403
sI189
(dp404
sI190
(dp405
sI191
(dp406
sI192
(dp407
sI193
(dp408
sI194
(dp409
sI195
(dp410
sI196
(dp411
sI197
(dp412
sI198
(dp413
sI199
(dp414
ssS'graph'
p415
(dp416
sS'adjlist_dict_factory'
p417
g211
sS'adj'
p418
g214
sb.