ccopy_reg
_reconstructor
p0
(cnetworkx.classes.graph
Graph
p1
c__builtin__
object
p2
Ntp3
Rp4
(dp5
S'node'
p6
(dp7
I0
(dp8
S'pos_x'
p9
F0.9220756466745058
sS'pos_y'
p10
F0.7171184312393711
ssI1
(dp11
g9
F0.4877836147060418
sg10
F0.7475879577421537
ssI2
(dp12
g9
F0.39050601346063285
sg10
F0.4525541728052799
ssI3
(dp13
g9
F0.36083806182178824
sg10
F0.8929480320322486
ssI4
(dp14
g9
F0.3346329600125285
sg10
F0.28297763101467066
ssI5
(dp15
g9
F0.9171292042651591
sg10
F0.7351353281946896
ssI6
(dp16
g9
F0.6478253175586418
sg10
F0.9482927512716234
ssI7
(dp17
g9
F0.9882574224889601
sg10
F0.7445104234774139
ssI8
(dp18
g9
F0.8148761900536837
sg10
F0.5493320248853927
ssI9
(dp19
g9
F0.5162657213335882
sg10
F0.7426125100556272
ssI10
(dp20
g9
F0.6315199255263234
sg10
F0.046686927142679746
ssI11
(dp21
g9
F0.3529673132399277
sg10
F0.9442963528695953
ssI12
(dp22
g9
F0.02931993916997755
sg10
F0.8078074396163535
ssI13
(dp23
g9
F0.08681767125241269
sg10
F0.8785472198824005
ssI14
(dp24
g9
F0.6612940167801616
sg10
F0.5718753459390078
ssI15
(dp25
g9
F0.2735626088117368
sg10
F0.32808965979292426
ssI16
(dp26
g9
F0.8416261684468622
sg10
F0.09212787620051544
ssI17
(dp27
g9
F0.16064468161796064
sg10
F0.12455669539872172
ssI18
(dp28
g9
F0.10450912056543116
sg10
F0.6114166412598183
ssI19
(dp29
g9
F0.5192161238290113
sg10
F0.7947398564886259
ssI20
(dp30
g9
F0.3095560438932222
sg10
F0.14199973907256458
ssI21
(dp31
g9
F0.10467887626018169
sg10
F0.33396489813118
ssI22
(dp32
g9
F0.2080519145817944
sg10
F0.019672948655148126
ssI23
(dp33
g9
F0.30168753945828897
sg10
F0.151365536647184
ssI24
(dp34
g9
F0.6137230092734209
sg10
F0.04016406237969272
ssI25
(dp35
g9
F0.784227561205105
sg10
F0.261932857373225
ssI26
(dp36
g9
F0.23567293999363392
sg10
F0.6832361763915713
ssI27
(dp37
g9
F0.4923393505716611
sg10
F0.463218990888022
ssI28
(dp38
g9
F0.7122900580289981
sg10
F0.9433386483281311
ssI29
(dp39
g9
F0.011892811941522252
sg10
F0.595383746005805
ssI30
(dp40
g9
F0.8970301455082917
sg10
F0.6776507673771214
ssI31
(dp41
g9
F0.6355328751047237
sg10
F0.3114985271594298
ssI32
(dp42
g9
F0.4924026925400731
sg10
F0.6125404939387181
ssI33
(dp43
g9
F0.38702843736827186
sg10
F0.44861410216794606
ssI34
(dp44
g9
F0.4222561448368728
sg10
F0.39980519965609973
ssI35
(dp45
g9
F0.8316858271611595
sg10
F0.9285553144007639
ssI36
(dp46
g9
F0.7219509289205482
sg10
F0.5602840211640293
ssI37
(dp47
g9
F0.059898981484994285
sg10
F0.42711187744834067
ssI38
(dp48
g9
F0.8005189308919608
sg10
F0.5623869312975216
ssI39
(dp49
g9
F0.24967745898916005
sg10
F0.9055701549637304
ssI40
(dp50
g9
F0.3460892670016298
sg10
F0.04419893259960428
ssI41
(dp51
g9
F0.9113921430366552
sg10
F0.8200261502410023
ssI42
(dp52
g9
F0.0022152422104276814
sg10
F0.45557007857222964
ssI43
(dp53
g9
F0.4480266042374641
sg10
F0.1962474494714035
ssI44
(dp54
g9
F0.8450595919432268
sg10
F0.9060986701404483
ssI45
(dp55
g9
F0.31947072153179823
sg10
F0.1228617687381186
ssI46
(dp56
g9
F0.24216820907084613
sg10
F0.8409192751113929
ssI47
(dp57
g9
F0.9970354177821404
sg10
F0.537983692702665
ssI48
(dp58
g9
F0.5280134995939691
sg10
F0.13516368773011345
ssI49
(dp59
g9
F0.8238879507007149
sg10
F0.14631976300309146
ssI50
(dp60
g9
F0.43553036555113955
sg10
F0.19635419848521518
ssI51
(dp61
g9
F0.020791810396950994
sg10
F0.6501768889515445
ssI52
(dp62
g9
F0.5693795686978089
sg10
F0.5288931077700838
ssI53
(dp63
g9
F0.8060499598525381
sg10
F0.2191056461617531
ssI54
(dp64
g9
F0.6177255689459763
sg10
F0.1967890432895144
ssI55
(dp65
g9
F0.9772231317247788
sg10
F0.754320488589412
ssI56
(dp66
g9
F0.29857252704476533
sg10
F0.1462112491873493
ssI57
(dp67
g9
F0.17577993005864412
sg10
F0.5081907970746247
ssI58
(dp68
g9
F0.8933403210753043
sg10
F0.8649870720603028
ssI59
(dp69
g9
F0.14053157311756614
sg10
F0.5306287260036565
ssI60
(dp70
g9
F0.9984189486844411
sg10
F0.719429407361556
ssI61
(dp71
g9
F0.8890849391652589
sg10
F0.1232440839500395
ssI62
(dp72
g9
F0.8828925095118146
sg10
F0.746579228647126
ssI63
(dp73
g9
F0.8451294014553156
sg10
F0.4622280280018122
ssI64
(dp74
g9
F0.8049151459315548
sg10
F0.015813008316189703
ssI65
(dp75
g9
F0.05271140148302211
sg10
F0.10285304840700182
ssI66
(dp76
g9
F0.6092581808158525
sg10
F0.2881124715658716
ssI67
(dp77
g9
F0.8633148051633729
sg10
F0.45029712780433595
ssI68
(dp78
g9
F0.8005472428864097
sg10
F0.6244274388520851
ssI69
(dp79
g9
F0.9446410750756189
sg10
F0.26077178654207844
ssI70
(dp80
g9
F0.1665768126684969
sg10
F0.09111672804613713
ssI71
(dp81
g9
F0.2997972562803505
sg10
F0.9500970935699626
ssI72
(dp82
g9
F0.8386399290016653
sg10
F0.32122618116957746
ssI73
(dp83
g9
F0.22204025809469152
sg10
F0.522729720519248
ssI74
(dp84
g9
F0.48347560526987554
sg10
F0.7538960865262792
ssI75
(dp85
g9
F0.5377039568616203
sg10
F0.5982730012397063
ssI76
(dp86
g9
F0.6826597553995586
sg10
F0.874283558057868
ssI77
(dp87
g9
F0.05542442184906782
sg10
F0.5801893565930224
ssI78
(dp88
g9
F0.11247650981548085
sg10
F0.06060846530338204
ssI79
(dp89
g9
F0.8166213918005378
sg10
F0.7563487062562656
ssI80
(dp90
g9
F0.07862715459489877
sg10
F0.22099117864406503
ssI81
(dp91
g9
F0.5101947619068823
sg10
F0.3965055423889865
ssI82
(dp92
g9
F0.6519310381440078
sg10
F0.25721248066542735
ssI83
(dp93
g9
F0.6544163608016542
sg10
F0.8863828556399965
ssI84
(dp94
g9
F0.3705302898954227
sg10
F0.9749283939633007
ssI85
(dp95
g9
F0.6715667959162361
sg10
F0.1789731363523821
ssI86
(dp96
g9
F0.0411216164576631
sg10
F0.2563393537495535
ssI87
(dp97
g9
F0.6858911375414096
sg10
F0.9308283105333626
ssI88
(dp98
g9
F0.28777064737414426
sg10
F0.20092109302257555
ssI89
(dp99
g9
F0.50224683318113
sg10
F0.9544595560714738
ssI90
(dp100
g9
F0.23961591189750586
sg10
F0.4310188324556763
ssI91
(dp101
g9
F0.927453616458511
sg10
F0.9475551816546867
ssI92
(dp102
g9
F0.507670073110001
sg10
F0.09603174869673237
ssI93
(dp103
g9
F0.7300841046674242
sg10
F0.8299752903490784
ssI94
(dp104
g9
F0.15484853966475365
sg10
F0.7685743551698635
ssI95
(dp105
g9
F0.30218343337189835
sg10
F0.8596588809565331
ssI96
(dp106
g9
F0.3100370953451884
sg10
F0.2814455443916626
ssI97
(dp107
g9
F0.9891716619530683
sg10
F0.596259985032911
ssI98
(dp108
g9
F0.9556797362714327
sg10
F0.07790065582043904
ssI99
(dp109
g9
F0.7766889707787913
sg10
F0.6901451060181568
ssI100
(dp110
g9
F0.7333426566291569
sg10
F0.6920915750204776
ssI101
(dp111
g9
F0.7343911826616415
sg10
F0.7453316525560416
ssI102
(dp112
g9
F0.6213366546523599
sg10
F0.4319303412727403
ssI103
(dp113
g9
F0.6162537444088482
sg10
F0.48825047952465295
ssI104
(dp114
g9
F0.7850564307507695
sg10
F0.9570180216453433
ssI105
(dp115
g9
F0.9633905258997509
sg10
F0.932079588255713
ssI106
(dp116
g9
F0.5609267590510514
sg10
F0.4814477550961953
ssI107
(dp117
g9
F0.4810469966857214
sg10
F0.8840667106812087
ssI108
(dp118
g9
F0.9171570561414873
sg10
F0.8792102077091326
ssI109
(dp119
g9
F0.746697664894845
sg10
F0.6399445577520882
ssI110
(dp120
g9
F0.8699805336661213
sg10
F0.7310216090324329
ssI111
(dp121
g9
F0.5015956461678089
sg10
F0.4983674851769767
ssI112
(dp122
g9
F0.480355387601744
sg10
F0.9374556045874439
ssI113
(dp123
g9
F0.2736431728942499
sg10
F0.9895271778515251
ssI114
(dp124
g9
F0.19332341796678676
sg10
F0.3200852279839229
ssI115
(dp125
g9
F0.14070539584928288
sg10
F0.06517113067361824
ssI116
(dp126
g9
F0.5635653709841731
sg10
F0.7521867014408755
ssI117
(dp127
g9
F0.49072965653378486
sg10
F0.216594543299226
ssI118
(dp128
g9
F0.7654106441350909
sg10
F0.5469090485047154
ssI119
(dp129
g9
F0.7809688985548762
sg10
F0.1629742449767395
ssI120
(dp130
g9
F0.3913670881717046
sg10
F0.8513841642978071
ssI121
(dp131
g9
F0.08698422440538389
sg10
F0.9750685769791713
ssI122
(dp132
g9
F0.8193504738053718
sg10
F0.8990406100896029
ssI123
(dp133
g9
F0.4874342631296903
sg10
F0.9339777667019886
ssI124
(dp134
g9
F0.6666672447862373
sg10
F0.16373161686342008
ssI125
(dp135
g9
F0.004236962371450659
sg10
F0.42605223009568227
ssI126
(dp136
g9
F0.8837578520142949
sg10
F0.11460080416232787
ssI127
(dp137
g9
F0.7031751352489317
sg10
F0.9032289538409833
ssI128
(dp138
g9
F0.9069185293554441
sg10
F0.90347152587773
ssI129
(dp139
g9
F0.05893390519784292
sg10
F0.8736453544070034
ssI130
(dp140
g9
F0.8316744711709197
sg10
F0.49200834501715496
ssI131
(dp141
g9
F0.1672794974013696
sg10
F0.9466408908348294
ssI132
(dp142
g9
F0.33660267530578214
sg10
F0.05418760157682656
ssI133
(dp143
g9
F0.8901614131571909
sg10
F0.1569467003491276
ssI134
(dp144
g9
F0.9897648272246412
sg10
F0.24331325204499055
ssI135
(dp145
g9
F0.4460516600151829
sg10
F0.0521709999775285
ssI136
(dp146
g9
F0.8580350705689086
sg10
F0.8010790700156696
ssI137
(dp147
g9
F0.987811255281611
sg10
F0.7965582214554942
ssI138
(dp148
g9
F0.25217794806151017
sg10
F0.9305239935318164
ssI139
(dp149
g9
F0.38129631169643796
sg10
F0.4851908658764371
ssI140
(dp150
g9
F0.327133345826665
sg10
F0.5824819242543002
ssI141
(dp151
g9
F0.9353180388445579
sg10
F0.3632415853819253
ssI142
(dp152
g9
F0.23561108348713233
sg10
F0.3025705697414489
ssI143
(dp153
g9
F0.35999236095713294
sg10
F0.4693444838489984
ssI144
(dp154
g9
F0.8433616255956433
sg10
F0.6437495453658943
ssI145
(dp155
g9
F0.5338405476313165
sg10
F0.34523553321951883
ssI146
(dp156
g9
F0.9896313703810973
sg10
F0.6382708463673201
ssI147
(dp157
g9
F0.8813873543603665
sg10
F0.870182505450481
ssI148
(dp158
g9
F0.21380605219692705
sg10
F0.7514291732588819
ssI149
(dp159
g9
F0.5529593530932587
sg10
F0.9005894406393343
ssI150
(dp160
g9
F0.7011621715067193
sg10
F0.205205889954998
ssI151
(dp161
g9
F0.6227672395318713
sg10
F0.9312360132522393
ssI152
(dp162
g9
F0.3217124003391213
sg10
F0.42077229646756886
ssI153
(dp163
g9
F0.08498985473640164
sg10
F0.8861452304831733
ssI154
(dp164
g9
F0.4935493632266228
sg10
F0.4970444347067208
ssI155
(dp165
g9
F0.9292893572720708
sg10
F0.043865897481950245
ssI156
(dp166
g9
F0.7086073009117265
sg10
F0.0804720256640139
ssI157
(dp167
g9
F0.544300327163942
sg10
F0.195181800123992
ssI158
(dp168
g9
F0.7405579381417067
sg10
F0.41880237031051104
ssI159
(dp169
g9
F0.8383974822026674
sg10
F0.7957320695194026
ssI160
(dp170
g9
F0.6162306043371171
sg10
F0.5229267474487812
ssI161
(dp171
g9
F0.16833086634942185
sg10
F0.9242062725897856
ssI162
(dp172
g9
F0.633691353687089
sg10
F0.870797375805602
ssI163
(dp173
g9
F0.4925747332495528
sg10
F0.45108597223504954
ssI164
(dp174
g9
F0.24549827881266573
sg10
F0.46056397688015727
ssI165
(dp175
g9
F0.025132833909001118
sg10
F0.9678273796797756
ssI166
(dp176
g9
F0.49100452513258186
sg10
F0.5490487744103778
ssI167
(dp177
g9
F0.09654165538324377
sg10
F0.4670877352550509
ssI168
(dp178
g9
F0.5673110516065546
sg10
F0.972236562028884
ssI169
(dp179
g9
F0.19115060315515386
sg10
F0.7603963674666911
ssI170
(dp180
g9
F0.8353368557164398
sg10
F0.5128120037832202
ssI171
(dp181
g9
F0.0710959369030828
sg10
F0.6262861621349378
ssI172
(dp182
g9
F0.721460679543174
sg10
F0.8700949054813035
ssI173
(dp183
g9
F0.30272307554905453
sg10
F0.9797364160231352
ssI174
(dp184
g9
F0.19332656934003956
sg10
F0.16338247037012144
ssI175
(dp185
g9
F0.8550487892357478
sg10
F0.1772808343519351
ssI176
(dp186
g9
F0.9735707882434934
sg10
F0.3265451722822217
ssI177
(dp187
g9
F0.1061026277217273
sg10
F0.030814365169576807
ssI178
(dp188
g9
F0.15993389174701234
sg10
F0.14535757235837732
ssI179
(dp189
g9
F0.8532255062948457
sg10
F0.1348084462951079
ssI180
(dp190
g9
F0.7819329427804175
sg10
F0.2561823576432173
ssI181
(dp191
g9
F0.8814195754414831
sg10
F0.9142028061035306
ssI182
(dp192
g9
F0.6899024430754509
sg10
F0.05567015322196467
ssI183
(dp193
g9
F0.8906787462272755
sg10
F0.5469212014033287
ssI184
(dp194
g9
F0.11391537671846019
sg10
F0.8195335428251229
ssI185
(dp195
g9
F0.9697519931373616
sg10
F0.9526982206387052
ssI186
(dp196
g9
F0.8804200297364976
sg10
F0.3094301167237149
ssI187
(dp197
g9
F0.8887342191525441
sg10
F0.8899262411342205
ssI188
(dp198
g9
F0.9376884743389678
sg10
F0.459946508482164
ssI189
(dp199
g9
F0.393775647025182
sg10
F0.6379321386769387
ssI190
(dp200
g9
F0.7671804592330582
sg10
F0.022584237911371763
ssI191
(dp201
g9
F0.05052842299992799
sg10
F0.463834134427053
ssI192
(dp202
g9
F0.09382037456575254
sg10
F0.37601034122936616
ssI193
(dp203
g9
F0.571601260066651
sg10
F0.34355853734876174
ssI194
(dp204
g9
F0.9179315327800591
sg10
F0.40552615146118665
ssI195
(dp205
g9
F0.3759203562849621
sg10
F0.7889014209161134
ssI196
(dp206
g9
F0.5067364437665602
sg10
F0.29620969326295554
ssI197
(dp207
g9
F0.8507707688562198
sg10
F0.197435860085861
ssI198
(dp208
g9
F0.5049522443965021
sg10
F0.6253506532913903
ssI199
(dp209
g9
F0.15290640343828932
sg10
F0.4281120585550108
sssS'node_dict_factory'
p210
c__builtin__
dict
p211
sS'edge_attr_dict_factory'
p212
g211
sS'edge'
p213
(dp214
I0
(dp215
sI1
(dp216
sI2
(dp217
sI3
(dp218
sI4
(dp219
sI5
(dp220
sI6
(dp221
sI7
(dp222
sI8
(dp223
sI9
(dp224
sI10
(dp225
sI11
(dp226
sI12
(dp227
sI13
(dp228
sI14
(dp229
sI15
(dp230
sI16
(dp231
sI17
(dp232
sI18
(dp233
sI19
(dp234
sI20
(dp235
sI21
(dp236
sI22
(dp237
sI23
(dp238
sI24
(dp239
sI25
(dp240
sI26
(dp241
sI27
(dp242
sI28
(dp243
sI29
(dp244
sI30
(dp245
sI31
(dp246
sI32
(dp247
sI33
(dp248
sI34
(dp249
sI35
(dp250
sI36
(dp251
sI37
(dp252
sI38
(dp253
sI39
(dp254
sI40
(dp255
sI41
(dp256
sI42
(dp257
sI43
(dp258
sI44
(dp259
sI45
(dp260
sI46
(dp261
sI47
(dp262
sI48
(dp263
sI49
(dp264
sI50
(dp265
sI51
(dp266
sI52
(dp267
sI53
(dp268
sI54
(dp269
sI55
(dp270
sI56
(dp271
sI57
(dp272
sI58
(dp273
sI59
(dp274
sI60
(dp275
sI61
(dp276
sI62
(dp277
sI63
(dp278
sI64
(dp279
sI65
(dp280
sI66
(dp281
sI67
(dp282
sI68
(dp283
sI69
(dp284
sI70
(dp285
sI71
(dp286
sI72
(dp287
sI73
(dp288
sI74
(dp289
sI75
(dp290
sI76
(dp291
sI77
(dp292
sI78
(dp293
sI79
(dp294
sI80
(dp295
sI81
(dp296
sI82
(dp297
sI83
(dp298
sI84
(dp299
sI85
(dp300
sI86
(dp301
sI87
(dp302
sI88
(dp303
sI89
(dp304
sI90
(dp305
sI91
(dp306
sI92
(dp307
sI93
(dp308
sI94
(dp309
sI95
(dp310
sI96
(dp311
sI97
(dp312
sI98
(dp313
sI99
(dp314
sI100
(dp315
sI101
(dp316
sI102
(dp317
sI103
(dp318
sI104
(dp319
sI105
(dp320
sI106
(dp321
sI107
(dp322
sI108
(dp323
sI109
(dp324
sI110
(dp325
sI111
(dp326
sI112
(dp327
sI113
(dp328
sI114
(dp329
sI115
(dp330
sI116
(dp331
sI117
(dp332
sI118
(dp333
sI119
(dp334
sI120
(dp335
sI121
(dp336
sI122
(dp337
sI123
(dp338
sI124
(dp339
sI125
(dp340
sI126
(dp341
sI127
(dp342
sI128
(dp343
sI129
(dp344
sI130
(dp345
sI131
(dp346
sI132
(dp347
sI133
(dp348
sI134
(dp349
sI135
(dp350
sI136
(dp351
sI137
(dp352
sI138
(dp353
sI139
(dp354
sI140
(dp355
sI141
(dp356
sI142
(dp357
sI143
(dp358
sI144
(dp359
sI145
(dp360
sI146
(dp361
sI147
(dp362
sI148
(dp363
sI149
(dp364
sI150
(dp365
sI151
(dp366
sI152
(dp367
sI153
(dp368
sI154
(dp369
sI155
(dp370
sI156
(dp371
sI157
(dp372
sI158
(dp373
sI159
(dp374
sI160
(dp375
sI161
(dp376
sI162
(dp377
sI163
(dp378
sI164
(dp379
sI165
(dp380
sI166
(dp381
sI167
(dp382
sI168
(dp383
sI169
(dp384
sI170
(dp385
sI171
(dp386
sI172
(dp387
sI173
(dp388
sI174
(dp389
sI175
(dp390
sI176
(dp391
sI177
(dp392
sI178
(dp393
sI179
(dp394
sI180
(dp395
sI181
(dp396
sI182
(dp397
sI183
(dp398
sI184
(dp399
sI185
(dp400
sI186
(dp401
sI187
(dp402
sI188
(dp403
sI189
(dp404
sI190
(dp405
sI191
(dp406
sI192
(dp407
sI193
(dp408
sI194
(dp409
sI195
(dp410
sI196
(dp411
sI197
(dp412
sI198
(dp413
sI199
(dp414
ssS'graph'
p415
(dp416
sS'adjlist_dict_factory'
p417
g211
sS'adj'
p418
g214
sb.