ccopy_reg
_reconstructor
p0
(cnetworkx.classes.graph
Graph
p1
c__builtin__
object
p2
Ntp3
Rp4
(dp5
S'node'
p6
(dp7
I0
(dp8
S'pos_x'
p9
F0.27812511315276445
sS'pos_y'
p10
F0.8297905747277136
ssI1
(dp11
g9
F0.5761473913061643
sg10
F0.19163356975789192
ssI2
(dp12
g9
F0.05125834225223369
sg10
F0.2738873263281075
ssI3
(dp13
g9
F0.41258099043205887
sg10
F0.5174543179169684
ssI4
(dp14
g9
F0.8787294893261829
sg10
F0.4149162525987108
ssI5
(dp15
g9
F0.6273241986541994
sg10
F0.4636469776075861
ssI6
(dp16
g9
F0.525624912559448
sg10
F0.5564959319552539
ssI7
(dp17
g9
F0.9375377513991988
sg10
F0.7098734683603328
ssI8
(dp18
g9
F0.7539610623337417
sg10
F0.19994507937466577
ssI9
(dp19
g9
F0.21024604863489105
sg10
F0.0642547467179232
ssI10
(dp20
g9
F0.7732380282976435
sg10
F0.3141902144298634
ssI11
(dp21
g9
F0.1762911087081903
sg10
F0.6101948995039197
ssI12
(dp22
g9
F0.2140609169422547
sg10
F0.2780150023410861
ssI13
(dp23
g9
F0.7811626399413063
sg10
F0.6581748294198227
ssI14
(dp24
g9
F0.6744535725323271
sg10
F0.6316081255086093
ssI15
(dp25
g9
F0.22794813470052488
sg10
F0.08583129046876958
ssI16
(dp26
g9
F0.6053241216500604
sg10
F0.9036972111198178
ssI17
(dp27
g9
F0.014794686785836175
sg10
F0.7955336311856638
ssI18
(dp28
g9
F0.31095031623984537
sg10
F0.8506877189560621
ssI19
(dp29
g9
F0.11472513026855102
sg10
F0.03977648412821955
ssI20
(dp30
g9
F0.017981179332790087
sg10
F0.4237266066583578
ssI21
(dp31
g9
F0.9700222966694795
sg10
F0.7618085901526422
ssI22
(dp32
g9
F0.38571655855835685
sg10
F0.6005465657245828
ssI23
(dp33
g9
F0.24983417017769138
sg10
F0.7554176584201006
ssI24
(dp34
g9
F0.543543862376902
sg10
F0.0034026096254564653
ssI25
(dp35
g9
F0.443465230329284
sg10
F0.5223629923347298
ssI26
(dp36
g9
F0.22472504062002008
sg10
F0.06889524132208269
ssI27
(dp37
g9
F0.8723073718219588
sg10
F0.3483201647270473
ssI28
(dp38
g9
F0.692999894805981
sg10
F0.12242419397762183
ssI29
(dp39
g9
F0.372638767439609
sg10
F0.12784970799225848
ssI30
(dp40
g9
F0.1365609021418155
sg10
F0.166373317882192
ssI31
(dp41
g9
F0.8802729486140887
sg10
F0.27761339370151705
ssI32
(dp42
g9
F0.5515596204026562
sg10
F0.8549846507888994
ssI33
(dp43
g9
F0.023781388104970214
sg10
F0.894047954043656
ssI34
(dp44
g9
F0.9682924436159989
sg10
F0.30999766976687504
ssI35
(dp45
g9
F0.12738696447369824
sg10
F0.6058520772112582
ssI36
(dp46
g9
F0.4244739099743038
sg10
F0.6654446712119245
ssI37
(dp47
g9
F0.17908261082126598
sg10
F0.3578172139792617
ssI38
(dp48
g9
F0.9444630038416101
sg10
F0.727034517868808
ssI39
(dp49
g9
F0.8708793261270611
sg10
F0.06245875162760972
ssI40
(dp50
g9
F0.5800203710597737
sg10
F0.40178184420345997
ssI41
(dp51
g9
F0.40590070135988976
sg10
F0.26099130659211833
ssI42
(dp52
g9
F0.07368123963848738
sg10
F0.045860297752529866
ssI43
(dp53
g9
F0.30847080575546626
sg10
F0.5724315301065881
ssI44
(dp54
g9
F0.8438013541020836
sg10
F0.03335481673882146
ssI45
(dp55
g9
F0.11610858004999325
sg10
F0.4951640882027205
ssI46
(dp56
g9
F0.40204688802174515
sg10
F0.08506465103052163
ssI47
(dp57
g9
F0.4515261744727712
sg10
F0.5622080798927771
ssI48
(dp58
g9
F0.4438367101185242
sg10
F0.39883815344592155
ssI49
(dp59
g9
F0.7983252961234817
sg10
F0.12633749935609917
ssI50
(dp60
g9
F0.13858840159466845
sg10
F0.6751380751187415
ssI51
(dp61
g9
F0.6101086322823555
sg10
F0.9791126491546527
ssI52
(dp62
g9
F0.988093997013585
sg10
F0.8015236882515482
ssI53
(dp63
g9
F0.7123109567149349
sg10
F0.037423511888242555
ssI54
(dp64
g9
F0.9473904437038139
sg10
F0.5205011188648417
ssI55
(dp65
g9
F0.6052118266952914
sg10
F0.1266058086925752
ssI56
(dp66
g9
F0.37847502958434986
sg10
F0.40200192869299123
ssI57
(dp67
g9
F0.5691374922666248
sg10
F0.4601933274955955
ssI58
(dp68
g9
F0.7399496976422877
sg10
F0.21868550124868114
ssI59
(dp69
g9
F0.769164060006624
sg10
F0.5384954521257277
ssI60
(dp70
g9
F0.9901169962323418
sg10
F0.24257800215920278
ssI61
(dp71
g9
F0.6032914809869424
sg10
F0.9696088908905298
ssI62
(dp72
g9
F0.34664686898841546
sg10
F0.29029041966291247
ssI63
(dp73
g9
F0.10016888215562103
sg10
F0.288607689739137
ssI64
(dp74
g9
F0.3541998924374735
sg10
F0.8979903919693016
ssI65
(dp75
g9
F0.2600283922776011
sg10
F0.46827156995243346
ssI66
(dp76
g9
F0.44964138439607937
sg10
F0.8016671739847504
ssI67
(dp77
g9
F0.7969536497608674
sg10
F0.34945166734111377
ssI68
(dp78
g9
F0.7859233678441193
sg10
F0.7912995000451254
ssI69
(dp79
g9
F0.4779990193028256
sg10
F0.24890551074409595
ssI70
(dp80
g9
F0.8243224377381462
sg10
F0.828389798698919
ssI71
(dp81
g9
F0.6917738256293645
sg10
F0.7105347348606808
ssI72
(dp82
g9
F0.1835928890528271
sg10
F0.9588215668531265
ssI73
(dp83
g9
F0.8215404902291593
sg10
F0.37721220560604085
ssI74
(dp84
g9
F0.28508557163068693
sg10
F0.33948667309922265
ssI75
(dp85
g9
F0.1573062561945736
sg10
F0.20764556145087154
ssI76
(dp86
g9
F0.5941561972242656
sg10
F0.07895925429943296
ssI77
(dp87
g9
F0.9888546622080701
sg10
F0.15654906365608168
ssI78
(dp88
g9
F0.5795444782537025
sg10
F0.861800564168515
ssI79
(dp89
g9
F0.8648862597606989
sg10
F0.6982534132692356
ssI80
(dp90
g9
F0.5237120915662704
sg10
F0.23143788421596712
ssI81
(dp91
g9
F0.16716816630544262
sg10
F0.11491879846632147
ssI82
(dp92
g9
F0.14840901160040887
sg10
F0.14534115252363022
ssI83
(dp93
g9
F0.5800759119885139
sg10
F0.41452207457662227
ssI84
(dp94
g9
F0.30523122801762903
sg10
F0.8358069899821752
ssI85
(dp95
g9
F0.29621570252026996
sg10
F0.32615448304529815
ssI86
(dp96
g9
F0.9464308283672491
sg10
F0.87912343935147
ssI87
(dp97
g9
F0.16613853948011448
sg10
F0.5492305066996189
ssI88
(dp98
g9
F0.10675082293800653
sg10
F0.981845677287785
ssI89
(dp99
g9
F0.29133496554110694
sg10
F0.45479156031759094
ssI90
(dp100
g9
F0.6872132395056991
sg10
F0.913832183108007
ssI91
(dp101
g9
F0.11456732036253614
sg10
F0.3405918675810199
ssI92
(dp102
g9
F0.05434850570855854
sg10
F0.6057707072599675
ssI93
(dp103
g9
F0.24132989108379166
sg10
F0.11690394023782624
ssI94
(dp104
g9
F0.03145751177429168
sg10
F0.6765684070660288
ssI95
(dp105
g9
F0.5108730177717673
sg10
F0.384337046763256
ssI96
(dp106
g9
F0.1452379914851839
sg10
F0.3769419223326774
ssI97
(dp107
g9
F0.22877815154933911
sg10
F0.16668756074171787
ssI98
(dp108
g9
F0.2112729004593218
sg10
F0.386332527159313
ssI99
(dp109
g9
F0.5342676187481514
sg10
F0.6347699182601971
ssI100
(dp110
g9
F0.8593355066135024
sg10
F0.5197144133906775
ssI101
(dp111
g9
F0.7242185753315358
sg10
F0.3425189267755129
ssI102
(dp112
g9
F0.27167535468682946
sg10
F0.7052996294680631
ssI103
(dp113
g9
F0.3486327882903937
sg10
F0.8652585133490576
ssI104
(dp114
g9
F0.7656890342928299
sg10
F0.6917698665874165
ssI105
(dp115
g9
F0.3513555611366532
sg10
F0.7534598324425849
ssI106
(dp116
g9
F0.04105486529154412
sg10
F0.9763775843470083
ssI107
(dp117
g9
F0.18905242244072262
sg10
F0.5845534462299503
ssI108
(dp118
g9
F0.45606321794419347
sg10
F0.1521779618916127
ssI109
(dp119
g9
F0.05505896789894538
sg10
F0.1291199330452324
ssI110
(dp120
g9
F0.27194550892788494
sg10
F0.47360528331971563
ssI111
(dp121
g9
F0.9055439026935507
sg10
F0.6651116243357957
ssI112
(dp122
g9
F0.06371066311686446
sg10
F0.15075066285967242
ssI113
(dp123
g9
F0.81974845304109
sg10
F0.5452576572477064
ssI114
(dp124
g9
F0.8746150496715324
sg10
F0.942250643433095
ssI115
(dp125
g9
F0.2064466615405831
sg10
F0.8613141228841752
ssI116
(dp126
g9
F0.036318541275953464
sg10
F0.6287840182548023
ssI117
(dp127
g9
F0.1993520540034377
sg10
F0.7746245338583398
ssI118
(dp128
g9
F0.6152397931070905
sg10
F0.41636124715912826
ssI119
(dp129
g9
F0.7861202969631222
sg10
F0.7846519700946334
ssI120
(dp130
g9
F0.07375172446971334
sg10
F0.6596147129627173
ssI121
(dp131
g9
F0.9150196545085422
sg10
F0.21984787408185258
ssI122
(dp132
g9
F0.6184313221113735
sg10
F0.2156927465023053
ssI123
(dp133
g9
F0.15444802461564888
sg10
F0.07993126592434396
ssI124
(dp134
g9
F0.624782446719079
sg10
F0.5639211616564648
ssI125
(dp135
g9
F0.25868329485068575
sg10
F0.4486023117544754
ssI126
(dp136
g9
F0.778996390913243
sg10
F0.9909562199470758
ssI127
(dp137
g9
F0.05605906473628863
sg10
F0.7705013630060804
ssI128
(dp138
g9
F0.9307893971386559
sg10
F0.5305626994613466
ssI129
(dp139
g9
F0.5446101942055857
sg10
F0.32324585357584257
ssI130
(dp140
g9
F0.7522469187196705
sg10
F0.7514834306478269
ssI131
(dp141
g9
F0.1231490613326841
sg10
F0.08417043745210828
ssI132
(dp142
g9
F0.41727608090108936
sg10
F0.4320436670445439
ssI133
(dp143
g9
F0.8777670920360425
sg10
F0.4868095961522415
ssI134
(dp144
g9
F0.4654007966402671
sg10
F0.6974277608845333
ssI135
(dp145
g9
F0.806752609024136
sg10
F0.3249613278938167
ssI136
(dp146
g9
F0.791323678573596
sg10
F0.14166452679917274
ssI137
(dp147
g9
F0.3834336165641291
sg10
F0.13987885479683593
ssI138
(dp148
g9
F0.6609186765098237
sg10
F0.6064637717332741
ssI139
(dp149
g9
F0.5709528332006876
sg10
F0.9498371153444539
ssI140
(dp150
g9
F0.5338635620168938
sg10
F0.17844366622992935
ssI141
(dp151
g9
F0.31482336722673043
sg10
F0.41467218645775794
ssI142
(dp152
g9
F0.9317192891983871
sg10
F0.04858917118918493
ssI143
(dp153
g9
F0.34430393402365356
sg10
F0.5166748311049782
ssI144
(dp154
g9
F0.7545641706140206
sg10
F0.8336771718376385
ssI145
(dp155
g9
F0.9439019764531971
sg10
F0.4761751499180912
ssI146
(dp156
g9
F0.520137728343643
sg10
F0.15940225830197763
ssI147
(dp157
g9
F0.27478075474723274
sg10
F0.7447152828104016
ssI148
(dp158
g9
F0.9678207101012273
sg10
F0.11937070389964499
ssI149
(dp159
g9
F0.8827326763899436
sg10
F0.3245413039627961
ssI150
(dp160
g9
F0.08269138801381548
sg10
F0.6055641767113786
ssI151
(dp161
g9
F0.8827147424940929
sg10
F0.9601595942002801
ssI152
(dp162
g9
F0.3743235324770867
sg10
F0.17301485499428693
ssI153
(dp163
g9
F0.8825568061239587
sg10
F0.37532551177633233
ssI154
(dp164
g9
F0.24113692930242292
sg10
F0.6459214589843558
ssI155
(dp165
g9
F0.8504294090819622
sg10
F0.9565326385123268
ssI156
(dp166
g9
F0.5004755225535159
sg10
F0.3461499935549651
ssI157
(dp167
g9
F0.4649515333673183
sg10
F0.19580104417999844
ssI158
(dp168
g9
F0.15629871197990175
sg10
F0.4830650141156818
ssI159
(dp169
g9
F0.73458746103202
sg10
F0.27744934432131074
ssI160
(dp170
g9
F0.11107060630318599
sg10
F0.16121641731062353
ssI161
(dp171
g9
F0.26136724417663504
sg10
F0.8887791457949095
ssI162
(dp172
g9
F0.8632231344970938
sg10
F0.7962640259530709
ssI163
(dp173
g9
F0.9420000725310382
sg10
F0.3176565964059952
ssI164
(dp174
g9
F0.5810570423873359
sg10
F0.9704980891350738
ssI165
(dp175
g9
F0.4838382127510219
sg10
F0.9290229367503522
ssI166
(dp176
g9
F0.6818397871137383
sg10
F0.402576240531763
ssI167
(dp177
g9
F0.6529712946412586
sg10
F0.8950673292775444
ssI168
(dp178
g9
F0.9280898208082664
sg10
F0.05269822637887611
ssI169
(dp179
g9
F0.17318402936928823
sg10
F0.30338388194642785
ssI170
(dp180
g9
F0.7105609562561115
sg10
F0.46307609746280265
ssI171
(dp181
g9
F0.9809470737105321
sg10
F0.9285330026347433
ssI172
(dp182
g9
F0.002672199744972792
sg10
F0.11189689903759004
ssI173
(dp183
g9
F0.5000683265147605
sg10
F0.09209262303522114
ssI174
(dp184
g9
F0.7849022338101352
sg10
F0.06186515030497508
ssI175
(dp185
g9
F0.4484951011090652
sg10
F0.33751576914043846
ssI176
(dp186
g9
F0.8591313752710806
sg10
F0.3387248488426551
ssI177
(dp187
g9
F0.11738725495651825
sg10
F0.1833306709887046
ssI178
(dp188
g9
F0.3127195352534634
sg10
F0.9662604413729493
ssI179
(dp189
g9
F0.7437015242468682
sg10
F0.9972604464474841
ssI180
(dp190
g9
F0.1735897814691072
sg10
F0.20861431239275507
ssI181
(dp191
g9
F0.25018779619884457
sg10
F0.12356953899515821
ssI182
(dp192
g9
F0.6791802479163928
sg10
F0.05856747684499464
ssI183
(dp193
g9
F0.235953659277087
sg10
F0.7578135280147134
ssI184
(dp194
g9
F0.5852872073791091
sg10
F0.3965311507960696
ssI185
(dp195
g9
F0.2511217762404976
sg10
F0.2162015631317823
ssI186
(dp196
g9
F0.685150309849264
sg10
F0.3580114801764035
ssI187
(dp197
g9
F0.32065568432425307
sg10
F0.5868809215302593
ssI188
(dp198
g9
F0.2651983789278439
sg10
F0.10889687236434009
ssI189
(dp199
g9
F0.43756156209060393
sg10
F0.8916148624523992
ssI190
(dp200
g9
F0.44267480489106614
sg10
F0.9873483335424363
ssI191
(dp201
g9
F0.5395458903932768
sg10
F0.651821121474311
ssI192
(dp202
g9
F0.7208183607205155
sg10
F0.2495322674896111
ssI193
(dp203
g9
F0.25034005089853884
sg10
F0.6160179853895663
ssI194
(dp204
g9
F0.3069152784332987
sg10
F0.9620835736682571
ssI195
(dp205
g9
F0.8380945800580971
sg10
F0.27482508470712563
ssI196
(dp206
g9
F0.7239418901686416
sg10
F0.5632046841943945
ssI197
(dp207
g9
F0.2645204323215622
sg10
F0.9767936762724304
ssI198
(dp208
g9
F0.0058485869447799654
sg10
F0.5943185919081592
ssI199
(dp209
g9
F0.5698480912312428
sg10
F0.5826888911477154
sssS'node_dict_factory'
p210
c__builtin__
dict
p211
sS'edge_attr_dict_factory'
p212
g211
sS'edge'
p213
(dp214
I0
(dp215
sI1
(dp216
sI2
(dp217
sI3
(dp218
sI4
(dp219
sI5
(dp220
sI6
(dp221
sI7
(dp222
sI8
(dp223
sI9
(dp224
sI10
(dp225
sI11
(dp226
sI12
(dp227
sI13
(dp228
sI14
(dp229
sI15
(dp230
sI16
(dp231
sI17
(dp232
sI18
(dp233
sI19
(dp234
sI20
(dp235
sI21
(dp236
sI22
(dp237
sI23
(dp238
sI24
(dp239
sI25
(dp240
sI26
(dp241
sI27
(dp242
sI28
(dp243
sI29
(dp244
sI30
(dp245
sI31
(dp246
sI32
(dp247
sI33
(dp248
sI34
(dp249
sI35
(dp250
sI36
(dp251
sI37
(dp252
sI38
(dp253
sI39
(dp254
sI40
(dp255
sI41
(dp256
sI42
(dp257
sI43
(dp258
sI44
(dp259
sI45
(dp260
sI46
(dp261
sI47
(dp262
sI48
(dp263
sI49
(dp264
sI50
(dp265
sI51
(dp266
sI52
(dp267
sI53
(dp268
sI54
(dp269
sI55
(dp270
sI56
(dp271
sI57
(dp272
sI58
(dp273
sI59
(dp274
sI60
(dp275
sI61
(dp276
sI62
(dp277
sI63
(dp278
sI64
(dp279
sI65
(dp280
sI66
(dp281
sI67
(dp282
sI68
(dp283
sI69
(dp284
sI70
(dp285
sI71
(dp286
sI72
(dp287
sI73
(dp288
sI74
(dp289
sI75
(dp290
sI76
(dp291
sI77
(dp292
sI78
(dp293
sI79
(dp294
sI80
(dp295
sI81
(dp296
sI82
(dp297
sI83
(dp298
sI84
(dp299
sI85
(dp300
sI86
(dp301
sI87
(dp302
sI88
(dp303
sI89
(dp304
sI90
(dp305
sI91
(dp306
sI92
(dp307
sI93
(dp308
sI94
(dp309
sI95
(dp310
sI96
(dp311
sI97
(dp312
sI98
(dp313
sI99
(dp314
sI100
(dp315
sI101
(dp316
sI102
(dp317
sI103
(dp318
sI104
(dp319
sI105
(dp320
sI106
(dp321
sI107
(dp322
sI108
(dp323
sI109
(dp324
sI110
(dp325
sI111
(dp326
sI112
(dp327
sI113
(dp328
sI114
(dp329
sI115
(dp330
sI116
(dp331
sI117
(dp332
sI118
(dp333
sI119
(dp334
sI120
(dp335
sI121
(dp336
sI122
(dp337
sI123
(dp338
sI124
(dp339
sI125
(dp340
sI126
(dp341
sI127
(dp342
sI128
(dp343
sI129
(dp344
sI130
(dp345
sI131
(dp346
sI132
(dp347
sI133
(dp348
sI134
(dp349
sI135
(dp350
sI136
(dp351
sI137
(dp352
sI138
(dp353
sI139
(dp354
sI140
(dp355
sI141
(dp356
sI142
(dp357
sI143
(dp358
sI144
(dp359
sI145
(dp360
sI146
(dp361
sI147
(dp362
sI148
(dp363
sI149
(dp364
sI150
(dp365
sI151
(dp366
sI152
(dp367
sI153
(dp368
sI154
(dp369
sI155
(dp370
sI156
(dp371
sI157
(dp372
sI158
(dp373
sI159
(dp374
sI160
(dp375
sI161
(dp376
sI162
(dp377
sI163
(dp378
sI164
(dp379
sI165
(dp380
sI166
(dp381
sI167
(dp382
sI168
(dp383
sI169
(dp384
sI170
(dp385
sI171
(dp386
sI172
(dp387
sI173
(dp388
sI174
(dp389
sI175
(dp390
sI176
(dp391
sI177
(dp392
sI178
(dp393
sI179
(dp394
sI180
(dp395
sI181
(dp396
sI182
(dp397
sI183
(dp398
sI184
(dp399
sI185
(dp400
sI186
(dp401
sI187
(dp402
sI188
(dp403
sI189
(dp404
sI190
(dp405
sI191
(dp406
sI192
(dp407
sI193
(dp408
sI194
(dp409
sI195
(dp410
sI196
(dp411
sI197
(dp412
sI198
(dp413
sI199
(dp414
ssS'graph'
p415
(dp416
sS'adjlist_dict_factory'
p417
g211
sS'adj'
p418
g214
sb.