ccopy_reg
_reconstructor
p0
(cnetworkx.classes.graph
Graph
p1
c__builtin__
object
p2
Ntp3
Rp4
(dp5
S'node'
p6
(dp7
I0
(dp8
S'pos_x'
p9
F0.37461281256872203
sS'pos_y'
p10
F0.49070084852866525
ssI1
(dp11
g9
F0.5988429794360525
sg10
F0.12080046912882925
ssI2
(dp12
g9
F0.3971004167564316
sg10
F0.2466295113288146
ssI3
(dp13
g9
F0.325107963804934
sg10
F0.16350864342543647
ssI4
(dp14
g9
F0.4645986709632963
sg10
F0.04673710184963231
ssI5
(dp15
g9
F0.9918195548296298
sg10
F0.02488521029995927
ssI6
(dp16
g9
F0.8381864436883064
sg10
F0.6727244372896182
ssI7
(dp17
g9
F0.07307066392488815
sg10
F0.15234849249120375
ssI8
(dp18
g9
F0.9906869146908013
sg10
F0.06256138573777803
ssI9
(dp19
g9
F0.22063467256839897
sg10
F0.7545421990163771
ssI10
(dp20
g9
F0.548491685093519
sg10
F0.02991672281694413
ssI11
(dp21
g9
F0.9581372962259378
sg10
F0.20687403107214397
ssI12
(dp22
g9
F0.15513569460875132
sg10
F0.05788612137167859
ssI13
(dp23
g9
F0.5600615868335997
sg10
F0.390290913880846
ssI14
(dp24
g9
F0.3758146672839101
sg10
F0.9748193446398054
ssI15
(dp25
g9
F0.7906443747356535
sg10
F0.8892755104949281
ssI16
(dp26
g9
F0.4590967434452894
sg10
F0.8339997254295045
ssI17
(dp27
g9
F0.25101901714538943
sg10
F0.6996281016460311
ssI18
(dp28
g9
F0.9376462453478217
sg10
F0.3447615261181798
ssI19
(dp29
g9
F0.9195692143857307
sg10
F0.21493485576035776
ssI20
(dp30
g9
F0.5111662811120196
sg10
F0.45307064892274573
ssI21
(dp31
g9
F0.8556434651623567
sg10
F0.3474107268421811
ssI22
(dp32
g9
F0.942578074730696
sg10
F0.16297025290523182
ssI23
(dp33
g9
F0.3698534923507014
sg10
F0.5707787812972286
ssI24
(dp34
g9
F0.34205137795438656
sg10
F0.42777164128962053
ssI25
(dp35
g9
F0.409285813750771
sg10
F0.5964704587551877
ssI26
(dp36
g9
F0.12433258469619446
sg10
F0.5376657056256666
ssI27
(dp37
g9
F0.5878897263955281
sg10
F0.1511771962077706
ssI28
(dp38
g9
F0.8115957237861513
sg10
F0.8511419087596883
ssI29
(dp39
g9
F0.17154536847526314
sg10
F0.21948146090820542
ssI30
(dp40
g9
F0.6479786331102648
sg10
F0.18182292385863053
ssI31
(dp41
g9
F0.5499913635412698
sg10
F0.9989086609140382
ssI32
(dp42
g9
F0.36692969705177314
sg10
F0.6047561834659494
ssI33
(dp43
g9
F0.60372398823645
sg10
F0.4093621696795353
ssI34
(dp44
g9
F0.6125571628871994
sg10
F0.3021927047727405
ssI35
(dp45
g9
F0.6443666611543725
sg10
F0.7244109031393025
ssI36
(dp46
g9
F0.23432316195338043
sg10
F0.8621751917885021
ssI37
(dp47
g9
F0.6960706212810698
sg10
F0.2122692146379832
ssI38
(dp48
g9
F0.9861416965344251
sg10
F0.6346436862642162
ssI39
(dp49
g9
F0.6612370593395744
sg10
F0.03351624489264071
ssI40
(dp50
g9
F0.5746802177332371
sg10
F0.9701584222737706
ssI41
(dp51
g9
F0.07034781748881369
sg10
F0.09088973701149405
ssI42
(dp52
g9
F0.6402950218641108
sg10
F0.7327345149804532
ssI43
(dp53
g9
F0.6598857330170818
sg10
F0.250752770745584
ssI44
(dp54
g9
F0.557338612365521
sg10
F0.757032302948142
ssI45
(dp55
g9
F0.5185039315388639
sg10
F0.4913524080587345
ssI46
(dp56
g9
F0.33117899123414796
sg10
F0.3664540612845757
ssI47
(dp57
g9
F0.1313474316022244
sg10
F0.4442420036712952
ssI48
(dp58
g9
F0.8141764448630369
sg10
F0.924518082065015
ssI49
(dp59
g9
F0.6544907275543106
sg10
F0.7774616344605082
ssI50
(dp60
g9
F0.5752085110221444
sg10
F0.023803352137116707
ssI51
(dp61
g9
F0.07831431305510406
sg10
F0.810960476491188
ssI52
(dp62
g9
F0.27779976670714723
sg10
F0.36072571548902943
ssI53
(dp63
g9
F0.5857420278631835
sg10
F0.37303740047515055
ssI54
(dp64
g9
F0.5273639719492758
sg10
F0.06449737359724195
ssI55
(dp65
g9
F0.2823422762438562
sg10
F0.01380682672471123
ssI56
(dp66
g9
F0.5620556651816222
sg10
F0.1551329460767864
ssI57
(dp67
g9
F0.26101256189981314
sg10
F0.8945678149648132
ssI58
(dp68
g9
F0.2924402012413173
sg10
F0.8008889896306375
ssI59
(dp69
g9
F0.4173426586335809
sg10
F0.7881655206738137
ssI60
(dp70
g9
F0.5264167414306176
sg10
F0.7367291035222151
ssI61
(dp71
g9
F0.25147959925304075
sg10
F0.2843223844606778
ssI62
(dp72
g9
F0.7662369298641627
sg10
F0.04282596353914325
ssI63
(dp73
g9
F0.49289445889876105
sg10
F0.6554893759904636
ssI64
(dp74
g9
F0.004909040278270993
sg10
F0.41884361917763346
ssI65
(dp75
g9
F0.8184938985664402
sg10
F0.9048911013763283
ssI66
(dp76
g9
F0.6753502679364116
sg10
F0.11883021667918003
ssI67
(dp77
g9
F0.2903335835950268
sg10
F0.6577062341659415
ssI68
(dp78
g9
F0.5910597148091832
sg10
F0.6299355318727432
ssI69
(dp79
g9
F0.018659014026169873
sg10
F0.9767374675843536
ssI70
(dp80
g9
F0.8673154246468743
sg10
F0.8960552447064744
ssI71
(dp81
g9
F0.9123458960201023
sg10
F0.012102279569850771
ssI72
(dp82
g9
F0.3867325285382591
sg10
F0.3348207628412909
ssI73
(dp83
g9
F0.9615743860125116
sg10
F0.20393676242606906
ssI74
(dp84
g9
F0.5083934936778195
sg10
F0.018188539346925547
ssI75
(dp85
g9
F0.22849979967427203
sg10
F0.603097066269202
ssI76
(dp86
g9
F0.6012606300737907
sg10
F0.735307650575873
ssI77
(dp87
g9
F0.41439432492884454
sg10
F0.6607253527697555
ssI78
(dp88
g9
F0.6339714245824288
sg10
F0.23681176063977272
ssI79
(dp89
g9
F0.4533372716541131
sg10
F0.4979487900749864
ssI80
(dp90
g9
F0.845996062161022
sg10
F0.6886553985688315
ssI81
(dp91
g9
F0.19107862590597402
sg10
F0.5738383852278931
ssI82
(dp92
g9
F0.8249131315411559
sg10
F0.6128919324028668
ssI83
(dp93
g9
F0.1472244590447448
sg10
F0.29306979095433205
ssI84
(dp94
g9
F0.501633461597496
sg10
F0.5058158529127201
ssI85
(dp95
g9
F0.33826095126187883
sg10
F0.8810279760637398
ssI86
(dp96
g9
F0.5682333376102148
sg10
F0.8102580271004454
ssI87
(dp97
g9
F0.4619054947804211
sg10
F0.28682418565961254
ssI88
(dp98
g9
F0.8244166682919495
sg10
F0.2630504400223539
ssI89
(dp99
g9
F0.23329312934622792
sg10
F0.28388426240829834
ssI90
(dp100
g9
F0.7092974376128447
sg10
F0.3158974614415936
ssI91
(dp101
g9
F0.9468457301952515
sg10
F0.1010712035899004
ssI92
(dp102
g9
F0.0462215575164886
sg10
F0.79449844674461
ssI93
(dp103
g9
F0.32011700811116206
sg10
F0.8231826795591044
ssI94
(dp104
g9
F0.18019893790215002
sg10
F0.03734210087425127
ssI95
(dp105
g9
F0.3091494101228781
sg10
F0.3069678687328071
ssI96
(dp106
g9
F0.6718518326228327
sg10
F0.015466869630075042
ssI97
(dp107
g9
F0.7760870237732401
sg10
F0.046753843919500104
ssI98
(dp108
g9
F0.09935432999199367
sg10
F0.8631165956358453
ssI99
(dp109
g9
F0.193745127290346
sg10
F0.3090157239954944
ssI100
(dp110
g9
F0.58994223489422
sg10
F0.8321439571901718
ssI101
(dp111
g9
F0.5870551656327668
sg10
F0.932160766423185
ssI102
(dp112
g9
F0.7930754501355937
sg10
F0.6204926808553991
ssI103
(dp113
g9
F0.5045344351525951
sg10
F0.03905040554960737
ssI104
(dp114
g9
F0.21308697812908384
sg10
F0.7163837970125327
ssI105
(dp115
g9
F0.9801534488517659
sg10
F0.01156700598418614
ssI106
(dp116
g9
F0.4093061285371019
sg10
F0.1017860671432611
ssI107
(dp117
g9
F0.049862373109884284
sg10
F0.8478322634494129
ssI108
(dp118
g9
F0.5340815973949323
sg10
F0.9150862299792262
ssI109
(dp119
g9
F0.2171448352507902
sg10
F0.044955591155009356
ssI110
(dp120
g9
F0.8129261772187573
sg10
F0.12392394430136
ssI111
(dp121
g9
F0.6885368337334814
sg10
F0.18544574075929654
ssI112
(dp122
g9
F0.2268558232169282
sg10
F0.5232382153398304
ssI113
(dp123
g9
F0.6660176918772858
sg10
F0.16913083669310003
ssI114
(dp124
g9
F0.16711603251655482
sg10
F0.9838921646175053
ssI115
(dp125
g9
F0.16071682388454733
sg10
F0.10124121775240758
ssI116
(dp126
g9
F0.2107899897051928
sg10
F0.27949352279219875
ssI117
(dp127
g9
F0.4369876628793653
sg10
F0.8869601376101873
ssI118
(dp128
g9
F0.46347249624060793
sg10
F0.6047388948959314
ssI119
(dp129
g9
F0.03374673447501608
sg10
F0.6852211573368598
ssI120
(dp130
g9
F0.4056693701475196
sg10
F0.03575301889230209
ssI121
(dp131
g9
F0.6472708512983422
sg10
F0.024288852697809116
ssI122
(dp132
g9
F0.9900701670449372
sg10
F0.5959141391994244
ssI123
(dp133
g9
F0.3032800485402636
sg10
F0.5423016037643684
ssI124
(dp134
g9
F0.09542828940628212
sg10
F0.5778167388635218
ssI125
(dp135
g9
F0.1618978895343286
sg10
F0.5144919145081198
ssI126
(dp136
g9
F0.5468095552050777
sg10
F0.011201032915239328
ssI127
(dp137
g9
F0.9869001272924509
sg10
F0.531965900666316
ssI128
(dp138
g9
F0.9452052919150163
sg10
F0.692698204879613
ssI129
(dp139
g9
F0.836817834735126
sg10
F0.7982080879388327
ssI130
(dp140
g9
F0.8157315568117236
sg10
F0.0654862306303513
ssI131
(dp141
g9
F0.8666688983685247
sg10
F0.4055139322149348
ssI132
(dp142
g9
F0.1810730407027179
sg10
F0.7220821319884387
ssI133
(dp143
g9
F0.1265204623779297
sg10
F0.27249599249727485
ssI134
(dp144
g9
F0.35683056264360913
sg10
F0.8027019431007469
ssI135
(dp145
g9
F0.24927149637617751
sg10
F0.8290368495800325
ssI136
(dp146
g9
F0.6875081767178505
sg10
F0.08257987246089937
ssI137
(dp147
g9
F0.07493662888071972
sg10
F0.409305446535839
ssI138
(dp148
g9
F0.7715991218985543
sg10
F0.9652779088866431
ssI139
(dp149
g9
F0.07806716968316052
sg10
F0.5672386859344282
ssI140
(dp150
g9
F0.17787286072594288
sg10
F0.7799865211453868
ssI141
(dp151
g9
F0.12558767419117733
sg10
F0.20519067231073085
ssI142
(dp152
g9
F0.8953736886753675
sg10
F0.9275307769865315
ssI143
(dp153
g9
F0.5853094236149423
sg10
F0.7989946472997975
ssI144
(dp154
g9
F0.7935695413158088
sg10
F0.37145813388675397
ssI145
(dp155
g9
F0.263560309322616
sg10
F0.5409583212438452
ssI146
(dp156
g9
F0.2507198138478388
sg10
F0.30058104701413535
ssI147
(dp157
g9
F0.93834065131516
sg10
F0.7461591956387544
ssI148
(dp158
g9
F0.8259514309354263
sg10
F0.8288055693688131
ssI149
(dp159
g9
F0.160446146892267
sg10
F0.7250381482783949
ssI150
(dp160
g9
F0.5787545836946968
sg10
F0.200305690576011
ssI151
(dp161
g9
F0.4997773155416345
sg10
F0.142509503981896
ssI152
(dp162
g9
F0.2786422528702245
sg10
F0.04397878639533148
ssI153
(dp163
g9
F0.43949595155738663
sg10
F0.03848936768527145
ssI154
(dp164
g9
F0.8866544272601072
sg10
F0.07898590600571853
ssI155
(dp165
g9
F0.3960252716692467
sg10
F0.4277511945910474
ssI156
(dp166
g9
F0.9014614011007869
sg10
F0.8679013763467823
ssI157
(dp167
g9
F0.35069832834735426
sg10
F0.8145445060445132
ssI158
(dp168
g9
F0.2624161235063679
sg10
F0.23663106918808285
ssI159
(dp169
g9
F0.334925645205559
sg10
F0.9437651501009833
ssI160
(dp170
g9
F0.6366353021149238
sg10
F0.28213290690913906
ssI161
(dp171
g9
F0.7670930093122369
sg10
F0.8302120572574047
ssI162
(dp172
g9
F0.05776953268766172
sg10
F0.1390995705747612
ssI163
(dp173
g9
F0.9762662170860171
sg10
F0.8016631803370269
ssI164
(dp174
g9
F0.15555830348399569
sg10
F0.380567755144417
ssI165
(dp175
g9
F0.4246424013803586
sg10
F0.26394794157487
ssI166
(dp176
g9
F0.47742043734782835
sg10
F0.2672017826835621
ssI167
(dp177
g9
F0.025287032540069143
sg10
F0.6064728770002797
ssI168
(dp178
g9
F0.4481080524927433
sg10
F0.2548722452290342
ssI169
(dp179
g9
F0.6732533209528845
sg10
F0.3675203807790789
ssI170
(dp180
g9
F0.27988141086938334
sg10
F0.9293619494991823
ssI171
(dp181
g9
F0.6812120765594022
sg10
F0.7654058153624562
ssI172
(dp182
g9
F0.4299130391379534
sg10
F0.12590514380738294
ssI173
(dp183
g9
F0.017260332537401668
sg10
F0.16801819066347712
ssI174
(dp184
g9
F0.5924651650018197
sg10
F0.1453459153579808
ssI175
(dp185
g9
F0.028311452360002654
sg10
F0.8838169560435573
ssI176
(dp186
g9
F0.9647263531123523
sg10
F0.5443658258714035
ssI177
(dp187
g9
F0.8598284463011147
sg10
F0.48797606009876227
ssI178
(dp188
g9
F0.5795082531541721
sg10
F0.8549964255376625
ssI179
(dp189
g9
F0.9716202369880023
sg10
F0.025616938934292177
ssI180
(dp190
g9
F0.5755024882345743
sg10
F0.3036341130886354
ssI181
(dp191
g9
F0.45660591349125634
sg10
F0.34676507826494596
ssI182
(dp192
g9
F0.11920903381801484
sg10
F0.03083207145889877
ssI183
(dp193
g9
F0.8938211897266659
sg10
F0.6496436936331061
ssI184
(dp194
g9
F0.3011229492735443
sg10
F0.9792589934683473
ssI185
(dp195
g9
F0.4345328364528511
sg10
F0.6835012882114067
ssI186
(dp196
g9
F0.9078035747546677
sg10
F0.9377474866590645
ssI187
(dp197
g9
F0.7574878629793684
sg10
F0.8091377249673973
ssI188
(dp198
g9
F0.408053352252988
sg10
F0.9563105146281113
ssI189
(dp199
g9
F0.9531819966048206
sg10
F0.9773076015338974
ssI190
(dp200
g9
F0.24151921889475325
sg10
F0.8608979606303853
ssI191
(dp201
g9
F0.9409931719253117
sg10
F0.30702062044120704
ssI192
(dp202
g9
F0.053576769090022736
sg10
F0.42059597816353955
ssI193
(dp203
g9
F0.40693067969379304
sg10
F0.09904338222227915
ssI194
(dp204
g9
F0.37783215354593225
sg10
F0.7372475401419882
ssI195
(dp205
g9
F0.8672079176095305
sg10
F0.759964488577796
ssI196
(dp206
g9
F0.18865564424392312
sg10
F0.8215231296881097
ssI197
(dp207
g9
F0.9449613651128287
sg10
F0.05236754122918619
ssI198
(dp208
g9
F0.3442140201432029
sg10
F0.17496415109989905
ssI199
(dp209
g9
F0.7375779596390355
sg10
F0.6013337572692786
sssS'node_dict_factory'
p210
c__builtin__
dict
p211
sS'edge_attr_dict_factory'
p212
g211
sS'edge'
p213
(dp214
I0
(dp215
sI1
(dp216
sI2
(dp217
sI3
(dp218
sI4
(dp219
sI5
(dp220
sI6
(dp221
sI7
(dp222
sI8
(dp223
sI9
(dp224
sI10
(dp225
sI11
(dp226
sI12
(dp227
sI13
(dp228
sI14
(dp229
sI15
(dp230
sI16
(dp231
sI17
(dp232
sI18
(dp233
sI19
(dp234
sI20
(dp235
sI21
(dp236
sI22
(dp237
sI23
(dp238
sI24
(dp239
sI25
(dp240
sI26
(dp241
sI27
(dp242
sI28
(dp243
sI29
(dp244
sI30
(dp245
sI31
(dp246
sI32
(dp247
sI33
(dp248
sI34
(dp249
sI35
(dp250
sI36
(dp251
sI37
(dp252
sI38
(dp253
sI39
(dp254
sI40
(dp255
sI41
(dp256
sI42
(dp257
sI43
(dp258
sI44
(dp259
sI45
(dp260
sI46
(dp261
sI47
(dp262
sI48
(dp263
sI49
(dp264
sI50
(dp265
sI51
(dp266
sI52
(dp267
sI53
(dp268
sI54
(dp269
sI55
(dp270
sI56
(dp271
sI57
(dp272
sI58
(dp273
sI59
(dp274
sI60
(dp275
sI61
(dp276
sI62
(dp277
sI63
(dp278
sI64
(dp279
sI65
(dp280
sI66
(dp281
sI67
(dp282
sI68
(dp283
sI69
(dp284
sI70
(dp285
sI71
(dp286
sI72
(dp287
sI73
(dp288
sI74
(dp289
sI75
(dp290
sI76
(dp291
sI77
(dp292
sI78
(dp293
sI79
(dp294
sI80
(dp295
sI81
(dp296
sI82
(dp297
sI83
(dp298
sI84
(dp299
sI85
(dp300
sI86
(dp301
sI87
(dp302
sI88
(dp303
sI89
(dp304
sI90
(dp305
sI91
(dp306
sI92
(dp307
sI93
(dp308
sI94
(dp309
sI95
(dp310
sI96
(dp311
sI97
(dp312
sI98
(dp313
sI99
(dp314
sI100
(dp315
sI101
(dp316
sI102
(dp317
sI103
(dp318
sI104
(dp319
sI105
(dp320
sI106
(dp321
sI107
(dp322
sI108
(dp323
sI109
(dp324
sI110
(dp325
sI111
(dp326
sI112
(dp327
sI113
(dp328
sI114
(dp329
sI115
(dp330
sI116
(dp331
sI117
(dp332
sI118
(dp333
sI119
(dp334
sI120
(dp335
sI121
(dp336
sI122
(dp337
sI123
(dp338
sI124
(dp339
sI125
(dp340
sI126
(dp341
sI127
(dp342
sI128
(dp343
sI129
(dp344
sI130
(dp345
sI131
(dp346
sI132
(dp347
sI133
(dp348
sI134
(dp349
sI135
(dp350
sI136
(dp351
sI137
(dp352
sI138
(dp353
sI139
(dp354
sI140
(dp355
sI141
(dp356
sI142
(dp357
sI143
(dp358
sI144
(dp359
sI145
(dp360
sI146
(dp361
sI147
(dp362
sI148
(dp363
sI149
(dp364
sI150
(dp365
sI151
(dp366
sI152
(dp367
sI153
(dp368
sI154
(dp369
sI155
(dp370
sI156
(dp371
sI157
(dp372
sI158
(dp373
sI159
(dp374
sI160
(dp375
sI161
(dp376
sI162
(dp377
sI163
(dp378
sI164
(dp379
sI165
(dp380
sI166
(dp381
sI167
(dp382
sI168
(dp383
sI169
(dp384
sI170
(dp385
sI171
(dp386
sI172
(dp387
sI173
(dp388
sI174
(dp389
sI175
(dp390
sI176
(dp391
sI177
(dp392
sI178
(dp393
sI179
(dp394
sI180
(dp395
sI181
(dp396
sI182
(dp397
sI183
(dp398
sI184
(dp399
sI185
(dp400
sI186
(dp401
sI187
(dp402
sI188
(dp403
sI189
(dp404
sI190
(dp405
sI191
(dp406
sI192
(dp407
sI193
(dp408
sI194
(dp409
sI195
(dp410
sI196
(dp411
sI197
(dp412
sI198
(dp413
sI199
(dp414
ssS'graph'
p415
(dp416
sS'adjlist_dict_factory'
p417
g211
sS'adj'
p418
g214
sb.