ccopy_reg
_reconstructor
p0
(cnetworkx.classes.graph
Graph
p1
c__builtin__
object
p2
Ntp3
Rp4
(dp5
S'node'
p6
(dp7
I0
(dp8
S'pos_x'
p9
F0.09273417841305176
sS'pos_y'
p10
F0.13728239101559203
ssI1
(dp11
g9
F0.8874669676866414
sg10
F0.8663423953265185
ssI2
(dp12
g9
F0.3521773335543965
sg10
F0.640899189574472
ssI3
(dp13
g9
F0.43589912032743205
sg10
F0.0779114951541584
ssI4
(dp14
g9
F0.21320586078817727
sg10
F0.2943513241933997
ssI5
(dp15
g9
F0.701743009008379
sg10
F0.5263219352696465
ssI6
(dp16
g9
F0.8803715638077757
sg10
F0.756596161438426
ssI7
(dp17
g9
F0.05615630450349818
sg10
F0.35574934036264205
ssI8
(dp18
g9
F0.025813532828478758
sg10
F0.2787469618164192
ssI9
(dp19
g9
F0.8438241578850231
sg10
F0.8539644816429451
ssI10
(dp20
g9
F0.023466887245004564
sg10
F0.33408308324938263
ssI11
(dp21
g9
F0.733604412104465
sg10
F0.1097443771846347
ssI12
(dp22
g9
F0.7276464468323205
sg10
F0.4447404038996634
ssI13
(dp23
g9
F0.14199096315019133
sg10
F0.207554797467701
ssI14
(dp24
g9
F0.4420207284024448
sg10
F0.4439402997260482
ssI15
(dp25
g9
F0.9654943085602116
sg10
F0.5284956730270957
ssI16
(dp26
g9
F0.235601378587607
sg10
F0.6517643591227094
ssI17
(dp27
g9
F0.7505326943299909
sg10
F0.32407402073607017
ssI18
(dp28
g9
F0.8694818511449565
sg10
F0.11607002526039267
ssI19
(dp29
g9
F0.6414619624818679
sg10
F0.9961846363670857
ssI20
(dp30
g9
F0.8020316560473829
sg10
F0.03403535552175618
ssI21
(dp31
g9
F0.36141587009043874
sg10
F0.7317176880064516
ssI22
(dp32
g9
F0.4273161932976829
sg10
F0.21692171811677574
ssI23
(dp33
g9
F0.965434242005108
sg10
F0.40568751826396054
ssI24
(dp34
g9
F0.7339036656313944
sg10
F0.5484479842249238
ssI25
(dp35
g9
F0.41008731152742905
sg10
F0.6217891034386
ssI26
(dp36
g9
F0.11374029682138054
sg10
F0.12254451786287168
ssI27
(dp37
g9
F0.8301806358228561
sg10
F0.9258320186832575
ssI28
(dp38
g9
F0.975545785767414
sg10
F0.39877359319953576
ssI29
(dp39
g9
F0.8393862990982163
sg10
F0.2688927215441014
ssI30
(dp40
g9
F0.45579572134511515
sg10
F0.02623097406836783
ssI31
(dp41
g9
F0.39849787019895655
sg10
F0.6006265289755098
ssI32
(dp42
g9
F0.6016274512652268
sg10
F0.08895584011129776
ssI33
(dp43
g9
F0.37099967242137943
sg10
F0.39684856985921557
ssI34
(dp44
g9
F0.9766130356592944
sg10
F0.8993035450052341
ssI35
(dp45
g9
F0.29435006621675097
sg10
F0.42748987523612925
ssI36
(dp46
g9
F0.9558356554938952
sg10
F0.2816158791076413
ssI37
(dp47
g9
F0.37253296228021293
sg10
F0.9007513641079012
ssI38
(dp48
g9
F0.33430827396644924
sg10
F0.45028199497397114
ssI39
(dp49
g9
F0.4106515613689764
sg10
F0.6364339536570026
ssI40
(dp50
g9
F0.3498600699377544
sg10
F0.6620218845129325
ssI41
(dp51
g9
F0.17473290953193654
sg10
F0.5786224618346527
ssI42
(dp52
g9
F0.7811650651792348
sg10
F0.06047983414352498
ssI43
(dp53
g9
F0.8091915666010792
sg10
F0.180974152590207
ssI44
(dp54
g9
F0.17136309630684377
sg10
F0.9815127440553946
ssI45
(dp55
g9
F0.5084781755969309
sg10
F0.953332529052718
ssI46
(dp56
g9
F0.08715816686490929
sg10
F0.0663742731653214
ssI47
(dp57
g9
F0.10170881446206814
sg10
F0.6616716838608115
ssI48
(dp58
g9
F0.42253673066366193
sg10
F0.6718528073415975
ssI49
(dp59
g9
F0.8573192805845314
sg10
F0.7318091839303562
ssI50
(dp60
g9
F0.9137510951948945
sg10
F0.8224573850221524
ssI51
(dp61
g9
F0.9676646140367849
sg10
F0.9946930641092661
ssI52
(dp62
g9
F0.6239873872308028
sg10
F0.1722188060909855
ssI53
(dp63
g9
F0.0841704519957015
sg10
F0.9428263572721769
ssI54
(dp64
g9
F0.5864265688490234
sg10
F0.21800083948533167
ssI55
(dp65
g9
F0.15850228619150475
sg10
F0.9803228544119635
ssI56
(dp66
g9
F0.6176572323316417
sg10
F0.06862231593455148
ssI57
(dp67
g9
F0.028241515471833067
sg10
F0.08383224673323919
ssI58
(dp68
g9
F0.8013911312544438
sg10
F0.3065817863377279
ssI59
(dp69
g9
F0.5235082731140924
sg10
F0.9370334264621449
ssI60
(dp70
g9
F0.43483308988408476
sg10
F0.8374092714799756
ssI61
(dp71
g9
F0.8557422919133116
sg10
F0.3315251949597925
ssI62
(dp72
g9
F0.5551199394904435
sg10
F0.8315417096075969
ssI63
(dp73
g9
F0.8667948018871228
sg10
F0.7475271310612117
ssI64
(dp74
g9
F0.926534399055336
sg10
F0.38235983169638366
ssI65
(dp75
g9
F0.42525045155371566
sg10
F0.638204632759556
ssI66
(dp76
g9
F0.3758600029604042
sg10
F0.5517513018282966
ssI67
(dp77
g9
F0.7661434185201828
sg10
F0.5207234296531887
ssI68
(dp78
g9
F0.7172472478685832
sg10
F0.9261932518763369
ssI69
(dp79
g9
F0.638244991200311
sg10
F0.3010523890830701
ssI70
(dp80
g9
F0.5333924087905699
sg10
F0.3233178641374054
ssI71
(dp81
g9
F0.3668403758328673
sg10
F0.27927528265658097
ssI72
(dp82
g9
F0.1573199652168975
sg10
F0.30886783051976197
ssI73
(dp83
g9
F0.03658742925563074
sg10
F0.7976706304941865
ssI74
(dp84
g9
F0.2630870036274183
sg10
F0.22399376739441557
ssI75
(dp85
g9
F0.6326645276521405
sg10
F0.238330499518701
ssI76
(dp86
g9
F0.598175633298157
sg10
F0.7615433555781329
ssI77
(dp87
g9
F0.0606142104600117
sg10
F0.7928012680236527
ssI78
(dp88
g9
F0.17069719118553284
sg10
F0.046226450200917535
ssI79
(dp89
g9
F0.9888190890441357
sg10
F0.8612879251789098
ssI80
(dp90
g9
F0.18204259661104627
sg10
F0.28914318406557393
ssI81
(dp91
g9
F0.7264766938283158
sg10
F0.3121722742816786
ssI82
(dp92
g9
F0.9978440634259613
sg10
F0.11919748995819113
ssI83
(dp93
g9
F0.3204828800598938
sg10
F0.41084328300464024
ssI84
(dp94
g9
F0.9055746224594525
sg10
F0.6606806032340573
ssI85
(dp95
g9
F0.015480149924704145
sg10
F0.30086456747187185
ssI86
(dp96
g9
F0.7299225677019928
sg10
F0.7760387594372505
ssI87
(dp97
g9
F0.09581556563287952
sg10
F0.16294061887696754
ssI88
(dp98
g9
F0.9342824317145313
sg10
F0.5727121137158422
ssI89
(dp99
g9
F0.7252983411260419
sg10
F0.6503876725336432
ssI90
(dp100
g9
F0.661323685128901
sg10
F0.2517729376725114
ssI91
(dp101
g9
F0.8173441174779266
sg10
F0.3093089540078078
ssI92
(dp102
g9
F0.9723395782014228
sg10
F0.7825840865494986
ssI93
(dp103
g9
F0.28375090653949786
sg10
F0.3624105073330026
ssI94
(dp104
g9
F0.6495119495509373
sg10
F0.8589388716186666
ssI95
(dp105
g9
F0.9901935556903909
sg10
F0.7520235565267809
ssI96
(dp106
g9
F0.7822304334489141
sg10
F0.9332029300533554
ssI97
(dp107
g9
F0.6118979159170814
sg10
F0.7627855784094089
ssI98
(dp108
g9
F0.9431497031310803
sg10
F0.47413560262238796
ssI99
(dp109
g9
F0.855451909593856
sg10
F0.8682304412341896
ssI100
(dp110
g9
F0.9250506655314126
sg10
F0.3962590381120664
ssI101
(dp111
g9
F0.30803267393614886
sg10
F0.7501878428998993
ssI102
(dp112
g9
F0.8667651045883074
sg10
F0.23739416487866938
ssI103
(dp113
g9
F0.8595240965599147
sg10
F0.02306788840891172
ssI104
(dp114
g9
F0.7151195149118965
sg10
F0.7447583611278459
ssI105
(dp115
g9
F0.20920391344807654
sg10
F0.05850125756424951
ssI106
(dp116
g9
F0.9803557485757297
sg10
F0.20454935266664376
ssI107
(dp117
g9
F0.09102603197876036
sg10
F0.5877421143474204
ssI108
(dp118
g9
F0.04711225161894239
sg10
F0.0051192684085562545
ssI109
(dp119
g9
F0.6430462982743612
sg10
F0.3482708191903007
ssI110
(dp120
g9
F0.5799834967509133
sg10
F0.8145914386980435
ssI111
(dp121
g9
F0.7355190047690753
sg10
F0.510900257182216
ssI112
(dp122
g9
F0.8779909095255524
sg10
F0.7277567427174189
ssI113
(dp123
g9
F0.04431699824311097
sg10
F0.6369498795999147
ssI114
(dp124
g9
F0.379154751610152
sg10
F0.4224321693924896
ssI115
(dp125
g9
F0.41038836168667303
sg10
F0.8158392450939027
ssI116
(dp126
g9
F0.6806444227464015
sg10
F0.29796893976032235
ssI117
(dp127
g9
F0.9115156613864352
sg10
F0.6713674098143768
ssI118
(dp128
g9
F0.32753110888559267
sg10
F0.8108772727241284
ssI119
(dp129
g9
F0.8716461009015544
sg10
F0.4179355909697682
ssI120
(dp130
g9
F0.02285114449470571
sg10
F0.3454959141234194
ssI121
(dp131
g9
F0.32807645202976243
sg10
F0.354917224578544
ssI122
(dp132
g9
F0.9877843344549668
sg10
F0.5378099049402635
ssI123
(dp133
g9
F0.9867132877730049
sg10
F0.9442959889753834
ssI124
(dp134
g9
F0.6132177716567504
sg10
F0.4053409209644081
ssI125
(dp135
g9
F0.414611938539722
sg10
F0.5110159167565974
ssI126
(dp136
g9
F0.05479457598465698
sg10
F0.05173956178232397
ssI127
(dp137
g9
F0.17357745763797372
sg10
F0.12328345937717655
ssI128
(dp138
g9
F0.2823691925492763
sg10
F0.9376098921528317
ssI129
(dp139
g9
F0.7298912246467036
sg10
F0.20406335146786925
ssI130
(dp140
g9
F0.5336233752760388
sg10
F0.29645344469828383
ssI131
(dp141
g9
F0.7772743027903384
sg10
F0.4387356520470307
ssI132
(dp142
g9
F0.7808093933880423
sg10
F0.3464107713312926
ssI133
(dp143
g9
F0.46058069273174773
sg10
F0.15125286578594954
ssI134
(dp144
g9
F0.5947023234358881
sg10
F0.10622475524688568
ssI135
(dp145
g9
F0.757635554379335
sg10
F0.15829012108134355
ssI136
(dp146
g9
F0.3951295020217277
sg10
F0.18743245328367142
ssI137
(dp147
g9
F0.2672043545391011
sg10
F0.7127681848761569
ssI138
(dp148
g9
F0.8059424626140675
sg10
F0.6153428652726108
ssI139
(dp149
g9
F0.7512040130524227
sg10
F0.20688128076331547
ssI140
(dp150
g9
F0.6408464977690973
sg10
F0.8615383699061248
ssI141
(dp151
g9
F0.8263132276166161
sg10
F0.6477439375547595
ssI142
(dp152
g9
F0.7052403450769265
sg10
F0.32245757572904166
ssI143
(dp153
g9
F0.63194217628123
sg10
F0.7629588753667553
ssI144
(dp154
g9
F0.13731093910279935
sg10
F0.04066469481478996
ssI145
(dp155
g9
F0.841516916299938
sg10
F0.9415684151276968
ssI146
(dp156
g9
F0.020753432028897456
sg10
F0.93306954105568
ssI147
(dp157
g9
F0.6740039507326183
sg10
F0.07508196015319268
ssI148
(dp158
g9
F0.822215279669316
sg10
F0.9460269330232499
ssI149
(dp159
g9
F0.09535692644804672
sg10
F0.9041916684672315
ssI150
(dp160
g9
F0.550612438110094
sg10
F0.20154596860739604
ssI151
(dp161
g9
F0.650338724687952
sg10
F0.8669445574760838
ssI152
(dp162
g9
F0.7774175759312044
sg10
F0.9305995478863013
ssI153
(dp163
g9
F0.16935194738615167
sg10
F0.24433555840230592
ssI154
(dp164
g9
F0.7879607344836056
sg10
F0.7943275704668262
ssI155
(dp165
g9
F0.5283420649804873
sg10
F0.5793092762559684
ssI156
(dp166
g9
F0.9302241522987215
sg10
F0.06519081377130331
ssI157
(dp167
g9
F0.7762186279051843
sg10
F0.4862929637068538
ssI158
(dp168
g9
F0.12876157362849328
sg10
F0.001422899643241049
ssI159
(dp169
g9
F0.015311351101047421
sg10
F0.09932884477680448
ssI160
(dp170
g9
F0.7399932732854577
sg10
F0.11576797706212227
ssI161
(dp171
g9
F0.5721504307043073
sg10
F0.22337259670497778
ssI162
(dp172
g9
F0.15543874804718727
sg10
F0.3709062059325484
ssI163
(dp173
g9
F0.431303308723863
sg10
F0.48840049131942087
ssI164
(dp174
g9
F0.463074306105838
sg10
F0.6481366062411068
ssI165
(dp175
g9
F0.011427562902117994
sg10
F0.11895851669016555
ssI166
(dp176
g9
F0.87844074877375
sg10
F0.15110175017808658
ssI167
(dp177
g9
F0.5499117137079625
sg10
F0.5905843236461276
ssI168
(dp178
g9
F0.49904573428300036
sg10
F0.15520413510408637
ssI169
(dp179
g9
F0.6209172078932178
sg10
F0.5039641209239243
ssI170
(dp180
g9
F0.10278396968452985
sg10
F0.5341066814062899
ssI171
(dp181
g9
F0.42520242503775707
sg10
F0.42651403927150244
ssI172
(dp182
g9
F0.3899673352300679
sg10
F0.14986476670373183
ssI173
(dp183
g9
F0.6021517578206674
sg10
F0.6312776837400491
ssI174
(dp184
g9
F0.8343105122281624
sg10
F0.9635700379539522
ssI175
(dp185
g9
F0.6326833834533546
sg10
F0.29728843379956404
ssI176
(dp186
g9
F0.7464696410599668
sg10
F0.27563116212401584
ssI177
(dp187
g9
F0.19598018274532703
sg10
F0.8563973221889415
ssI178
(dp188
g9
F0.5983643765892511
sg10
F0.88491423529814
ssI179
(dp189
g9
F0.21241493169197856
sg10
F0.7078504294724624
ssI180
(dp190
g9
F0.03876232334237939
sg10
F0.44752498009645647
ssI181
(dp191
g9
F0.42567582871150156
sg10
F0.8301292213078523
ssI182
(dp192
g9
F0.41047533515412793
sg10
F0.12362110062710452
ssI183
(dp193
g9
F0.533998990033563
sg10
F0.9291760693939647
ssI184
(dp194
g9
F0.7296703660049637
sg10
F0.4518271548668591
ssI185
(dp195
g9
F0.6190329174709139
sg10
F0.6657837923149206
ssI186
(dp196
g9
F0.545677881168596
sg10
F0.9445037671453006
ssI187
(dp197
g9
F0.1137474253171632
sg10
F0.030319890244297487
ssI188
(dp198
g9
F0.9033580395953547
sg10
F0.15976448679338728
ssI189
(dp199
g9
F0.23919568523333323
sg10
F0.5833916160765289
ssI190
(dp200
g9
F0.5009757540539319
sg10
F0.3772032103481727
ssI191
(dp201
g9
F0.40973239245938575
sg10
F0.9740951437362736
ssI192
(dp202
g9
F0.7826518967030565
sg10
F0.233010476070715
ssI193
(dp203
g9
F0.09089209460616743
sg10
F0.7730568102922051
ssI194
(dp204
g9
F0.5745272449935074
sg10
F0.03136899270334781
ssI195
(dp205
g9
F0.521741044457146
sg10
F0.7736397366432282
ssI196
(dp206
g9
F0.6493755084334148
sg10
F0.49866065956812455
ssI197
(dp207
g9
F0.08738213409061679
sg10
F0.10047873176662359
ssI198
(dp208
g9
F0.10881523359926448
sg10
F0.9532824803319371
ssI199
(dp209
g9
F0.5697125328681741
sg10
F0.8801454722333318
sssS'node_dict_factory'
p210
c__builtin__
dict
p211
sS'edge_attr_dict_factory'
p212
g211
sS'edge'
p213
(dp214
I0
(dp215
sI1
(dp216
sI2
(dp217
sI3
(dp218
sI4
(dp219
sI5
(dp220
sI6
(dp221
sI7
(dp222
sI8
(dp223
sI9
(dp224
sI10
(dp225
sI11
(dp226
sI12
(dp227
sI13
(dp228
sI14
(dp229
sI15
(dp230
sI16
(dp231
sI17
(dp232
sI18
(dp233
sI19
(dp234
sI20
(dp235
sI21
(dp236
sI22
(dp237
sI23
(dp238
sI24
(dp239
sI25
(dp240
sI26
(dp241
sI27
(dp242
sI28
(dp243
sI29
(dp244
sI30
(dp245
sI31
(dp246
sI32
(dp247
sI33
(dp248
sI34
(dp249
sI35
(dp250
sI36
(dp251
sI37
(dp252
sI38
(dp253
sI39
(dp254
sI40
(dp255
sI41
(dp256
sI42
(dp257
sI43
(dp258
sI44
(dp259
sI45
(dp260
sI46
(dp261
sI47
(dp262
sI48
(dp263
sI49
(dp264
sI50
(dp265
sI51
(dp266
sI52
(dp267
sI53
(dp268
sI54
(dp269
sI55
(dp270
sI56
(dp271
sI57
(dp272
sI58
(dp273
sI59
(dp274
sI60
(dp275
sI61
(dp276
sI62
(dp277
sI63
(dp278
sI64
(dp279
sI65
(dp280
sI66
(dp281
sI67
(dp282
sI68
(dp283
sI69
(dp284
sI70
(dp285
sI71
(dp286
sI72
(dp287
sI73
(dp288
sI74
(dp289
sI75
(dp290
sI76
(dp291
sI77
(dp292
sI78
(dp293
sI79
(dp294
sI80
(dp295
sI81
(dp296
sI82
(dp297
sI83
(dp298
sI84
(dp299
sI85
(dp300
sI86
(dp301
sI87
(dp302
sI88
(dp303
sI89
(dp304
sI90
(dp305
sI91
(dp306
sI92
(dp307
sI93
(dp308
sI94
(dp309
sI95
(dp310
sI96
(dp311
sI97
(dp312
sI98
(dp313
sI99
(dp314
sI100
(dp315
sI101
(dp316
sI102
(dp317
sI103
(dp318
sI104
(dp319
sI105
(dp320
sI106
(dp321
sI107
(dp322
sI108
(dp323
sI109
(dp324
sI110
(dp325
sI111
(dp326
sI112
(dp327
sI113
(dp328
sI114
(dp329
sI115
(dp330
sI116
(dp331
sI117
(dp332
sI118
(dp333
sI119
(dp334
sI120
(dp335
sI121
(dp336
sI122
(dp337
sI123
(dp338
sI124
(dp339
sI125
(dp340
sI126
(dp341
sI127
(dp342
sI128
(dp343
sI129
(dp344
sI130
(dp345
sI131
(dp346
sI132
(dp347
sI133
(dp348
sI134
(dp349
sI135
(dp350
sI136
(dp351
sI137
(dp352
sI138
(dp353
sI139
(dp354
sI140
(dp355
sI141
(dp356
sI142
(dp357
sI143
(dp358
sI144
(dp359
sI145
(dp360
sI146
(dp361
sI147
(dp362
sI148
(dp363
sI149
(dp364
sI150
(dp365
sI151
(dp366
sI152
(dp367
sI153
(dp368
sI154
(dp369
sI155
(dp370
sI156
(dp371
sI157
(dp372
sI158
(dp373
sI159
(dp374
sI160
(dp375
sI161
(dp376
sI162
(dp377
sI163
(dp378
sI164
(dp379
sI165
(dp380
sI166
(dp381
sI167
(dp382
sI168
(dp383
sI169
(dp384
sI170
(dp385
sI171
(dp386
sI172
(dp387
sI173
(dp388
sI174
(dp389
sI175
(dp390
sI176
(dp391
sI177
(dp392
sI178
(dp393
sI179
(dp394
sI180
(dp395
sI181
(dp396
sI182
(dp397
sI183
(dp398
sI184
(dp399
sI185
(dp400
sI186
(dp401
sI187
(dp402
sI188
(dp403
sI189
(dp404
sI190
(dp405
sI191
(dp406
sI192
(dp407
sI193
(dp408
sI194
(dp409
sI195
(dp410
sI196
(dp411
sI197
(dp412
sI198
(dp413
sI199
(dp414
ssS'graph'
p415
(dp416
sS'adjlist_dict_factory'
p417
g211
sS'adj'
p418
g214
sb.