ccopy_reg
_reconstructor
p0
(cnetworkx.classes.graph
Graph
p1
c__builtin__
object
p2
Ntp3
Rp4
(dp5
S'node'
p6
(dp7
I0
(dp8
S'pos_x'
p9
F0.4088325631552656
sS'pos_y'
p10
F0.3901148078895449
ssI1
(dp11
g9
F0.49951636050611026
sg10
F0.7124100907331964
ssI2
(dp12
g9
F0.5689666133058255
sg10
F0.9966804993146243
ssI3
(dp13
g9
F0.9211724395684011
sg10
F0.23935029154300858
ssI4
(dp14
g9
F0.05331851530480691
sg10
F0.5566799576602258
ssI5
(dp15
g9
F0.12354709065371283
sg10
F0.7184849419718168
ssI6
(dp16
g9
F0.2610715335628404
sg10
F0.8125953454893441
ssI7
(dp17
g9
F0.3599968362574649
sg10
F0.027557890865143486
ssI8
(dp18
g9
F0.9670355370228566
sg10
F0.7623084217810338
ssI9
(dp19
g9
F0.1318881671210853
sg10
F0.5685593464824423
ssI10
(dp20
g9
F0.006921002126010434
sg10
F0.27819736299468234
ssI11
(dp21
g9
F0.6854067862415937
sg10
F0.9635626865197467
ssI12
(dp22
g9
F0.11753166865337994
sg10
F0.588351613770134
ssI13
(dp23
g9
F0.9993445310378541
sg10
F0.5862277702902847
ssI14
(dp24
g9
F0.867331937158188
sg10
F0.5332191314410961
ssI15
(dp25
g9
F0.9257752065703739
sg10
F0.8591322692137006
ssI16
(dp26
g9
F0.8596847805783677
sg10
F0.543491198438974
ssI17
(dp27
g9
F0.4350859031656573
sg10
F0.3650956339430599
ssI18
(dp28
g9
F0.5950650042692868
sg10
F0.2658090766828153
ssI19
(dp29
g9
F0.4550178630304348
sg10
F0.35306809628005387
ssI20
(dp30
g9
F0.7100196623709201
sg10
F0.1747613557153893
ssI21
(dp31
g9
F0.4344225454299989
sg10
F0.1735605474373365
ssI22
(dp32
g9
F0.02209850655196255
sg10
F0.494049951175071
ssI23
(dp33
g9
F0.84632257305153
sg10
F0.7241625874903335
ssI24
(dp34
g9
F0.07838674321522376
sg10
F0.2286806437723783
ssI25
(dp35
g9
F0.9713082866008697
sg10
F0.5801228186644743
ssI26
(dp36
g9
F0.3314392586139706
sg10
F0.503102211846371
ssI27
(dp37
g9
F0.6357912428789632
sg10
F0.6506049333883364
ssI28
(dp38
g9
F0.12121753699383564
sg10
F0.6348032443838298
ssI29
(dp39
g9
F0.9800236285652768
sg10
F0.5027583886660079
ssI30
(dp40
g9
F0.08311887886445068
sg10
F0.6029128252946744
ssI31
(dp41
g9
F0.41893534359238305
sg10
F0.1623416197269797
ssI32
(dp42
g9
F0.8854006182016644
sg10
F0.23368755248018125
ssI33
(dp43
g9
F0.7546316516809984
sg10
F0.5330752352409136
ssI34
(dp44
g9
F0.5551677521896893
sg10
F0.300773113666165
ssI35
(dp45
g9
F0.23465492043125302
sg10
F0.603234416080033
ssI36
(dp46
g9
F0.4422111923086167
sg10
F0.20274942222531245
ssI37
(dp47
g9
F0.8319597539794484
sg10
F0.6635913369536163
ssI38
(dp48
g9
F0.6776608301000684
sg10
F0.8067379232793866
ssI39
(dp49
g9
F0.0682490922437824
sg10
F0.8614384532484624
ssI40
(dp50
g9
F0.11253015510571152
sg10
F0.19600425026477342
ssI41
(dp51
g9
F0.46776501837663886
sg10
F0.011645656342524568
ssI42
(dp52
g9
F0.09891374964891331
sg10
F0.5363505406694333
ssI43
(dp53
g9
F0.2552728897115375
sg10
F0.13619211909161333
ssI44
(dp54
g9
F0.6685900577026374
sg10
F0.15074102636659326
ssI45
(dp55
g9
F0.34813721327053593
sg10
F0.42317250089444813
ssI46
(dp56
g9
F0.27392139294947393
sg10
F0.980721128165143
ssI47
(dp57
g9
F0.7696438082101098
sg10
F0.34973948261547616
ssI48
(dp58
g9
F0.16091148618374185
sg10
F0.812301130314951
ssI49
(dp59
g9
F0.5536129608661491
sg10
F0.8631090577068989
ssI50
(dp60
g9
F0.18044945367299503
sg10
F0.4931228061911135
ssI51
(dp61
g9
F0.7750298312560944
sg10
F0.728588225037102
ssI52
(dp62
g9
F0.4198361532393391
sg10
F0.3538362062040924
ssI53
(dp63
g9
F0.9917142260607651
sg10
F0.9976055747160177
ssI54
(dp64
g9
F0.5642446647165146
sg10
F0.7109757488300594
ssI55
(dp65
g9
F0.24220209873342613
sg10
F0.8091425764070926
ssI56
(dp66
g9
F0.11853556185932257
sg10
F0.5707277749534418
ssI57
(dp67
g9
F0.355307910281738
sg10
F0.41727289465370965
ssI58
(dp68
g9
F0.647623985577658
sg10
F0.9309372616383599
ssI59
(dp69
g9
F0.49913267893952973
sg10
F0.014408177953403323
ssI60
(dp70
g9
F0.4932202328487588
sg10
F0.845459424343737
ssI61
(dp71
g9
F0.20153379276365202
sg10
F0.5071327313269413
ssI62
(dp72
g9
F0.012535733235915725
sg10
F0.947139195898643
ssI63
(dp73
g9
F0.1928988919149266
sg10
F0.8055739205045551
ssI64
(dp74
g9
F0.6076163947130562
sg10
F0.5671776598740669
ssI65
(dp75
g9
F0.2077460055853395
sg10
F0.3390525773608032
ssI66
(dp76
g9
F0.36904698855657536
sg10
F0.25313484721762514
ssI67
(dp77
g9
F0.09655718115624234
sg10
F0.918082445934663
ssI68
(dp78
g9
F0.3424653484885969
sg10
F0.2553359719646231
ssI69
(dp79
g9
F0.6612033467581137
sg10
F0.3162151813815294
ssI70
(dp80
g9
F0.820277294237473
sg10
F0.38752732144544644
ssI71
(dp81
g9
F0.6603884314196573
sg10
F0.1381551861473861
ssI72
(dp82
g9
F0.7059826140172035
sg10
F0.13776220336219525
ssI73
(dp83
g9
F0.616771171650279
sg10
F0.8084025362294325
ssI74
(dp84
g9
F0.6847205062943513
sg10
F0.6408662542011923
ssI75
(dp85
g9
F0.052730913940067126
sg10
F0.44349106409488703
ssI76
(dp86
g9
F0.9450258417457842
sg10
F0.9253832249035828
ssI77
(dp87
g9
F0.6003227077401082
sg10
F0.6095631850185118
ssI78
(dp88
g9
F0.398628770770018
sg10
F0.08528359195037016
ssI79
(dp89
g9
F0.3884836087997129
sg10
F0.41252523104881444
ssI80
(dp90
g9
F0.2813905804389798
sg10
F0.24342453803896247
ssI81
(dp91
g9
F0.6858738146412937
sg10
F0.9315298799104179
ssI82
(dp92
g9
F0.3571364847471822
sg10
F0.9754826193529516
ssI83
(dp93
g9
F0.21427477941668638
sg10
F0.9942996446614021
ssI84
(dp94
g9
F0.8787619095399827
sg10
F0.92485346256362
ssI85
(dp95
g9
F0.37219243244169864
sg10
F0.7652099753076358
ssI86
(dp96
g9
F0.20941010543339011
sg10
F0.3771665787948906
ssI87
(dp97
g9
F0.8106427509515279
sg10
F0.2831352363941243
ssI88
(dp98
g9
F0.5675572833610002
sg10
F0.6339207942475055
ssI89
(dp99
g9
F0.6183965634595375
sg10
F0.7686454399280909
ssI90
(dp100
g9
F0.29943088685860086
sg10
F0.8865298760247675
ssI91
(dp101
g9
F0.7876220871014546
sg10
F0.825683015047228
ssI92
(dp102
g9
F0.26854315776665794
sg10
F0.8053346167376462
ssI93
(dp103
g9
F0.7297321600522674
sg10
F0.48016156223267303
ssI94
(dp104
g9
F0.5042584735052278
sg10
F0.07367890665611321
ssI95
(dp105
g9
F0.4310715646958603
sg10
F0.3078580604687452
ssI96
(dp106
g9
F0.6937373780544147
sg10
F0.1646806738941472
ssI97
(dp107
g9
F0.4619480778043169
sg10
F0.32460226647754487
ssI98
(dp108
g9
F0.22953782537671508
sg10
F0.6868894572629483
ssI99
(dp109
g9
F0.008863751357988114
sg10
F0.44126172503081984
ssI100
(dp110
g9
F0.6557376137614652
sg10
F0.5913981381414597
ssI101
(dp111
g9
F0.9164222958970999
sg10
F0.2688601983635329
ssI102
(dp112
g9
F0.5128790731293422
sg10
F0.3518483603020276
ssI103
(dp113
g9
F0.7138830736193822
sg10
F0.693045811853012
ssI104
(dp114
g9
F0.8305741655918646
sg10
F0.8549564150442976
ssI105
(dp115
g9
F0.46188015583564124
sg10
F0.5215214637398015
ssI106
(dp116
g9
F0.006771350138432886
sg10
F0.31577482838811144
ssI107
(dp117
g9
F0.23559880983199954
sg10
F0.7849685589238743
ssI108
(dp118
g9
F0.4208255948209647
sg10
F0.8707217444176092
ssI109
(dp119
g9
F0.9167152013258905
sg10
F0.8098803467137433
ssI110
(dp120
g9
F0.4312590908761966
sg10
F0.8893110301768135
ssI111
(dp121
g9
F0.14115869501738643
sg10
F0.2307949740521541
ssI112
(dp122
g9
F0.09640497221956834
sg10
F0.72510608171555
ssI113
(dp123
g9
F0.9710445193019974
sg10
F0.998669960765389
ssI114
(dp124
g9
F0.5939455444777173
sg10
F0.16286234414242318
ssI115
(dp125
g9
F0.10558642227509829
sg10
F0.3510647981958811
ssI116
(dp126
g9
F0.798497415090573
sg10
F0.34188045815497115
ssI117
(dp127
g9
F0.3661121336179619
sg10
F0.9360547015089083
ssI118
(dp128
g9
F0.6723585527647644
sg10
F0.7481601583979479
ssI119
(dp129
g9
F0.32058567376637503
sg10
F0.37312669330744874
ssI120
(dp130
g9
F0.9441440197971896
sg10
F0.7955526642500365
ssI121
(dp131
g9
F0.24220522801341748
sg10
F0.7621425267406726
ssI122
(dp132
g9
F0.896211302387966
sg10
F0.5069778859987101
ssI123
(dp133
g9
F0.1334054826510097
sg10
F0.6811638866030987
ssI124
(dp134
g9
F0.9263804030554904
sg10
F0.2840688044956353
ssI125
(dp135
g9
F0.45408854044648816
sg10
F0.5047607007683483
ssI126
(dp136
g9
F0.21943160146355145
sg10
F0.2602636239645304
ssI127
(dp137
g9
F0.47209794625178536
sg10
F0.1450843312803951
ssI128
(dp138
g9
F0.4887878047459644
sg10
F0.31367485581027266
ssI129
(dp139
g9
F0.6717316685550543
sg10
F0.44629321549816703
ssI130
(dp140
g9
F0.9996562850355494
sg10
F0.9968073864097539
ssI131
(dp141
g9
F0.02732597116058566
sg10
F0.9157433554850304
ssI132
(dp142
g9
F0.1493973860976563
sg10
F0.9754052812643598
ssI133
(dp143
g9
F0.805138809000493
sg10
F0.3589195803960923
ssI134
(dp144
g9
F0.5921763701899965
sg10
F0.40126458743156357
ssI135
(dp145
g9
F0.3894933109994825
sg10
F0.5096713380277211
ssI136
(dp146
g9
F0.9371417205152611
sg10
F0.6365160288888454
ssI137
(dp147
g9
F0.8527444734189088
sg10
F0.8560222032679722
ssI138
(dp148
g9
F0.043737474064270865
sg10
F0.80829046148611
ssI139
(dp149
g9
F0.6262099648192754
sg10
F0.38696443718542983
ssI140
(dp150
g9
F0.2937683925073108
sg10
F0.822733292091907
ssI141
(dp151
g9
F0.9416678890317122
sg10
F0.8062837990970594
ssI142
(dp152
g9
F0.7101856165203941
sg10
F0.5452411478413595
ssI143
(dp153
g9
F0.7790443270700947
sg10
F0.3872999745574073
ssI144
(dp154
g9
F0.9488829447356336
sg10
F0.7565026964150076
ssI145
(dp155
g9
F0.3251630781973762
sg10
F0.5080903121867187
ssI146
(dp156
g9
F0.1913815831550837
sg10
F0.09652690170937628
ssI147
(dp157
g9
F0.2834226777906117
sg10
F0.46020890399221615
ssI148
(dp158
g9
F0.1360440079758235
sg10
F0.8184586104261223
ssI149
(dp159
g9
F0.9545977999077835
sg10
F0.8316019549305627
ssI150
(dp160
g9
F0.3677399059309412
sg10
F0.7960592513023472
ssI151
(dp161
g9
F0.2837562687174213
sg10
F0.6438667865810405
ssI152
(dp162
g9
F0.15637287724569326
sg10
F0.20626500144413207
ssI153
(dp163
g9
F0.37399848622337073
sg10
F0.868734243893756
ssI154
(dp164
g9
F0.7923151650068981
sg10
F0.06989362303577817
ssI155
(dp165
g9
F0.3582075816348993
sg10
F0.9019501124818889
ssI156
(dp166
g9
F0.3239804896021645
sg10
F0.8446856486813853
ssI157
(dp167
g9
F0.33638232470396523
sg10
F0.16045072149587225
ssI158
(dp168
g9
F0.7667157998992713
sg10
F0.3325893806851614
ssI159
(dp169
g9
F0.5024000484336992
sg10
F0.4788290258183828
ssI160
(dp170
g9
F0.843473419904728
sg10
F0.15443572252711457
ssI161
(dp171
g9
F0.18035499047016712
sg10
F0.31267192680824685
ssI162
(dp172
g9
F0.013492112184962268
sg10
F0.6280997187564147
ssI163
(dp173
g9
F0.8957483096108718
sg10
F0.9074208066394358
ssI164
(dp174
g9
F0.8146891953258184
sg10
F0.9007878343788244
ssI165
(dp175
g9
F0.42676389817940397
sg10
F0.4259683445767095
ssI166
(dp176
g9
F0.10611049320418953
sg10
F0.45358283236232155
ssI167
(dp177
g9
F0.24309251116573904
sg10
F0.9041894089151751
ssI168
(dp178
g9
F0.5276637840489476
sg10
F0.05840369217874197
ssI169
(dp179
g9
F0.8150942868345263
sg10
F0.38826409634578973
ssI170
(dp180
g9
F0.47430702402543246
sg10
F0.8283140862877836
ssI171
(dp181
g9
F0.2590449790245515
sg10
F0.37098967559147145
ssI172
(dp182
g9
F0.518438705329692
sg10
F0.003984494356217283
ssI173
(dp183
g9
F0.3783654640146329
sg10
F0.4440695399128223
ssI174
(dp184
g9
F0.7130522997006206
sg10
F0.8382312079359103
ssI175
(dp185
g9
F0.7044774206828587
sg10
F0.9584837876700664
ssI176
(dp186
g9
F0.630719498028121
sg10
F0.9391123431894259
ssI177
(dp187
g9
F0.02166399116369222
sg10
F0.41268517971935414
ssI178
(dp188
g9
F0.49387445088953896
sg10
F0.9801869125115802
ssI179
(dp189
g9
F0.3241913763416522
sg10
F0.1006439452289074
ssI180
(dp190
g9
F0.4561494784148292
sg10
F0.9681938908749677
ssI181
(dp191
g9
F0.6913259610441601
sg10
F0.6292772935062283
ssI182
(dp192
g9
F0.8773141131907182
sg10
F0.6499180648732334
ssI183
(dp193
g9
F0.10262027941763874
sg10
F0.7859140571903137
ssI184
(dp194
g9
F0.2384948996713505
sg10
F0.0670524436361063
ssI185
(dp195
g9
F0.606058861824464
sg10
F0.29104383930404965
ssI186
(dp196
g9
F0.24834930159540036
sg10
F0.5575170187988611
ssI187
(dp197
g9
F0.8402702798742487
sg10
F0.3100540617417137
ssI188
(dp198
g9
F0.7579781156085383
sg10
F0.7270396666600598
ssI189
(dp199
g9
F0.9670039409941069
sg10
F0.7778511084170351
ssI190
(dp200
g9
F0.8892617335470345
sg10
F0.5115192175808885
ssI191
(dp201
g9
F0.5159869408988257
sg10
F0.020302026158524722
ssI192
(dp202
g9
F0.3527625991870793
sg10
F0.31185962188070226
ssI193
(dp203
g9
F0.21761370432360894
sg10
F0.9675395783024845
ssI194
(dp204
g9
F0.8857432068502054
sg10
F0.7278770875863497
ssI195
(dp205
g9
F0.34592780753707997
sg10
F0.4680034003941269
ssI196
(dp206
g9
F0.7688392106508422
sg10
F0.22555652485251798
ssI197
(dp207
g9
F0.3346372538142466
sg10
F0.6173157816197873
ssI198
(dp208
g9
F0.0924841151690472
sg10
F0.79670690201913
ssI199
(dp209
g9
F0.9421862786244345
sg10
F0.06262914800860431
sssS'node_dict_factory'
p210
c__builtin__
dict
p211
sS'edge_attr_dict_factory'
p212
g211
sS'edge'
p213
(dp214
I0
(dp215
sI1
(dp216
sI2
(dp217
sI3
(dp218
sI4
(dp219
sI5
(dp220
sI6
(dp221
sI7
(dp222
sI8
(dp223
sI9
(dp224
sI10
(dp225
sI11
(dp226
sI12
(dp227
sI13
(dp228
sI14
(dp229
sI15
(dp230
sI16
(dp231
sI17
(dp232
sI18
(dp233
sI19
(dp234
sI20
(dp235
sI21
(dp236
sI22
(dp237
sI23
(dp238
sI24
(dp239
sI25
(dp240
sI26
(dp241
sI27
(dp242
sI28
(dp243
sI29
(dp244
sI30
(dp245
sI31
(dp246
sI32
(dp247
sI33
(dp248
sI34
(dp249
sI35
(dp250
sI36
(dp251
sI37
(dp252
sI38
(dp253
sI39
(dp254
sI40
(dp255
sI41
(dp256
sI42
(dp257
sI43
(dp258
sI44
(dp259
sI45
(dp260
sI46
(dp261
sI47
(dp262
sI48
(dp263
sI49
(dp264
sI50
(dp265
sI51
(dp266
sI52
(dp267
sI53
(dp268
sI54
(dp269
sI55
(dp270
sI56
(dp271
sI57
(dp272
sI58
(dp273
sI59
(dp274
sI60
(dp275
sI61
(dp276
sI62
(dp277
sI63
(dp278
sI64
(dp279
sI65
(dp280
sI66
(dp281
sI67
(dp282
sI68
(dp283
sI69
(dp284
sI70
(dp285
sI71
(dp286
sI72
(dp287
sI73
(dp288
sI74
(dp289
sI75
(dp290
sI76
(dp291
sI77
(dp292
sI78
(dp293
sI79
(dp294
sI80
(dp295
sI81
(dp296
sI82
(dp297
sI83
(dp298
sI84
(dp299
sI85
(dp300
sI86
(dp301
sI87
(dp302
sI88
(dp303
sI89
(dp304
sI90
(dp305
sI91
(dp306
sI92
(dp307
sI93
(dp308
sI94
(dp309
sI95
(dp310
sI96
(dp311
sI97
(dp312
sI98
(dp313
sI99
(dp314
sI100
(dp315
sI101
(dp316
sI102
(dp317
sI103
(dp318
sI104
(dp319
sI105
(dp320
sI106
(dp321
sI107
(dp322
sI108
(dp323
sI109
(dp324
sI110
(dp325
sI111
(dp326
sI112
(dp327
sI113
(dp328
sI114
(dp329
sI115
(dp330
sI116
(dp331
sI117
(dp332
sI118
(dp333
sI119
(dp334
sI120
(dp335
sI121
(dp336
sI122
(dp337
sI123
(dp338
sI124
(dp339
sI125
(dp340
sI126
(dp341
sI127
(dp342
sI128
(dp343
sI129
(dp344
sI130
(dp345
sI131
(dp346
sI132
(dp347
sI133
(dp348
sI134
(dp349
sI135
(dp350
sI136
(dp351
sI137
(dp352
sI138
(dp353
sI139
(dp354
sI140
(dp355
sI141
(dp356
sI142
(dp357
sI143
(dp358
sI144
(dp359
sI145
(dp360
sI146
(dp361
sI147
(dp362
sI148
(dp363
sI149
(dp364
sI150
(dp365
sI151
(dp366
sI152
(dp367
sI153
(dp368
sI154
(dp369
sI155
(dp370
sI156
(dp371
sI157
(dp372
sI158
(dp373
sI159
(dp374
sI160
(dp375
sI161
(dp376
sI162
(dp377
sI163
(dp378
sI164
(dp379
sI165
(dp380
sI166
(dp381
sI167
(dp382
sI168
(dp383
sI169
(dp384
sI170
(dp385
sI171
(dp386
sI172
(dp387
sI173
(dp388
sI174
(dp389
sI175
(dp390
sI176
(dp391
sI177
(dp392
sI178
(dp393
sI179
(dp394
sI180
(dp395
sI181
(dp396
sI182
(dp397
sI183
(dp398
sI184
(dp399
sI185
(dp400
sI186
(dp401
sI187
(dp402
sI188
(dp403
sI189
(dp404
sI190
(dp405
sI191
(dp406
sI192
(dp407
sI193
(dp408
sI194
(dp409
sI195
(dp410
sI196
(dp411
sI197
(dp412
sI198
(dp413
sI199
(dp414
ssS'graph'
p415
(dp416
sS'adjlist_dict_factory'
p417
g211
sS'adj'
p418
g214
sb.