ccopy_reg
_reconstructor
p0
(cnetworkx.classes.graph
Graph
p1
c__builtin__
object
p2
Ntp3
Rp4
(dp5
S'node'
p6
(dp7
I0
(dp8
S'pos_x'
p9
F0.9984696664060513
sS'pos_y'
p10
F0.6278520170818976
ssI1
(dp11
g9
F0.7715615905443732
sg10
F0.09863718926532716
ssI2
(dp12
g9
F0.8884487187583907
sg10
F0.9738985119769226
ssI3
(dp13
g9
F0.6135698112761443
sg10
F0.7733099820951019
ssI4
(dp14
g9
F0.37343792614303895
sg10
F0.18026691636033865
ssI5
(dp15
g9
F0.3521107355139921
sg10
F0.7173493979658341
ssI6
(dp16
g9
F0.7642364230038731
sg10
F0.11302847651636028
ssI7
(dp17
g9
F0.47051095600161574
sg10
F0.9976092343684951
ssI8
(dp18
g9
F0.2718130848671466
sg10
F0.574487156987434
ssI9
(dp19
g9
F0.3614408472175171
sg10
F0.8312712176300932
ssI10
(dp20
g9
F0.3898853376605058
sg10
F0.6326045925938786
ssI11
(dp21
g9
F0.5234694124435669
sg10
F0.536711811858895
ssI12
(dp22
g9
F0.4650029932323295
sg10
F0.8110656008932252
ssI13
(dp23
g9
F0.9137795460713501
sg10
F0.611967652834101
ssI14
(dp24
g9
F0.544176678315659
sg10
F0.39662653105913925
ssI15
(dp25
g9
F0.07320632523001902
sg10
F0.9585129374895214
ssI16
(dp26
g9
F0.1675130037516549
sg10
F0.40024404419639614
ssI17
(dp27
g9
F0.8475309566638728
sg10
F0.4803640125186719
ssI18
(dp28
g9
F0.9397806790287769
sg10
F0.7182477840995123
ssI19
(dp29
g9
F0.3112614390317541
sg10
F0.03074930581123947
ssI20
(dp30
g9
F0.6199642778670728
sg10
F0.28949656636192755
ssI21
(dp31
g9
F0.13141971118988616
sg10
F0.4639757770834346
ssI22
(dp32
g9
F0.25298593528447266
sg10
F0.021198858592678005
ssI23
(dp33
g9
F0.8763644986572099
sg10
F0.6129869797157641
ssI24
(dp34
g9
F0.9380620006375235
sg10
F0.21688591398560297
ssI25
(dp35
g9
F0.6586875710719631
sg10
F0.38888105154852526
ssI26
(dp36
g9
F0.5626554367892111
sg10
F0.5505381926373693
ssI27
(dp37
g9
F0.4040761217289258
sg10
F0.978716785260766
ssI28
(dp38
g9
F0.6020714929221015
sg10
F0.049564207031613905
ssI29
(dp39
g9
F0.314066269393126
sg10
F0.0070900678133619666
ssI30
(dp40
g9
F0.4141266101157508
sg10
F0.77430434621403
ssI31
(dp41
g9
F0.16974137714646542
sg10
F0.9490464235000138
ssI32
(dp42
g9
F0.9671706519894547
sg10
F0.3708602709798584
ssI33
(dp43
g9
F0.252325122102405
sg10
F0.01909825845338986
ssI34
(dp44
g9
F0.021889878101132854
sg10
F0.04027440077664579
ssI35
(dp45
g9
F0.7004896417097825
sg10
F0.043237627497755726
ssI36
(dp46
g9
F0.03925454416361762
sg10
F0.8338738668124531
ssI37
(dp47
g9
F0.17317817472837838
sg10
F0.3142924920613591
ssI38
(dp48
g9
F0.8872895028455852
sg10
F0.6293167186175467
ssI39
(dp49
g9
F0.5540649265781364
sg10
F0.8584069631689697
ssI40
(dp50
g9
F0.06167391867513761
sg10
F0.9128291941928737
ssI41
(dp51
g9
F0.8336410375589215
sg10
F0.7251475754376034
ssI42
(dp52
g9
F0.8247983222007474
sg10
F0.40963829930736173
ssI43
(dp53
g9
F0.8408531293445185
sg10
F0.04956669243942535
ssI44
(dp54
g9
F0.4329766807918287
sg10
F0.9269608912930589
ssI45
(dp55
g9
F0.6455181514714176
sg10
F0.581126885821451
ssI46
(dp56
g9
F0.5835044291446994
sg10
F0.9033081414136028
ssI47
(dp57
g9
F0.41882101469989563
sg10
F0.8396366361939877
ssI48
(dp58
g9
F0.7374515617807648
sg10
F0.2639683896316135
ssI49
(dp59
g9
F0.6973594757922591
sg10
F0.13113577037239077
ssI50
(dp60
g9
F0.4255287237402252
sg10
F0.8130964232787229
ssI51
(dp61
g9
F0.5932934654015883
sg10
F0.40605140330656053
ssI52
(dp62
g9
F0.7216145364499533
sg10
F0.14366059667776976
ssI53
(dp63
g9
F0.3604773973563039
sg10
F0.6274456863571163
ssI54
(dp64
g9
F0.08575527325989218
sg10
F0.8016328244912441
ssI55
(dp65
g9
F0.6372380856547508
sg10
F0.46956627101439996
ssI56
(dp66
g9
F0.25741125672887377
sg10
F0.08123222338304592
ssI57
(dp67
g9
F0.11935025583233638
sg10
F0.1042752187086664
ssI58
(dp68
g9
F0.13448340720446395
sg10
F0.693565025939516
ssI59
(dp69
g9
F0.5633732801947069
sg10
F0.3344853510441338
ssI60
(dp70
g9
F0.7437235950050509
sg10
F0.6444626002016008
ssI61
(dp71
g9
F0.44018863740743663
sg10
F0.29586197820262905
ssI62
(dp72
g9
F0.6116971572649075
sg10
F0.8385612572724672
ssI63
(dp73
g9
F0.9271543730196145
sg10
F0.4392546950810631
ssI64
(dp74
g9
F0.07198240500978181
sg10
F0.5537335454285368
ssI65
(dp75
g9
F0.42051261463197975
sg10
F0.6585939402591596
ssI66
(dp76
g9
F0.22657076615154226
sg10
F0.07310663248698746
ssI67
(dp77
g9
F0.5899117246365656
sg10
F0.79378782679878
ssI68
(dp78
g9
F0.5422242832690748
sg10
F0.778869954589137
ssI69
(dp79
g9
F0.2502183146775302
sg10
F0.6390764004985491
ssI70
(dp80
g9
F0.2940695850039433
sg10
F0.4146379087656614
ssI71
(dp81
g9
F0.8240757690045806
sg10
F0.16288448375297715
ssI72
(dp82
g9
F0.8425035046352951
sg10
F0.8997061562510947
ssI73
(dp83
g9
F0.08151607240208558
sg10
F0.5921120299802907
ssI74
(dp84
g9
F0.2722884427631924
sg10
F0.7425434069510148
ssI75
(dp85
g9
F0.18292397657198367
sg10
F0.4417044968072802
ssI76
(dp86
g9
F0.701585348314012
sg10
F0.46925593135329213
ssI77
(dp87
g9
F0.8720645071994044
sg10
F0.05766862204337342
ssI78
(dp88
g9
F0.2816484051853574
sg10
F0.2772188204564079
ssI79
(dp89
g9
F0.45531996432348987
sg10
F0.016747662569212562
ssI80
(dp90
g9
F0.9532234473424825
sg10
F0.23263746351190862
ssI81
(dp91
g9
F0.09100011940807362
sg10
F0.3176974913686086
ssI82
(dp92
g9
F0.02297561651166713
sg10
F0.4047935767083587
ssI83
(dp93
g9
F0.8939350310926455
sg10
F0.8368050086611751
ssI84
(dp94
g9
F0.45670598981929844
sg10
F0.2962568503164056
ssI85
(dp95
g9
F0.5272437049959269
sg10
F0.5567081567930626
ssI86
(dp96
g9
F0.957693624683689
sg10
F0.7389189939710074
ssI87
(dp97
g9
F0.9769702227177881
sg10
F0.7931545118461424
ssI88
(dp98
g9
F0.8794847464205907
sg10
F0.4363954519262243
ssI89
(dp99
g9
F0.15407392531993802
sg10
F0.8141557266515412
ssI90
(dp100
g9
F0.5472407040191293
sg10
F0.8352650596098381
ssI91
(dp101
g9
F0.9508214899193216
sg10
F0.25937315835316477
ssI92
(dp102
g9
F0.48144677637485156
sg10
F0.562897467011634
ssI93
(dp103
g9
F0.8692206878316375
sg10
F0.8147186542039712
ssI94
(dp104
g9
F0.5551916187644853
sg10
F0.9758909424750516
ssI95
(dp105
g9
F0.3754258766748192
sg10
F0.6615612503285027
ssI96
(dp106
g9
F0.5443500883717358
sg10
F0.9306008698208578
ssI97
(dp107
g9
F0.6146049376701294
sg10
F0.9433783220355763
ssI98
(dp108
g9
F0.6410707941903167
sg10
F0.7893548182422314
ssI99
(dp109
g9
F0.440874554407483
sg10
F0.49607553511738645
ssI100
(dp110
g9
F0.9795761879737613
sg10
F0.9779385372030388
ssI101
(dp111
g9
F0.8768301536201915
sg10
F0.855594693370321
ssI102
(dp112
g9
F0.5496412937892196
sg10
F0.999042774180425
ssI103
(dp113
g9
F0.6774607825410284
sg10
F0.5140827734706438
ssI104
(dp114
g9
F0.5233461899061075
sg10
F0.5128027672454414
ssI105
(dp115
g9
F0.5588244732396014
sg10
F0.21233059019362965
ssI106
(dp116
g9
F0.9956126413354883
sg10
F0.19409665800801257
ssI107
(dp117
g9
F0.682513400314082
sg10
F0.44840365214800737
ssI108
(dp118
g9
F0.5082944188039767
sg10
F0.8700397913860054
ssI109
(dp119
g9
F0.4678186347596871
sg10
F0.8287371921731649
ssI110
(dp120
g9
F0.7360968228602607
sg10
F0.8837969257429693
ssI111
(dp121
g9
F0.536261398775164
sg10
F0.2548139546618977
ssI112
(dp122
g9
F0.39491997712746774
sg10
F0.995762902818458
ssI113
(dp123
g9
F0.30074790158720677
sg10
F0.994854106840175
ssI114
(dp124
g9
F0.7484503963644518
sg10
F0.2584288415521768
ssI115
(dp125
g9
F0.05602802585954891
sg10
F0.35011050464453686
ssI116
(dp126
g9
F0.21959096487155605
sg10
F0.6522785711969173
ssI117
(dp127
g9
F0.02023539153238052
sg10
F0.6577294347463032
ssI118
(dp128
g9
F0.04458721585216574
sg10
F0.8314922986794477
ssI119
(dp129
g9
F0.9074827997759302
sg10
F0.9319066541848297
ssI120
(dp130
g9
F0.3430250648370953
sg10
F0.4294167956530699
ssI121
(dp131
g9
F0.9424830769104492
sg10
F0.6572603435281876
ssI122
(dp132
g9
F0.15615961237482168
sg10
F0.6877957700739866
ssI123
(dp133
g9
F0.03831847081910911
sg10
F0.48387033668741175
ssI124
(dp134
g9
F0.18778236436202056
sg10
F0.5950916539657215
ssI125
(dp135
g9
F0.6262918120582661
sg10
F0.661158182610281
ssI126
(dp136
g9
F0.4205186010851366
sg10
F0.3753253457192972
ssI127
(dp137
g9
F0.4650926359478269
sg10
F0.521516937249452
ssI128
(dp138
g9
F0.45209449957361636
sg10
F0.27976892308827706
ssI129
(dp139
g9
F0.7338637110730577
sg10
F0.1993881172878602
ssI130
(dp140
g9
F0.8682804011699309
sg10
F0.6170701230422387
ssI131
(dp141
g9
F0.7177407943866274
sg10
F0.3675361971508788
ssI132
(dp142
g9
F0.07529146268830589
sg10
F0.8460579852043901
ssI133
(dp143
g9
F0.9989118269183227
sg10
F0.1203011447196507
ssI134
(dp144
g9
F0.2749066654907665
sg10
F0.32673008667410997
ssI135
(dp145
g9
F0.46324646638608213
sg10
F0.11988981388929842
ssI136
(dp146
g9
F0.7742001505324592
sg10
F0.25193960174561003
ssI137
(dp147
g9
F0.3542552404780983
sg10
F0.6436158308295926
ssI138
(dp148
g9
F0.6359196100071478
sg10
F0.029423507107170566
ssI139
(dp149
g9
F0.7810355540203584
sg10
F0.7342087538972111
ssI140
(dp150
g9
F0.6828651332870654
sg10
F0.5776287030688946
ssI141
(dp151
g9
F0.15145182264259016
sg10
F0.18937476856987767
ssI142
(dp152
g9
F0.751187353722951
sg10
F0.571014563714317
ssI143
(dp153
g9
F0.33781290031422184
sg10
F0.3174070722988329
ssI144
(dp154
g9
F0.7061132832618118
sg10
F0.5765048604575905
ssI145
(dp155
g9
F0.790967563346297
sg10
F0.5483719749254066
ssI146
(dp156
g9
F0.6093823658508509
sg10
F0.04758886125509665
ssI147
(dp157
g9
F0.8701978551309038
sg10
F0.8754987521526895
ssI148
(dp158
g9
F0.7582576622944099
sg10
F0.9019177176969386
ssI149
(dp159
g9
F0.40261797127307286
sg10
F0.07131499799460206
ssI150
(dp160
g9
F0.5637350969601032
sg10
F0.8723566898352364
ssI151
(dp161
g9
F0.5856743740537127
sg10
F0.646229620100754
ssI152
(dp162
g9
F0.42498401940645125
sg10
F0.33952835040579055
ssI153
(dp163
g9
F0.23011348260629216
sg10
F0.9715976709451832
ssI154
(dp164
g9
F0.06875997303537629
sg10
F0.44261476439790703
ssI155
(dp165
g9
F0.5342355746219264
sg10
F0.45226359853416565
ssI156
(dp166
g9
F0.8666824780212138
sg10
F0.16356504962699148
ssI157
(dp167
g9
F0.757615598491206
sg10
F0.22510680338685596
ssI158
(dp168
g9
F0.2815745759805379
sg10
F0.22976334273222487
ssI159
(dp169
g9
F0.3778296443901844
sg10
F0.6430310022119243
ssI160
(dp170
g9
F0.53208415882515
sg10
F0.3130733325822651
ssI161
(dp171
g9
F0.21079894446460268
sg10
F0.7459370350691343
ssI162
(dp172
g9
F0.48825785113103004
sg10
F0.8541557151238217
ssI163
(dp173
g9
F0.19722070209898723
sg10
F0.8686644977031331
ssI164
(dp174
g9
F0.5775488425435841
sg10
F0.34127261905983475
ssI165
(dp175
g9
F0.7133204145546058
sg10
F0.5439404015722907
ssI166
(dp176
g9
F0.5600506943009922
sg10
F0.97660167952133
ssI167
(dp177
g9
F0.23448524202670062
sg10
F0.3785481033879099
ssI168
(dp178
g9
F0.350206622184839
sg10
F0.9540584162624317
ssI169
(dp179
g9
F0.7343425447126637
sg10
F0.35116822674533354
ssI170
(dp180
g9
F0.7552460792293196
sg10
F0.5716175518758061
ssI171
(dp181
g9
F0.40074164506695154
sg10
F0.0912517594164608
ssI172
(dp182
g9
F0.4072927257512601
sg10
F0.9288166696454356
ssI173
(dp183
g9
F0.27532313050324697
sg10
F0.8271376975298851
ssI174
(dp184
g9
F0.8559856755643087
sg10
F0.030409993869415453
ssI175
(dp185
g9
F0.3763404486593134
sg10
F0.7101878052906913
ssI176
(dp186
g9
F0.3323034592512424
sg10
F0.7155753383210821
ssI177
(dp187
g9
F0.4220837320995957
sg10
F0.6014716233736545
ssI178
(dp188
g9
F0.6105681376870621
sg10
F0.5133910579931332
ssI179
(dp189
g9
F0.29086076143645856
sg10
F0.07922832638340394
ssI180
(dp190
g9
F0.22140045060213775
sg10
F0.7952986818886502
ssI181
(dp191
g9
F0.0896720041352681
sg10
F0.11997418039166297
ssI182
(dp192
g9
F0.9710830176023721
sg10
F0.8619037812618772
ssI183
(dp193
g9
F0.30261819200997875
sg10
F0.5528615519834251
ssI184
(dp194
g9
F0.5200987679431693
sg10
F0.28683038585853216
ssI185
(dp195
g9
F0.7204239526737585
sg10
F0.48029590324666993
ssI186
(dp196
g9
F0.4534846110509113
sg10
F0.3622695079369743
ssI187
(dp197
g9
F0.25485669070406614
sg10
F0.8062097410771377
ssI188
(dp198
g9
F0.8534230848472423
sg10
F0.5248107299288498
ssI189
(dp199
g9
F0.9951849922409305
sg10
F0.05954689685560943
ssI190
(dp200
g9
F0.1758950114633081
sg10
F0.14046148000977943
ssI191
(dp201
g9
F0.9076385708679021
sg10
F0.6540603274467426
ssI192
(dp202
g9
F0.5071954454623048
sg10
F0.1275464915126352
ssI193
(dp203
g9
F0.13780669479638896
sg10
F0.7768668929102973
ssI194
(dp204
g9
F0.5412631763103652
sg10
F0.045472279172336316
ssI195
(dp205
g9
F0.6120513402101293
sg10
F0.7958941659648333
ssI196
(dp206
g9
F0.06991941355347198
sg10
F0.14419818995126632
ssI197
(dp207
g9
F0.968106869052979
sg10
F0.23099803039790923
ssI198
(dp208
g9
F0.10312001464012421
sg10
F0.3035973434441831
ssI199
(dp209
g9
F0.5803554602064248
sg10
F0.5068364137493112
sssS'node_dict_factory'
p210
c__builtin__
dict
p211
sS'edge_attr_dict_factory'
p212
g211
sS'edge'
p213
(dp214
I0
(dp215
sI1
(dp216
sI2
(dp217
sI3
(dp218
sI4
(dp219
sI5
(dp220
sI6
(dp221
sI7
(dp222
sI8
(dp223
sI9
(dp224
sI10
(dp225
sI11
(dp226
sI12
(dp227
sI13
(dp228
sI14
(dp229
sI15
(dp230
sI16
(dp231
sI17
(dp232
sI18
(dp233
sI19
(dp234
sI20
(dp235
sI21
(dp236
sI22
(dp237
sI23
(dp238
sI24
(dp239
sI25
(dp240
sI26
(dp241
sI27
(dp242
sI28
(dp243
sI29
(dp244
sI30
(dp245
sI31
(dp246
sI32
(dp247
sI33
(dp248
sI34
(dp249
sI35
(dp250
sI36
(dp251
sI37
(dp252
sI38
(dp253
sI39
(dp254
sI40
(dp255
sI41
(dp256
sI42
(dp257
sI43
(dp258
sI44
(dp259
sI45
(dp260
sI46
(dp261
sI47
(dp262
sI48
(dp263
sI49
(dp264
sI50
(dp265
sI51
(dp266
sI52
(dp267
sI53
(dp268
sI54
(dp269
sI55
(dp270
sI56
(dp271
sI57
(dp272
sI58
(dp273
sI59
(dp274
sI60
(dp275
sI61
(dp276
sI62
(dp277
sI63
(dp278
sI64
(dp279
sI65
(dp280
sI66
(dp281
sI67
(dp282
sI68
(dp283
sI69
(dp284
sI70
(dp285
sI71
(dp286
sI72
(dp287
sI73
(dp288
sI74
(dp289
sI75
(dp290
sI76
(dp291
sI77
(dp292
sI78
(dp293
sI79
(dp294
sI80
(dp295
sI81
(dp296
sI82
(dp297
sI83
(dp298
sI84
(dp299
sI85
(dp300
sI86
(dp301
sI87
(dp302
sI88
(dp303
sI89
(dp304
sI90
(dp305
sI91
(dp306
sI92
(dp307
sI93
(dp308
sI94
(dp309
sI95
(dp310
sI96
(dp311
sI97
(dp312
sI98
(dp313
sI99
(dp314
sI100
(dp315
sI101
(dp316
sI102
(dp317
sI103
(dp318
sI104
(dp319
sI105
(dp320
sI106
(dp321
sI107
(dp322
sI108
(dp323
sI109
(dp324
sI110
(dp325
sI111
(dp326
sI112
(dp327
sI113
(dp328
sI114
(dp329
sI115
(dp330
sI116
(dp331
sI117
(dp332
sI118
(dp333
sI119
(dp334
sI120
(dp335
sI121
(dp336
sI122
(dp337
sI123
(dp338
sI124
(dp339
sI125
(dp340
sI126
(dp341
sI127
(dp342
sI128
(dp343
sI129
(dp344
sI130
(dp345
sI131
(dp346
sI132
(dp347
sI133
(dp348
sI134
(dp349
sI135
(dp350
sI136
(dp351
sI137
(dp352
sI138
(dp353
sI139
(dp354
sI140
(dp355
sI141
(dp356
sI142
(dp357
sI143
(dp358
sI144
(dp359
sI145
(dp360
sI146
(dp361
sI147
(dp362
sI148
(dp363
sI149
(dp364
sI150
(dp365
sI151
(dp366
sI152
(dp367
sI153
(dp368
sI154
(dp369
sI155
(dp370
sI156
(dp371
sI157
(dp372
sI158
(dp373
sI159
(dp374
sI160
(dp375
sI161
(dp376
sI162
(dp377
sI163
(dp378
sI164
(dp379
sI165
(dp380
sI166
(dp381
sI167
(dp382
sI168
(dp383
sI169
(dp384
sI170
(dp385
sI171
(dp386
sI172
(dp387
sI173
(dp388
sI174
(dp389
sI175
(dp390
sI176
(dp391
sI177
(dp392
sI178
(dp393
sI179
(dp394
sI180
(dp395
sI181
(dp396
sI182
(dp397
sI183
(dp398
sI184
(dp399
sI185
(dp400
sI186
(dp401
sI187
(dp402
sI188
(dp403
sI189
(dp404
sI190
(dp405
sI191
(dp406
sI192
(dp407
sI193
(dp408
sI194
(dp409
sI195
(dp410
sI196
(dp411
sI197
(dp412
sI198
(dp413
sI199
(dp414
ssS'graph'
p415
(dp416
sS'adjlist_dict_factory'
p417
g211
sS'adj'
p418
g214
sb.