ccopy_reg
_reconstructor
p0
(cnetworkx.classes.graph
Graph
p1
c__builtin__
object
p2
Ntp3
Rp4
(dp5
S'node'
p6
(dp7
I0
(dp8
S'pos_x'
p9
F0.7930653384953079
sS'pos_y'
p10
F0.6030541071170149
ssI1
(dp11
g9
F0.1750282134632717
sg10
F0.385053146623204
ssI2
(dp12
g9
F0.13395316333704255
sg10
F0.11335217756501836
ssI3
(dp13
g9
F0.1354988913780356
sg10
F0.9328864870891164
ssI4
(dp14
g9
F0.528563416209875
sg10
F0.821571079177804
ssI5
(dp15
g9
F0.8311383542098033
sg10
F0.7487968905710722
ssI6
(dp16
g9
F0.2880760528157513
sg10
F0.6428393347082733
ssI7
(dp17
g9
F0.8594944453658303
sg10
F0.38740974383917726
ssI8
(dp18
g9
F0.4417824199616526
sg10
F0.5115240794787685
ssI9
(dp19
g9
F0.7732464118024831
sg10
F0.2346760863645344
ssI10
(dp20
g9
F0.2273031483833602
sg10
F0.5610662793748445
ssI11
(dp21
g9
F0.39024339189047896
sg10
F0.06638592979401936
ssI12
(dp22
g9
F0.2855233509224354
sg10
F0.9804507291130062
ssI13
(dp23
g9
F0.1541204209264332
sg10
F0.8658732951497162
ssI14
(dp24
g9
F0.07110598487315001
sg10
F0.31628860985570084
ssI15
(dp25
g9
F0.6241935855858535
sg10
F0.3997226260222725
ssI16
(dp26
g9
F0.4165887477105741
sg10
F0.4596143028722006
ssI17
(dp27
g9
F0.4314223928042268
sg10
F0.11398993851778949
ssI18
(dp28
g9
F0.19843629254681727
sg10
F0.10253872270551845
ssI19
(dp29
g9
F0.06271805031735922
sg10
F0.43890554155530914
ssI20
(dp30
g9
F0.3964636496816093
sg10
F0.6446554231348406
ssI21
(dp31
g9
F0.5724874616450043
sg10
F0.9469355782578279
ssI22
(dp32
g9
F0.8410917245601234
sg10
F0.7392770065860167
ssI23
(dp33
g9
F0.7178821546411828
sg10
F0.8225280227170865
ssI24
(dp34
g9
F0.3623084147905058
sg10
F0.6464741000510207
ssI25
(dp35
g9
F0.32649045480272976
sg10
F0.44261204191305703
ssI26
(dp36
g9
F0.5645554363601172
sg10
F0.4633199766402065
ssI27
(dp37
g9
F0.6394234847233286
sg10
F0.8704557656660281
ssI28
(dp38
g9
F0.15457113186686833
sg10
F0.37767384810094773
ssI29
(dp39
g9
F0.41266639297444274
sg10
F0.9740834259627797
ssI30
(dp40
g9
F0.8940886135058395
sg10
F0.7487437389555758
ssI31
(dp41
g9
F0.8590059556780038
sg10
F0.4252333926330125
ssI32
(dp42
g9
F0.1635020959292175
sg10
F0.33967337290984656
ssI33
(dp43
g9
F0.5028041419617529
sg10
F0.05947888548315594
ssI34
(dp44
g9
F0.06522003042257596
sg10
F0.6249032464726436
ssI35
(dp45
g9
F0.1548540096029013
sg10
F0.058478925837191054
ssI36
(dp46
g9
F0.12616152190556684
sg10
F0.4931266473590421
ssI37
(dp47
g9
F0.6168700123975428
sg10
F0.551030783778207
ssI38
(dp48
g9
F0.24664947477741495
sg10
F0.6445116991786995
ssI39
(dp49
g9
F0.6065873796464939
sg10
F0.9457618924262561
ssI40
(dp50
g9
F0.3783650422682625
sg10
F0.7810158820135118
ssI41
(dp51
g9
F0.07038246463907927
sg10
F0.4983238721428811
ssI42
(dp52
g9
F0.5153037170813566
sg10
F0.10427241594814962
ssI43
(dp53
g9
F0.2166919139022211
sg10
F0.10156852483381384
ssI44
(dp54
g9
F0.9982526988034255
sg10
F0.922318624621441
ssI45
(dp55
g9
F0.12550551079266858
sg10
F0.6993022783906458
ssI46
(dp56
g9
F0.733786311985573
sg10
F0.8824450364917729
ssI47
(dp57
g9
F0.33894493822241656
sg10
F0.7102581969495002
ssI48
(dp58
g9
F0.6040824888318688
sg10
F0.11297273417810816
ssI49
(dp59
g9
F0.029313998814010978
sg10
F0.734369526964077
ssI50
(dp60
g9
F0.23636733178310354
sg10
F0.8373864104179033
ssI51
(dp61
g9
F0.9224385703517958
sg10
F0.4436273221220659
ssI52
(dp62
g9
F0.20002769375344176
sg10
F0.2533497953337879
ssI53
(dp63
g9
F0.5796869947103351
sg10
F0.14421655776270093
ssI54
(dp64
g9
F0.13811729310712706
sg10
F0.7437306736936635
ssI55
(dp65
g9
F0.9760652546582943
sg10
F0.14763632464244403
ssI56
(dp66
g9
F0.684938143173401
sg10
F0.9791147544461409
ssI57
(dp67
g9
F0.41231690991749814
sg10
F0.2504356017981624
ssI58
(dp68
g9
F0.8536407343789023
sg10
F0.12520784830312548
ssI59
(dp69
g9
F0.8264221699867412
sg10
F0.9484369821806656
ssI60
(dp70
g9
F0.1647699979035644
sg10
F0.07787774595644581
ssI61
(dp71
g9
F0.7555481916902109
sg10
F0.4783870045753106
ssI62
(dp72
g9
F0.8906762071198019
sg10
F0.2446446566043078
ssI63
(dp73
g9
F0.6196791473054283
sg10
F0.5667620537029612
ssI64
(dp74
g9
F0.946936812802572
sg10
F0.04724767845660116
ssI65
(dp75
g9
F0.505722142584288
sg10
F0.8088897126682821
ssI66
(dp76
g9
F0.02746840404683637
sg10
F0.21064744205800667
ssI67
(dp77
g9
F0.04246038682180353
sg10
F0.5142919205334633
ssI68
(dp78
g9
F0.6429353228751254
sg10
F0.05936042799039842
ssI69
(dp79
g9
F0.6390078546396899
sg10
F0.4243621272409368
ssI70
(dp80
g9
F0.22713387814824937
sg10
F0.01101461391041525
ssI71
(dp81
g9
F0.7204201378285584
sg10
F0.17068687603884147
ssI72
(dp82
g9
F0.3247516833781291
sg10
F0.532571253409236
ssI73
(dp83
g9
F0.2333098509778634
sg10
F0.6207407647841051
ssI74
(dp84
g9
F0.057599270255702106
sg10
F0.1069027604499484
ssI75
(dp85
g9
F0.15039757334617754
sg10
F0.09989258267489787
ssI76
(dp86
g9
F0.13551613161735265
sg10
F0.09112786506061532
ssI77
(dp87
g9
F0.47428074512861285
sg10
F0.878613691573186
ssI78
(dp88
g9
F0.2568724329577976
sg10
F0.5839728143956239
ssI79
(dp89
g9
F0.9485968143240193
sg10
F0.581739677120824
ssI80
(dp90
g9
F0.5159116478083101
sg10
F0.8669443831832668
ssI81
(dp91
g9
F0.678133743350899
sg10
F0.3901349936124441
ssI82
(dp92
g9
F0.47782065897293324
sg10
F0.21140638382953747
ssI83
(dp93
g9
F0.9262174968698861
sg10
F0.4577882371006897
ssI84
(dp94
g9
F0.5068095445214373
sg10
F0.1574732311954703
ssI85
(dp95
g9
F0.5272512610123411
sg10
F0.3572917902686368
ssI86
(dp96
g9
F0.8111915298993748
sg10
F0.5968738203138152
ssI87
(dp97
g9
F0.6732765770881827
sg10
F0.02948944336090764
ssI88
(dp98
g9
F0.49916370256375997
sg10
F0.48057290854432144
ssI89
(dp99
g9
F0.23934917990059312
sg10
F0.0052495675606855086
ssI90
(dp100
g9
F0.005668207533554126
sg10
F0.0005711087791526737
ssI91
(dp101
g9
F0.24827607139826668
sg10
F0.39712885256743924
ssI92
(dp102
g9
F0.31929097382787064
sg10
F0.4103956339685084
ssI93
(dp103
g9
F0.3280149773954174
sg10
F0.3407123055994046
ssI94
(dp104
g9
F0.7698128110649061
sg10
F0.2630521056009526
ssI95
(dp105
g9
F0.8440147266376727
sg10
F0.5391365375064389
ssI96
(dp106
g9
F0.12691939799664442
sg10
F0.8815501993219835
ssI97
(dp107
g9
F0.8443040302993008
sg10
F0.2403433408657899
ssI98
(dp108
g9
F0.028000891349183488
sg10
F0.7905030701747205
ssI99
(dp109
g9
F0.8233590765178497
sg10
F0.9685543176871761
ssI100
(dp110
g9
F0.2930247477012924
sg10
F0.3647878747998927
ssI101
(dp111
g9
F0.20827907875897
sg10
F0.7567620803394488
ssI102
(dp112
g9
F0.746465015417695
sg10
F0.8197013142261016
ssI103
(dp113
g9
F0.9365148602196156
sg10
F0.03708893639210309
ssI104
(dp114
g9
F0.901339212098068
sg10
F0.17659539545881742
ssI105
(dp115
g9
F0.5710259542129681
sg10
F0.8262142214900098
ssI106
(dp116
g9
F0.42325805368938607
sg10
F0.2363090268896505
ssI107
(dp117
g9
F0.7565493417897691
sg10
F0.6080684355886485
ssI108
(dp118
g9
F0.9483197741420057
sg10
F0.08484739826582588
ssI109
(dp119
g9
F0.18665532936201013
sg10
F0.2793903100843299
ssI110
(dp120
g9
F0.5069641818110298
sg10
F0.04631385749631156
ssI111
(dp121
g9
F0.9029504363143127
sg10
F0.7009715453268205
ssI112
(dp122
g9
F0.6307874272940125
sg10
F0.5669251282732468
ssI113
(dp123
g9
F0.9669302401228019
sg10
F0.9816595089102573
ssI114
(dp124
g9
F0.11441330118217607
sg10
F0.5794826768097231
ssI115
(dp125
g9
F0.6093537234403047
sg10
F0.5089572750728928
ssI116
(dp126
g9
F0.018968708082413688
sg10
F0.4461720344894793
ssI117
(dp127
g9
F0.8363015069655296
sg10
F0.9401417721034669
ssI118
(dp128
g9
F0.8721396894952212
sg10
F0.886868211183249
ssI119
(dp129
g9
F0.46651011220432803
sg10
F0.4548931418330914
ssI120
(dp130
g9
F0.9415702585857045
sg10
F0.9301071037548401
ssI121
(dp131
g9
F0.9537966757673257
sg10
F0.7393051445244295
ssI122
(dp132
g9
F0.6060383796032275
sg10
F0.8950559844557407
ssI123
(dp133
g9
F0.31943951099711343
sg10
F0.9040998912121725
ssI124
(dp134
g9
F0.6195932195571981
sg10
F0.3971143770065174
ssI125
(dp135
g9
F0.4410396658079785
sg10
F0.9796031884176061
ssI126
(dp136
g9
F0.2521950312997222
sg10
F0.8335913889369887
ssI127
(dp137
g9
F0.25273264629837566
sg10
F0.03150697511849232
ssI128
(dp138
g9
F0.02200338942572344
sg10
F0.5682512073196638
ssI129
(dp139
g9
F0.42587572139636176
sg10
F0.4844134977320522
ssI130
(dp140
g9
F0.6907093623718169
sg10
F0.9852758551337971
ssI131
(dp141
g9
F0.9870071818980384
sg10
F0.924593000574615
ssI132
(dp142
g9
F0.07904188752856023
sg10
F0.7024186821144836
ssI133
(dp143
g9
F0.3530298797295587
sg10
F0.027535986816980773
ssI134
(dp144
g9
F0.5459907457212319
sg10
F0.7376369733943468
ssI135
(dp145
g9
F0.015838552609246492
sg10
F0.23796883285080872
ssI136
(dp146
g9
F0.6213014457878359
sg10
F0.9532862832831502
ssI137
(dp147
g9
F0.8474779876902155
sg10
F0.8719726760461824
ssI138
(dp148
g9
F0.5238993805946066
sg10
F0.21980099344156423
ssI139
(dp149
g9
F0.7624652684495745
sg10
F0.20638744732400915
ssI140
(dp150
g9
F0.766358468793254
sg10
F0.48142513839698264
ssI141
(dp151
g9
F0.06085398201662673
sg10
F0.008077037733987269
ssI142
(dp152
g9
F0.7050386244185229
sg10
F0.2743711165780631
ssI143
(dp153
g9
F0.669876668211386
sg10
F0.5968631621927084
ssI144
(dp154
g9
F0.9852089647690093
sg10
F0.41562652006730894
ssI145
(dp155
g9
F0.3921217158626982
sg10
F0.8228285272758832
ssI146
(dp156
g9
F0.4725668979659131
sg10
F0.002351571213088044
ssI147
(dp157
g9
F0.6484279425856578
sg10
F0.1108722814226748
ssI148
(dp158
g9
F0.8409606348840485
sg10
F0.1846431742306669
ssI149
(dp159
g9
F0.48563290447064245
sg10
F0.5295656131164784
ssI150
(dp160
g9
F0.5102926697434359
sg10
F0.5275326400875513
ssI151
(dp161
g9
F0.13943446725740993
sg10
F0.5207691178319744
ssI152
(dp162
g9
F0.4784934737383889
sg10
F0.31048373556345354
ssI153
(dp163
g9
F0.4084490240844716
sg10
F0.5191005703369426
ssI154
(dp164
g9
F0.7016236437315151
sg10
F0.045894125437325406
ssI155
(dp165
g9
F0.5445010678393816
sg10
F0.5573755187055426
ssI156
(dp166
g9
F0.5405168941652423
sg10
F0.035898722004230055
ssI157
(dp167
g9
F0.32596686611376435
sg10
F0.8297324174610776
ssI158
(dp168
g9
F0.9225432123047946
sg10
F0.018580310072997097
ssI159
(dp169
g9
F0.2593747937277584
sg10
F0.7693376803344844
ssI160
(dp170
g9
F0.535235007138675
sg10
F0.08677309292856372
ssI161
(dp171
g9
F0.5838020170367619
sg10
F0.18276138655909568
ssI162
(dp172
g9
F0.8872343550902817
sg10
F0.39115161092200257
ssI163
(dp173
g9
F0.9042437794040322
sg10
F0.6361301102258677
ssI164
(dp174
g9
F0.6113167265311096
sg10
F0.6059258412260509
ssI165
(dp175
g9
F0.3275145811151693
sg10
F0.1422844577061546
ssI166
(dp176
g9
F0.22314177234196375
sg10
F0.9848559131741319
ssI167
(dp177
g9
F0.5346699451766603
sg10
F0.733399727145054
ssI168
(dp178
g9
F0.22204988937879855
sg10
F0.7256420847485691
ssI169
(dp179
g9
F0.4739749275491647
sg10
F0.25637510506810557
ssI170
(dp180
g9
F0.19929445089461828
sg10
F0.4145644636950935
ssI171
(dp181
g9
F0.7258867496387517
sg10
F0.34706818567533637
ssI172
(dp182
g9
F0.7921548283356818
sg10
F0.7088708537715231
ssI173
(dp183
g9
F0.8384829837179406
sg10
F0.6150491057785236
ssI174
(dp184
g9
F0.10604519405730517
sg10
F0.8293386602107884
ssI175
(dp185
g9
F0.900450289888386
sg10
F0.5806074442797079
ssI176
(dp186
g9
F0.13958328141289666
sg10
F0.6853293748632103
ssI177
(dp187
g9
F0.4805815973281109
sg10
F0.8198288280527825
ssI178
(dp188
g9
F0.9542099350570613
sg10
F0.5213531508808449
ssI179
(dp189
g9
F0.5388404826307827
sg10
F0.3594084115555253
ssI180
(dp190
g9
F0.6951638544340475
sg10
F0.2529578705188973
ssI181
(dp191
g9
F0.03565843412564074
sg10
F0.29112585674048364
ssI182
(dp192
g9
F0.27615288516920156
sg10
F0.9236758190054224
ssI183
(dp193
g9
F0.5875405178875976
sg10
F0.08400757681180937
ssI184
(dp194
g9
F0.7999119592681374
sg10
F0.14703461256543737
ssI185
(dp195
g9
F0.9016526059902115
sg10
F0.330256055937482
ssI186
(dp196
g9
F0.8439998202182701
sg10
F0.9006309675586768
ssI187
(dp197
g9
F0.3483955390694785
sg10
F0.4621001080290049
ssI188
(dp198
g9
F0.5342121200483599
sg10
F0.8697955721641442
ssI189
(dp199
g9
F0.5236926317487804
sg10
F0.13245579731346002
ssI190
(dp200
g9
F0.0007222328151869073
sg10
F0.5787223016901305
ssI191
(dp201
g9
F0.42883913565217113
sg10
F0.20903710558770305
ssI192
(dp202
g9
F0.5623341853780892
sg10
F0.1944103555474539
ssI193
(dp203
g9
F0.14477904742043335
sg10
F0.9525153215071577
ssI194
(dp204
g9
F0.46071530875749744
sg10
F0.6785593793179676
ssI195
(dp205
g9
F0.2002197797497801
sg10
F0.7655481706733216
ssI196
(dp206
g9
F0.8603400436741003
sg10
F0.644753280251069
ssI197
(dp207
g9
F0.10262039998705563
sg10
F0.16427339666732077
ssI198
(dp208
g9
F0.5091002879694786
sg10
F0.8918740869337609
ssI199
(dp209
g9
F0.2805365707986627
sg10
F0.8482157427504978
sssS'node_dict_factory'
p210
c__builtin__
dict
p211
sS'edge_attr_dict_factory'
p212
g211
sS'edge'
p213
(dp214
I0
(dp215
sI1
(dp216
sI2
(dp217
sI3
(dp218
sI4
(dp219
sI5
(dp220
sI6
(dp221
sI7
(dp222
sI8
(dp223
sI9
(dp224
sI10
(dp225
sI11
(dp226
sI12
(dp227
sI13
(dp228
sI14
(dp229
sI15
(dp230
sI16
(dp231
sI17
(dp232
sI18
(dp233
sI19
(dp234
sI20
(dp235
sI21
(dp236
sI22
(dp237
sI23
(dp238
sI24
(dp239
sI25
(dp240
sI26
(dp241
sI27
(dp242
sI28
(dp243
sI29
(dp244
sI30
(dp245
sI31
(dp246
sI32
(dp247
sI33
(dp248
sI34
(dp249
sI35
(dp250
sI36
(dp251
sI37
(dp252
sI38
(dp253
sI39
(dp254
sI40
(dp255
sI41
(dp256
sI42
(dp257
sI43
(dp258
sI44
(dp259
sI45
(dp260
sI46
(dp261
sI47
(dp262
sI48
(dp263
sI49
(dp264
sI50
(dp265
sI51
(dp266
sI52
(dp267
sI53
(dp268
sI54
(dp269
sI55
(dp270
sI56
(dp271
sI57
(dp272
sI58
(dp273
sI59
(dp274
sI60
(dp275
sI61
(dp276
sI62
(dp277
sI63
(dp278
sI64
(dp279
sI65
(dp280
sI66
(dp281
sI67
(dp282
sI68
(dp283
sI69
(dp284
sI70
(dp285
sI71
(dp286
sI72
(dp287
sI73
(dp288
sI74
(dp289
sI75
(dp290
sI76
(dp291
sI77
(dp292
sI78
(dp293
sI79
(dp294
sI80
(dp295
sI81
(dp296
sI82
(dp297
sI83
(dp298
sI84
(dp299
sI85
(dp300
sI86
(dp301
sI87
(dp302
sI88
(dp303
sI89
(dp304
sI90
(dp305
sI91
(dp306
sI92
(dp307
sI93
(dp308
sI94
(dp309
sI95
(dp310
sI96
(dp311
sI97
(dp312
sI98
(dp313
sI99
(dp314
sI100
(dp315
sI101
(dp316
sI102
(dp317
sI103
(dp318
sI104
(dp319
sI105
(dp320
sI106
(dp321
sI107
(dp322
sI108
(dp323
sI109
(dp324
sI110
(dp325
sI111
(dp326
sI112
(dp327
sI113
(dp328
sI114
(dp329
sI115
(dp330
sI116
(dp331
sI117
(dp332
sI118
(dp333
sI119
(dp334
sI120
(dp335
sI121
(dp336
sI122
(dp337
sI123
(dp338
sI124
(dp339
sI125
(dp340
sI126
(dp341
sI127
(dp342
sI128
(dp343
sI129
(dp344
sI130
(dp345
sI131
(dp346
sI132
(dp347
sI133
(dp348
sI134
(dp349
sI135
(dp350
sI136
(dp351
sI137
(dp352
sI138
(dp353
sI139
(dp354
sI140
(dp355
sI141
(dp356
sI142
(dp357
sI143
(dp358
sI144
(dp359
sI145
(dp360
sI146
(dp361
sI147
(dp362
sI148
(dp363
sI149
(dp364
sI150
(dp365
sI151
(dp366
sI152
(dp367
sI153
(dp368
sI154
(dp369
sI155
(dp370
sI156
(dp371
sI157
(dp372
sI158
(dp373
sI159
(dp374
sI160
(dp375
sI161
(dp376
sI162
(dp377
sI163
(dp378
sI164
(dp379
sI165
(dp380
sI166
(dp381
sI167
(dp382
sI168
(dp383
sI169
(dp384
sI170
(dp385
sI171
(dp386
sI172
(dp387
sI173
(dp388
sI174
(dp389
sI175
(dp390
sI176
(dp391
sI177
(dp392
sI178
(dp393
sI179
(dp394
sI180
(dp395
sI181
(dp396
sI182
(dp397
sI183
(dp398
sI184
(dp399
sI185
(dp400
sI186
(dp401
sI187
(dp402
sI188
(dp403
sI189
(dp404
sI190
(dp405
sI191
(dp406
sI192
(dp407
sI193
(dp408
sI194
(dp409
sI195
(dp410
sI196
(dp411
sI197
(dp412
sI198
(dp413
sI199
(dp414
ssS'graph'
p415
(dp416
sS'adjlist_dict_factory'
p417
g211
sS'adj'
p418
g214
sb.