ccopy_reg
_reconstructor
p0
(cnetworkx.classes.graph
Graph
p1
c__builtin__
object
p2
Ntp3
Rp4
(dp5
S'node'
p6
(dp7
I0
(dp8
S'pos_x'
p9
F0.5125322684967729
sS'pos_y'
p10
F0.3577208723280252
ssI1
(dp11
g9
F0.5965413668413079
sg10
F0.35618035281152827
ssI2
(dp12
g9
F0.6235379245500532
sg10
F0.2307203317463703
ssI3
(dp13
g9
F0.8582493947163468
sg10
F0.13691342391539296
ssI4
(dp14
g9
F0.020854145028493365
sg10
F0.774710605064989
ssI5
(dp15
g9
F0.14985405270829544
sg10
F0.23141420461057116
ssI6
(dp16
g9
F0.2712630589914359
sg10
F0.6638264071603739
ssI7
(dp17
g9
F0.11963674532116697
sg10
F0.21055811361841303
ssI8
(dp18
g9
F0.382935474018277
sg10
F0.7503493942121575
ssI9
(dp19
g9
F0.23099807648669568
sg10
F0.37597742645781096
ssI10
(dp20
g9
F0.670467639253065
sg10
F0.12640934851023078
ssI11
(dp21
g9
F0.33380922436382965
sg10
F0.2643077252133108
ssI12
(dp22
g9
F0.919792081801374
sg10
F0.7648665734481197
ssI13
(dp23
g9
F0.6023032063172836
sg10
F0.8469634730045501
ssI14
(dp24
g9
F0.2716931857731999
sg10
F0.6543605581354716
ssI15
(dp25
g9
F0.590422564105457
sg10
F0.6915612021747292
ssI16
(dp26
g9
F0.607779524600567
sg10
F0.7184509029786239
ssI17
(dp27
g9
F0.8005513170154736
sg10
F0.3849248235109679
ssI18
(dp28
g9
F0.059271363743910066
sg10
F0.5608395887894473
ssI19
(dp29
g9
F0.30936856517549227
sg10
F0.9579282692787929
ssI20
(dp30
g9
F0.661463388895519
sg10
F0.3277551568890672
ssI21
(dp31
g9
F0.5121055992752321
sg10
F0.24909527085046657
ssI22
(dp32
g9
F0.3909455251594586
sg10
F0.9262995632010367
ssI23
(dp33
g9
F0.9941415362737911
sg10
F0.18480162909238762
ssI24
(dp34
g9
F0.7606106317908352
sg10
F0.026273720702932324
ssI25
(dp35
g9
F0.3666808823741363
sg10
F0.38271147502198133
ssI26
(dp36
g9
F0.14903277548672755
sg10
F0.2119140727348423
ssI27
(dp37
g9
F0.36607250752966214
sg10
F0.15322961513520095
ssI28
(dp38
g9
F0.3719217321674704
sg10
F0.4707054551618943
ssI29
(dp39
g9
F0.7851816417224005
sg10
F0.984537484915171
ssI30
(dp40
g9
F0.5020238341577344
sg10
F0.6866088133882239
ssI31
(dp41
g9
F0.7343561816229104
sg10
F0.6957422253612024
ssI32
(dp42
g9
F0.35096046145390747
sg10
F0.3169241470598504
ssI33
(dp43
g9
F0.7738043134331071
sg10
F0.4067080064614065
ssI34
(dp44
g9
F0.7483777971167983
sg10
F0.1821674630986303
ssI35
(dp45
g9
F0.959939140198497
sg10
F0.45662562610437296
ssI36
(dp46
g9
F0.4503461317259325
sg10
F0.736264377670741
ssI37
(dp47
g9
F0.28945660577206067
sg10
F0.8252132505072135
ssI38
(dp48
g9
F0.44891220912256347
sg10
F0.8111647463681922
ssI39
(dp49
g9
F0.31081075967146443
sg10
F0.32128612775451604
ssI40
(dp50
g9
F0.9575224158819904
sg10
F0.916989045551106
ssI41
(dp51
g9
F0.38637595504441447
sg10
F0.037723938318964145
ssI42
(dp52
g9
F0.42391993710878983
sg10
F0.5156809765752568
ssI43
(dp53
g9
F0.7001805210517226
sg10
F0.8406564916799792
ssI44
(dp54
g9
F0.22358824440881997
sg10
F0.3187310720585912
ssI45
(dp55
g9
F0.8983989368509293
sg10
F0.5942120576836685
ssI46
(dp56
g9
F0.4026838432715073
sg10
F0.24156435729128312
ssI47
(dp57
g9
F0.9583569267519318
sg10
F0.19684695661026042
ssI48
(dp58
g9
F0.5607852897434757
sg10
F0.8602716048363415
ssI49
(dp59
g9
F0.1011669113055903
sg10
F0.8033022487847796
ssI50
(dp60
g9
F0.08780808393035089
sg10
F0.6625311479654941
ssI51
(dp61
g9
F0.16173825318238322
sg10
F0.5876784056344236
ssI52
(dp62
g9
F0.1446318802459987
sg10
F0.32256618845458584
ssI53
(dp63
g9
F0.9480516398142839
sg10
F0.1939693688676719
ssI54
(dp64
g9
F0.9029070901595012
sg10
F0.58973242938202
ssI55
(dp65
g9
F0.9453778812821749
sg10
F0.9470347381435817
ssI56
(dp66
g9
F0.2614912700257135
sg10
F0.19293481171627092
ssI57
(dp67
g9
F0.3306742806735258
sg10
F0.501997608581014
ssI58
(dp68
g9
F0.26339117807600065
sg10
F0.4869133737977194
ssI59
(dp69
g9
F0.48464503928703884
sg10
F0.7214174061340057
ssI60
(dp70
g9
F0.4906533665285371
sg10
F0.8721894975453486
ssI61
(dp71
g9
F0.7867483504757992
sg10
F0.13951717008463982
ssI62
(dp72
g9
F0.8906478986777537
sg10
F0.5391390837918902
ssI63
(dp73
g9
F0.35081186847824475
sg10
F0.9328921631027297
ssI64
(dp74
g9
F0.11511804753702293
sg10
F0.16957414751359945
ssI65
(dp75
g9
F0.08068942714592653
sg10
F0.01861511898871071
ssI66
(dp76
g9
F0.9423227072805825
sg10
F0.5258544205313109
ssI67
(dp77
g9
F0.2533363807492276
sg10
F0.7223976338767606
ssI68
(dp78
g9
F0.06493366427296376
sg10
F0.6803728343728616
ssI69
(dp79
g9
F0.2661140769405551
sg10
F0.39666837596914506
ssI70
(dp80
g9
F0.5151104364427521
sg10
F0.0798816042945002
ssI71
(dp81
g9
F0.8582715528266911
sg10
F0.8732098000064253
ssI72
(dp82
g9
F0.6167894389899361
sg10
F0.4805962218997306
ssI73
(dp83
g9
F0.2085351273783962
sg10
F0.38613412882722997
ssI74
(dp84
g9
F0.42823632345104645
sg10
F0.4778745971669235
ssI75
(dp85
g9
F0.4343784307736387
sg10
F0.45668088115721994
ssI76
(dp86
g9
F0.29100366982694015
sg10
F0.21087707880189488
ssI77
(dp87
g9
F0.17704159226069138
sg10
F0.4637782643362759
ssI78
(dp88
g9
F0.1969091892745648
sg10
F0.14539991459334733
ssI79
(dp89
g9
F0.5844988218738715
sg10
F0.5328608447704204
ssI80
(dp90
g9
F0.5300175423521473
sg10
F0.6011593156159603
ssI81
(dp91
g9
F0.39499792948997015
sg10
F0.34660683592265784
ssI82
(dp92
g9
F0.03952694175403204
sg10
F0.00538587372845134
ssI83
(dp93
g9
F0.3903420365014816
sg10
F0.2093598750889013
ssI84
(dp94
g9
F0.9200403971108297
sg10
F0.8591500564379031
ssI85
(dp95
g9
F0.9133193093250133
sg10
F0.31630879544486257
ssI86
(dp96
g9
F0.7416932222900997
sg10
F0.5034368412680958
ssI87
(dp97
g9
F0.1310469510645157
sg10
F0.0807229202767411
ssI88
(dp98
g9
F0.00218024210567358
sg10
F0.9631992808472729
ssI89
(dp99
g9
F0.3398501254040751
sg10
F0.7664362290944561
ssI90
(dp100
g9
F0.5363000725672733
sg10
F0.8934471223788291
ssI91
(dp101
g9
F0.5518490380222851
sg10
F0.5252061457807876
ssI92
(dp102
g9
F0.33251891381097454
sg10
F0.612285792689313
ssI93
(dp103
g9
F0.9379652580864546
sg10
F0.02558452249344456
ssI94
(dp104
g9
F0.7295856555130498
sg10
F0.15454031925952805
ssI95
(dp105
g9
F0.6581382335143412
sg10
F0.13809866786065528
ssI96
(dp106
g9
F0.49634131004985627
sg10
F0.028721124393356612
ssI97
(dp107
g9
F0.8519395613112354
sg10
F0.3268812748457276
ssI98
(dp108
g9
F0.31553749761247774
sg10
F0.7353952059022663
ssI99
(dp109
g9
F0.02949689769475561
sg10
F0.4066848298525021
ssI100
(dp110
g9
F0.15037396358842448
sg10
F0.6180937443910615
ssI101
(dp111
g9
F0.2961460222425544
sg10
F0.5853211647374241
ssI102
(dp112
g9
F0.1444068758248036
sg10
F0.1498430118524574
ssI103
(dp113
g9
F0.8927643824279551
sg10
F0.2503784555814521
ssI104
(dp114
g9
F0.9256711539449415
sg10
F0.21975102196143514
ssI105
(dp115
g9
F0.42142688478774926
sg10
F0.5235122444975667
ssI106
(dp116
g9
F0.57637216156936
sg10
F0.17426315303527862
ssI107
(dp117
g9
F0.9248385604837491
sg10
F0.8055278163375058
ssI108
(dp118
g9
F0.1992666934221169
sg10
F0.760266761256075
ssI109
(dp119
g9
F0.9281356610594044
sg10
F0.24652093530279073
ssI110
(dp120
g9
F0.92412803576979
sg10
F0.04700681750340663
ssI111
(dp121
g9
F0.7012995514478783
sg10
F0.850237954222732
ssI112
(dp122
g9
F0.10996385551564714
sg10
F0.7062898367577727
ssI113
(dp123
g9
F0.7816478947776839
sg10
F0.6900731161711647
ssI114
(dp124
g9
F0.35738363851666854
sg10
F0.2965240934313993
ssI115
(dp125
g9
F0.9475087895798117
sg10
F0.4510557960097338
ssI116
(dp126
g9
F0.9059036041231792
sg10
F0.23091567059702334
ssI117
(dp127
g9
F0.03571726302727318
sg10
F0.005618606124161762
ssI118
(dp128
g9
F0.41148477559441476
sg10
F0.9117411975954584
ssI119
(dp129
g9
F0.1365508847236011
sg10
F0.2510380194747541
ssI120
(dp130
g9
F0.1102887803252911
sg10
F0.8801717574217821
ssI121
(dp131
g9
F0.6754064819871544
sg10
F0.9112107556765617
ssI122
(dp132
g9
F0.46022549567689175
sg10
F0.5026236344153021
ssI123
(dp133
g9
F0.23333225149521564
sg10
F0.42535619994468654
ssI124
(dp134
g9
F0.8957112691519371
sg10
F0.5903768158786921
ssI125
(dp135
g9
F0.5583834035486636
sg10
F0.6428064897668776
ssI126
(dp136
g9
F0.07332849177258205
sg10
F0.3070169677954009
ssI127
(dp137
g9
F0.2733213468956289
sg10
F0.7379743488697603
ssI128
(dp138
g9
F0.6267651031886452
sg10
F0.9717532910182389
ssI129
(dp139
g9
F0.981288162180424
sg10
F0.992832542153479
ssI130
(dp140
g9
F0.9557040075657545
sg10
F0.966838639963071
ssI131
(dp141
g9
F0.6181963181517123
sg10
F0.027897520355212757
ssI132
(dp142
g9
F0.5101422692357179
sg10
F0.8966681614865687
ssI133
(dp143
g9
F0.9950259573407246
sg10
F0.9905748082348265
ssI134
(dp144
g9
F0.6326355201612162
sg10
F0.9663897276219958
ssI135
(dp145
g9
F0.4397185112496109
sg10
F0.30139994782249435
ssI136
(dp146
g9
F0.6330181718460094
sg10
F0.8377978877286973
ssI137
(dp147
g9
F0.8602846745520453
sg10
F0.012686636531030304
ssI138
(dp148
g9
F0.6447101030472058
sg10
F0.91223476757393
ssI139
(dp149
g9
F0.4142789614361353
sg10
F0.3758038006911598
ssI140
(dp150
g9
F0.3875980162053343
sg10
F0.09216309398493716
ssI141
(dp151
g9
F0.5285499075051394
sg10
F0.7379039784364267
ssI142
(dp152
g9
F0.9979742875428753
sg10
F0.7665041972814048
ssI143
(dp153
g9
F0.5723902005302153
sg10
F0.9462428367757305
ssI144
(dp154
g9
F0.5663398921160949
sg10
F0.5210367700158033
ssI145
(dp155
g9
F0.95634412369587
sg10
F0.2386750791343184
ssI146
(dp156
g9
F0.19836615000319202
sg10
F0.48968189766531744
ssI147
(dp157
g9
F0.4556178831152259
sg10
F0.04650920741678122
ssI148
(dp158
g9
F0.10244256787842676
sg10
F0.18278079631500377
ssI149
(dp159
g9
F0.8578879334135653
sg10
F0.09674273306830006
ssI150
(dp160
g9
F0.0731242009060804
sg10
F0.3509912110019777
ssI151
(dp161
g9
F0.7600582355935577
sg10
F0.8674308828299906
ssI152
(dp162
g9
F0.33979293375056907
sg10
F0.43821279673222446
ssI153
(dp163
g9
F0.7869745930391537
sg10
F0.32248130179038614
ssI154
(dp164
g9
F0.21019873928583577
sg10
F0.08979606070736768
ssI155
(dp165
g9
F0.21607696124643794
sg10
F0.953203480102316
ssI156
(dp166
g9
F0.26611061636579314
sg10
F0.9414186855950658
ssI157
(dp167
g9
F0.596165341821367
sg10
F0.9598989340285852
ssI158
(dp168
g9
F0.40993483112928786
sg10
F0.5391114931210967
ssI159
(dp169
g9
F0.6846933661313958
sg10
F0.3643611885009863
ssI160
(dp170
g9
F0.12389434089837736
sg10
F0.9074421398230949
ssI161
(dp171
g9
F0.23007484454335503
sg10
F0.535612294884646
ssI162
(dp172
g9
F0.2584352297517588
sg10
F0.661908947927113
ssI163
(dp173
g9
F0.28002410093182384
sg10
F0.714426556039519
ssI164
(dp174
g9
F0.40801983129208175
sg10
F0.08682108423504475
ssI165
(dp175
g9
F0.4065420677609377
sg10
F0.2645180173575771
ssI166
(dp176
g9
F0.17914098529195854
sg10
F0.29387488535918127
ssI167
(dp177
g9
F0.47582555011183747
sg10
F0.5583341742121671
ssI168
(dp178
g9
F0.5748122809338235
sg10
F0.31373748127352763
ssI169
(dp179
g9
F0.18312234133265093
sg10
F0.6307595793227824
ssI170
(dp180
g9
F0.4875222122223095
sg10
F0.41969733987354974
ssI171
(dp181
g9
F0.47563843482539625
sg10
F0.3452732247023609
ssI172
(dp182
g9
F0.6222958365132997
sg10
F0.4783680592992955
ssI173
(dp183
g9
F0.16535737100715497
sg10
F0.39194796515556907
ssI174
(dp184
g9
F0.014281227134358088
sg10
F0.5396235247773773
ssI175
(dp185
g9
F0.8314227439041466
sg10
F0.3210970896736638
ssI176
(dp186
g9
F0.715118986872921
sg10
F0.3137638109580281
ssI177
(dp187
g9
F0.3214247356513287
sg10
F0.9158326626079594
ssI178
(dp188
g9
F0.6387202210712739
sg10
F0.6190539814260232
ssI179
(dp189
g9
F0.6174811373670935
sg10
F0.9479718188813196
ssI180
(dp190
g9
F0.34123659101531345
sg10
F0.7327809377929496
ssI181
(dp191
g9
F0.7760000453491979
sg10
F0.4100367070236963
ssI182
(dp192
g9
F0.11770854990066126
sg10
F0.026204332522507312
ssI183
(dp193
g9
F0.8600717348359633
sg10
F0.9775655762961822
ssI184
(dp194
g9
F0.8958752366447116
sg10
F0.28271975594594045
ssI185
(dp195
g9
F0.4573613732418227
sg10
F0.7941340380230256
ssI186
(dp196
g9
F0.633202139182021
sg10
F0.024239068487125315
ssI187
(dp197
g9
F0.9074703588777264
sg10
F0.5608800126365148
ssI188
(dp198
g9
F0.6713346100999947
sg10
F0.5785305414733278
ssI189
(dp199
g9
F0.026701095196589808
sg10
F0.5098625056518868
ssI190
(dp200
g9
F0.4593021330497854
sg10
F0.0013750012535225231
ssI191
(dp201
g9
F0.32983419850535334
sg10
F0.8971888280761418
ssI192
(dp202
g9
F0.3279604468882332
sg10
F0.8988480179016466
ssI193
(dp203
g9
F0.971580390566548
sg10
F0.6193769452159095
ssI194
(dp204
g9
F0.2879908677144791
sg10
F0.695904193246725
ssI195
(dp205
g9
F0.4746568399417639
sg10
F0.17760439554027418
ssI196
(dp206
g9
F0.022821791739021324
sg10
F0.7105779390314316
ssI197
(dp207
g9
F0.9849001008910823
sg10
F0.5769585381592203
ssI198
(dp208
g9
F0.39166742001822963
sg10
F0.5201563111681806
ssI199
(dp209
g9
F0.25232921910334405
sg10
F0.17236668393962828
sssS'node_dict_factory'
p210
c__builtin__
dict
p211
sS'edge_attr_dict_factory'
p212
g211
sS'edge'
p213
(dp214
I0
(dp215
sI1
(dp216
sI2
(dp217
sI3
(dp218
sI4
(dp219
sI5
(dp220
sI6
(dp221
sI7
(dp222
sI8
(dp223
sI9
(dp224
sI10
(dp225
sI11
(dp226
sI12
(dp227
sI13
(dp228
sI14
(dp229
sI15
(dp230
sI16
(dp231
sI17
(dp232
sI18
(dp233
sI19
(dp234
sI20
(dp235
sI21
(dp236
sI22
(dp237
sI23
(dp238
sI24
(dp239
sI25
(dp240
sI26
(dp241
sI27
(dp242
sI28
(dp243
sI29
(dp244
sI30
(dp245
sI31
(dp246
sI32
(dp247
sI33
(dp248
sI34
(dp249
sI35
(dp250
sI36
(dp251
sI37
(dp252
sI38
(dp253
sI39
(dp254
sI40
(dp255
sI41
(dp256
sI42
(dp257
sI43
(dp258
sI44
(dp259
sI45
(dp260
sI46
(dp261
sI47
(dp262
sI48
(dp263
sI49
(dp264
sI50
(dp265
sI51
(dp266
sI52
(dp267
sI53
(dp268
sI54
(dp269
sI55
(dp270
sI56
(dp271
sI57
(dp272
sI58
(dp273
sI59
(dp274
sI60
(dp275
sI61
(dp276
sI62
(dp277
sI63
(dp278
sI64
(dp279
sI65
(dp280
sI66
(dp281
sI67
(dp282
sI68
(dp283
sI69
(dp284
sI70
(dp285
sI71
(dp286
sI72
(dp287
sI73
(dp288
sI74
(dp289
sI75
(dp290
sI76
(dp291
sI77
(dp292
sI78
(dp293
sI79
(dp294
sI80
(dp295
sI81
(dp296
sI82
(dp297
sI83
(dp298
sI84
(dp299
sI85
(dp300
sI86
(dp301
sI87
(dp302
sI88
(dp303
sI89
(dp304
sI90
(dp305
sI91
(dp306
sI92
(dp307
sI93
(dp308
sI94
(dp309
sI95
(dp310
sI96
(dp311
sI97
(dp312
sI98
(dp313
sI99
(dp314
sI100
(dp315
sI101
(dp316
sI102
(dp317
sI103
(dp318
sI104
(dp319
sI105
(dp320
sI106
(dp321
sI107
(dp322
sI108
(dp323
sI109
(dp324
sI110
(dp325
sI111
(dp326
sI112
(dp327
sI113
(dp328
sI114
(dp329
sI115
(dp330
sI116
(dp331
sI117
(dp332
sI118
(dp333
sI119
(dp334
sI120
(dp335
sI121
(dp336
sI122
(dp337
sI123
(dp338
sI124
(dp339
sI125
(dp340
sI126
(dp341
sI127
(dp342
sI128
(dp343
sI129
(dp344
sI130
(dp345
sI131
(dp346
sI132
(dp347
sI133
(dp348
sI134
(dp349
sI135
(dp350
sI136
(dp351
sI137
(dp352
sI138
(dp353
sI139
(dp354
sI140
(dp355
sI141
(dp356
sI142
(dp357
sI143
(dp358
sI144
(dp359
sI145
(dp360
sI146
(dp361
sI147
(dp362
sI148
(dp363
sI149
(dp364
sI150
(dp365
sI151
(dp366
sI152
(dp367
sI153
(dp368
sI154
(dp369
sI155
(dp370
sI156
(dp371
sI157
(dp372
sI158
(dp373
sI159
(dp374
sI160
(dp375
sI161
(dp376
sI162
(dp377
sI163
(dp378
sI164
(dp379
sI165
(dp380
sI166
(dp381
sI167
(dp382
sI168
(dp383
sI169
(dp384
sI170
(dp385
sI171
(dp386
sI172
(dp387
sI173
(dp388
sI174
(dp389
sI175
(dp390
sI176
(dp391
sI177
(dp392
sI178
(dp393
sI179
(dp394
sI180
(dp395
sI181
(dp396
sI182
(dp397
sI183
(dp398
sI184
(dp399
sI185
(dp400
sI186
(dp401
sI187
(dp402
sI188
(dp403
sI189
(dp404
sI190
(dp405
sI191
(dp406
sI192
(dp407
sI193
(dp408
sI194
(dp409
sI195
(dp410
sI196
(dp411
sI197
(dp412
sI198
(dp413
sI199
(dp414
ssS'graph'
p415
(dp416
sS'adjlist_dict_factory'
p417
g211
sS'adj'
p418
g214
sb.