ccopy_reg
_reconstructor
p0
(cnetworkx.classes.graph
Graph
p1
c__builtin__
object
p2
Ntp3
Rp4
(dp5
S'node'
p6
(dp7
I0
(dp8
S'pos_x'
p9
F0.6605727236862778
sS'pos_y'
p10
F0.7388417893283338
ssI1
(dp11
g9
F0.3196429811396462
sg10
F0.04329639222795978
ssI2
(dp12
g9
F0.41136956819768267
sg10
F0.3042262669734904
ssI3
(dp13
g9
F0.2769471366160601
sg10
F0.23299738522894053
ssI4
(dp14
g9
F0.9014052731791853
sg10
F0.4919230536660678
ssI5
(dp15
g9
F0.40462087240958167
sg10
F0.1650826641764611
ssI6
(dp16
g9
F0.21369733422531723
sg10
F0.4117520619460676
ssI7
(dp17
g9
F0.043383735685964875
sg10
F0.3838751285299501
ssI8
(dp18
g9
F0.17813605460462634
sg10
F0.13247258419705776
ssI9
(dp19
g9
F0.07799754898405575
sg10
F0.3937967913722362
ssI10
(dp20
g9
F0.7360147361652138
sg10
F0.477110719415902
ssI11
(dp21
g9
F0.5930155863245367
sg10
F0.4756864677078654
ssI12
(dp22
g9
F0.6788868269965326
sg10
F0.4450149350092304
ssI13
(dp23
g9
F0.9810972453227406
sg10
F0.7105207708468935
ssI14
(dp24
g9
F0.31801871949076577
sg10
F0.09803017243907097
ssI15
(dp25
g9
F0.9677761439909672
sg10
F0.4695408490659624
ssI16
(dp26
g9
F0.3294946127178642
sg10
F0.7429914897024172
ssI17
(dp27
g9
F0.7771950957041592
sg10
F0.03995426749281361
ssI18
(dp28
g9
F0.6818129137555158
sg10
F0.16193145303015744
ssI19
(dp29
g9
F0.05261100440392774
sg10
F0.7448376507280005
ssI20
(dp30
g9
F0.4777045010836588
sg10
F0.2663153143161656
ssI21
(dp31
g9
F0.8432055566415643
sg10
F0.36801837516256153
ssI22
(dp32
g9
F0.7871297699364401
sg10
F0.6718245350987905
ssI23
(dp33
g9
F0.5730761185534914
sg10
F0.8327739091587554
ssI24
(dp34
g9
F0.04729235905896234
sg10
F0.8314201072894332
ssI25
(dp35
g9
F0.4651404393724622
sg10
F0.7125175143113753
ssI26
(dp36
g9
F0.9933622285088929
sg10
F0.5108801392250426
ssI27
(dp37
g9
F0.8344847236900449
sg10
F0.6424942152014679
ssI28
(dp38
g9
F0.5376644676097212
sg10
F0.7325992047001381
ssI29
(dp39
g9
F0.7363719328666334
sg10
F0.941555059682137
ssI30
(dp40
g9
F0.9216986081746534
sg10
F0.4166377766905842
ssI31
(dp41
g9
F0.12055532979487926
sg10
F0.7381176428217858
ssI32
(dp42
g9
F0.11611022495062884
sg10
F0.2660215185699484
ssI33
(dp43
g9
F0.8666382683468163
sg10
F0.30987514954692286
ssI34
(dp44
g9
F0.19672806510965846
sg10
F0.22701696279723393
ssI35
(dp45
g9
F0.6589270140060928
sg10
F0.3190889638345572
ssI36
(dp46
g9
F0.49254588988192083
sg10
F0.4789327177960139
ssI37
(dp47
g9
F0.8354239144146142
sg10
F0.3738268533932355
ssI38
(dp48
g9
F0.8550992728224489
sg10
F0.8030542327049451
ssI39
(dp49
g9
F0.1520249626471618
sg10
F0.5048215737618336
ssI40
(dp50
g9
F0.5140957542003007
sg10
F0.37428770933497524
ssI41
(dp51
g9
F0.8963974304677291
sg10
F0.7300574217674796
ssI42
(dp52
g9
F0.24197085848740119
sg10
F0.6655483634858902
ssI43
(dp53
g9
F0.0005995667934000082
sg10
F0.8743001785800829
ssI44
(dp54
g9
F0.9715956800195472
sg10
F0.9181950490685352
ssI45
(dp55
g9
F0.30996714602505027
sg10
F0.19798461487768593
ssI46
(dp56
g9
F0.11932527881503308
sg10
F0.40603998241595496
ssI47
(dp57
g9
F0.8329340719660039
sg10
F0.9300557257232627
ssI48
(dp58
g9
F0.7684707183212625
sg10
F0.16117535244754966
ssI49
(dp59
g9
F0.5975621404560839
sg10
F0.32095851069821724
ssI50
(dp60
g9
F0.4580905223277205
sg10
F0.007276134090426711
ssI51
(dp61
g9
F0.5445350354861069
sg10
F0.7704635223222995
ssI52
(dp62
g9
F0.5366105544132023
sg10
F0.07867861574121782
ssI53
(dp63
g9
F0.2714836665402576
sg10
F0.3176155562584948
ssI54
(dp64
g9
F0.8559104634134034
sg10
F0.3226291669836493
ssI55
(dp65
g9
F0.9117416945785382
sg10
F0.12719994178773553
ssI56
(dp66
g9
F0.4726590172405476
sg10
F0.7869049317161936
ssI57
(dp67
g9
F0.926559645141013
sg10
F0.7334828613894723
ssI58
(dp68
g9
F0.24524545481643134
sg10
F0.10889320899513555
ssI59
(dp69
g9
F0.5072384496905308
sg10
F0.9548924677981212
ssI60
(dp70
g9
F0.9204520168640129
sg10
F0.669515698327899
ssI61
(dp71
g9
F0.14446129014600007
sg10
F0.35445112872574613
ssI62
(dp72
g9
F0.7101573681227261
sg10
F0.7267918371101689
ssI63
(dp73
g9
F0.4905830613975951
sg10
F0.250929215125818
ssI64
(dp74
g9
F0.5577986836660781
sg10
F0.8292892227079999
ssI65
(dp75
g9
F0.1745034492816061
sg10
F0.24451579901149312
ssI66
(dp76
g9
F0.7680377321971255
sg10
F0.13615873080827123
ssI67
(dp77
g9
F0.7539171194462647
sg10
F0.3316482352241654
ssI68
(dp78
g9
F0.35440985209759246
sg10
F0.25935001421563153
ssI69
(dp79
g9
F0.1570066104318718
sg10
F0.8056045805179826
ssI70
(dp80
g9
F0.6782278828630331
sg10
F0.1913474320263442
ssI71
(dp81
g9
F0.8921301804240805
sg10
F0.5512223232393645
ssI72
(dp82
g9
F0.36548651097283635
sg10
F0.2817832920322654
ssI73
(dp83
g9
F0.27283160920321836
sg10
F0.398071391079613
ssI74
(dp84
g9
F0.05159686365426275
sg10
F0.8746561588199493
ssI75
(dp85
g9
F0.3131688851651746
sg10
F0.4229197750404581
ssI76
(dp86
g9
F0.7168635651093933
sg10
F0.5009420079359207
ssI77
(dp87
g9
F0.5372916076578966
sg10
F0.2641025136861742
ssI78
(dp88
g9
F0.36247156699275773
sg10
F0.03097299303513157
ssI79
(dp89
g9
F0.5348061746219555
sg10
F0.9321712304636139
ssI80
(dp90
g9
F0.6347811018184683
sg10
F0.06663409242388518
ssI81
(dp91
g9
F0.16138205439497066
sg10
F0.019430509711426014
ssI82
(dp92
g9
F0.004602477772729596
sg10
F0.8312527449737491
ssI83
(dp93
g9
F0.44401899661375943
sg10
F0.7179003439819958
ssI84
(dp94
g9
F0.4956219463424969
sg10
F0.5478047964917131
ssI85
(dp95
g9
F0.31741955259351873
sg10
F0.11508650037325541
ssI86
(dp96
g9
F0.4080390699182973
sg10
F0.20583118214720963
ssI87
(dp97
g9
F0.8775470473792163
sg10
F0.5965576168930021
ssI88
(dp98
g9
F0.9864627883300869
sg10
F0.7538693537638614
ssI89
(dp99
g9
F0.8651440525462127
sg10
F0.7975455587659799
ssI90
(dp100
g9
F0.7993747975961806
sg10
F0.40386230450543115
ssI91
(dp101
g9
F0.3911393014042004
sg10
F0.9128444249935949
ssI92
(dp102
g9
F0.6765300660026411
sg10
F0.4303690751216376
ssI93
(dp103
g9
F0.16071751236014697
sg10
F0.29504974787048044
ssI94
(dp104
g9
F0.4085258326753647
sg10
F0.6759796480849526
ssI95
(dp105
g9
F0.1891332377282885
sg10
F0.05126066049321987
ssI96
(dp106
g9
F0.2869058606166782
sg10
F0.6017691512418282
ssI97
(dp107
g9
F0.6294383998784522
sg10
F0.09417435061617918
ssI98
(dp108
g9
F0.07139733685018146
sg10
F0.6083277351604881
ssI99
(dp109
g9
F0.8520250370902261
sg10
F0.6817017781677316
ssI100
(dp110
g9
F0.432135134735528
sg10
F0.2463617259154921
ssI101
(dp111
g9
F0.04810204977197874
sg10
F0.9294833603293781
ssI102
(dp112
g9
F0.12861073111567445
sg10
F0.2828146452375826
ssI103
(dp113
g9
F0.8141098435901799
sg10
F0.7591414219448197
ssI104
(dp114
g9
F0.7779402817635086
sg10
F0.21012391117093998
ssI105
(dp115
g9
F0.7110587021161839
sg10
F0.5385684162237637
ssI106
(dp116
g9
F0.1284546976175852
sg10
F0.8646715883112426
ssI107
(dp117
g9
F0.63679067507023
sg10
F0.6945725047419476
ssI108
(dp118
g9
F0.06817507602318351
sg10
F0.947165126807579
ssI109
(dp119
g9
F0.5750198553628153
sg10
F0.20943271963134746
ssI110
(dp120
g9
F0.30691516713058264
sg10
F0.10269789628210246
ssI111
(dp121
g9
F0.28371216689502776
sg10
F0.820446613089103
ssI112
(dp122
g9
F0.12372943923605306
sg10
F0.4040238639652285
ssI113
(dp123
g9
F0.3372630859094411
sg10
F0.8838421960094094
ssI114
(dp124
g9
F0.7869699156722542
sg10
F0.12814163467774742
ssI115
(dp125
g9
F0.05953260115538683
sg10
F0.9204991757332719
ssI116
(dp126
g9
F0.20732781821341173
sg10
F0.9516911307497846
ssI117
(dp127
g9
F0.62931441631518
sg10
F0.7689344229854275
ssI118
(dp128
g9
F0.6522874704846331
sg10
F0.8910534248312972
ssI119
(dp129
g9
F0.3715559995125086
sg10
F0.821494250164808
ssI120
(dp130
g9
F0.5978691561815639
sg10
F0.36668504702892946
ssI121
(dp131
g9
F0.0009959330764047758
sg10
F0.05501351487393902
ssI122
(dp132
g9
F0.47591061578203897
sg10
F0.4644735175104028
ssI123
(dp133
g9
F0.2550238754893208
sg10
F0.5328183542203452
ssI124
(dp134
g9
F0.13269588950675026
sg10
F0.7825312297772596
ssI125
(dp135
g9
F0.7963768188031272
sg10
F0.468256844668654
ssI126
(dp136
g9
F0.6620819127709081
sg10
F0.17931576331228938
ssI127
(dp137
g9
F0.3384307318273717
sg10
F0.7998004928294349
ssI128
(dp138
g9
F0.8623032691846695
sg10
F0.9948510188349496
ssI129
(dp139
g9
F0.03897846634515978
sg10
F0.8653669796324608
ssI130
(dp140
g9
F0.6453014596767745
sg10
F0.1168301954391745
ssI131
(dp141
g9
F0.8194058386079899
sg10
F0.8080554973237961
ssI132
(dp142
g9
F0.19116412161079577
sg10
F0.8432918688274575
ssI133
(dp143
g9
F0.4437856115916494
sg10
F0.4678089402367762
ssI134
(dp144
g9
F0.1469288114017524
sg10
F0.48663277157457974
ssI135
(dp145
g9
F0.667405837759464
sg10
F0.5232089008234113
ssI136
(dp146
g9
F0.808240738438547
sg10
F0.9054789146327015
ssI137
(dp147
g9
F0.9330477045323328
sg10
F0.7395078044689734
ssI138
(dp148
g9
F0.9853279299118339
sg10
F0.28506683019708035
ssI139
(dp149
g9
F0.1538171877932042
sg10
F0.05518433363065656
ssI140
(dp150
g9
F0.9197674172681807
sg10
F0.5086179925966775
ssI141
(dp151
g9
F0.05687497890841997
sg10
F0.6075172189902243
ssI142
(dp152
g9
F0.08446629136807482
sg10
F0.5872716259604602
ssI143
(dp153
g9
F0.0374611656499958
sg10
F0.3725679334455062
ssI144
(dp154
g9
F0.5970684054420786
sg10
F0.3058109333326704
ssI145
(dp155
g9
F0.5631938770235972
sg10
F0.7467834335788174
ssI146
(dp156
g9
F0.6443969820223496
sg10
F0.9374119746251288
ssI147
(dp157
g9
F0.5800946925728768
sg10
F0.12038635994765012
ssI148
(dp158
g9
F0.7344675249991496
sg10
F0.5750615162232499
ssI149
(dp159
g9
F0.8011283271887705
sg10
F0.3998901227532533
ssI150
(dp160
g9
F0.665634900594266
sg10
F0.7243071661418228
ssI151
(dp161
g9
F0.27427298069406725
sg10
F0.7544882040184758
ssI152
(dp162
g9
F0.10138653801731479
sg10
F0.6912873796416675
ssI153
(dp163
g9
F0.7527428836040491
sg10
F0.9699313595812455
ssI154
(dp164
g9
F0.6079884741922066
sg10
F0.1183398000257112
ssI155
(dp165
g9
F0.20952876633552742
sg10
F0.9465339018725369
ssI156
(dp166
g9
F0.39575554383792544
sg10
F0.14705247274150546
ssI157
(dp167
g9
F0.07584963834552771
sg10
F0.8842760928054361
ssI158
(dp168
g9
F0.40264301114900913
sg10
F0.3100510865853603
ssI159
(dp169
g9
F0.5396825963296258
sg10
F0.8889822274079313
ssI160
(dp170
g9
F0.8075560749223896
sg10
F0.3989458401960443
ssI161
(dp171
g9
F0.4538636279908559
sg10
F0.2720656468229834
ssI162
(dp172
g9
F0.9967000637350036
sg10
F0.5030396154335351
ssI163
(dp173
g9
F0.5936371545778155
sg10
F0.7500031688979822
ssI164
(dp174
g9
F0.3744856878043923
sg10
F0.6389504117759793
ssI165
(dp175
g9
F0.02359335052645506
sg10
F0.25757575357731133
ssI166
(dp176
g9
F0.3314346666504573
sg10
F0.5459429965425903
ssI167
(dp177
g9
F0.12547792061902507
sg10
F0.03491798820416325
ssI168
(dp178
g9
F0.73063160209408
sg10
F0.028032085385554795
ssI169
(dp179
g9
F0.7399985601139037
sg10
F0.44724782004492636
ssI170
(dp180
g9
F0.16822225640900212
sg10
F0.5541169323155299
ssI171
(dp181
g9
F0.6543270831450388
sg10
F0.38850618304319373
ssI172
(dp182
g9
F0.843636802013176
sg10
F0.2311718785759348
ssI173
(dp183
g9
F0.5253584112299781
sg10
F0.04786966402108439
ssI174
(dp184
g9
F0.23921748234980045
sg10
F0.18422631369206244
ssI175
(dp185
g9
F0.8557285345670453
sg10
F0.7678981796063304
ssI176
(dp186
g9
F0.006328235682521388
sg10
F0.08400859488573287
ssI177
(dp187
g9
F0.24050326753981244
sg10
F0.3429590423430655
ssI178
(dp188
g9
F0.3209642154233304
sg10
F0.8036783723539727
ssI179
(dp189
g9
F0.31492144390166155
sg10
F0.7853450126427793
ssI180
(dp190
g9
F0.03413652490523289
sg10
F0.6776151894723823
ssI181
(dp191
g9
F0.6987818497574895
sg10
F0.8339415068000386
ssI182
(dp192
g9
F0.42320998911784813
sg10
F0.32797349600879333
ssI183
(dp193
g9
F0.5429374016807006
sg10
F0.792803980883641
ssI184
(dp194
g9
F0.5562790677196132
sg10
F0.7206587911902184
ssI185
(dp195
g9
F0.6595628967596193
sg10
F0.9495961707903711
ssI186
(dp196
g9
F0.5197021744088045
sg10
F0.9401418015310514
ssI187
(dp197
g9
F0.9174111191751018
sg10
F0.6754185156535822
ssI188
(dp198
g9
F0.7837654063466775
sg10
F0.908865844730008
ssI189
(dp199
g9
F0.6781046722059693
sg10
F0.4163651754756671
ssI190
(dp200
g9
F0.314362110423719
sg10
F0.744297558671333
ssI191
(dp201
g9
F0.8504129777274824
sg10
F0.09935869567673106
ssI192
(dp202
g9
F0.6012665763395082
sg10
F0.24167781562722523
ssI193
(dp203
g9
F0.04391729412612244
sg10
F0.24056093952010493
ssI194
(dp204
g9
F0.2039291118608817
sg10
F0.16363399680449453
ssI195
(dp205
g9
F0.6873900443576912
sg10
F0.973774745379613
ssI196
(dp206
g9
F0.5189751100415472
sg10
F0.846561085957191
ssI197
(dp207
g9
F0.6156063093948341
sg10
F0.9247892262740867
ssI198
(dp208
g9
F0.30233681233593146
sg10
F0.6310491383133595
ssI199
(dp209
g9
F0.5939632974093684
sg10
F0.7040370997917892
sssS'node_dict_factory'
p210
c__builtin__
dict
p211
sS'edge_attr_dict_factory'
p212
g211
sS'edge'
p213
(dp214
I0
(dp215
sI1
(dp216
sI2
(dp217
sI3
(dp218
sI4
(dp219
sI5
(dp220
sI6
(dp221
sI7
(dp222
sI8
(dp223
sI9
(dp224
sI10
(dp225
sI11
(dp226
sI12
(dp227
sI13
(dp228
sI14
(dp229
sI15
(dp230
sI16
(dp231
sI17
(dp232
sI18
(dp233
sI19
(dp234
sI20
(dp235
sI21
(dp236
sI22
(dp237
sI23
(dp238
sI24
(dp239
sI25
(dp240
sI26
(dp241
sI27
(dp242
sI28
(dp243
sI29
(dp244
sI30
(dp245
sI31
(dp246
sI32
(dp247
sI33
(dp248
sI34
(dp249
sI35
(dp250
sI36
(dp251
sI37
(dp252
sI38
(dp253
sI39
(dp254
sI40
(dp255
sI41
(dp256
sI42
(dp257
sI43
(dp258
sI44
(dp259
sI45
(dp260
sI46
(dp261
sI47
(dp262
sI48
(dp263
sI49
(dp264
sI50
(dp265
sI51
(dp266
sI52
(dp267
sI53
(dp268
sI54
(dp269
sI55
(dp270
sI56
(dp271
sI57
(dp272
sI58
(dp273
sI59
(dp274
sI60
(dp275
sI61
(dp276
sI62
(dp277
sI63
(dp278
sI64
(dp279
sI65
(dp280
sI66
(dp281
sI67
(dp282
sI68
(dp283
sI69
(dp284
sI70
(dp285
sI71
(dp286
sI72
(dp287
sI73
(dp288
sI74
(dp289
sI75
(dp290
sI76
(dp291
sI77
(dp292
sI78
(dp293
sI79
(dp294
sI80
(dp295
sI81
(dp296
sI82
(dp297
sI83
(dp298
sI84
(dp299
sI85
(dp300
sI86
(dp301
sI87
(dp302
sI88
(dp303
sI89
(dp304
sI90
(dp305
sI91
(dp306
sI92
(dp307
sI93
(dp308
sI94
(dp309
sI95
(dp310
sI96
(dp311
sI97
(dp312
sI98
(dp313
sI99
(dp314
sI100
(dp315
sI101
(dp316
sI102
(dp317
sI103
(dp318
sI104
(dp319
sI105
(dp320
sI106
(dp321
sI107
(dp322
sI108
(dp323
sI109
(dp324
sI110
(dp325
sI111
(dp326
sI112
(dp327
sI113
(dp328
sI114
(dp329
sI115
(dp330
sI116
(dp331
sI117
(dp332
sI118
(dp333
sI119
(dp334
sI120
(dp335
sI121
(dp336
sI122
(dp337
sI123
(dp338
sI124
(dp339
sI125
(dp340
sI126
(dp341
sI127
(dp342
sI128
(dp343
sI129
(dp344
sI130
(dp345
sI131
(dp346
sI132
(dp347
sI133
(dp348
sI134
(dp349
sI135
(dp350
sI136
(dp351
sI137
(dp352
sI138
(dp353
sI139
(dp354
sI140
(dp355
sI141
(dp356
sI142
(dp357
sI143
(dp358
sI144
(dp359
sI145
(dp360
sI146
(dp361
sI147
(dp362
sI148
(dp363
sI149
(dp364
sI150
(dp365
sI151
(dp366
sI152
(dp367
sI153
(dp368
sI154
(dp369
sI155
(dp370
sI156
(dp371
sI157
(dp372
sI158
(dp373
sI159
(dp374
sI160
(dp375
sI161
(dp376
sI162
(dp377
sI163
(dp378
sI164
(dp379
sI165
(dp380
sI166
(dp381
sI167
(dp382
sI168
(dp383
sI169
(dp384
sI170
(dp385
sI171
(dp386
sI172
(dp387
sI173
(dp388
sI174
(dp389
sI175
(dp390
sI176
(dp391
sI177
(dp392
sI178
(dp393
sI179
(dp394
sI180
(dp395
sI181
(dp396
sI182
(dp397
sI183
(dp398
sI184
(dp399
sI185
(dp400
sI186
(dp401
sI187
(dp402
sI188
(dp403
sI189
(dp404
sI190
(dp405
sI191
(dp406
sI192
(dp407
sI193
(dp408
sI194
(dp409
sI195
(dp410
sI196
(dp411
sI197
(dp412
sI198
(dp413
sI199
(dp414
ssS'graph'
p415
(dp416
sS'adjlist_dict_factory'
p417
g211
sS'adj'
p418
g214
sb.