ccopy_reg
_reconstructor
p0
(cnetworkx.classes.graph
Graph
p1
c__builtin__
object
p2
Ntp3
Rp4
(dp5
S'node'
p6
(dp7
I0
(dp8
S'pos_x'
p9
F0.5043292601533337
sS'pos_y'
p10
F0.30605293341236006
ssI1
(dp11
g9
F0.4709900473676196
sg10
F0.0997334279513773
ssI2
(dp12
g9
F0.10792897356939568
sg10
F0.9986918107802534
ssI3
(dp13
g9
F0.5370617700426178
sg10
F0.10572444909097778
ssI4
(dp14
g9
F0.39089342427885676
sg10
F0.20533765432084783
ssI5
(dp15
g9
F0.2328279739656598
sg10
F0.9160638276051749
ssI6
(dp16
g9
F0.01934736570184703
sg10
F0.09347088909383794
ssI7
(dp17
g9
F0.4456361172133302
sg10
F0.08199324966659705
ssI8
(dp18
g9
F0.38122205562785616
sg10
F0.5084897705686106
ssI9
(dp19
g9
F0.8792625483776676
sg10
F0.6719432787496507
ssI10
(dp20
g9
F0.8456324607960569
sg10
F0.15724165270983848
ssI11
(dp21
g9
F0.11920885357614952
sg10
F0.8573046418083647
ssI12
(dp22
g9
F0.7777987309612926
sg10
F0.5173825555397936
ssI13
(dp23
g9
F0.04477061735276122
sg10
F0.8548325548899547
ssI14
(dp24
g9
F0.4395183698365267
sg10
F0.7353940159506273
ssI15
(dp25
g9
F0.2487989577667562
sg10
F0.07388327768643421
ssI16
(dp26
g9
F0.06710492768956444
sg10
F0.20494759407244834
ssI17
(dp27
g9
F0.9532203197338691
sg10
F0.2598913724300477
ssI18
(dp28
g9
F0.16818532204476933
sg10
F0.32780815118789697
ssI19
(dp29
g9
F0.3178828288561554
sg10
F0.9206037869168076
ssI20
(dp30
g9
F0.5961978909516701
sg10
F0.4281757443486246
ssI21
(dp31
g9
F0.6487761180463394
sg10
F0.16154366529787378
ssI22
(dp32
g9
F0.2700782415112597
sg10
F0.18788589396458244
ssI23
(dp33
g9
F0.10065957778907986
sg10
F0.1282226556096191
ssI24
(dp34
g9
F0.37359609137746486
sg10
F0.8830242870220129
ssI25
(dp35
g9
F0.25778972500054753
sg10
F0.3575900234901197
ssI26
(dp36
g9
F0.12539351440983348
sg10
F0.27066262843775246
ssI27
(dp37
g9
F0.14117974191299987
sg10
F0.6112736650901144
ssI28
(dp38
g9
F0.5595627306075412
sg10
F0.6248814552243747
ssI29
(dp39
g9
F0.9060149158400269
sg10
F0.8225611016278074
ssI30
(dp40
g9
F0.48920994457314526
sg10
F0.2051801975804104
ssI31
(dp41
g9
F0.6026797441718287
sg10
F0.7918104278371604
ssI32
(dp42
g9
F0.46392130689311384
sg10
F0.18405049162666198
ssI33
(dp43
g9
F0.3285524977335491
sg10
F0.4081296053118666
ssI34
(dp44
g9
F0.6398398181376844
sg10
F0.3483997895745071
ssI35
(dp45
g9
F0.8701594879294319
sg10
F0.7938874808320939
ssI36
(dp46
g9
F0.7243192689416725
sg10
F0.5049549297479152
ssI37
(dp47
g9
F0.8924631421795935
sg10
F0.9860007993088927
ssI38
(dp48
g9
F0.7143440162690099
sg10
F0.8329584825523395
ssI39
(dp49
g9
F0.5637209692450552
sg10
F0.7831251894670328
ssI40
(dp50
g9
F0.8245686162952491
sg10
F0.13340657370124565
ssI41
(dp51
g9
F0.7062410825751341
sg10
F0.5500864103606942
ssI42
(dp52
g9
F0.5812821453327982
sg10
F0.734320569172938
ssI43
(dp53
g9
F0.6218098122738743
sg10
F0.9662945401492911
ssI44
(dp54
g9
F0.8380647032495162
sg10
F0.7463890494815476
ssI45
(dp55
g9
F0.1669459311963154
sg10
F0.5213784847343779
ssI46
(dp56
g9
F0.9798416114664272
sg10
F0.6969412246052136
ssI47
(dp57
g9
F0.5619095125094489
sg10
F0.797586268700533
ssI48
(dp58
g9
F0.11668220616865577
sg10
F0.921201290089409
ssI49
(dp59
g9
F0.5895634179816659
sg10
F0.011302429753983323
ssI50
(dp60
g9
F0.5132384490527782
sg10
F0.2726288103335036
ssI51
(dp61
g9
F0.5285615098344313
sg10
F0.7111091733049544
ssI52
(dp62
g9
F0.46104195676818494
sg10
F0.8670334891017557
ssI53
(dp63
g9
F0.26607469892082725
sg10
F0.43083730661859687
ssI54
(dp64
g9
F0.3147792440190802
sg10
F0.5477638858336339
ssI55
(dp65
g9
F0.8810128972742227
sg10
F0.15306869245543664
ssI56
(dp66
g9
F0.5122712997870512
sg10
F0.5844135081419201
ssI57
(dp67
g9
F0.3193800872677057
sg10
F0.17876968901409662
ssI58
(dp68
g9
F0.7949229676949754
sg10
F0.30100718694655826
ssI59
(dp69
g9
F0.11565645031516558
sg10
F0.8423264121758904
ssI60
(dp70
g9
F0.12337032573754925
sg10
F0.7787998761297883
ssI61
(dp71
g9
F0.9577251600865619
sg10
F0.9138314867619766
ssI62
(dp72
g9
F0.8867700539337569
sg10
F0.4803219494897679
ssI63
(dp73
g9
F0.7874902488347328
sg10
F0.5832125111520045
ssI64
(dp74
g9
F0.3335692422394634
sg10
F0.6310139800384272
ssI65
(dp75
g9
F0.8572528920020689
sg10
F0.7278684826174365
ssI66
(dp76
g9
F0.8780006627124015
sg10
F0.9889290377881949
ssI67
(dp77
g9
F0.909674708731345
sg10
F0.7307789919161013
ssI68
(dp78
g9
F0.13740172400046602
sg10
F0.7417897443189848
ssI69
(dp79
g9
F0.0926575803785551
sg10
F0.7741056455204154
ssI70
(dp80
g9
F0.2616958381567066
sg10
F0.7030888647689453
ssI71
(dp81
g9
F0.5101329399003375
sg10
F0.27404987053733154
ssI72
(dp82
g9
F0.7472650554916473
sg10
F0.938448122021524
ssI73
(dp83
g9
F0.019875479272812524
sg10
F0.8144249567992774
ssI74
(dp84
g9
F0.5671048564886209
sg10
F0.0554484237956715
ssI75
(dp85
g9
F0.04482091093509477
sg10
F0.6363947264814109
ssI76
(dp86
g9
F0.35234122502641163
sg10
F0.7490295167120042
ssI77
(dp87
g9
F0.7145608465530412
sg10
F0.2332813959045783
ssI78
(dp88
g9
F0.5889438838100848
sg10
F0.7215144145662454
ssI79
(dp89
g9
F0.9869858894303576
sg10
F0.3637234365229366
ssI80
(dp90
g9
F0.7027834140103327
sg10
F0.8830315433930876
ssI81
(dp91
g9
F0.3581366424577018
sg10
F0.8673992033472052
ssI82
(dp92
g9
F0.2756651990544301
sg10
F0.9070781288211649
ssI83
(dp93
g9
F0.11218656034115937
sg10
F0.09275427107162504
ssI84
(dp94
g9
F0.430691659062577
sg10
F0.5403856551556602
ssI85
(dp95
g9
F0.48718478379628105
sg10
F0.5157091959755586
ssI86
(dp96
g9
F0.1461377485376648
sg10
F0.8980221609812173
ssI87
(dp97
g9
F0.3434170010446117
sg10
F0.7871856790488507
ssI88
(dp98
g9
F0.8785793673408065
sg10
F0.29469222552133556
ssI89
(dp99
g9
F0.2781521578049133
sg10
F0.80486620094951
ssI90
(dp100
g9
F0.4605861235959764
sg10
F0.3874280072750924
ssI91
(dp101
g9
F0.23926565901507701
sg10
F0.7839270173887057
ssI92
(dp102
g9
F0.8617262106341294
sg10
F0.2778639529437186
ssI93
(dp103
g9
F0.07294060952221604
sg10
F0.8229844045115674
ssI94
(dp104
g9
F0.39256404413132684
sg10
F0.2242362417108159
ssI95
(dp105
g9
F0.10423616963720694
sg10
F0.2986548644993864
ssI96
(dp106
g9
F0.8186460708935717
sg10
F0.984756666972748
ssI97
(dp107
g9
F0.6020260569523417
sg10
F0.09189038454274057
ssI98
(dp108
g9
F0.8038010507002621
sg10
F0.6819945750761273
ssI99
(dp109
g9
F0.7457327547993668
sg10
F0.2268970237595117
ssI100
(dp110
g9
F0.2543053066674028
sg10
F0.6998120217280412
ssI101
(dp111
g9
F0.7000858754735603
sg10
F0.8948936367169642
ssI102
(dp112
g9
F0.13448006049184336
sg10
F0.06022884834434428
ssI103
(dp113
g9
F0.2582862490079485
sg10
F0.46589107160209675
ssI104
(dp114
g9
F0.10925296349025249
sg10
F0.7451616642701764
ssI105
(dp115
g9
F0.18176427701224152
sg10
F0.6801251292473444
ssI106
(dp116
g9
F0.7563758386619233
sg10
F0.3303153673722432
ssI107
(dp117
g9
F0.02300181921725797
sg10
F0.4110236807414812
ssI108
(dp118
g9
F0.9676219844593432
sg10
F0.6498198757799558
ssI109
(dp119
g9
F0.5064577025438418
sg10
F0.724392642955778
ssI110
(dp120
g9
F0.7187857038076331
sg10
F0.9522237375141851
ssI111
(dp121
g9
F0.49746244889353886
sg10
F0.7628685517459909
ssI112
(dp122
g9
F0.15195365408298867
sg10
F0.6091122191099567
ssI113
(dp123
g9
F0.16546628582107703
sg10
F0.41985338211592094
ssI114
(dp124
g9
F0.4242596127788163
sg10
F0.13897036453194012
ssI115
(dp125
g9
F0.9076579760346446
sg10
F0.451048997105049
ssI116
(dp126
g9
F0.3233258730932538
sg10
F0.4342173437708411
ssI117
(dp127
g9
F0.5723501629766611
sg10
F0.27284806713294585
ssI118
(dp128
g9
F0.040919931594265546
sg10
F0.9308656371543594
ssI119
(dp129
g9
F0.5534685867560497
sg10
F0.1715275160222125
ssI120
(dp130
g9
F0.9366107730220232
sg10
F0.7348414172340223
ssI121
(dp131
g9
F0.07555099631872653
sg10
F0.4061285928844597
ssI122
(dp132
g9
F0.15040296095736616
sg10
F0.1641598655324198
ssI123
(dp133
g9
F0.8379611840542567
sg10
F0.09612320724612444
ssI124
(dp134
g9
F0.6693391631904576
sg10
F0.6144339556495781
ssI125
(dp135
g9
F0.7911357421658559
sg10
F0.40204192009600137
ssI126
(dp136
g9
F0.8156498113500494
sg10
F0.015113238748412638
ssI127
(dp137
g9
F0.0038190349541689095
sg10
F0.0801760954599049
ssI128
(dp138
g9
F0.8777882045302811
sg10
F0.04262298177876922
ssI129
(dp139
g9
F0.9725447717760413
sg10
F0.20805473113344297
ssI130
(dp140
g9
F0.373050289274369
sg10
F0.6226483797337421
ssI131
(dp141
g9
F0.3796642492904251
sg10
F0.5617894772309989
ssI132
(dp142
g9
F0.6333596235089232
sg10
F0.5349046881971818
ssI133
(dp143
g9
F0.33325181067044574
sg10
F0.403640747868798
ssI134
(dp144
g9
F0.7184196434735641
sg10
F0.353941249091155
ssI135
(dp145
g9
F0.19139014122144204
sg10
F0.7993782731388196
ssI136
(dp146
g9
F0.2263634639506974
sg10
F0.03898153341784982
ssI137
(dp147
g9
F0.9348791259078744
sg10
F0.8761135526368262
ssI138
(dp148
g9
F0.8596075801494422
sg10
F0.07745258443794711
ssI139
(dp149
g9
F0.6207761926301516
sg10
F0.2066668751247469
ssI140
(dp150
g9
F0.3116644989757744
sg10
F0.04266954105986265
ssI141
(dp151
g9
F0.8159995973248667
sg10
F0.1374841603869622
ssI142
(dp152
g9
F0.3293027727819874
sg10
F0.18815876609204552
ssI143
(dp153
g9
F0.009459731074802469
sg10
F0.996585229939411
ssI144
(dp154
g9
F0.8781991699150686
sg10
F0.4013573202288706
ssI145
(dp155
g9
F0.08324796506272003
sg10
F0.8707976796068617
ssI146
(dp156
g9
F0.5660894968423723
sg10
F0.07709854297572816
ssI147
(dp157
g9
F0.2660395331148586
sg10
F0.2817238553748257
ssI148
(dp158
g9
F0.6542565297243302
sg10
F0.08397238976090038
ssI149
(dp159
g9
F0.15785732730562707
sg10
F0.47585999138104385
ssI150
(dp160
g9
F0.31906997777447244
sg10
F0.9452145195188943
ssI151
(dp161
g9
F0.08063768585645759
sg10
F0.6123946786098065
ssI152
(dp162
g9
F0.314237878766607
sg10
F0.8067505364361752
ssI153
(dp163
g9
F0.23256607125284745
sg10
F0.7599067062649211
ssI154
(dp164
g9
F0.40331764005459037
sg10
F0.3775026815170427
ssI155
(dp165
g9
F0.5800737066435557
sg10
F0.31694174511297146
ssI156
(dp166
g9
F0.9902727741801816
sg10
F0.1071899116515086
ssI157
(dp167
g9
F0.8446430569650342
sg10
F0.16942418109065294
ssI158
(dp168
g9
F0.06908530572196203
sg10
F0.44877920307763663
ssI159
(dp169
g9
F0.46354792786930377
sg10
F0.6630987637808174
ssI160
(dp170
g9
F0.5641779524322106
sg10
F0.7463825551234159
ssI161
(dp171
g9
F0.016123873662941657
sg10
F0.7404359717458737
ssI162
(dp172
g9
F0.7679566084401008
sg10
F0.1873123594433641
ssI163
(dp173
g9
F0.7904353335038632
sg10
F0.56026579398662
ssI164
(dp174
g9
F0.9279851893209924
sg10
F0.9565569674307446
ssI165
(dp175
g9
F0.6401571424032202
sg10
F0.46072385038276564
ssI166
(dp176
g9
F0.17730070278038457
sg10
F0.6049980964686403
ssI167
(dp177
g9
F0.7749422578810448
sg10
F0.3395659562748543
ssI168
(dp178
g9
F0.13127309405736964
sg10
F0.9724951602008169
ssI169
(dp179
g9
F0.42544057126190815
sg10
F0.8244469347333838
ssI170
(dp180
g9
F0.8556065013464439
sg10
F0.8460420601948047
ssI171
(dp181
g9
F0.056041755735022236
sg10
F0.33764274413388384
ssI172
(dp182
g9
F0.8474091495465695
sg10
F0.02763683663982852
ssI173
(dp183
g9
F0.382328781086964
sg10
F0.9297726769717931
ssI174
(dp184
g9
F0.26355618306254713
sg10
F0.8086977530409807
ssI175
(dp185
g9
F0.13537132677205577
sg10
F0.6889297741812628
ssI176
(dp186
g9
F0.6376036222493285
sg10
F0.05710855559874495
ssI177
(dp187
g9
F0.5378540553779217
sg10
F0.7537234226476633
ssI178
(dp188
g9
F0.16952716245241473
sg10
F0.7300071103967407
ssI179
(dp189
g9
F0.13679617067581407
sg10
F0.5709673029883563
ssI180
(dp190
g9
F0.6677218447832506
sg10
F0.3990789062723047
ssI181
(dp191
g9
F0.4494509551781769
sg10
F0.49836458606942846
ssI182
(dp192
g9
F0.6722031021526998
sg10
F0.43879288312067166
ssI183
(dp193
g9
F0.2102453549520933
sg10
F0.761850208511439
ssI184
(dp194
g9
F0.5505637614076659
sg10
F0.8453288845309743
ssI185
(dp195
g9
F0.535733958640921
sg10
F0.36738971534835163
ssI186
(dp196
g9
F0.43436748503722644
sg10
F0.37481578307183483
ssI187
(dp197
g9
F0.16754425549063667
sg10
F0.35975423991232724
ssI188
(dp198
g9
F0.22263501490365611
sg10
F0.681190711807359
ssI189
(dp199
g9
F0.4860381127636034
sg10
F0.31193834093056394
ssI190
(dp200
g9
F0.7845594406193602
sg10
F0.42529179469883893
ssI191
(dp201
g9
F0.30255129793665636
sg10
F0.6244133506127502
ssI192
(dp202
g9
F0.9376541680476074
sg10
F0.6110397617006044
ssI193
(dp203
g9
F0.9640238415876904
sg10
F0.633680915937187
ssI194
(dp204
g9
F0.7096197031538694
sg10
F0.5780908836375075
ssI195
(dp205
g9
F0.18367435237591345
sg10
F0.20556770631969146
ssI196
(dp206
g9
F0.22914372544738115
sg10
F0.14612217984255604
ssI197
(dp207
g9
F0.026647254960134092
sg10
F0.27178715733208814
ssI198
(dp208
g9
F0.45987945231958693
sg10
F0.28774534923109407
ssI199
(dp209
g9
F0.43414968011117705
sg10
F0.9660928891876291
sssS'node_dict_factory'
p210
c__builtin__
dict
p211
sS'edge_attr_dict_factory'
p212
g211
sS'edge'
p213
(dp214
I0
(dp215
sI1
(dp216
sI2
(dp217
sI3
(dp218
sI4
(dp219
sI5
(dp220
sI6
(dp221
sI7
(dp222
sI8
(dp223
sI9
(dp224
sI10
(dp225
sI11
(dp226
sI12
(dp227
sI13
(dp228
sI14
(dp229
sI15
(dp230
sI16
(dp231
sI17
(dp232
sI18
(dp233
sI19
(dp234
sI20
(dp235
sI21
(dp236
sI22
(dp237
sI23
(dp238
sI24
(dp239
sI25
(dp240
sI26
(dp241
sI27
(dp242
sI28
(dp243
sI29
(dp244
sI30
(dp245
sI31
(dp246
sI32
(dp247
sI33
(dp248
sI34
(dp249
sI35
(dp250
sI36
(dp251
sI37
(dp252
sI38
(dp253
sI39
(dp254
sI40
(dp255
sI41
(dp256
sI42
(dp257
sI43
(dp258
sI44
(dp259
sI45
(dp260
sI46
(dp261
sI47
(dp262
sI48
(dp263
sI49
(dp264
sI50
(dp265
sI51
(dp266
sI52
(dp267
sI53
(dp268
sI54
(dp269
sI55
(dp270
sI56
(dp271
sI57
(dp272
sI58
(dp273
sI59
(dp274
sI60
(dp275
sI61
(dp276
sI62
(dp277
sI63
(dp278
sI64
(dp279
sI65
(dp280
sI66
(dp281
sI67
(dp282
sI68
(dp283
sI69
(dp284
sI70
(dp285
sI71
(dp286
sI72
(dp287
sI73
(dp288
sI74
(dp289
sI75
(dp290
sI76
(dp291
sI77
(dp292
sI78
(dp293
sI79
(dp294
sI80
(dp295
sI81
(dp296
sI82
(dp297
sI83
(dp298
sI84
(dp299
sI85
(dp300
sI86
(dp301
sI87
(dp302
sI88
(dp303
sI89
(dp304
sI90
(dp305
sI91
(dp306
sI92
(dp307
sI93
(dp308
sI94
(dp309
sI95
(dp310
sI96
(dp311
sI97
(dp312
sI98
(dp313
sI99
(dp314
sI100
(dp315
sI101
(dp316
sI102
(dp317
sI103
(dp318
sI104
(dp319
sI105
(dp320
sI106
(dp321
sI107
(dp322
sI108
(dp323
sI109
(dp324
sI110
(dp325
sI111
(dp326
sI112
(dp327
sI113
(dp328
sI114
(dp329
sI115
(dp330
sI116
(dp331
sI117
(dp332
sI118
(dp333
sI119
(dp334
sI120
(dp335
sI121
(dp336
sI122
(dp337
sI123
(dp338
sI124
(dp339
sI125
(dp340
sI126
(dp341
sI127
(dp342
sI128
(dp343
sI129
(dp344
sI130
(dp345
sI131
(dp346
sI132
(dp347
sI133
(dp348
sI134
(dp349
sI135
(dp350
sI136
(dp351
sI137
(dp352
sI138
(dp353
sI139
(dp354
sI140
(dp355
sI141
(dp356
sI142
(dp357
sI143
(dp358
sI144
(dp359
sI145
(dp360
sI146
(dp361
sI147
(dp362
sI148
(dp363
sI149
(dp364
sI150
(dp365
sI151
(dp366
sI152
(dp367
sI153
(dp368
sI154
(dp369
sI155
(dp370
sI156
(dp371
sI157
(dp372
sI158
(dp373
sI159
(dp374
sI160
(dp375
sI161
(dp376
sI162
(dp377
sI163
(dp378
sI164
(dp379
sI165
(dp380
sI166
(dp381
sI167
(dp382
sI168
(dp383
sI169
(dp384
sI170
(dp385
sI171
(dp386
sI172
(dp387
sI173
(dp388
sI174
(dp389
sI175
(dp390
sI176
(dp391
sI177
(dp392
sI178
(dp393
sI179
(dp394
sI180
(dp395
sI181
(dp396
sI182
(dp397
sI183
(dp398
sI184
(dp399
sI185
(dp400
sI186
(dp401
sI187
(dp402
sI188
(dp403
sI189
(dp404
sI190
(dp405
sI191
(dp406
sI192
(dp407
sI193
(dp408
sI194
(dp409
sI195
(dp410
sI196
(dp411
sI197
(dp412
sI198
(dp413
sI199
(dp414
ssS'graph'
p415
(dp416
sS'adjlist_dict_factory'
p417
g211
sS'adj'
p418
g214
sb.