ccopy_reg
_reconstructor
p0
(cnetworkx.classes.graph
Graph
p1
c__builtin__
object
p2
Ntp3
Rp4
(dp5
S'node'
p6
(dp7
I0
(dp8
S'pos_x'
p9
F0.7135240894796296
sS'pos_y'
p10
F0.12162265622585322
ssI1
(dp11
g9
F0.17108056419027573
sg10
F0.026881499510341134
ssI2
(dp12
g9
F0.5492627089746613
sg10
F0.7655986889881461
ssI3
(dp13
g9
F0.547449818441527
sg10
F0.8661650311480936
ssI4
(dp14
g9
F0.9155403474071481
sg10
F0.7844050889057461
ssI5
(dp15
g9
F0.4812076486969119
sg10
F0.8253384905648002
ssI6
(dp16
g9
F0.06393628020970565
sg10
F0.10281935594281133
ssI7
(dp17
g9
F0.4565097309945375
sg10
F0.4774522763267598
ssI8
(dp18
g9
F0.16230145123991013
sg10
F0.5612802182237016
ssI9
(dp19
g9
F0.6235981618348264
sg10
F0.572641489584442
ssI10
(dp20
g9
F0.9503992721815874
sg10
F0.046845861318295046
ssI11
(dp21
g9
F0.22828160371290296
sg10
F0.9859072487362289
ssI12
(dp22
g9
F0.9297974772206651
sg10
F0.8082883437830383
ssI13
(dp23
g9
F0.6332474259817222
sg10
F0.5691133432279482
ssI14
(dp24
g9
F0.90943104131636
sg10
F0.9897564662541728
ssI15
(dp25
g9
F0.5172256442812343
sg10
F0.43059409157768447
ssI16
(dp26
g9
F0.6110048121564696
sg10
F0.8040872356671362
ssI17
(dp27
g9
F0.5823302959666554
sg10
F0.4471814822123559
ssI18
(dp28
g9
F0.5591098800689476
sg10
F0.5096861417074242
ssI19
(dp29
g9
F0.8083061239618622
sg10
F0.5727827832191604
ssI20
(dp30
g9
F0.44400026203412335
sg10
F0.7622063698815706
ssI21
(dp31
g9
F0.6460692401583652
sg10
F0.07816779891678183
ssI22
(dp32
g9
F0.908739066184164
sg10
F0.7372209687847926
ssI23
(dp33
g9
F0.7861661554434162
sg10
F0.7510330716310407
ssI24
(dp34
g9
F0.5242989426676175
sg10
F0.03371860266364024
ssI25
(dp35
g9
F0.3345122841248944
sg10
F0.02212418405290062
ssI26
(dp36
g9
F0.5619588557632206
sg10
F0.5209282253976057
ssI27
(dp37
g9
F0.837043077736601
sg10
F0.6630795180619516
ssI28
(dp38
g9
F0.555305160941441
sg10
F0.3812730771778864
ssI29
(dp39
g9
F0.70041196684012
sg10
F0.14987967256284074
ssI30
(dp40
g9
F0.714341096049801
sg10
F0.6973797060195533
ssI31
(dp41
g9
F0.8098706355453218
sg10
F0.4986515102938992
ssI32
(dp42
g9
F0.821671058687319
sg10
F0.6474644763871183
ssI33
(dp43
g9
F0.7894387534781868
sg10
F0.2138175646908771
ssI34
(dp44
g9
F0.32895499401330264
sg10
F0.040853774828457756
ssI35
(dp45
g9
F0.14365698154324524
sg10
F0.6683294240945225
ssI36
(dp46
g9
F0.972769701836138
sg10
F0.7874018851486012
ssI37
(dp47
g9
F0.7973299089957441
sg10
F0.17735540412700923
ssI38
(dp48
g9
F0.09549712683015044
sg10
F0.007553959557419443
ssI39
(dp49
g9
F0.6056137005604665
sg10
F0.35382416302036823
ssI40
(dp50
g9
F0.2846505456376225
sg10
F0.48870095813175707
ssI41
(dp51
g9
F0.3558845771662533
sg10
F0.781147331825712
ssI42
(dp52
g9
F0.7568843570502479
sg10
F0.3800618162128875
ssI43
(dp53
g9
F0.6319197619458197
sg10
F0.9089885534858929
ssI44
(dp54
g9
F0.8911702510228914
sg10
F0.02906056282147529
ssI45
(dp55
g9
F0.8726671079038592
sg10
F0.6543891794941488
ssI46
(dp56
g9
F0.8895737313198103
sg10
F0.2851658672655073
ssI47
(dp57
g9
F0.11874827746818262
sg10
F0.534350802600641
ssI48
(dp58
g9
F0.9084655780994823
sg10
F0.7215858869267123
ssI49
(dp59
g9
F0.19786818122375316
sg10
F0.3052468503588628
ssI50
(dp60
g9
F0.7253850777208408
sg10
F0.622653178768278
ssI51
(dp61
g9
F0.32443855359297447
sg10
F0.8541192097882666
ssI52
(dp62
g9
F0.18344739603700366
sg10
F0.299144989443214
ssI53
(dp63
g9
F0.12467621018147235
sg10
F0.5685617037207867
ssI54
(dp64
g9
F0.6179786084132805
sg10
F0.851701745076757
ssI55
(dp65
g9
F0.9362468721735885
sg10
F0.10876782584604128
ssI56
(dp66
g9
F0.6582302745097922
sg10
F0.8357195811920685
ssI57
(dp67
g9
F0.1320952258708834
sg10
F0.06468191020590452
ssI58
(dp68
g9
F0.07900663121999973
sg10
F0.009659880411982735
ssI59
(dp69
g9
F0.8704381402092373
sg10
F0.7849191428286635
ssI60
(dp70
g9
F0.6708800069350358
sg10
F0.22745694963260565
ssI61
(dp71
g9
F0.3882760337531187
sg10
F0.48202468097489715
ssI62
(dp72
g9
F0.6100276406087831
sg10
F0.21677554418697054
ssI63
(dp73
g9
F0.8283100898111416
sg10
F0.7368452734779959
ssI64
(dp74
g9
F0.10523986904292881
sg10
F0.7981278017019133
ssI65
(dp75
g9
F0.29069143732003955
sg10
F0.061839755511237215
ssI66
(dp76
g9
F0.29389737696569496
sg10
F0.7666050815058072
ssI67
(dp77
g9
F0.3980736280440197
sg10
F0.41951836650632224
ssI68
(dp78
g9
F0.4660562809274016
sg10
F0.5934490844508801
ssI69
(dp79
g9
F0.2547658194479736
sg10
F0.3717042774898711
ssI70
(dp80
g9
F0.6003046778799507
sg10
F0.5333869223929951
ssI71
(dp81
g9
F0.8475807727158923
sg10
F0.6060463315783691
ssI72
(dp82
g9
F0.13376397108860583
sg10
F0.5273176374158105
ssI73
(dp83
g9
F0.13371595147532567
sg10
F0.19682297180622066
ssI74
(dp84
g9
F0.9590526782361761
sg10
F0.8516495369560381
ssI75
(dp85
g9
F0.6842500686644234
sg10
F0.42831148125005536
ssI76
(dp86
g9
F0.7928764168134498
sg10
F0.6801115238936105
ssI77
(dp87
g9
F0.3846131694979299
sg10
F0.2815498352194119
ssI78
(dp88
g9
F0.20689194165048896
sg10
F0.12865736561733332
ssI79
(dp89
g9
F0.08676759585352345
sg10
F0.29394396545753154
ssI80
(dp90
g9
F0.6426299987772778
sg10
F0.37421687016893956
ssI81
(dp91
g9
F0.5328188589367291
sg10
F0.9856614937135889
ssI82
(dp92
g9
F0.24714088340437945
sg10
F0.526966933591523
ssI83
(dp93
g9
F0.39261687369741305
sg10
F0.9567891846222495
ssI84
(dp94
g9
F0.725888879890805
sg10
F0.6473293716924833
ssI85
(dp95
g9
F0.9984174321793264
sg10
F0.6872924171875032
ssI86
(dp96
g9
F0.2568449570572622
sg10
F0.3903997496521744
ssI87
(dp97
g9
F0.46983370192098084
sg10
F0.4841045161254576
ssI88
(dp98
g9
F0.021730617135326313
sg10
F0.46426038169256867
ssI89
(dp99
g9
F0.0956536348026783
sg10
F0.3622020163781401
ssI90
(dp100
g9
F0.2796338909478745
sg10
F0.8061450378403746
ssI91
(dp101
g9
F0.31106804567161306
sg10
F0.05485914676483583
ssI92
(dp102
g9
F0.6809538621754969
sg10
F0.6673683068703989
ssI93
(dp103
g9
F0.42530360113074006
sg10
F0.029191772297772367
ssI94
(dp104
g9
F0.06516482512193855
sg10
F0.47696825780892926
ssI95
(dp105
g9
F0.39328677765954556
sg10
F0.6647921793513126
ssI96
(dp106
g9
F0.4106405121957505
sg10
F0.24976641931251808
ssI97
(dp107
g9
F0.3918304603320478
sg10
F0.6395076295983203
ssI98
(dp108
g9
F0.45307591952024684
sg10
F0.8659241023596617
ssI99
(dp109
g9
F0.017876085306921863
sg10
F0.5341480829280918
ssI100
(dp110
g9
F0.6739768710637806
sg10
F0.43070928713917755
ssI101
(dp111
g9
F0.2334237966040501
sg10
F0.898137712019689
ssI102
(dp112
g9
F0.9643754356585683
sg10
F0.695136818098045
ssI103
(dp113
g9
F0.09450905448174596
sg10
F0.9424845732564345
ssI104
(dp114
g9
F0.34788479452619503
sg10
F0.9097152328685036
ssI105
(dp115
g9
F0.18816789775806897
sg10
F0.3365519513068893
ssI106
(dp116
g9
F0.7302410644709187
sg10
F0.3120076282965155
ssI107
(dp117
g9
F0.5567997369525546
sg10
F0.6681427520612456
ssI108
(dp118
g9
F0.23457745355073722
sg10
F0.9148162444546875
ssI109
(dp119
g9
F0.902708805970268
sg10
F0.11803431528559583
ssI110
(dp120
g9
F0.6298340358458097
sg10
F0.10137559199601742
ssI111
(dp121
g9
F0.3060175880448738
sg10
F0.7807255637931048
ssI112
(dp122
g9
F0.4787026454496348
sg10
F0.9557878168289484
ssI113
(dp123
g9
F0.2720668556957728
sg10
F0.8693774244488741
ssI114
(dp124
g9
F0.2198324609659802
sg10
F0.5297348052731311
ssI115
(dp125
g9
F0.5038839263307244
sg10
F0.9780234207037632
ssI116
(dp126
g9
F0.4453285528873415
sg10
F0.41320414513049
ssI117
(dp127
g9
F0.6981173031358756
sg10
F0.8811557504696872
ssI118
(dp128
g9
F0.8181774146550727
sg10
F0.6644051710949531
ssI119
(dp129
g9
F0.09067639633668423
sg10
F0.024075843317177603
ssI120
(dp130
g9
F0.08153021224164514
sg10
F0.9803273431647563
ssI121
(dp131
g9
F0.105518881852113
sg10
F0.7810599995526154
ssI122
(dp132
g9
F0.929689278218039
sg10
F0.040243019326477336
ssI123
(dp133
g9
F0.5579500335247991
sg10
F0.5667120003414532
ssI124
(dp134
g9
F0.49042310857767557
sg10
F0.9394581845023885
ssI125
(dp135
g9
F0.5142455447846651
sg10
F0.8069617651982739
ssI126
(dp136
g9
F0.5486982400270753
sg10
F0.10780979191957596
ssI127
(dp137
g9
F0.8315338545568048
sg10
F0.20411796393609793
ssI128
(dp138
g9
F0.9251758238973709
sg10
F0.6493800056502614
ssI129
(dp139
g9
F0.5720687264271654
sg10
F0.694511645129572
ssI130
(dp140
g9
F0.9802339214124874
sg10
F0.7718305979138534
ssI131
(dp141
g9
F0.9192544523562245
sg10
F0.5876652922015949
ssI132
(dp142
g9
F0.0993963648870625
sg10
F0.2559734643515469
ssI133
(dp143
g9
F0.6912806951363364
sg10
F0.7415673585613963
ssI134
(dp144
g9
F0.5972050644080464
sg10
F0.14592793406710525
ssI135
(dp145
g9
F0.8970172049899985
sg10
F0.8659085309193956
ssI136
(dp146
g9
F0.5853016532024383
sg10
F0.1517242971288163
ssI137
(dp147
g9
F0.359501180263214
sg10
F0.420641104259592
ssI138
(dp148
g9
F0.7364151988953355
sg10
F0.1390254139562459
ssI139
(dp149
g9
F0.12850800214700142
sg10
F0.5828772658931317
ssI140
(dp150
g9
F0.26744341721815257
sg10
F0.46558179138235956
ssI141
(dp151
g9
F0.3783131148612844
sg10
F0.7252245548428506
ssI142
(dp152
g9
F0.6959731254886188
sg10
F0.12488683487454544
ssI143
(dp153
g9
F0.4749381385596504
sg10
F0.05261096864146442
ssI144
(dp154
g9
F0.7042262183561049
sg10
F0.3366249352315379
ssI145
(dp155
g9
F0.26502637342596247
sg10
F0.8351304817885417
ssI146
(dp156
g9
F0.9355961819693455
sg10
F0.2592925441088767
ssI147
(dp157
g9
F0.7030071904957002
sg10
F0.21510781445677618
ssI148
(dp158
g9
F0.8930034619346345
sg10
F0.7203900150227126
ssI149
(dp159
g9
F0.2547496702290588
sg10
F0.5735226121111714
ssI150
(dp160
g9
F0.787039833566301
sg10
F0.4473712837339031
ssI151
(dp161
g9
F0.6498656439757182
sg10
F0.4430461960119778
ssI152
(dp162
g9
F0.17046403284487321
sg10
F0.2823609405116104
ssI153
(dp163
g9
F0.4660709505688667
sg10
F0.13948138448281888
ssI154
(dp164
g9
F0.2946100470351225
sg10
F0.322649024205823
ssI155
(dp165
g9
F0.18131540653161848
sg10
F0.7902287794335638
ssI156
(dp166
g9
F0.8110201155821781
sg10
F0.22136133617564613
ssI157
(dp167
g9
F0.9840384112325619
sg10
F0.8796594396928571
ssI158
(dp168
g9
F0.11862980407958201
sg10
F0.3441659515499922
ssI159
(dp169
g9
F0.9165984924747909
sg10
F0.2175344243597609
ssI160
(dp170
g9
F0.2012337048847349
sg10
F0.8991800301813431
ssI161
(dp171
g9
F0.3091831086972372
sg10
F0.9189153295359552
ssI162
(dp172
g9
F0.36629053877785434
sg10
F0.0770933521683137
ssI163
(dp173
g9
F0.7882623452481832
sg10
F0.5649513584306818
ssI164
(dp174
g9
F0.1338325306097049
sg10
F0.9061510197118005
ssI165
(dp175
g9
F0.35941335906985017
sg10
F0.680258044731204
ssI166
(dp176
g9
F0.09458258034145983
sg10
F0.04374003365933721
ssI167
(dp177
g9
F0.38193210308627346
sg10
F0.3536900194131217
ssI168
(dp178
g9
F0.25739686329970934
sg10
F0.7252276619901512
ssI169
(dp179
g9
F0.847421173390712
sg10
F0.3547888169420895
ssI170
(dp180
g9
F0.7643651244951134
sg10
F0.36054725080962946
ssI171
(dp181
g9
F0.41820921272852574
sg10
F0.6967060988201931
ssI172
(dp182
g9
F0.7197508701522095
sg10
F0.37281484906816675
ssI173
(dp183
g9
F0.13331191601449677
sg10
F0.5269451424461372
ssI174
(dp184
g9
F0.6531532801077298
sg10
F0.9691333797954723
ssI175
(dp185
g9
F0.4777944807742075
sg10
F0.0254465571473792
ssI176
(dp186
g9
F0.6337759434926737
sg10
F0.08636291880279101
ssI177
(dp187
g9
F0.9797093383553398
sg10
F0.12440066475252176
ssI178
(dp188
g9
F0.5653191499539018
sg10
F0.5978608857011858
ssI179
(dp189
g9
F0.985140366606569
sg10
F0.6226610931581251
ssI180
(dp190
g9
F0.07048869854454998
sg10
F0.5309522030376624
ssI181
(dp191
g9
F0.31924884387944996
sg10
F0.1683586965889602
ssI182
(dp192
g9
F0.44482228593083295
sg10
F0.7970066293447436
ssI183
(dp193
g9
F0.09188991032707772
sg10
F0.8180535557844713
ssI184
(dp194
g9
F0.46764261973059484
sg10
F0.6601702338362399
ssI185
(dp195
g9
F0.6787979684444669
sg10
F0.8636730256700795
ssI186
(dp196
g9
F0.2580303163373847
sg10
F0.8096291578983488
ssI187
(dp197
g9
F0.7745125875110336
sg10
F0.4094305528400153
ssI188
(dp198
g9
F0.9961493896195247
sg10
F0.6242526556927099
ssI189
(dp199
g9
F0.5642483443258561
sg10
F0.7164464460611853
ssI190
(dp200
g9
F0.7681312899057058
sg10
F0.08085304899231205
ssI191
(dp201
g9
F0.7368535172006417
sg10
F0.6201054738547724
ssI192
(dp202
g9
F0.7519199792477581
sg10
F0.3918456654112159
ssI193
(dp203
g9
F0.6174090394949902
sg10
F0.2584334994246824
ssI194
(dp204
g9
F0.2940524833278111
sg10
F0.028585046625190125
ssI195
(dp205
g9
F0.8418272109672822
sg10
F0.774576841267166
ssI196
(dp206
g9
F0.6180647944094878
sg10
F0.25881449809169854
ssI197
(dp207
g9
F0.7005606764506431
sg10
F0.12138046009836478
ssI198
(dp208
g9
F0.4236974287840909
sg10
F0.04788981482146515
ssI199
(dp209
g9
F0.8778280200415911
sg10
F0.6462377203356912
sssS'node_dict_factory'
p210
c__builtin__
dict
p211
sS'edge_attr_dict_factory'
p212
g211
sS'edge'
p213
(dp214
I0
(dp215
sI1
(dp216
sI2
(dp217
sI3
(dp218
sI4
(dp219
sI5
(dp220
sI6
(dp221
sI7
(dp222
sI8
(dp223
sI9
(dp224
sI10
(dp225
sI11
(dp226
sI12
(dp227
sI13
(dp228
sI14
(dp229
sI15
(dp230
sI16
(dp231
sI17
(dp232
sI18
(dp233
sI19
(dp234
sI20
(dp235
sI21
(dp236
sI22
(dp237
sI23
(dp238
sI24
(dp239
sI25
(dp240
sI26
(dp241
sI27
(dp242
sI28
(dp243
sI29
(dp244
sI30
(dp245
sI31
(dp246
sI32
(dp247
sI33
(dp248
sI34
(dp249
sI35
(dp250
sI36
(dp251
sI37
(dp252
sI38
(dp253
sI39
(dp254
sI40
(dp255
sI41
(dp256
sI42
(dp257
sI43
(dp258
sI44
(dp259
sI45
(dp260
sI46
(dp261
sI47
(dp262
sI48
(dp263
sI49
(dp264
sI50
(dp265
sI51
(dp266
sI52
(dp267
sI53
(dp268
sI54
(dp269
sI55
(dp270
sI56
(dp271
sI57
(dp272
sI58
(dp273
sI59
(dp274
sI60
(dp275
sI61
(dp276
sI62
(dp277
sI63
(dp278
sI64
(dp279
sI65
(dp280
sI66
(dp281
sI67
(dp282
sI68
(dp283
sI69
(dp284
sI70
(dp285
sI71
(dp286
sI72
(dp287
sI73
(dp288
sI74
(dp289
sI75
(dp290
sI76
(dp291
sI77
(dp292
sI78
(dp293
sI79
(dp294
sI80
(dp295
sI81
(dp296
sI82
(dp297
sI83
(dp298
sI84
(dp299
sI85
(dp300
sI86
(dp301
sI87
(dp302
sI88
(dp303
sI89
(dp304
sI90
(dp305
sI91
(dp306
sI92
(dp307
sI93
(dp308
sI94
(dp309
sI95
(dp310
sI96
(dp311
sI97
(dp312
sI98
(dp313
sI99
(dp314
sI100
(dp315
sI101
(dp316
sI102
(dp317
sI103
(dp318
sI104
(dp319
sI105
(dp320
sI106
(dp321
sI107
(dp322
sI108
(dp323
sI109
(dp324
sI110
(dp325
sI111
(dp326
sI112
(dp327
sI113
(dp328
sI114
(dp329
sI115
(dp330
sI116
(dp331
sI117
(dp332
sI118
(dp333
sI119
(dp334
sI120
(dp335
sI121
(dp336
sI122
(dp337
sI123
(dp338
sI124
(dp339
sI125
(dp340
sI126
(dp341
sI127
(dp342
sI128
(dp343
sI129
(dp344
sI130
(dp345
sI131
(dp346
sI132
(dp347
sI133
(dp348
sI134
(dp349
sI135
(dp350
sI136
(dp351
sI137
(dp352
sI138
(dp353
sI139
(dp354
sI140
(dp355
sI141
(dp356
sI142
(dp357
sI143
(dp358
sI144
(dp359
sI145
(dp360
sI146
(dp361
sI147
(dp362
sI148
(dp363
sI149
(dp364
sI150
(dp365
sI151
(dp366
sI152
(dp367
sI153
(dp368
sI154
(dp369
sI155
(dp370
sI156
(dp371
sI157
(dp372
sI158
(dp373
sI159
(dp374
sI160
(dp375
sI161
(dp376
sI162
(dp377
sI163
(dp378
sI164
(dp379
sI165
(dp380
sI166
(dp381
sI167
(dp382
sI168
(dp383
sI169
(dp384
sI170
(dp385
sI171
(dp386
sI172
(dp387
sI173
(dp388
sI174
(dp389
sI175
(dp390
sI176
(dp391
sI177
(dp392
sI178
(dp393
sI179
(dp394
sI180
(dp395
sI181
(dp396
sI182
(dp397
sI183
(dp398
sI184
(dp399
sI185
(dp400
sI186
(dp401
sI187
(dp402
sI188
(dp403
sI189
(dp404
sI190
(dp405
sI191
(dp406
sI192
(dp407
sI193
(dp408
sI194
(dp409
sI195
(dp410
sI196
(dp411
sI197
(dp412
sI198
(dp413
sI199
(dp414
ssS'graph'
p415
(dp416
sS'adjlist_dict_factory'
p417
g211
sS'adj'
p418
g214
sb.