ccopy_reg
_reconstructor
p0
(cnetworkx.classes.graph
Graph
p1
c__builtin__
object
p2
Ntp3
Rp4
(dp5
S'node'
p6
(dp7
I0
(dp8
S'pos_x'
p9
F0.36123978549265534
sS'pos_y'
p10
F0.5656450610646119
ssI1
(dp11
g9
F0.9713174563664047
sg10
F0.38794825341919725
ssI2
(dp12
g9
F0.540320667482309
sg10
F0.8193488258600221
ssI3
(dp13
g9
F0.14465211695341396
sg10
F0.4462587148734507
ssI4
(dp14
g9
F0.8108005497216303
sg10
F0.6445761809396594
ssI5
(dp15
g9
F0.49078750388937464
sg10
F0.11211298762734356
ssI6
(dp16
g9
F0.8004155590328749
sg10
F0.25985279930897054
ssI7
(dp17
g9
F0.859926901314819
sg10
F0.9024965177306509
ssI8
(dp18
g9
F0.33694726079236104
sg10
F0.7929795768507953
ssI9
(dp19
g9
F0.3311563859726895
sg10
F0.9005833323494437
ssI10
(dp20
g9
F0.8679875424281417
sg10
F0.5821501778530638
ssI11
(dp21
g9
F0.10709385140669148
sg10
F0.13832416811458736
ssI12
(dp22
g9
F0.3872216012186136
sg10
F0.46946012272611715
ssI13
(dp23
g9
F0.20144859143920124
sg10
F0.7316746664195894
ssI14
(dp24
g9
F0.44872655246500426
sg10
F0.4201553177201601
ssI15
(dp25
g9
F0.8679026617204498
sg10
F0.28407348108879216
ssI16
(dp26
g9
F0.20932967569273453
sg10
F0.7895425550485948
ssI17
(dp27
g9
F0.20793847851930192
sg10
F0.8689676241913868
ssI18
(dp28
g9
F0.6777398735873893
sg10
F0.6626195580214431
ssI19
(dp29
g9
F0.2991736253976761
sg10
F0.5041364896843884
ssI20
(dp30
g9
F0.6226787483643281
sg10
F0.8390764633566044
ssI21
(dp31
g9
F0.4873825961591972
sg10
F0.7177209152562514
ssI22
(dp32
g9
F0.3589690814052282
sg10
F0.4628113453147945
ssI23
(dp33
g9
F0.6397526977772778
sg10
F0.156360011461662
ssI24
(dp34
g9
F0.9908399048192087
sg10
F0.23793332225690766
ssI25
(dp35
g9
F0.4240447860963117
sg10
F0.7973600116652617
ssI26
(dp36
g9
F0.23459833631589766
sg10
F0.1903815128088845
ssI27
(dp37
g9
F0.09019492457041933
sg10
F0.16435554297901223
ssI28
(dp38
g9
F0.2664497957958485
sg10
F0.10709203880427753
ssI29
(dp39
g9
F0.6817715494155627
sg10
F0.5704487592738503
ssI30
(dp40
g9
F0.2633222838550019
sg10
F0.3651457740409022
ssI31
(dp41
g9
F0.2733708703553728
sg10
F0.7388916719484729
ssI32
(dp42
g9
F0.5675112687004773
sg10
F0.9192452932646962
ssI33
(dp43
g9
F0.7336216423205814
sg10
F0.956687289904207
ssI34
(dp44
g9
F0.37270849019387897
sg10
F0.5525467506115751
ssI35
(dp45
g9
F0.6556526856846051
sg10
F0.6709921363811178
ssI36
(dp46
g9
F0.750738680216743
sg10
F0.3182918748471828
ssI37
(dp47
g9
F0.8345826059327504
sg10
F0.12460050214434615
ssI38
(dp48
g9
F0.6206054158873339
sg10
F0.9080125522260054
ssI39
(dp49
g9
F0.34003167851243643
sg10
F0.8959610864850447
ssI40
(dp50
g9
F0.0273656705742803
sg10
F0.9849977134118868
ssI41
(dp51
g9
F0.9232794640272489
sg10
F0.18508179615779907
ssI42
(dp52
g9
F0.9575550403316565
sg10
F0.26051095126193613
ssI43
(dp53
g9
F0.7424804668595053
sg10
F0.9397171671721966
ssI44
(dp54
g9
F0.9511847422114713
sg10
F0.9085191757398184
ssI45
(dp55
g9
F0.3838884356633435
sg10
F0.9387151908090495
ssI46
(dp56
g9
F0.6808648341966546
sg10
F0.5521817966875742
ssI47
(dp57
g9
F0.10689003185542834
sg10
F0.5588199860995602
ssI48
(dp58
g9
F0.03900177381753567
sg10
F0.47168397922890426
ssI49
(dp59
g9
F0.4661621329606538
sg10
F0.6573117800047057
ssI50
(dp60
g9
F0.3624261180448738
sg10
F0.4418859503115191
ssI51
(dp61
g9
F0.2882948018751106
sg10
F0.011447482800131525
ssI52
(dp62
g9
F0.34493591589064476
sg10
F0.35694466070406883
ssI53
(dp63
g9
F0.5184511390937647
sg10
F0.581198561185896
ssI54
(dp64
g9
F0.6431652201208146
sg10
F0.570045477885064
ssI55
(dp65
g9
F0.25180503536286236
sg10
F0.4575064563053248
ssI56
(dp66
g9
F0.7203433573346752
sg10
F0.2649340610745783
ssI57
(dp67
g9
F0.8434842711167204
sg10
F0.9087632239389787
ssI58
(dp68
g9
F0.25498908140169785
sg10
F0.5192865140852366
ssI59
(dp69
g9
F0.4976690183338882
sg10
F0.2942010243907972
ssI60
(dp70
g9
F0.48846862949716463
sg10
F0.39438183345070976
ssI61
(dp71
g9
F0.5305037261694446
sg10
F0.12165649459136318
ssI62
(dp72
g9
F0.06985180407301106
sg10
F0.371601463136061
ssI63
(dp73
g9
F0.18556804952410388
sg10
F0.01881641264295575
ssI64
(dp74
g9
F0.22960195452557286
sg10
F0.5674605400781969
ssI65
(dp75
g9
F0.5149955408114343
sg10
F0.10809085309594058
ssI66
(dp76
g9
F0.47789594658372303
sg10
F0.17559256168142823
ssI67
(dp77
g9
F0.7181141569368301
sg10
F0.8192564966351965
ssI68
(dp78
g9
F0.5457159450149066
sg10
F0.7771290396101368
ssI69
(dp79
g9
F0.7841348606509017
sg10
F0.9117049561728242
ssI70
(dp80
g9
F0.8946058305264425
sg10
F0.2817718832929562
ssI71
(dp81
g9
F0.26861435734713457
sg10
F0.4903151224481037
ssI72
(dp82
g9
F0.6471312018172316
sg10
F0.2777096938232655
ssI73
(dp83
g9
F0.8659046481522772
sg10
F0.7567140921884761
ssI74
(dp84
g9
F0.08692971176397979
sg10
F0.27335389541974087
ssI75
(dp85
g9
F0.7251826564872239
sg10
F0.2164837801674725
ssI76
(dp86
g9
F0.5230002500001922
sg10
F0.5069279636310547
ssI77
(dp87
g9
F0.8497943724826518
sg10
F0.2358490373084825
ssI78
(dp88
g9
F0.5161271001433472
sg10
F0.6255916403479513
ssI79
(dp89
g9
F0.5827176410338171
sg10
F0.4830226574382145
ssI80
(dp90
g9
F0.5919034351384984
sg10
F0.8821187965981969
ssI81
(dp91
g9
F0.20854677562894974
sg10
F0.5923788658306783
ssI82
(dp92
g9
F0.9418100396393346
sg10
F0.3807900390351304
ssI83
(dp93
g9
F0.9263689284323091
sg10
F0.18213219687021998
ssI84
(dp94
g9
F0.9146701478865996
sg10
F0.02612514014461742
ssI85
(dp95
g9
F0.9096891487559776
sg10
F0.6748535940686434
ssI86
(dp96
g9
F0.7653739423861612
sg10
F0.8292028428602201
ssI87
(dp97
g9
F0.3310236767544419
sg10
F0.15544384356065688
ssI88
(dp98
g9
F0.5755916116346957
sg10
F0.010978637345846698
ssI89
(dp99
g9
F0.8549442113849746
sg10
F0.49833002579747654
ssI90
(dp100
g9
F0.5857354292591566
sg10
F0.8801015447512053
ssI91
(dp101
g9
F0.7931418008314018
sg10
F0.26028062457987455
ssI92
(dp102
g9
F0.7763086585601927
sg10
F0.7989938398018425
ssI93
(dp103
g9
F0.24181959569170142
sg10
F0.8493820813014501
ssI94
(dp104
g9
F0.34404724773544204
sg10
F0.8527597294526851
ssI95
(dp105
g9
F0.6909883077906269
sg10
F0.671212327303001
ssI96
(dp106
g9
F0.49831316608159537
sg10
F0.11252854615226526
ssI97
(dp107
g9
F0.5614496505381606
sg10
F0.5720371491480155
ssI98
(dp108
g9
F0.9665849746694979
sg10
F0.7754622475265662
ssI99
(dp109
g9
F0.5023625691810311
sg10
F0.9455342893610151
ssI100
(dp110
g9
F0.44194389986354676
sg10
F0.9312854032270705
ssI101
(dp111
g9
F0.9722628926532112
sg10
F0.6142353430378699
ssI102
(dp112
g9
F0.14760644284073776
sg10
F0.690107941534018
ssI103
(dp113
g9
F0.022348153771769463
sg10
F0.3311669934036172
ssI104
(dp114
g9
F0.22383993926765722
sg10
F0.6162921631074814
ssI105
(dp115
g9
F0.49379816380581043
sg10
F0.7420293630077693
ssI106
(dp116
g9
F0.9652937763564015
sg10
F0.9878169903348055
ssI107
(dp117
g9
F0.5430689692178445
sg10
F0.13742114236648728
ssI108
(dp118
g9
F0.14274392958930449
sg10
F0.7774501557199484
ssI109
(dp119
g9
F0.29800904445919885
sg10
F0.22514336175740335
ssI110
(dp120
g9
F0.9513092480875288
sg10
F0.4714681596388255
ssI111
(dp121
g9
F0.22420334046748047
sg10
F0.16996580086771917
ssI112
(dp122
g9
F0.5595157244240245
sg10
F0.5169735040213403
ssI113
(dp123
g9
F0.7039530299555601
sg10
F0.4944355527263732
ssI114
(dp124
g9
F0.22945541312564033
sg10
F0.2545105354534072
ssI115
(dp125
g9
F0.3390862503249815
sg10
F0.4763440528535954
ssI116
(dp126
g9
F0.44622873216982084
sg10
F0.058476328419175716
ssI117
(dp127
g9
F0.5897594940915214
sg10
F0.09704324708274248
ssI118
(dp128
g9
F0.41108980568026665
sg10
F0.19095661656824525
ssI119
(dp129
g9
F0.9203015556752046
sg10
F0.3294787347550955
ssI120
(dp130
g9
F0.6970022228560641
sg10
F0.6568272441671077
ssI121
(dp131
g9
F0.4079121982884478
sg10
F0.5065781670959714
ssI122
(dp132
g9
F0.12835685421690624
sg10
F0.7873220308850061
ssI123
(dp133
g9
F0.8597630961844568
sg10
F0.746196532606813
ssI124
(dp134
g9
F0.18449408633372688
sg10
F0.9310730145652982
ssI125
(dp135
g9
F0.73425673533673
sg10
F0.15939370789758245
ssI126
(dp136
g9
F0.478647091333662
sg10
F0.8298581073200594
ssI127
(dp137
g9
F0.5940436658020004
sg10
F0.9833665496025583
ssI128
(dp138
g9
F0.45132032469556593
sg10
F0.384667307725157
ssI129
(dp139
g9
F0.48444559130649023
sg10
F0.19527166200108792
ssI130
(dp140
g9
F0.6013348990178575
sg10
F0.41881036327492926
ssI131
(dp141
g9
F0.563266369380446
sg10
F0.5515018538769745
ssI132
(dp142
g9
F0.6340496976088948
sg10
F0.8178359057744575
ssI133
(dp143
g9
F0.021017265640842164
sg10
F0.4760207444444866
ssI134
(dp144
g9
F0.6571969302111724
sg10
F0.48256480064013063
ssI135
(dp145
g9
F0.7118743950646156
sg10
F0.40532616148046485
ssI136
(dp146
g9
F0.9561899842535024
sg10
F0.5629025813339777
ssI137
(dp147
g9
F0.5693383507752563
sg10
F0.5189181716818185
ssI138
(dp148
g9
F0.5542182700356373
sg10
F0.6294028584193399
ssI139
(dp149
g9
F0.23668749296014668
sg10
F0.1623283156047186
ssI140
(dp150
g9
F0.8102645621117665
sg10
F0.20434873023588895
ssI141
(dp151
g9
F0.5486645780119688
sg10
F0.06155776054672102
ssI142
(dp152
g9
F0.4510442550421735
sg10
F0.18120978238685181
ssI143
(dp153
g9
F0.22181991870950268
sg10
F0.4100230782563583
ssI144
(dp154
g9
F0.5943930885662784
sg10
F0.3652291359143467
ssI145
(dp155
g9
F0.511698921938778
sg10
F0.2834923322783033
ssI146
(dp156
g9
F0.4696037894509838
sg10
F0.939594404699496
ssI147
(dp157
g9
F0.16530932636088957
sg10
F0.28748237020964185
ssI148
(dp158
g9
F0.047994503355524354
sg10
F0.6769407575984403
ssI149
(dp159
g9
F0.6437541328260741
sg10
F0.2173196630933173
ssI150
(dp160
g9
F0.6108441435775867
sg10
F0.04855792912588419
ssI151
(dp161
g9
F0.6210523340843117
sg10
F0.2947070692114737
ssI152
(dp162
g9
F0.12068880516974889
sg10
F0.6522335272018316
ssI153
(dp163
g9
F0.3547588397852167
sg10
F0.468421036875174
ssI154
(dp164
g9
F0.8648270403032902
sg10
F0.8845809548163805
ssI155
(dp165
g9
F0.3488213420140085
sg10
F0.8754053288963881
ssI156
(dp166
g9
F0.23274874174693438
sg10
F0.9821015798329422
ssI157
(dp167
g9
F0.7185678176737879
sg10
F0.18233908151330636
ssI158
(dp168
g9
F0.8213424350959803
sg10
F0.793519986636326
ssI159
(dp169
g9
F0.8738439047641426
sg10
F0.026533059173270868
ssI160
(dp170
g9
F0.20050590284550607
sg10
F0.9831747681804114
ssI161
(dp171
g9
F0.7324197838450939
sg10
F0.5565031445647582
ssI162
(dp172
g9
F0.15420175040611095
sg10
F0.6825725646076876
ssI163
(dp173
g9
F0.8405547822287058
sg10
F0.6445968089149158
ssI164
(dp174
g9
F0.5103936134403376
sg10
F0.6968721762900457
ssI165
(dp175
g9
F0.6146782403838604
sg10
F0.8689121365162182
ssI166
(dp176
g9
F0.17868148653532934
sg10
F0.024291005691745804
ssI167
(dp177
g9
F0.9233434190872941
sg10
F0.19428668713191255
ssI168
(dp178
g9
F0.9238150648255935
sg10
F0.6764542138745064
ssI169
(dp179
g9
F0.2556514822338647
sg10
F0.8272305258146122
ssI170
(dp180
g9
F0.8016125901345804
sg10
F0.45945145330558723
ssI171
(dp181
g9
F0.14952826589158486
sg10
F0.7680544335147695
ssI172
(dp182
g9
F0.7755973515429189
sg10
F0.8569512533877297
ssI173
(dp183
g9
F0.9600210036702741
sg10
F0.483483014581796
ssI174
(dp184
g9
F0.6537737997019551
sg10
F0.7662495744870178
ssI175
(dp185
g9
F0.08748959983586035
sg10
F0.2667952062570549
ssI176
(dp186
g9
F0.335526637512253
sg10
F0.9433346327458325
ssI177
(dp187
g9
F0.9849637196337848
sg10
F0.3655266830412647
ssI178
(dp188
g9
F0.6934650481625101
sg10
F0.6508261429886639
ssI179
(dp189
g9
F0.06901271196616254
sg10
F0.04954670811655004
ssI180
(dp190
g9
F0.4449529738302209
sg10
F0.7031784629664636
ssI181
(dp191
g9
F0.44243968780040077
sg10
F0.7272450221986563
ssI182
(dp192
g9
F0.8892848668716579
sg10
F0.7643523085940831
ssI183
(dp193
g9
F0.4543552349648612
sg10
F0.6651060219154682
ssI184
(dp194
g9
F0.11588945665142525
sg10
F0.8071339041924418
ssI185
(dp195
g9
F0.2135749211729454
sg10
F0.7841553542211974
ssI186
(dp196
g9
F0.6048846028771186
sg10
F0.7695819490826663
ssI187
(dp197
g9
F0.47571488701202647
sg10
F0.7841334097762803
ssI188
(dp198
g9
F0.5403751352635935
sg10
F0.08088901324295528
ssI189
(dp199
g9
F0.19542100731563739
sg10
F0.6359407384872956
ssI190
(dp200
g9
F0.9745107869769112
sg10
F0.36109501206990235
ssI191
(dp201
g9
F0.8765957495425472
sg10
F0.8639869419292023
ssI192
(dp202
g9
F0.2147785119286596
sg10
F0.5586391624523483
ssI193
(dp203
g9
F0.40665818624309436
sg10
F0.864118082186359
ssI194
(dp204
g9
F0.18623965589816194
sg10
F0.15395765143200035
ssI195
(dp205
g9
F0.8137437740233427
sg10
F0.1783286489330641
ssI196
(dp206
g9
F0.9827338717701473
sg10
F0.6584664798781295
ssI197
(dp207
g9
F0.31033847001255244
sg10
F0.9430031344899596
ssI198
(dp208
g9
F0.7806205645350411
sg10
F0.8309550992495387
ssI199
(dp209
g9
F0.01104930186138231
sg10
F0.11658328577084554
sssS'node_dict_factory'
p210
c__builtin__
dict
p211
sS'edge_attr_dict_factory'
p212
g211
sS'edge'
p213
(dp214
I0
(dp215
sI1
(dp216
sI2
(dp217
sI3
(dp218
sI4
(dp219
sI5
(dp220
sI6
(dp221
sI7
(dp222
sI8
(dp223
sI9
(dp224
sI10
(dp225
sI11
(dp226
sI12
(dp227
sI13
(dp228
sI14
(dp229
sI15
(dp230
sI16
(dp231
sI17
(dp232
sI18
(dp233
sI19
(dp234
sI20
(dp235
sI21
(dp236
sI22
(dp237
sI23
(dp238
sI24
(dp239
sI25
(dp240
sI26
(dp241
sI27
(dp242
sI28
(dp243
sI29
(dp244
sI30
(dp245
sI31
(dp246
sI32
(dp247
sI33
(dp248
sI34
(dp249
sI35
(dp250
sI36
(dp251
sI37
(dp252
sI38
(dp253
sI39
(dp254
sI40
(dp255
sI41
(dp256
sI42
(dp257
sI43
(dp258
sI44
(dp259
sI45
(dp260
sI46
(dp261
sI47
(dp262
sI48
(dp263
sI49
(dp264
sI50
(dp265
sI51
(dp266
sI52
(dp267
sI53
(dp268
sI54
(dp269
sI55
(dp270
sI56
(dp271
sI57
(dp272
sI58
(dp273
sI59
(dp274
sI60
(dp275
sI61
(dp276
sI62
(dp277
sI63
(dp278
sI64
(dp279
sI65
(dp280
sI66
(dp281
sI67
(dp282
sI68
(dp283
sI69
(dp284
sI70
(dp285
sI71
(dp286
sI72
(dp287
sI73
(dp288
sI74
(dp289
sI75
(dp290
sI76
(dp291
sI77
(dp292
sI78
(dp293
sI79
(dp294
sI80
(dp295
sI81
(dp296
sI82
(dp297
sI83
(dp298
sI84
(dp299
sI85
(dp300
sI86
(dp301
sI87
(dp302
sI88
(dp303
sI89
(dp304
sI90
(dp305
sI91
(dp306
sI92
(dp307
sI93
(dp308
sI94
(dp309
sI95
(dp310
sI96
(dp311
sI97
(dp312
sI98
(dp313
sI99
(dp314
sI100
(dp315
sI101
(dp316
sI102
(dp317
sI103
(dp318
sI104
(dp319
sI105
(dp320
sI106
(dp321
sI107
(dp322
sI108
(dp323
sI109
(dp324
sI110
(dp325
sI111
(dp326
sI112
(dp327
sI113
(dp328
sI114
(dp329
sI115
(dp330
sI116
(dp331
sI117
(dp332
sI118
(dp333
sI119
(dp334
sI120
(dp335
sI121
(dp336
sI122
(dp337
sI123
(dp338
sI124
(dp339
sI125
(dp340
sI126
(dp341
sI127
(dp342
sI128
(dp343
sI129
(dp344
sI130
(dp345
sI131
(dp346
sI132
(dp347
sI133
(dp348
sI134
(dp349
sI135
(dp350
sI136
(dp351
sI137
(dp352
sI138
(dp353
sI139
(dp354
sI140
(dp355
sI141
(dp356
sI142
(dp357
sI143
(dp358
sI144
(dp359
sI145
(dp360
sI146
(dp361
sI147
(dp362
sI148
(dp363
sI149
(dp364
sI150
(dp365
sI151
(dp366
sI152
(dp367
sI153
(dp368
sI154
(dp369
sI155
(dp370
sI156
(dp371
sI157
(dp372
sI158
(dp373
sI159
(dp374
sI160
(dp375
sI161
(dp376
sI162
(dp377
sI163
(dp378
sI164
(dp379
sI165
(dp380
sI166
(dp381
sI167
(dp382
sI168
(dp383
sI169
(dp384
sI170
(dp385
sI171
(dp386
sI172
(dp387
sI173
(dp388
sI174
(dp389
sI175
(dp390
sI176
(dp391
sI177
(dp392
sI178
(dp393
sI179
(dp394
sI180
(dp395
sI181
(dp396
sI182
(dp397
sI183
(dp398
sI184
(dp399
sI185
(dp400
sI186
(dp401
sI187
(dp402
sI188
(dp403
sI189
(dp404
sI190
(dp405
sI191
(dp406
sI192
(dp407
sI193
(dp408
sI194
(dp409
sI195
(dp410
sI196
(dp411
sI197
(dp412
sI198
(dp413
sI199
(dp414
ssS'graph'
p415
(dp416
sS'adjlist_dict_factory'
p417
g211
sS'adj'
p418
g214
sb.