ccopy_reg
_reconstructor
p0
(cnetworkx.classes.graph
Graph
p1
c__builtin__
object
p2
Ntp3
Rp4
(dp5
S'node'
p6
(dp7
I0
(dp8
S'pos_x'
p9
F0.9395529057422581
sS'pos_y'
p10
F0.0851501863135753
ssI1
(dp11
g9
F0.8457425733110299
sg10
F0.09523689145617387
ssI2
(dp12
g9
F0.038761092372218475
sg10
F0.49750812578965065
ssI3
(dp13
g9
F0.6703924581382
sg10
F0.3340884489502727
ssI4
(dp14
g9
F0.7121932679772828
sg10
F0.982003914558657
ssI5
(dp15
g9
F0.3018400174494674
sg10
F0.45231541735089076
ssI6
(dp16
g9
F0.12855851508589788
sg10
F0.8059196562919616
ssI7
(dp17
g9
F0.6424664320265829
sg10
F0.04018365325247075
ssI8
(dp18
g9
F0.5369093080390742
sg10
F0.07188337271236933
ssI9
(dp19
g9
F0.831496685639708
sg10
F0.11627165212153234
ssI10
(dp20
g9
F0.40646329401337467
sg10
F0.38738562137185595
ssI11
(dp21
g9
F0.8547047046149365
sg10
F0.8644149621652074
ssI12
(dp22
g9
F0.6573331814215654
sg10
F0.6046314292141551
ssI13
(dp23
g9
F0.9934926600054785
sg10
F0.7563527297881815
ssI14
(dp24
g9
F0.9420627567822317
sg10
F0.15686071223340592
ssI15
(dp25
g9
F0.8023151366436282
sg10
F0.024288954625982018
ssI16
(dp26
g9
F0.06246044265682027
sg10
F0.3876690982151365
ssI17
(dp27
g9
F0.9456313712149548
sg10
F0.8214111072812933
ssI18
(dp28
g9
F0.523442204251626
sg10
F0.822816979554374
ssI19
(dp29
g9
F0.25352858263157596
sg10
F0.3518385522790197
ssI20
(dp30
g9
F0.0668548978075838
sg10
F0.7240947896349773
ssI21
(dp31
g9
F0.03711707738690473
sg10
F0.8035964858613543
ssI22
(dp32
g9
F0.8246120583459902
sg10
F0.29473749691030937
ssI23
(dp33
g9
F0.4624716993106648
sg10
F0.8360868316411496
ssI24
(dp34
g9
F0.44864583331294217
sg10
F0.6418736613400524
ssI25
(dp35
g9
F0.9110710505921442
sg10
F0.8296886499212105
ssI26
(dp36
g9
F0.9213437430225764
sg10
F0.02465120620243555
ssI27
(dp37
g9
F0.6434529676014982
sg10
F0.4300253129004813
ssI28
(dp38
g9
F0.9673975156403073
sg10
F0.43251496768897
ssI29
(dp39
g9
F0.9511307514417109
sg10
F0.6673117888098468
ssI30
(dp40
g9
F0.4429179346964597
sg10
F0.8148913360370242
ssI31
(dp41
g9
F0.5348945934143639
sg10
F0.4305119143315581
ssI32
(dp42
g9
F0.7456566730081602
sg10
F0.40583657491405256
ssI33
(dp43
g9
F0.10830688439868152
sg10
F0.38104576054961015
ssI34
(dp44
g9
F0.2756082284145339
sg10
F0.3509587819107185
ssI35
(dp45
g9
F0.997103439774661
sg10
F0.02609386220424159
ssI36
(dp46
g9
F0.7340425510744619
sg10
F0.32233205803996445
ssI37
(dp47
g9
F0.39925895476400153
sg10
F0.15179949213814725
ssI38
(dp48
g9
F0.10693968946646937
sg10
F0.35818050791923717
ssI39
(dp49
g9
F0.14917182216257452
sg10
F0.43022702007252567
ssI40
(dp50
g9
F0.5277248898973461
sg10
F0.2787763461333418
ssI41
(dp51
g9
F0.8253763240195561
sg10
F0.09307348572159624
ssI42
(dp52
g9
F0.4672879148625201
sg10
F0.08127298481567602
ssI43
(dp53
g9
F0.1956903535977309
sg10
F0.6406672818119294
ssI44
(dp54
g9
F0.722335959038779
sg10
F0.41127588879148147
ssI45
(dp55
g9
F0.3627082301194312
sg10
F0.8470826691467503
ssI46
(dp56
g9
F0.1465554594682006
sg10
F0.0955011533020802
ssI47
(dp57
g9
F0.9581118989712977
sg10
F0.46839191295250004
ssI48
(dp58
g9
F0.13562086949658436
sg10
F0.638473308520634
ssI49
(dp59
g9
F0.5378635413834685
sg10
F0.6243151737091348
ssI50
(dp60
g9
F0.6946753025739203
sg10
F0.5659648749243897
ssI51
(dp61
g9
F0.8238974855187189
sg10
F0.7213260047463483
ssI52
(dp62
g9
F0.46398283680164787
sg10
F0.4909219157798247
ssI53
(dp63
g9
F0.14504398124028506
sg10
F0.405405636852619
ssI54
(dp64
g9
F0.8653804084757405
sg10
F0.40032618796635144
ssI55
(dp65
g9
F0.9274846949113525
sg10
F0.43175344342793354
ssI56
(dp66
g9
F0.4135453260759472
sg10
F0.5353355768051256
ssI57
(dp67
g9
F0.6043528893337559
sg10
F0.01729547785479979
ssI58
(dp68
g9
F0.4249983766168711
sg10
F0.6196308476870321
ssI59
(dp69
g9
F0.7788318877544008
sg10
F0.02819832653073462
ssI60
(dp70
g9
F0.1317147578597856
sg10
F0.502266541590627
ssI61
(dp71
g9
F0.9518087435124059
sg10
F0.08721647275484656
ssI62
(dp72
g9
F0.6251001507321609
sg10
F0.9417923528026286
ssI63
(dp73
g9
F0.12276204942550473
sg10
F0.13662851102495266
ssI64
(dp74
g9
F0.6678676670016293
sg10
F0.49272632848640885
ssI65
(dp75
g9
F0.6733865912729153
sg10
F0.009787423728187639
ssI66
(dp76
g9
F0.4908952950192834
sg10
F0.969043506693857
ssI67
(dp77
g9
F0.8969282729805292
sg10
F0.41870535062805625
ssI68
(dp78
g9
F0.9009160081963551
sg10
F0.9197273678756965
ssI69
(dp79
g9
F0.06366944990064505
sg10
F0.9021503769367569
ssI70
(dp80
g9
F0.1072233547849133
sg10
F0.7662569304812429
ssI71
(dp81
g9
F0.9512849220073242
sg10
F0.531606903602507
ssI72
(dp82
g9
F0.4218324635404186
sg10
F0.5403833759271286
ssI73
(dp83
g9
F0.8191461774762119
sg10
F0.7167583756140857
ssI74
(dp84
g9
F0.18627482093021908
sg10
F0.30926795468993096
ssI75
(dp85
g9
F0.29840921841063694
sg10
F0.7591313198037865
ssI76
(dp86
g9
F0.09769206268588859
sg10
F0.8748235972231763
ssI77
(dp87
g9
F0.6216422160613385
sg10
F0.9731417406876148
ssI78
(dp88
g9
F0.22258980561309483
sg10
F0.6401309664795779
ssI79
(dp89
g9
F0.06583003633572759
sg10
F0.9616747523534651
ssI80
(dp90
g9
F0.29032769941814585
sg10
F0.020656380840128996
ssI81
(dp91
g9
F0.9797564222215372
sg10
F0.025163540798675887
ssI82
(dp92
g9
F0.7526177305326933
sg10
F0.24909283794761627
ssI83
(dp93
g9
F0.9011452699983942
sg10
F0.4510439683576707
ssI84
(dp94
g9
F0.6041089980632519
sg10
F0.5483993771531301
ssI85
(dp95
g9
F0.6735122317056879
sg10
F0.29537166439429097
ssI86
(dp96
g9
F0.20951723082030038
sg10
F0.13202088258872047
ssI87
(dp97
g9
F0.7204171938932372
sg10
F0.9217261228027818
ssI88
(dp98
g9
F0.1346168507087051
sg10
F0.5852863444701049
ssI89
(dp99
g9
F0.45452715949412736
sg10
F0.3345561184698973
ssI90
(dp100
g9
F0.18502621120917295
sg10
F0.6981993349648088
ssI91
(dp101
g9
F0.28978421937093757
sg10
F0.7717684963703563
ssI92
(dp102
g9
F0.2260711172369042
sg10
F0.29293420138233817
ssI93
(dp103
g9
F0.15376706850815702
sg10
F0.11661197947087398
ssI94
(dp104
g9
F0.4663533216780198
sg10
F0.8881240381235179
ssI95
(dp105
g9
F0.019821036600844666
sg10
F0.3821554439549826
ssI96
(dp106
g9
F0.6501133007106359
sg10
F0.026727011073524598
ssI97
(dp107
g9
F0.6874135834207589
sg10
F0.043681259754945745
ssI98
(dp108
g9
F0.8969693150248509
sg10
F0.8037168920351803
ssI99
(dp109
g9
F0.668418760773144
sg10
F0.5798625394421973
ssI100
(dp110
g9
F0.4099365379944784
sg10
F0.4801751879643176
ssI101
(dp111
g9
F0.15840888872864556
sg10
F0.5508648425344842
ssI102
(dp112
g9
F0.5942691589747582
sg10
F0.7192185515969806
ssI103
(dp113
g9
F0.6052923069074743
sg10
F0.8159531072487475
ssI104
(dp114
g9
F0.9265525098720359
sg10
F0.4387807858650643
ssI105
(dp115
g9
F0.5506191711661618
sg10
F0.6226864548065919
ssI106
(dp116
g9
F0.9652737877908881
sg10
F0.4342282358028553
ssI107
(dp117
g9
F0.446452198162571
sg10
F0.8251513791564893
ssI108
(dp118
g9
F0.48234594745775683
sg10
F0.9272225414183295
ssI109
(dp119
g9
F0.6929934032348751
sg10
F0.9111925931591209
ssI110
(dp120
g9
F0.42841303367580086
sg10
F0.478738587941668
ssI111
(dp121
g9
F0.5659177428682071
sg10
F0.6304104336064132
ssI112
(dp122
g9
F0.14767363067215045
sg10
F0.9888196320249978
ssI113
(dp123
g9
F0.9623850336257248
sg10
F0.8923167510369665
ssI114
(dp124
g9
F0.18879993329585387
sg10
F0.6446103696036876
ssI115
(dp125
g9
F0.11867481862021656
sg10
F0.312532002535552
ssI116
(dp126
g9
F0.7763758788820757
sg10
F0.911349279459677
ssI117
(dp127
g9
F0.6174326237679002
sg10
F0.1528256071385652
ssI118
(dp128
g9
F0.896428785103884
sg10
F0.4074104450544539
ssI119
(dp129
g9
F0.6083778715470979
sg10
F0.9290267095285363
ssI120
(dp130
g9
F0.7437418850131924
sg10
F0.4662975168248954
ssI121
(dp131
g9
F0.040224922151687936
sg10
F0.635877380287054
ssI122
(dp132
g9
F0.29512031052700527
sg10
F0.513759122957872
ssI123
(dp133
g9
F0.8051687306540697
sg10
F0.9784438382733868
ssI124
(dp134
g9
F0.8551873221104842
sg10
F0.012057543713049013
ssI125
(dp135
g9
F0.6809450831997429
sg10
F0.4944992641576269
ssI126
(dp136
g9
F0.815738327361475
sg10
F0.25045427841991297
ssI127
(dp137
g9
F0.11862971088882956
sg10
F0.9597718379041986
ssI128
(dp138
g9
F0.46207513110467213
sg10
F0.698079594757682
ssI129
(dp139
g9
F0.913986558173739
sg10
F0.6566903497640166
ssI130
(dp140
g9
F0.6275985742515178
sg10
F0.7463591938230646
ssI131
(dp141
g9
F0.477344286753722
sg10
F0.32718361393570017
ssI132
(dp142
g9
F0.5963578755521265
sg10
F0.8558712815080715
ssI133
(dp143
g9
F0.08786126210966005
sg10
F0.3942171390807071
ssI134
(dp144
g9
F0.3532480777950159
sg10
F0.5606344278011484
ssI135
(dp145
g9
F0.7193983033269189
sg10
F0.37873287140308864
ssI136
(dp146
g9
F0.254921848607932
sg10
F0.6866456173293845
ssI137
(dp147
g9
F0.47733368494344053
sg10
F0.785112989695068
ssI138
(dp148
g9
F0.6312207268288212
sg10
F0.5327606087924754
ssI139
(dp149
g9
F0.4765258867570914
sg10
F0.3945726091720533
ssI140
(dp150
g9
F0.17859042739270237
sg10
F0.23105751474592873
ssI141
(dp151
g9
F0.382989463323253
sg10
F0.30537263702611883
ssI142
(dp152
g9
F0.7506825338018468
sg10
F0.9091011144701308
ssI143
(dp153
g9
F0.9969321448910953
sg10
F0.629766314572025
ssI144
(dp154
g9
F0.28369630634125287
sg10
F0.9562577891858963
ssI145
(dp155
g9
F0.7725627728858304
sg10
F0.7732658168759093
ssI146
(dp156
g9
F0.5055997150177806
sg10
F0.42675044089378633
ssI147
(dp157
g9
F0.11496688093347962
sg10
F0.1382836234571857
ssI148
(dp158
g9
F0.6045462198772593
sg10
F0.13037493468691974
ssI149
(dp159
g9
F0.029467654481590055
sg10
F0.008114974858003277
ssI150
(dp160
g9
F0.49459202545101744
sg10
F0.9440204888851096
ssI151
(dp161
g9
F0.8846419020659482
sg10
F0.6057796256965104
ssI152
(dp162
g9
F0.8063833127075858
sg10
F0.18268033455528787
ssI153
(dp163
g9
F0.6958757226341369
sg10
F0.5698042954141194
ssI154
(dp164
g9
F0.37902878123380634
sg10
F0.9329926577078304
ssI155
(dp165
g9
F0.7992023801110186
sg10
F0.06006920076434463
ssI156
(dp166
g9
F0.7432437995830761
sg10
F0.8159725110961477
ssI157
(dp167
g9
F0.6382683943728299
sg10
F0.44850980400087104
ssI158
(dp168
g9
F0.049209035996566675
sg10
F0.0408192793600064
ssI159
(dp169
g9
F0.2755181348086708
sg10
F0.2503983122282839
ssI160
(dp170
g9
F0.03214544380621731
sg10
F0.8499783634779315
ssI161
(dp171
g9
F0.2142633884552455
sg10
F0.8378569429739181
ssI162
(dp172
g9
F0.5945089833412952
sg10
F0.8588120223597402
ssI163
(dp173
g9
F0.6683364823653192
sg10
F0.0006578998904349653
ssI164
(dp174
g9
F0.6649294297865783
sg10
F0.6598068296789753
ssI165
(dp175
g9
F0.16099223376362037
sg10
F0.26356615746396517
ssI166
(dp176
g9
F0.006116177524158717
sg10
F0.7121552976058363
ssI167
(dp177
g9
F0.6534758928062003
sg10
F0.8163432006247551
ssI168
(dp178
g9
F0.4111811263997833
sg10
F0.09369413861932863
ssI169
(dp179
g9
F0.006129269201754384
sg10
F0.5555071235386738
ssI170
(dp180
g9
F0.2995073960156329
sg10
F0.7570617091948664
ssI171
(dp181
g9
F0.25222648585156815
sg10
F0.015140433625142391
ssI172
(dp182
g9
F0.9864121353139207
sg10
F0.5651682930013363
ssI173
(dp183
g9
F0.052421021162028736
sg10
F0.2184252018520958
ssI174
(dp184
g9
F0.7092588236310624
sg10
F0.8574298221698786
ssI175
(dp185
g9
F0.16654587524367803
sg10
F0.288806472895737
ssI176
(dp186
g9
F0.3148629750869175
sg10
F0.01896780405533638
ssI177
(dp187
g9
F0.29020647203791083
sg10
F0.6737880890634472
ssI178
(dp188
g9
F0.6624591293294696
sg10
F0.40108108608701065
ssI179
(dp189
g9
F0.6987156340200505
sg10
F0.3455770338495542
ssI180
(dp190
g9
F0.9598445270422232
sg10
F0.3299760814541013
ssI181
(dp191
g9
F0.07803766634219567
sg10
F0.5635973499125662
ssI182
(dp192
g9
F0.421412242906986
sg10
F0.1747055084861604
ssI183
(dp193
g9
F0.29274313717305345
sg10
F0.19543580825815465
ssI184
(dp194
g9
F0.42551699096920936
sg10
F0.16125730704118812
ssI185
(dp195
g9
F0.7936887129697908
sg10
F0.32908229678081846
ssI186
(dp196
g9
F0.6199952417617612
sg10
F0.9285612249848478
ssI187
(dp197
g9
F0.08441056442672212
sg10
F0.8263083640596641
ssI188
(dp198
g9
F0.35883180106621004
sg10
F0.2831914362346136
ssI189
(dp199
g9
F0.9162012342074182
sg10
F0.3712351604386086
ssI190
(dp200
g9
F0.4846755183562246
sg10
F0.30644368784460285
ssI191
(dp201
g9
F0.9084362849087902
sg10
F0.21357793994679863
ssI192
(dp202
g9
F0.822694820169271
sg10
F0.22800717602403464
ssI193
(dp203
g9
F0.25847157896275363
sg10
F0.18059278220275055
ssI194
(dp204
g9
F0.0990469251198115
sg10
F0.8109168132728493
ssI195
(dp205
g9
F0.8007159220325876
sg10
F0.613735103193048
ssI196
(dp206
g9
F0.33426552330681736
sg10
F0.35703402245143945
ssI197
(dp207
g9
F0.762147042263714
sg10
F0.68995827326456
ssI198
(dp208
g9
F0.47117236693376685
sg10
F0.7004865001841035
ssI199
(dp209
g9
F0.8894851344979743
sg10
F0.9781718965177356
sssS'node_dict_factory'
p210
c__builtin__
dict
p211
sS'edge_attr_dict_factory'
p212
g211
sS'edge'
p213
(dp214
I0
(dp215
sI1
(dp216
sI2
(dp217
sI3
(dp218
sI4
(dp219
sI5
(dp220
sI6
(dp221
sI7
(dp222
sI8
(dp223
sI9
(dp224
sI10
(dp225
sI11
(dp226
sI12
(dp227
sI13
(dp228
sI14
(dp229
sI15
(dp230
sI16
(dp231
sI17
(dp232
sI18
(dp233
sI19
(dp234
sI20
(dp235
sI21
(dp236
sI22
(dp237
sI23
(dp238
sI24
(dp239
sI25
(dp240
sI26
(dp241
sI27
(dp242
sI28
(dp243
sI29
(dp244
sI30
(dp245
sI31
(dp246
sI32
(dp247
sI33
(dp248
sI34
(dp249
sI35
(dp250
sI36
(dp251
sI37
(dp252
sI38
(dp253
sI39
(dp254
sI40
(dp255
sI41
(dp256
sI42
(dp257
sI43
(dp258
sI44
(dp259
sI45
(dp260
sI46
(dp261
sI47
(dp262
sI48
(dp263
sI49
(dp264
sI50
(dp265
sI51
(dp266
sI52
(dp267
sI53
(dp268
sI54
(dp269
sI55
(dp270
sI56
(dp271
sI57
(dp272
sI58
(dp273
sI59
(dp274
sI60
(dp275
sI61
(dp276
sI62
(dp277
sI63
(dp278
sI64
(dp279
sI65
(dp280
sI66
(dp281
sI67
(dp282
sI68
(dp283
sI69
(dp284
sI70
(dp285
sI71
(dp286
sI72
(dp287
sI73
(dp288
sI74
(dp289
sI75
(dp290
sI76
(dp291
sI77
(dp292
sI78
(dp293
sI79
(dp294
sI80
(dp295
sI81
(dp296
sI82
(dp297
sI83
(dp298
sI84
(dp299
sI85
(dp300
sI86
(dp301
sI87
(dp302
sI88
(dp303
sI89
(dp304
sI90
(dp305
sI91
(dp306
sI92
(dp307
sI93
(dp308
sI94
(dp309
sI95
(dp310
sI96
(dp311
sI97
(dp312
sI98
(dp313
sI99
(dp314
sI100
(dp315
sI101
(dp316
sI102
(dp317
sI103
(dp318
sI104
(dp319
sI105
(dp320
sI106
(dp321
sI107
(dp322
sI108
(dp323
sI109
(dp324
sI110
(dp325
sI111
(dp326
sI112
(dp327
sI113
(dp328
sI114
(dp329
sI115
(dp330
sI116
(dp331
sI117
(dp332
sI118
(dp333
sI119
(dp334
sI120
(dp335
sI121
(dp336
sI122
(dp337
sI123
(dp338
sI124
(dp339
sI125
(dp340
sI126
(dp341
sI127
(dp342
sI128
(dp343
sI129
(dp344
sI130
(dp345
sI131
(dp346
sI132
(dp347
sI133
(dp348
sI134
(dp349
sI135
(dp350
sI136
(dp351
sI137
(dp352
sI138
(dp353
sI139
(dp354
sI140
(dp355
sI141
(dp356
sI142
(dp357
sI143
(dp358
sI144
(dp359
sI145
(dp360
sI146
(dp361
sI147
(dp362
sI148
(dp363
sI149
(dp364
sI150
(dp365
sI151
(dp366
sI152
(dp367
sI153
(dp368
sI154
(dp369
sI155
(dp370
sI156
(dp371
sI157
(dp372
sI158
(dp373
sI159
(dp374
sI160
(dp375
sI161
(dp376
sI162
(dp377
sI163
(dp378
sI164
(dp379
sI165
(dp380
sI166
(dp381
sI167
(dp382
sI168
(dp383
sI169
(dp384
sI170
(dp385
sI171
(dp386
sI172
(dp387
sI173
(dp388
sI174
(dp389
sI175
(dp390
sI176
(dp391
sI177
(dp392
sI178
(dp393
sI179
(dp394
sI180
(dp395
sI181
(dp396
sI182
(dp397
sI183
(dp398
sI184
(dp399
sI185
(dp400
sI186
(dp401
sI187
(dp402
sI188
(dp403
sI189
(dp404
sI190
(dp405
sI191
(dp406
sI192
(dp407
sI193
(dp408
sI194
(dp409
sI195
(dp410
sI196
(dp411
sI197
(dp412
sI198
(dp413
sI199
(dp414
ssS'graph'
p415
(dp416
sS'adjlist_dict_factory'
p417
g211
sS'adj'
p418
g214
sb.