ccopy_reg
_reconstructor
p0
(cnetworkx.classes.graph
Graph
p1
c__builtin__
object
p2
Ntp3
Rp4
(dp5
S'node'
p6
(dp7
I0
(dp8
S'pos_x'
p9
F0.7273807848451611
sS'pos_y'
p10
F0.9376672694699125
ssI1
(dp11
g9
F0.1904912248707431
sg10
F0.8531517374135219
ssI2
(dp12
g9
F0.13234132941679444
sg10
F0.3845838955447709
ssI3
(dp13
g9
F0.4389222929226734
sg10
F0.6475644144904524
ssI4
(dp14
g9
F0.13412849255126913
sg10
F0.9563216340580181
ssI5
(dp15
g9
F0.7189838299250041
sg10
F0.15601058324005246
ssI6
(dp16
g9
F0.6488838297191586
sg10
F0.7644366232086296
ssI7
(dp17
g9
F0.4037746146075588
sg10
F0.33698171688254497
ssI8
(dp18
g9
F0.8211353203712252
sg10
F0.422273421988537
ssI9
(dp19
g9
F0.8456739185168758
sg10
F0.6259218524671449
ssI10
(dp20
g9
F0.8374796659908452
sg10
F0.20430774030394605
ssI11
(dp21
g9
F0.6989708672405296
sg10
F0.1904738357255632
ssI12
(dp22
g9
F0.4398792360520588
sg10
F0.6126851552141007
ssI13
(dp23
g9
F0.8309884703087699
sg10
F0.37561114794853523
ssI14
(dp24
g9
F0.8603471381652181
sg10
F0.13489437027532092
ssI15
(dp25
g9
F0.8334254927572464
sg10
F0.3863691406241906
ssI16
(dp26
g9
F0.149153493359932
sg10
F0.603940879300899
ssI17
(dp27
g9
F0.4090638567699735
sg10
F0.8400441045213991
ssI18
(dp28
g9
F0.546663117544549
sg10
F0.15067366013987304
ssI19
(dp29
g9
F0.33196602145823706
sg10
F0.19942697832863854
ssI20
(dp30
g9
F0.1566593680353201
sg10
F0.7299949988957949
ssI21
(dp31
g9
F0.4038166279868203
sg10
F0.5084129136171551
ssI22
(dp32
g9
F0.6803010554713856
sg10
F0.19424782527783768
ssI23
(dp33
g9
F0.2983468312411043
sg10
F0.6803536432231738
ssI24
(dp34
g9
F0.09898285263096529
sg10
F0.16406730434389738
ssI25
(dp35
g9
F0.1669639284780452
sg10
F0.0017805357184407233
ssI26
(dp36
g9
F0.5280396218709072
sg10
F0.03631017142520587
ssI27
(dp37
g9
F0.8517627387017204
sg10
F0.7215321422921911
ssI28
(dp38
g9
F0.17516840453443572
sg10
F0.3329210139873685
ssI29
(dp39
g9
F0.7627741356605416
sg10
F0.9095521404346406
ssI30
(dp40
g9
F0.5130825394164494
sg10
F0.11375382285541191
ssI31
(dp41
g9
F0.46489321147245877
sg10
F0.13366179803284006
ssI32
(dp42
g9
F0.15690078802733243
sg10
F0.2993741206258336
ssI33
(dp43
g9
F0.7630339899370753
sg10
F0.9478800564864563
ssI34
(dp44
g9
F0.16995624630776673
sg10
F0.5618376596393142
ssI35
(dp45
g9
F0.9196532540763384
sg10
F0.5440423003965061
ssI36
(dp46
g9
F0.7592887311985399
sg10
F0.5112475011627904
ssI37
(dp47
g9
F0.3379083619006129
sg10
F0.9697071742409302
ssI38
(dp48
g9
F0.5414444452054612
sg10
F0.2935103368752704
ssI39
(dp49
g9
F0.034010138175197824
sg10
F0.8211173103693431
ssI40
(dp50
g9
F0.5943768189009266
sg10
F0.9048802117345551
ssI41
(dp51
g9
F0.8543598665611303
sg10
F0.5692714623698709
ssI42
(dp52
g9
F0.40810685803204383
sg10
F0.2706477014221632
ssI43
(dp53
g9
F0.5749664482540636
sg10
F0.6682460457205892
ssI44
(dp54
g9
F0.7209029203414266
sg10
F0.6151539929456475
ssI45
(dp55
g9
F0.5101135207649692
sg10
F0.11729597713243678
ssI46
(dp56
g9
F0.7906426315599042
sg10
F0.5410648361147177
ssI47
(dp57
g9
F0.8290673304512595
sg10
F0.1151299556426082
ssI48
(dp58
g9
F0.2757345354921328
sg10
F0.6285084380265508
ssI49
(dp59
g9
F0.8404841680058547
sg10
F0.8821466802801882
ssI50
(dp60
g9
F0.43128524065360474
sg10
F0.9440454535428922
ssI51
(dp61
g9
F0.796054332602881
sg10
F0.4580177544749924
ssI52
(dp62
g9
F0.13148003722175272
sg10
F0.5462057875223871
ssI53
(dp63
g9
F0.7356550655529039
sg10
F0.5939211977525131
ssI54
(dp64
g9
F0.9923032081444241
sg10
F0.11437884298614243
ssI55
(dp65
g9
F0.7912378880773806
sg10
F0.8460211769037852
ssI56
(dp66
g9
F0.5702800962596325
sg10
F0.7900336695075083
ssI57
(dp67
g9
F0.3877558589951584
sg10
F0.22144988508102248
ssI58
(dp68
g9
F0.9217706742833258
sg10
F0.5747088304369898
ssI59
(dp69
g9
F0.6304135290674214
sg10
F0.41395730573001455
ssI60
(dp70
g9
F0.8725776136577693
sg10
F0.5389708736402881
ssI61
(dp71
g9
F0.4886621319516128
sg10
F0.20012150110281535
ssI62
(dp72
g9
F0.029051275467784854
sg10
F0.15424948906454727
ssI63
(dp73
g9
F0.5259607415387385
sg10
F0.9825300236803767
ssI64
(dp74
g9
F0.7609153322401311
sg10
F0.6764222624217496
ssI65
(dp75
g9
F0.6880908791241251
sg10
F0.5055455981389008
ssI66
(dp76
g9
F0.04151609503531151
sg10
F0.040710773162873526
ssI67
(dp77
g9
F0.8923319889766179
sg10
F0.20707534860873644
ssI68
(dp78
g9
F0.05659700361500852
sg10
F0.4945398579173247
ssI69
(dp79
g9
F0.9161733357560936
sg10
F0.2633176468914029
ssI70
(dp80
g9
F0.17468650883035608
sg10
F0.6086227471013506
ssI71
(dp81
g9
F0.7589039151781842
sg10
F0.24624146295059213
ssI72
(dp82
g9
F0.36469895168520194
sg10
F0.2515948199351644
ssI73
(dp83
g9
F0.26364804113114815
sg10
F0.6500641803626438
ssI74
(dp84
g9
F0.42721142797523004
sg10
F0.9908386449420626
ssI75
(dp85
g9
F0.13952163338098045
sg10
F0.47425279257234976
ssI76
(dp86
g9
F0.18628218954490217
sg10
F0.12300265121120701
ssI77
(dp87
g9
F0.1576021977568528
sg10
F0.16420049070037857
ssI78
(dp88
g9
F0.5045743175609728
sg10
F0.06043432864281084
ssI79
(dp89
g9
F0.6875857460019568
sg10
F0.313102714271543
ssI80
(dp90
g9
F0.44855133210021436
sg10
F0.16671248577207443
ssI81
(dp91
g9
F0.9192493051442755
sg10
F0.8615992191776373
ssI82
(dp92
g9
F0.14726124072148816
sg10
F0.14913227525770711
ssI83
(dp93
g9
F0.5427729408341215
sg10
F0.41376078339873046
ssI84
(dp94
g9
F0.5252058594927044
sg10
F0.9128622012600445
ssI85
(dp95
g9
F0.39938400513554806
sg10
F0.005980558413916315
ssI86
(dp96
g9
F0.49062301230176475
sg10
F0.6264093087253707
ssI87
(dp97
g9
F0.8055417411808796
sg10
F0.016931140290166513
ssI88
(dp98
g9
F0.8483903757528292
sg10
F0.4017888515109689
ssI89
(dp99
g9
F0.9476647720961379
sg10
F0.8513020502248048
ssI90
(dp100
g9
F0.11907500347668631
sg10
F0.4835276316237185
ssI91
(dp101
g9
F0.5167037479389595
sg10
F0.7297862943764151
ssI92
(dp102
g9
F0.6383818108742255
sg10
F0.1824864011619577
ssI93
(dp103
g9
F0.7133982294973484
sg10
F0.5448705078049857
ssI94
(dp104
g9
F0.4811890548984349
sg10
F0.04035052115068327
ssI95
(dp105
g9
F0.3911264117797756
sg10
F0.4732905550834018
ssI96
(dp106
g9
F0.9301052860879878
sg10
F0.7956132630232713
ssI97
(dp107
g9
F0.7081926597010417
sg10
F0.7653400610287094
ssI98
(dp108
g9
F0.3635819641738103
sg10
F0.1951652393405181
ssI99
(dp109
g9
F0.17470715691325756
sg10
F0.5624504472419073
ssI100
(dp110
g9
F0.06974230520131819
sg10
F0.9349570576402034
ssI101
(dp111
g9
F0.27038645474061285
sg10
F0.6185341124742935
ssI102
(dp112
g9
F0.9968827034387823
sg10
F0.07190896682492609
ssI103
(dp113
g9
F0.15579862268661682
sg10
F0.5139940203525474
ssI104
(dp114
g9
F0.4371290554305155
sg10
F0.08868778871243987
ssI105
(dp115
g9
F0.21234423803448155
sg10
F0.8571416632456615
ssI106
(dp116
g9
F0.058316108080538664
sg10
F0.20138296573343184
ssI107
(dp117
g9
F0.9331744085844532
sg10
F0.6774006553630678
ssI108
(dp118
g9
F0.48861340376946794
sg10
F0.8095716649809603
ssI109
(dp119
g9
F0.28227024080097507
sg10
F0.20882307011533285
ssI110
(dp120
g9
F0.4741996643480736
sg10
F0.5381543999775523
ssI111
(dp121
g9
F0.5940246720000742
sg10
F0.33264383250197904
ssI112
(dp122
g9
F0.5628283900418638
sg10
F0.05277739575656848
ssI113
(dp123
g9
F0.11309625550389946
sg10
F0.28927693618874983
ssI114
(dp124
g9
F0.9725952267189815
sg10
F0.3979224303686014
ssI115
(dp125
g9
F0.7166824113942041
sg10
F0.1722545163735052
ssI116
(dp126
g9
F0.4845196653728163
sg10
F0.6535239675806772
ssI117
(dp127
g9
F0.5778825766232265
sg10
F0.9501642951458907
ssI118
(dp128
g9
F0.5848134777915583
sg10
F0.5546799319460488
ssI119
(dp129
g9
F0.9047083391131394
sg10
F0.6603540125461529
ssI120
(dp130
g9
F0.5827600733618531
sg10
F0.49478754656698887
ssI121
(dp131
g9
F0.5081508590859747
sg10
F0.25910209803534034
ssI122
(dp132
g9
F0.5596888166883249
sg10
F0.9767947439680923
ssI123
(dp133
g9
F0.5324131055003827
sg10
F0.7307615731085478
ssI124
(dp134
g9
F0.34299611367954597
sg10
F0.5495594868935803
ssI125
(dp135
g9
F0.07159744224710596
sg10
F0.8032567450123483
ssI126
(dp136
g9
F0.7164321933162552
sg10
F0.6330339699677341
ssI127
(dp137
g9
F0.479587908818929
sg10
F0.03386757252121286
ssI128
(dp138
g9
F0.22697678848384994
sg10
F0.5888118572593148
ssI129
(dp139
g9
F0.4339518718814268
sg10
F0.006104049415679325
ssI130
(dp140
g9
F0.4299617659274588
sg10
F0.7986551880586537
ssI131
(dp141
g9
F0.06823756460846142
sg10
F0.2993537648889618
ssI132
(dp142
g9
F0.7808099700395423
sg10
F0.7467582695099616
ssI133
(dp143
g9
F0.5151332322400431
sg10
F0.2552837335214325
ssI134
(dp144
g9
F0.10374595717971613
sg10
F0.5194895739954385
ssI135
(dp145
g9
F0.9174555975460131
sg10
F0.205911148542538
ssI136
(dp146
g9
F0.3337553955938526
sg10
F0.603106370813389
ssI137
(dp147
g9
F0.07491395971184944
sg10
F0.30176915722733155
ssI138
(dp148
g9
F0.938527367808082
sg10
F0.6001592356798151
ssI139
(dp149
g9
F0.024036157944898884
sg10
F0.6951497202370018
ssI140
(dp150
g9
F0.849576866629293
sg10
F0.05984559555653246
ssI141
(dp151
g9
F0.2311644544303324
sg10
F0.3326530706947589
ssI142
(dp152
g9
F0.5040941334308882
sg10
F0.7843012746512928
ssI143
(dp153
g9
F0.8312971943561904
sg10
F0.551124730566518
ssI144
(dp154
g9
F0.3099289881428203
sg10
F0.5794823899944057
ssI145
(dp155
g9
F0.3059447457249378
sg10
F0.014967084180773083
ssI146
(dp156
g9
F0.7275031382239169
sg10
F0.8028612697837312
ssI147
(dp157
g9
F0.5604137611702286
sg10
F0.2305539191760011
ssI148
(dp158
g9
F0.1189918635041779
sg10
F0.8018863641665723
ssI149
(dp159
g9
F0.731631301922248
sg10
F0.07414164234646703
ssI150
(dp160
g9
F0.13405584068911747
sg10
F0.7121258730814382
ssI151
(dp161
g9
F0.41295537238602253
sg10
F0.13974796949658896
ssI152
(dp162
g9
F0.6616968134364121
sg10
F0.5150324077533218
ssI153
(dp163
g9
F0.8248467681413194
sg10
F0.876169947515538
ssI154
(dp164
g9
F0.5981042774908498
sg10
F0.923540263455962
ssI155
(dp165
g9
F0.8229746188675648
sg10
F0.8615358710473513
ssI156
(dp166
g9
F0.7019214978311776
sg10
F0.6690726720960753
ssI157
(dp167
g9
F0.772094794607218
sg10
F0.7321513568986983
ssI158
(dp168
g9
F0.4454504787508822
sg10
F0.685362125669375
ssI159
(dp169
g9
F0.3774847097779882
sg10
F0.6454231620973916
ssI160
(dp170
g9
F0.7989219411854015
sg10
F0.3786866809720931
ssI161
(dp171
g9
F0.8804288799269664
sg10
F0.1241700720559239
ssI162
(dp172
g9
F0.16932606043705456
sg10
F0.005589600818778573
ssI163
(dp173
g9
F0.7681641930570597
sg10
F0.6122303544360082
ssI164
(dp174
g9
F0.40169078259877555
sg10
F0.07403898022523914
ssI165
(dp175
g9
F0.6343663554808698
sg10
F0.35068218108878524
ssI166
(dp176
g9
F0.4772547705926622
sg10
F0.0013270870773199883
ssI167
(dp177
g9
F0.2861546554987564
sg10
F0.6756918664486624
ssI168
(dp178
g9
F0.20118124704340623
sg10
F0.3458218891239142
ssI169
(dp179
g9
F0.5861900890045333
sg10
F0.3105913258309302
ssI170
(dp180
g9
F0.0727083689658401
sg10
F0.5761103855592886
ssI171
(dp181
g9
F0.3790409323311905
sg10
F0.3965345956665204
ssI172
(dp182
g9
F0.866342518695639
sg10
F0.6293176841405083
ssI173
(dp183
g9
F0.21263708274273552
sg10
F0.8573653117604724
ssI174
(dp184
g9
F0.17154890855807947
sg10
F0.691328283859485
ssI175
(dp185
g9
F0.6031926409606123
sg10
F0.829463760222825
ssI176
(dp186
g9
F0.9021759249021816
sg10
F0.7517481719400184
ssI177
(dp187
g9
F0.5520849593117964
sg10
F0.18949995858144764
ssI178
(dp188
g9
F0.44729025406251866
sg10
F0.8302100067067208
ssI179
(dp189
g9
F0.01175263247891456
sg10
F0.2425590256578175
ssI180
(dp190
g9
F0.908891839850665
sg10
F0.16742916892051007
ssI181
(dp191
g9
F0.6564833104614826
sg10
F0.7869890145872874
ssI182
(dp192
g9
F0.9748614776342204
sg10
F0.24883982303685437
ssI183
(dp193
g9
F0.7897435219192291
sg10
F0.7195602521420636
ssI184
(dp194
g9
F0.6928335104563164
sg10
F0.5543590178819364
ssI185
(dp195
g9
F0.23199446908150112
sg10
F0.06356012149535872
ssI186
(dp196
g9
F0.5745416193743547
sg10
F0.7066286065115079
ssI187
(dp197
g9
F0.1577576465871946
sg10
F0.2868811787811223
ssI188
(dp198
g9
F0.2878310687175304
sg10
F0.29454957256407555
ssI189
(dp199
g9
F0.8088109716148204
sg10
F0.576229758193021
ssI190
(dp200
g9
F0.05830635574386955
sg10
F0.7814688672008603
ssI191
(dp201
g9
F0.5924027808195986
sg10
F0.8590486192161239
ssI192
(dp202
g9
F0.7777578774999142
sg10
F0.4987365383022605
ssI193
(dp203
g9
F0.5930628650305195
sg10
F0.9713696446219128
ssI194
(dp204
g9
F0.365085634190207
sg10
F0.8740327729291847
ssI195
(dp205
g9
F0.23348258182175985
sg10
F0.3488428541299555
ssI196
(dp206
g9
F0.7071902051217079
sg10
F0.9394198283936976
ssI197
(dp207
g9
F0.4336441763583645
sg10
F0.35531194471884653
ssI198
(dp208
g9
F0.7075027793442987
sg10
F0.39556035468398076
ssI199
(dp209
g9
F0.32278641826782273
sg10
F0.22082938242403238
sssS'node_dict_factory'
p210
c__builtin__
dict
p211
sS'edge_attr_dict_factory'
p212
g211
sS'edge'
p213
(dp214
I0
(dp215
sI1
(dp216
sI2
(dp217
sI3
(dp218
sI4
(dp219
sI5
(dp220
sI6
(dp221
sI7
(dp222
sI8
(dp223
sI9
(dp224
sI10
(dp225
sI11
(dp226
sI12
(dp227
sI13
(dp228
sI14
(dp229
sI15
(dp230
sI16
(dp231
sI17
(dp232
sI18
(dp233
sI19
(dp234
sI20
(dp235
sI21
(dp236
sI22
(dp237
sI23
(dp238
sI24
(dp239
sI25
(dp240
sI26
(dp241
sI27
(dp242
sI28
(dp243
sI29
(dp244
sI30
(dp245
sI31
(dp246
sI32
(dp247
sI33
(dp248
sI34
(dp249
sI35
(dp250
sI36
(dp251
sI37
(dp252
sI38
(dp253
sI39
(dp254
sI40
(dp255
sI41
(dp256
sI42
(dp257
sI43
(dp258
sI44
(dp259
sI45
(dp260
sI46
(dp261
sI47
(dp262
sI48
(dp263
sI49
(dp264
sI50
(dp265
sI51
(dp266
sI52
(dp267
sI53
(dp268
sI54
(dp269
sI55
(dp270
sI56
(dp271
sI57
(dp272
sI58
(dp273
sI59
(dp274
sI60
(dp275
sI61
(dp276
sI62
(dp277
sI63
(dp278
sI64
(dp279
sI65
(dp280
sI66
(dp281
sI67
(dp282
sI68
(dp283
sI69
(dp284
sI70
(dp285
sI71
(dp286
sI72
(dp287
sI73
(dp288
sI74
(dp289
sI75
(dp290
sI76
(dp291
sI77
(dp292
sI78
(dp293
sI79
(dp294
sI80
(dp295
sI81
(dp296
sI82
(dp297
sI83
(dp298
sI84
(dp299
sI85
(dp300
sI86
(dp301
sI87
(dp302
sI88
(dp303
sI89
(dp304
sI90
(dp305
sI91
(dp306
sI92
(dp307
sI93
(dp308
sI94
(dp309
sI95
(dp310
sI96
(dp311
sI97
(dp312
sI98
(dp313
sI99
(dp314
sI100
(dp315
sI101
(dp316
sI102
(dp317
sI103
(dp318
sI104
(dp319
sI105
(dp320
sI106
(dp321
sI107
(dp322
sI108
(dp323
sI109
(dp324
sI110
(dp325
sI111
(dp326
sI112
(dp327
sI113
(dp328
sI114
(dp329
sI115
(dp330
sI116
(dp331
sI117
(dp332
sI118
(dp333
sI119
(dp334
sI120
(dp335
sI121
(dp336
sI122
(dp337
sI123
(dp338
sI124
(dp339
sI125
(dp340
sI126
(dp341
sI127
(dp342
sI128
(dp343
sI129
(dp344
sI130
(dp345
sI131
(dp346
sI132
(dp347
sI133
(dp348
sI134
(dp349
sI135
(dp350
sI136
(dp351
sI137
(dp352
sI138
(dp353
sI139
(dp354
sI140
(dp355
sI141
(dp356
sI142
(dp357
sI143
(dp358
sI144
(dp359
sI145
(dp360
sI146
(dp361
sI147
(dp362
sI148
(dp363
sI149
(dp364
sI150
(dp365
sI151
(dp366
sI152
(dp367
sI153
(dp368
sI154
(dp369
sI155
(dp370
sI156
(dp371
sI157
(dp372
sI158
(dp373
sI159
(dp374
sI160
(dp375
sI161
(dp376
sI162
(dp377
sI163
(dp378
sI164
(dp379
sI165
(dp380
sI166
(dp381
sI167
(dp382
sI168
(dp383
sI169
(dp384
sI170
(dp385
sI171
(dp386
sI172
(dp387
sI173
(dp388
sI174
(dp389
sI175
(dp390
sI176
(dp391
sI177
(dp392
sI178
(dp393
sI179
(dp394
sI180
(dp395
sI181
(dp396
sI182
(dp397
sI183
(dp398
sI184
(dp399
sI185
(dp400
sI186
(dp401
sI187
(dp402
sI188
(dp403
sI189
(dp404
sI190
(dp405
sI191
(dp406
sI192
(dp407
sI193
(dp408
sI194
(dp409
sI195
(dp410
sI196
(dp411
sI197
(dp412
sI198
(dp413
sI199
(dp414
ssS'graph'
p415
(dp416
sS'adjlist_dict_factory'
p417
g211
sS'adj'
p418
g214
sb.