ccopy_reg
_reconstructor
p0
(cnetworkx.classes.graph
Graph
p1
c__builtin__
object
p2
Ntp3
Rp4
(dp5
S'node'
p6
(dp7
I0
(dp8
S'pos_x'
p9
F0.5954467851184146
sS'pos_y'
p10
F0.7930406685046283
ssI1
(dp11
g9
F0.33030566249108906
sg10
F0.3985195323568934
ssI2
(dp12
g9
F0.36141797282638144
sg10
F0.9313869318354011
ssI3
(dp13
g9
F0.450096195708236
sg10
F0.2400548890120584
ssI4
(dp14
g9
F0.42331190990550005
sg10
F0.05994646480528576
ssI5
(dp15
g9
F0.859757866372431
sg10
F0.7036670753794819
ssI6
(dp16
g9
F0.11813773611411427
sg10
F0.15776325419914372
ssI7
(dp17
g9
F0.6304863067829705
sg10
F0.4275826603770019
ssI8
(dp18
g9
F0.21832570095747872
sg10
F0.9385159642811877
ssI9
(dp19
g9
F0.5281825469428204
sg10
F0.8532789183646061
ssI10
(dp20
g9
F0.02392265754173517
sg10
F0.571878108140048
ssI11
(dp21
g9
F0.547733930243276
sg10
F0.5206040792206139
ssI12
(dp22
g9
F0.7721009721222154
sg10
F0.23847756802218145
ssI13
(dp23
g9
F0.7168225106704671
sg10
F0.7515626922432294
ssI14
(dp24
g9
F0.5182944309085324
sg10
F0.21413934029758208
ssI15
(dp25
g9
F0.8120494538346301
sg10
F0.7355343494521599
ssI16
(dp26
g9
F0.7653455076450179
sg10
F0.022480236728097736
ssI17
(dp27
g9
F0.3972718319620627
sg10
F0.30957634072150797
ssI18
(dp28
g9
F0.2825587878997051
sg10
F0.8978683123513638
ssI19
(dp29
g9
F0.1745224224007671
sg10
F0.06029871820082755
ssI20
(dp30
g9
F0.13059069974337112
sg10
F0.8042329229016715
ssI21
(dp31
g9
F0.36692342330860395
sg10
F0.7602834898015512
ssI22
(dp32
g9
F0.7002771131264728
sg10
F0.07461075954260588
ssI23
(dp33
g9
F0.5989666352549293
sg10
F0.7736448390468627
ssI24
(dp34
g9
F0.6734231617146268
sg10
F0.05730828540500965
ssI25
(dp35
g9
F0.13455818962960853
sg10
F0.8573489864798342
ssI26
(dp36
g9
F0.5752308649444942
sg10
F0.44410676042556463
ssI27
(dp37
g9
F0.2540946188880254
sg10
F0.8026877376472749
ssI28
(dp38
g9
F0.4259493329834064
sg10
F0.08428286663042117
ssI29
(dp39
g9
F0.9791599548126377
sg10
F0.2466128323894723
ssI30
(dp40
g9
F0.983814628147746
sg10
F0.11422907503101176
ssI31
(dp41
g9
F0.1497367980495815
sg10
F0.826997312928229
ssI32
(dp42
g9
F0.1816581248298621
sg10
F0.3668090985783258
ssI33
(dp43
g9
F0.8114888489648264
sg10
F0.060824606806293646
ssI34
(dp44
g9
F0.9544679023583298
sg10
F0.896697287113217
ssI35
(dp45
g9
F0.1687396886329645
sg10
F0.8509625167780316
ssI36
(dp46
g9
F0.8633812170211037
sg10
F0.8440769979543239
ssI37
(dp47
g9
F0.981804060156039
sg10
F0.28463698337564447
ssI38
(dp48
g9
F0.44069276848882577
sg10
F0.5529383260589184
ssI39
(dp49
g9
F0.16623951789222935
sg10
F0.14027447873115884
ssI40
(dp50
g9
F0.8259771891677811
sg10
F0.28740099070511516
ssI41
(dp51
g9
F0.6236991298687471
sg10
F0.8087200671083138
ssI42
(dp52
g9
F0.5755935341318262
sg10
F0.607735802258381
ssI43
(dp53
g9
F0.19095672415216258
sg10
F0.2644492944746061
ssI44
(dp54
g9
F0.3713339619507767
sg10
F0.31719483877486676
ssI45
(dp55
g9
F0.35635094453130767
sg10
F0.0801730518780781
ssI46
(dp56
g9
F0.00427684728036315
sg10
F0.7626668173903307
ssI47
(dp57
g9
F0.44352565333788474
sg10
F0.11208517562992948
ssI48
(dp58
g9
F0.24075482619386335
sg10
F0.6343035450160789
ssI49
(dp59
g9
F0.5310990191122509
sg10
F0.7912352022060836
ssI50
(dp60
g9
F0.3456181362533901
sg10
F0.4364692314478814
ssI51
(dp61
g9
F0.6743285072378127
sg10
F0.7599676416358122
ssI52
(dp62
g9
F0.23060284947373455
sg10
F0.9940182878168596
ssI53
(dp63
g9
F0.3799995383498017
sg10
F0.8507843741253872
ssI54
(dp64
g9
F0.47172666192857493
sg10
F0.00459292625685459
ssI55
(dp65
g9
F0.05873024740869226
sg10
F0.9197355516973299
ssI56
(dp66
g9
F0.6593417209011379
sg10
F0.8706902907684319
ssI57
(dp67
g9
F0.5996989270704624
sg10
F0.23033360115957335
ssI58
(dp68
g9
F0.8094259159375987
sg10
F0.2459082843893775
ssI59
(dp69
g9
F0.04509921200681011
sg10
F0.4026826425191774
ssI60
(dp70
g9
F0.4888420382405435
sg10
F0.7581034541286141
ssI61
(dp71
g9
F0.5281706588578725
sg10
F0.7134142244911422
ssI62
(dp72
g9
F0.9368769316998028
sg10
F0.8323622346496338
ssI63
(dp73
g9
F0.9477311518195713
sg10
F0.20354366314501504
ssI64
(dp74
g9
F0.07501034352106406
sg10
F0.10382997059660115
ssI65
(dp75
g9
F0.2571447674718792
sg10
F0.4662830672859306
ssI66
(dp76
g9
F0.5093919875894941
sg10
F0.6879667404166375
ssI67
(dp77
g9
F0.5930198721936789
sg10
F0.5778195438559306
ssI68
(dp78
g9
F0.47068485315702224
sg10
F0.7266273473579313
ssI69
(dp79
g9
F0.6041320113293668
sg10
F0.07024760267517172
ssI70
(dp80
g9
F0.7329737308926777
sg10
F0.2713059565573167
ssI71
(dp81
g9
F0.8147100492406294
sg10
F0.1738175973550501
ssI72
(dp82
g9
F0.25132916793670657
sg10
F0.5106570638125727
ssI73
(dp83
g9
F0.18883129902799123
sg10
F0.7619262888378914
ssI74
(dp84
g9
F0.41776564739642885
sg10
F0.18952842580029305
ssI75
(dp85
g9
F0.9429161522938029
sg10
F0.5657917289497593
ssI76
(dp86
g9
F0.4112234513856353
sg10
F0.4629116064988342
ssI77
(dp87
g9
F0.2753612864679442
sg10
F0.9500389791622702
ssI78
(dp88
g9
F0.35968540086644774
sg10
F0.40788206720284736
ssI79
(dp89
g9
F0.45217353135478466
sg10
F0.8906043049242317
ssI80
(dp90
g9
F0.6102553034720796
sg10
F0.8195755100794764
ssI81
(dp91
g9
F0.6030411512897601
sg10
F0.005870506817980292
ssI82
(dp92
g9
F0.6016876907350593
sg10
F0.7403417571391809
ssI83
(dp93
g9
F0.030889519063198145
sg10
F0.15850492005664651
ssI84
(dp94
g9
F0.1024085556802955
sg10
F0.398209791936349
ssI85
(dp95
g9
F0.9393590519884367
sg10
F0.4805251659171059
ssI86
(dp96
g9
F0.051318753393050365
sg10
F0.5630474710367134
ssI87
(dp97
g9
F0.4342779899312861
sg10
F0.8729363946507365
ssI88
(dp98
g9
F0.672983438704431
sg10
F0.06837060025956432
ssI89
(dp99
g9
F0.9277288544392798
sg10
F0.7632107391504855
ssI90
(dp100
g9
F0.8599584868589216
sg10
F0.18154284878635352
ssI91
(dp101
g9
F0.30608086068409357
sg10
F0.5702253998824431
ssI92
(dp102
g9
F0.16912550755993283
sg10
F0.3093735040522573
ssI93
(dp103
g9
F0.2878397187497954
sg10
F0.9146360503388429
ssI94
(dp104
g9
F0.7422327591216871
sg10
F0.12097901834525349
ssI95
(dp105
g9
F0.17657131430498663
sg10
F0.4506551358691836
ssI96
(dp106
g9
F0.802842973278687
sg10
F0.6722211269438303
ssI97
(dp107
g9
F0.016397244765119945
sg10
F0.5632095225089746
ssI98
(dp108
g9
F0.3346341492177801
sg10
F0.5391490638364712
ssI99
(dp109
g9
F0.31483032598742855
sg10
F0.9510360560164793
ssI100
(dp110
g9
F0.6953282283983266
sg10
F0.3609207136741903
ssI101
(dp111
g9
F0.5977531613627262
sg10
F0.9310969200788972
ssI102
(dp112
g9
F0.2702925932540662
sg10
F0.13120265982769852
ssI103
(dp113
g9
F0.6010113494626652
sg10
F0.1558367363179216
ssI104
(dp114
g9
F0.1848743110249631
sg10
F0.45685129990970696
ssI105
(dp115
g9
F0.19830753200090523
sg10
F0.36892143713951076
ssI106
(dp116
g9
F0.9377698547999312
sg10
F0.6989436774126164
ssI107
(dp117
g9
F0.20514986456715611
sg10
F0.05521477676592845
ssI108
(dp118
g9
F0.747190645465413
sg10
F0.48161990221893747
ssI109
(dp119
g9
F0.37719455189308293
sg10
F0.7308581478619257
ssI110
(dp120
g9
F0.2494803142621137
sg10
F0.8292551746088573
ssI111
(dp121
g9
F0.3670839302730373
sg10
F0.9166007482084841
ssI112
(dp122
g9
F0.7283218590407411
sg10
F0.8219248745807284
ssI113
(dp123
g9
F0.5858627504116167
sg10
F0.8138029827760723
ssI114
(dp124
g9
F0.5038013145109449
sg10
F0.39627200993591605
ssI115
(dp125
g9
F0.8758235771077367
sg10
F0.6518575144426784
ssI116
(dp126
g9
F0.538351695271853
sg10
F0.8348414902417266
ssI117
(dp127
g9
F0.6008211833977803
sg10
F0.8001531504170974
ssI118
(dp128
g9
F0.8098376863137046
sg10
F0.8354236321988885
ssI119
(dp129
g9
F0.7335008396703484
sg10
F0.3453740848418305
ssI120
(dp130
g9
F0.1767744359753416
sg10
F0.9194104899235374
ssI121
(dp131
g9
F0.1576296871693098
sg10
F0.8205344037287335
ssI122
(dp132
g9
F0.5254442787754567
sg10
F0.004680254792654659
ssI123
(dp133
g9
F0.9908913310988606
sg10
F0.7157099319057465
ssI124
(dp134
g9
F0.05937189973976553
sg10
F0.5144298367001868
ssI125
(dp135
g9
F0.04075422066550838
sg10
F0.793971738495585
ssI126
(dp136
g9
F0.6786314845375826
sg10
F0.6195009335446098
ssI127
(dp137
g9
F0.5972260474806309
sg10
F0.1917488502636817
ssI128
(dp138
g9
F0.8353379502514972
sg10
F0.3484516871395781
ssI129
(dp139
g9
F0.49133325825271146
sg10
F0.8926006514708514
ssI130
(dp140
g9
F0.711489342561398
sg10
F0.4163948115493483
ssI131
(dp141
g9
F0.07849905373304111
sg10
F0.7457555032675782
ssI132
(dp142
g9
F0.48153217927620284
sg10
F0.3861936401485814
ssI133
(dp143
g9
F0.7233200449963819
sg10
F0.23368606670533998
ssI134
(dp144
g9
F0.7899119542276016
sg10
F0.14526745016784126
ssI135
(dp145
g9
F0.1150740382746247
sg10
F0.16430323322399198
ssI136
(dp146
g9
F0.8143971279823052
sg10
F0.4642949797552972
ssI137
(dp147
g9
F0.6855320618425635
sg10
F0.7423335375787538
ssI138
(dp148
g9
F0.9140822268076373
sg10
F0.16936673057503482
ssI139
(dp149
g9
F0.8648954760914567
sg10
F0.0721769317967963
ssI140
(dp150
g9
F0.7058382729714545
sg10
F0.8085162393420936
ssI141
(dp151
g9
F0.9637988196292226
sg10
F0.25714386570911896
ssI142
(dp152
g9
F0.7422988189872843
sg10
F0.6317215387172109
ssI143
(dp153
g9
F0.5946804438978758
sg10
F0.16987343211218975
ssI144
(dp154
g9
F0.3918180246444014
sg10
F0.3163545662223689
ssI145
(dp155
g9
F0.6542931371161828
sg10
F0.18002038146001742
ssI146
(dp156
g9
F0.4915263959789101
sg10
F0.9482997335452419
ssI147
(dp157
g9
F0.7988487674441572
sg10
F0.9376420971055773
ssI148
(dp158
g9
F0.7150269875085404
sg10
F0.1583216891767849
ssI149
(dp159
g9
F0.38221556176529703
sg10
F0.028972992197381697
ssI150
(dp160
g9
F0.5336761660533017
sg10
F0.1072206215770094
ssI151
(dp161
g9
F0.3636356496619242
sg10
F0.34593292861897496
ssI152
(dp162
g9
F0.5557409394051335
sg10
F0.09548847006281724
ssI153
(dp163
g9
F0.5814275768183922
sg10
F0.5281784840434467
ssI154
(dp164
g9
F0.7859632454781251
sg10
F0.11707306087467573
ssI155
(dp165
g9
F0.3726747410568967
sg10
F0.2755393113763702
ssI156
(dp166
g9
F0.3708307285725443
sg10
F0.057723734924852166
ssI157
(dp167
g9
F0.0815614558233052
sg10
F0.681775270750145
ssI158
(dp168
g9
F0.8215532644502284
sg10
F0.9762200267504448
ssI159
(dp169
g9
F0.011261901958716014
sg10
F0.6856854616097717
ssI160
(dp170
g9
F0.3124775969550707
sg10
F0.8880869691810735
ssI161
(dp171
g9
F0.5117149739513026
sg10
F0.9090410743643723
ssI162
(dp172
g9
F0.10060685437552797
sg10
F0.745237674076117
ssI163
(dp173
g9
F0.11539619283307789
sg10
F0.46827853173811806
ssI164
(dp174
g9
F0.6975543588967389
sg10
F0.47079048844034677
ssI165
(dp175
g9
F0.8502246798054173
sg10
F0.8991392257422592
ssI166
(dp176
g9
F0.4684702972751653
sg10
F0.022497748527761652
ssI167
(dp177
g9
F0.7682319817814655
sg10
F0.6382804428001608
ssI168
(dp178
g9
F0.7047389017303766
sg10
F0.593984664206797
ssI169
(dp179
g9
F0.19100226467401138
sg10
F0.42498294312057894
ssI170
(dp180
g9
F0.8805740235332672
sg10
F0.961852569343687
ssI171
(dp181
g9
F0.591562756980405
sg10
F0.7433086920042624
ssI172
(dp182
g9
F0.34840494730106275
sg10
F0.8712706284973758
ssI173
(dp183
g9
F0.4167107854144486
sg10
F0.9017587100572383
ssI174
(dp184
g9
F0.5065253668929245
sg10
F0.02698360796646604
ssI175
(dp185
g9
F0.3827184986163321
sg10
F0.6154973049530551
ssI176
(dp186
g9
F0.6778992252807944
sg10
F0.31335221230684973
ssI177
(dp187
g9
F0.04130046640415874
sg10
F0.6939485347416925
ssI178
(dp188
g9
F0.8866280454279057
sg10
F0.6152374042185698
ssI179
(dp189
g9
F0.07108517017652005
sg10
F0.4257654971637097
ssI180
(dp190
g9
F0.6032633186103921
sg10
F0.6810459213693979
ssI181
(dp191
g9
F0.6248367896376135
sg10
F0.33437786917511425
ssI182
(dp192
g9
F0.6878870726188365
sg10
F0.02245820963421774
ssI183
(dp193
g9
F0.06007630830973054
sg10
F0.2578808368442356
ssI184
(dp194
g9
F0.6278858756197376
sg10
F0.6143459398862678
ssI185
(dp195
g9
F0.9330509018390508
sg10
F0.7336297856449763
ssI186
(dp196
g9
F0.06880506499560923
sg10
F0.9723462190392842
ssI187
(dp197
g9
F0.6451305374667896
sg10
F0.37781098815330916
ssI188
(dp198
g9
F0.19323565022301836
sg10
F0.9436826624787027
ssI189
(dp199
g9
F0.35259326829288806
sg10
F0.20809284984058685
ssI190
(dp200
g9
F0.8405052773949129
sg10
F0.3923437763943355
ssI191
(dp201
g9
F0.9303896974043772
sg10
F0.14424603090615207
ssI192
(dp202
g9
F0.9801182629164126
sg10
F0.8860879034466186
ssI193
(dp203
g9
F0.5903055156898169
sg10
F0.4038758330111616
ssI194
(dp204
g9
F0.030198614837578908
sg10
F0.15298237210778864
ssI195
(dp205
g9
F0.7470768322688488
sg10
F0.20427089529605424
ssI196
(dp206
g9
F0.7578736727411487
sg10
F0.6976290185248549
ssI197
(dp207
g9
F0.4028710977308809
sg10
F0.8323966291196577
ssI198
(dp208
g9
F0.7721621469971102
sg10
F0.3293872814107126
ssI199
(dp209
g9
F0.3887439919586533
sg10
F0.38541329300339433
ssI200
(dp210
g9
F0.19092349932432295
sg10
F0.0005401346176125976
ssI201
(dp211
g9
F0.7770534874523669
sg10
F0.9108174744925174
ssI202
(dp212
g9
F0.016567712011204105
sg10
F0.9241866570974194
ssI203
(dp213
g9
F0.7861624825799189
sg10
F0.561344543908194
ssI204
(dp214
g9
F0.9158517967247128
sg10
F0.6183525922297645
ssI205
(dp215
g9
F0.08039684074473474
sg10
F0.06400249877163222
ssI206
(dp216
g9
F0.6847035641681407
sg10
F0.8104557579059369
ssI207
(dp217
g9
F0.1953743939523218
sg10
F0.13446209804964349
ssI208
(dp218
g9
F0.9572794370714259
sg10
F0.7989984872116185
ssI209
(dp219
g9
F0.1857690979889055
sg10
F0.5862144436973853
ssI210
(dp220
g9
F0.4030312960608412
sg10
F0.01580657863565349
ssI211
(dp221
g9
F0.6700140461911981
sg10
F0.3963502413299873
ssI212
(dp222
g9
F0.18140430834257038
sg10
F0.21564192285697514
ssI213
(dp223
g9
F0.3516939426977679
sg10
F0.2332748515891111
ssI214
(dp224
g9
F0.30190715605525253
sg10
F0.0251244729447484
ssI215
(dp225
g9
F0.5557501077334632
sg10
F0.882726549661216
ssI216
(dp226
g9
F0.38696308609018726
sg10
F0.8173844764980464
ssI217
(dp227
g9
F0.6730519830904376
sg10
F0.6169205404163499
ssI218
(dp228
g9
F0.9746594201596749
sg10
F0.694587081804439
ssI219
(dp229
g9
F0.8474655051194063
sg10
F0.1882054211135311
ssI220
(dp230
g9
F0.7494928208420866
sg10
F0.5998148161376512
ssI221
(dp231
g9
F0.9212106265687838
sg10
F0.08719371428864675
ssI222
(dp232
g9
F0.9021896152681429
sg10
F0.7787899943927009
ssI223
(dp233
g9
F0.554953683288102
sg10
F0.44633377290963583
ssI224
(dp234
g9
F0.23153539685698865
sg10
F0.26789313627631817
ssI225
(dp235
g9
F0.5081404269616439
sg10
F0.570841721272095
ssI226
(dp236
g9
F0.5933592752190868
sg10
F0.4799830474176007
ssI227
(dp237
g9
F0.24579796520279806
sg10
F0.3053695927226905
ssI228
(dp238
g9
F0.16574866869232652
sg10
F0.11202595791203374
ssI229
(dp239
g9
F0.9357709145910026
sg10
F0.20730718246190882
ssI230
(dp240
g9
F0.4638947133535488
sg10
F0.07477971936233163
ssI231
(dp241
g9
F0.11329916946642993
sg10
F0.05338768856031517
ssI232
(dp242
g9
F0.4459325842247893
sg10
F0.06869504730800347
ssI233
(dp243
g9
F0.21518086667302738
sg10
F0.3253976171594417
ssI234
(dp244
g9
F0.9888240081717479
sg10
F0.434094823877052
ssI235
(dp245
g9
F0.42271294258746206
sg10
F0.9120236979227127
ssI236
(dp246
g9
F0.042523739500715196
sg10
F0.7515330237568354
ssI237
(dp247
g9
F0.08451789770496287
sg10
F0.7181105541991951
ssI238
(dp248
g9
F0.948979624757688
sg10
F0.4703238271690766
ssI239
(dp249
g9
F0.812181376586377
sg10
F0.3683189434676408
ssI240
(dp250
g9
F0.7221696543809842
sg10
F0.6802718553914772
ssI241
(dp251
g9
F0.5600499669009146
sg10
F0.4504764598012616
ssI242
(dp252
g9
F0.5855700953150721
sg10
F0.07423446508271103
ssI243
(dp253
g9
F0.11975139806069379
sg10
F0.2669984375405323
ssI244
(dp254
g9
F0.2948772598103433
sg10
F0.6513963596559917
ssI245
(dp255
g9
F0.9956472131783876
sg10
F0.7560319490080122
ssI246
(dp256
g9
F0.8053517132752136
sg10
F0.561990849004863
ssI247
(dp257
g9
F0.09697403589875297
sg10
F0.5452446191562141
ssI248
(dp258
g9
F0.9359205103767928
sg10
F0.6914561863922343
ssI249
(dp259
g9
F0.6784231893820329
sg10
F0.8609737830065846
ssI250
(dp260
g9
F0.548324563007178
sg10
F0.8329438570295662
ssI251
(dp261
g9
F0.3560908496448202
sg10
F0.49847388289219263
ssI252
(dp262
g9
F0.021456763967608095
sg10
F0.5666165902127911
ssI253
(dp263
g9
F0.5409438716779152
sg10
F0.21719142388886237
ssI254
(dp264
g9
F0.8407677508673865
sg10
F0.3365927257644913
ssI255
(dp265
g9
F0.9303155967958789
sg10
F0.770487821562538
ssI256
(dp266
g9
F0.4696091354397389
sg10
F0.11923424291489593
ssI257
(dp267
g9
F0.12981071284399914
sg10
F0.9509135350317739
ssI258
(dp268
g9
F0.2038947549063066
sg10
F0.2945202265174711
ssI259
(dp269
g9
F0.6512292653150829
sg10
F0.10428143358589337
ssI260
(dp270
g9
F0.4157615689673384
sg10
F0.94029532682117
ssI261
(dp271
g9
F0.5351361542126335
sg10
F0.3850614706520529
ssI262
(dp272
g9
F0.2318880127596663
sg10
F0.6761111994521884
ssI263
(dp273
g9
F0.24449784846958578
sg10
F0.5650230238713362
ssI264
(dp274
g9
F0.6116153213353326
sg10
F0.006087198132989746
ssI265
(dp275
g9
F0.39908228722475825
sg10
F0.1366470930716568
ssI266
(dp276
g9
F0.08221171342053635
sg10
F0.09764324273577707
ssI267
(dp277
g9
F0.041468977449529376
sg10
F0.3543378111741282
ssI268
(dp278
g9
F0.2270356237061718
sg10
F0.16345427866805962
ssI269
(dp279
g9
F0.7603419211682393
sg10
F0.6145731391870151
ssI270
(dp280
g9
F0.013264703884722673
sg10
F0.5034202950743707
ssI271
(dp281
g9
F0.7175877186293571
sg10
F0.7128668301986802
ssI272
(dp282
g9
F0.7614860392850346
sg10
F0.8646537603419515
ssI273
(dp283
g9
F0.9770361027406077
sg10
F0.6847679193543724
ssI274
(dp284
g9
F0.9502540866285188
sg10
F0.7772865841436426
ssI275
(dp285
g9
F0.2769192242073838
sg10
F0.1044596961209544
ssI276
(dp286
g9
F0.4672848539451978
sg10
F0.9007516631023077
ssI277
(dp287
g9
F0.8339266418620634
sg10
F0.3950741278914539
ssI278
(dp288
g9
F0.9025088019581398
sg10
F0.7435686253531234
ssI279
(dp289
g9
F0.2919150423124235
sg10
F0.6110772096373903
ssI280
(dp290
g9
F0.8603783089861085
sg10
F0.4079428417805433
ssI281
(dp291
g9
F0.5406396502364791
sg10
F0.5808602438986321
ssI282
(dp292
g9
F0.9859397170168794
sg10
F0.5498757408168478
ssI283
(dp293
g9
F0.7432845770390035
sg10
F0.4780987256594067
ssI284
(dp294
g9
F0.14680111984430788
sg10
F0.16071089217565193
ssI285
(dp295
g9
F0.5113003280239257
sg10
F0.3678493466487581
ssI286
(dp296
g9
F0.8478367101176922
sg10
F0.48478513337665774
ssI287
(dp297
g9
F0.3870004291910807
sg10
F0.739313683972624
ssI288
(dp298
g9
F0.22005094785765644
sg10
F0.09874358982480025
ssI289
(dp299
g9
F0.780710929127722
sg10
F0.23882044360894894
ssI290
(dp300
g9
F0.42004251629563605
sg10
F0.8153904513862763
ssI291
(dp301
g9
F0.1490097985669988
sg10
F0.7202148411501212
ssI292
(dp302
g9
F0.907628378405236
sg10
F0.14785876429194034
ssI293
(dp303
g9
F0.5693403229515963
sg10
F0.10991666803503142
ssI294
(dp304
g9
F0.05300225007159831
sg10
F0.832309022602229
ssI295
(dp305
g9
F0.7884695271156176
sg10
F0.3443652451274797
ssI296
(dp306
g9
F0.5893715433050268
sg10
F0.41944259327415667
ssI297
(dp307
g9
F0.9146270164499593
sg10
F0.604916050739486
ssI298
(dp308
g9
F0.37244552708035006
sg10
F0.8989363240206766
ssI299
(dp309
g9
F0.5038141083688388
sg10
F0.990496183927367
ssI300
(dp310
g9
F0.36669329261776107
sg10
F0.690087823010706
ssI301
(dp311
g9
F0.2681112180485433
sg10
F0.6539852927764589
ssI302
(dp312
g9
F0.8632493711918154
sg10
F0.2820722747830252
ssI303
(dp313
g9
F0.9285247889895664
sg10
F0.052292764561779004
ssI304
(dp314
g9
F0.38053940168091915
sg10
F0.11188242976012519
ssI305
(dp315
g9
F0.7161602623585163
sg10
F0.5969098439855374
ssI306
(dp316
g9
F0.7534821389605221
sg10
F0.8119357042562283
ssI307
(dp317
g9
F0.5833604882252615
sg10
F0.28322476497302707
ssI308
(dp318
g9
F0.3201453047510089
sg10
F0.9496580554365024
ssI309
(dp319
g9
F0.8950720673224272
sg10
F0.028375635463850468
ssI310
(dp320
g9
F0.8956587818422403
sg10
F0.2673709244159176
ssI311
(dp321
g9
F0.9964242585429414
sg10
F0.10873031750368833
ssI312
(dp322
g9
F0.9279690194930588
sg10
F0.3005805783060084
ssI313
(dp323
g9
F0.47237001169969617
sg10
F0.3868206683650669
ssI314
(dp324
g9
F0.4123031472387324
sg10
F0.44019614605042656
ssI315
(dp325
g9
F0.9343619015296831
sg10
F0.9360228993914429
ssI316
(dp326
g9
F0.3784555366620679
sg10
F0.23604611234505735
ssI317
(dp327
g9
F0.9141300871231821
sg10
F0.5717978415395756
ssI318
(dp328
g9
F0.9749384867954676
sg10
F0.5717810968274027
ssI319
(dp329
g9
F0.2359257956657853
sg10
F0.15943675776431065
ssI320
(dp330
g9
F0.2299811051176468
sg10
F0.9415559787328857
ssI321
(dp331
g9
F0.3534902431214204
sg10
F0.3861473458316883
ssI322
(dp332
g9
F0.808804694290468
sg10
F0.1419184390858339
ssI323
(dp333
g9
F0.2732165866333507
sg10
F0.11802334625679622
ssI324
(dp334
g9
F0.7112806077677891
sg10
F0.6461333800558803
ssI325
(dp335
g9
F0.9767352551546463
sg10
F0.9025729326894387
ssI326
(dp336
g9
F0.9198318307562473
sg10
F0.5082239628628271
ssI327
(dp337
g9
F0.66895635516666
sg10
F0.6899387524145945
ssI328
(dp338
g9
F0.3025908796294562
sg10
F0.5405247416213641
ssI329
(dp339
g9
F0.07446904375687746
sg10
F0.7833678134888603
ssI330
(dp340
g9
F0.8540708447311788
sg10
F0.7139337652305118
ssI331
(dp341
g9
F0.716255160140335
sg10
F0.11227024226359616
ssI332
(dp342
g9
F0.7307002698990274
sg10
F0.6863719451624196
ssI333
(dp343
g9
F0.7849229093816467
sg10
F0.7838490183776052
ssI334
(dp344
g9
F0.9589818000686279
sg10
F0.48427772988682294
ssI335
(dp345
g9
F0.09879568655605686
sg10
F0.21682462623448528
ssI336
(dp346
g9
F0.03286530862653225
sg10
F0.3599452719477554
ssI337
(dp347
g9
F0.9463851913005555
sg10
F0.5009171511911794
ssI338
(dp348
g9
F0.8080901118322702
sg10
F0.9623939154398585
ssI339
(dp349
g9
F0.30223680821765253
sg10
F0.5038146094059864
ssI340
(dp350
g9
F0.8144016453751504
sg10
F0.2352336573304089
ssI341
(dp351
g9
F0.16837676747630947
sg10
F0.44294158817282836
ssI342
(dp352
g9
F0.06109128073996817
sg10
F0.5951305008886821
ssI343
(dp353
g9
F0.28879673099105496
sg10
F0.17740686596864663
ssI344
(dp354
g9
F0.9711366018785432
sg10
F0.7886524461351921
ssI345
(dp355
g9
F0.3459363343837447
sg10
F0.3102673451737278
ssI346
(dp356
g9
F0.40196641367942576
sg10
F0.5960889683266705
ssI347
(dp357
g9
F0.9246448128522752
sg10
F0.8517331679494629
ssI348
(dp358
g9
F0.11787075955778692
sg10
F0.9494928037646
ssI349
(dp359
g9
F0.5444152979554577
sg10
F0.8351845964725363
ssI350
(dp360
g9
F0.8718328303339122
sg10
F0.28440657837446615
ssI351
(dp361
g9
F0.356280273948392
sg10
F0.09379893718131316
ssI352
(dp362
g9
F0.4860023734150368
sg10
F0.398434168026105
ssI353
(dp363
g9
F0.1084326710789576
sg10
F0.3158338261915754
ssI354
(dp364
g9
F0.7902602459713093
sg10
F0.08423071170530438
ssI355
(dp365
g9
F0.4946671415491022
sg10
F0.6948985922834068
ssI356
(dp366
g9
F0.46056280773270164
sg10
F0.9810268957733864
ssI357
(dp367
g9
F0.5386833335177788
sg10
F0.9580525517905851
ssI358
(dp368
g9
F0.4833877829508787
sg10
F0.6039354135009887
ssI359
(dp369
g9
F0.4821935800273812
sg10
F0.7358377079797204
ssI360
(dp370
g9
F0.19176852220688734
sg10
F0.586172409612869
ssI361
(dp371
g9
F0.7653682504962002
sg10
F0.7124127260333412
ssI362
(dp372
g9
F0.5896890067250674
sg10
F0.6131189893141914
ssI363
(dp373
g9
F0.6065866252743589
sg10
F0.8634198131899243
ssI364
(dp374
g9
F0.07885114701123652
sg10
F0.9827158241787649
ssI365
(dp375
g9
F0.5181892625248893
sg10
F0.6339569293885523
ssI366
(dp376
g9
F0.2769075851537326
sg10
F0.8794890935367844
ssI367
(dp377
g9
F0.5195545222050196
sg10
F0.2957044028045389
ssI368
(dp378
g9
F0.7551138273337177
sg10
F0.715195556682415
ssI369
(dp379
g9
F0.3090717866444701
sg10
F0.5403719713321828
ssI370
(dp380
g9
F0.7214609154418029
sg10
F0.0032767670808513394
ssI371
(dp381
g9
F0.8014883063349174
sg10
F0.9373080494119416
ssI372
(dp382
g9
F0.8983086658137548
sg10
F0.5712839043709913
ssI373
(dp383
g9
F0.5313074841736742
sg10
F0.2539597951511875
ssI374
(dp384
g9
F0.41066325675557125
sg10
F0.392459384517159
ssI375
(dp385
g9
F0.7768875721796478
sg10
F0.5340130735057125
ssI376
(dp386
g9
F0.649489270010508
sg10
F0.6218264430095168
ssI377
(dp387
g9
F0.9741747959464199
sg10
F0.5078645543062243
ssI378
(dp388
g9
F0.718050784900135
sg10
F0.14168233190395219
ssI379
(dp389
g9
F0.1635965330713538
sg10
F0.22669047227875272
ssI380
(dp390
g9
F0.5086459476535247
sg10
F0.8791178334465043
ssI381
(dp391
g9
F0.7440678207352368
sg10
F0.8717831754608192
ssI382
(dp392
g9
F0.805070241710775
sg10
F0.4582263743213296
ssI383
(dp393
g9
F0.7399855540683432
sg10
F0.10296033971799967
ssI384
(dp394
g9
F0.883021625613524
sg10
F0.37446494516535234
ssI385
(dp395
g9
F0.5125897459002801
sg10
F0.41063940424947465
ssI386
(dp396
g9
F0.25664077713500166
sg10
F0.40414614525293957
ssI387
(dp397
g9
F0.7443470885279241
sg10
F0.59829676885673
ssI388
(dp398
g9
F0.9125061653526046
sg10
F0.1397815209078508
ssI389
(dp399
g9
F0.5721945699764721
sg10
F0.4312355674188135
ssI390
(dp400
g9
F0.014662040486683847
sg10
F0.7648206274277509
ssI391
(dp401
g9
F0.300314963445945
sg10
F0.6785155177225007
ssI392
(dp402
g9
F0.6628751871200362
sg10
F0.24947808744829536
ssI393
(dp403
g9
F0.6847988601887955
sg10
F0.21622836158515835
ssI394
(dp404
g9
F0.9934543916692027
sg10
F0.6714103331632875
ssI395
(dp405
g9
F0.7986753152744248
sg10
F0.9181902444094842
ssI396
(dp406
g9
F0.7385628039322537
sg10
F0.7553841917223253
ssI397
(dp407
g9
F0.692904391903958
sg10
F0.16765686339041352
ssI398
(dp408
g9
F0.3023787164981181
sg10
F0.46770186593080165
ssI399
(dp409
g9
F0.8300294020130015
sg10
F0.3428807999274157
sssS'node_dict_factory'
p410
c__builtin__
dict
p411
sS'edge_attr_dict_factory'
p412
g411
sS'edge'
p413
(dp414
I0
(dp415
sI1
(dp416
sI2
(dp417
sI3
(dp418
sI4
(dp419
sI5
(dp420
sI6
(dp421
sI7
(dp422
sI8
(dp423
sI9
(dp424
sI10
(dp425
sI11
(dp426
sI12
(dp427
sI13
(dp428
sI14
(dp429
sI15
(dp430
sI16
(dp431
sI17
(dp432
sI18
(dp433
sI19
(dp434
sI20
(dp435
sI21
(dp436
sI22
(dp437
sI23
(dp438
sI24
(dp439
sI25
(dp440
sI26
(dp441
sI27
(dp442
sI28
(dp443
sI29
(dp444
sI30
(dp445
sI31
(dp446
sI32
(dp447
sI33
(dp448
sI34
(dp449
sI35
(dp450
sI36
(dp451
sI37
(dp452
sI38
(dp453
sI39
(dp454
sI40
(dp455
sI41
(dp456
sI42
(dp457
sI43
(dp458
sI44
(dp459
sI45
(dp460
sI46
(dp461
sI47
(dp462
sI48
(dp463
sI49
(dp464
sI50
(dp465
sI51
(dp466
sI52
(dp467
sI53
(dp468
sI54
(dp469
sI55
(dp470
sI56
(dp471
sI57
(dp472
sI58
(dp473
sI59
(dp474
sI60
(dp475
sI61
(dp476
sI62
(dp477
sI63
(dp478
sI64
(dp479
sI65
(dp480
sI66
(dp481
sI67
(dp482
sI68
(dp483
sI69
(dp484
sI70
(dp485
sI71
(dp486
sI72
(dp487
sI73
(dp488
sI74
(dp489
sI75
(dp490
sI76
(dp491
sI77
(dp492
sI78
(dp493
sI79
(dp494
sI80
(dp495
sI81
(dp496
sI82
(dp497
sI83
(dp498
sI84
(dp499
sI85
(dp500
sI86
(dp501
sI87
(dp502
sI88
(dp503
sI89
(dp504
sI90
(dp505
sI91
(dp506
sI92
(dp507
sI93
(dp508
sI94
(dp509
sI95
(dp510
sI96
(dp511
sI97
(dp512
sI98
(dp513
sI99
(dp514
sI100
(dp515
sI101
(dp516
sI102
(dp517
sI103
(dp518
sI104
(dp519
sI105
(dp520
sI106
(dp521
sI107
(dp522
sI108
(dp523
sI109
(dp524
sI110
(dp525
sI111
(dp526
sI112
(dp527
sI113
(dp528
sI114
(dp529
sI115
(dp530
sI116
(dp531
sI117
(dp532
sI118
(dp533
sI119
(dp534
sI120
(dp535
sI121
(dp536
sI122
(dp537
sI123
(dp538
sI124
(dp539
sI125
(dp540
sI126
(dp541
sI127
(dp542
sI128
(dp543
sI129
(dp544
sI130
(dp545
sI131
(dp546
sI132
(dp547
sI133
(dp548
sI134
(dp549
sI135
(dp550
sI136
(dp551
sI137
(dp552
sI138
(dp553
sI139
(dp554
sI140
(dp555
sI141
(dp556
sI142
(dp557
sI143
(dp558
sI144
(dp559
sI145
(dp560
sI146
(dp561
sI147
(dp562
sI148
(dp563
sI149
(dp564
sI150
(dp565
sI151
(dp566
sI152
(dp567
sI153
(dp568
sI154
(dp569
sI155
(dp570
sI156
(dp571
sI157
(dp572
sI158
(dp573
sI159
(dp574
sI160
(dp575
sI161
(dp576
sI162
(dp577
sI163
(dp578
sI164
(dp579
sI165
(dp580
sI166
(dp581
sI167
(dp582
sI168
(dp583
sI169
(dp584
sI170
(dp585
sI171
(dp586
sI172
(dp587
sI173
(dp588
sI174
(dp589
sI175
(dp590
sI176
(dp591
sI177
(dp592
sI178
(dp593
sI179
(dp594
sI180
(dp595
sI181
(dp596
sI182
(dp597
sI183
(dp598
sI184
(dp599
sI185
(dp600
sI186
(dp601
sI187
(dp602
sI188
(dp603
sI189
(dp604
sI190
(dp605
sI191
(dp606
sI192
(dp607
sI193
(dp608
sI194
(dp609
sI195
(dp610
sI196
(dp611
sI197
(dp612
sI198
(dp613
sI199
(dp614
sI200
(dp615
sI201
(dp616
sI202
(dp617
sI203
(dp618
sI204
(dp619
sI205
(dp620
sI206
(dp621
sI207
(dp622
sI208
(dp623
sI209
(dp624
sI210
(dp625
sI211
(dp626
sI212
(dp627
sI213
(dp628
sI214
(dp629
sI215
(dp630
sI216
(dp631
sI217
(dp632
sI218
(dp633
sI219
(dp634
sI220
(dp635
sI221
(dp636
sI222
(dp637
sI223
(dp638
sI224
(dp639
sI225
(dp640
sI226
(dp641
sI227
(dp642
sI228
(dp643
sI229
(dp644
sI230
(dp645
sI231
(dp646
sI232
(dp647
sI233
(dp648
sI234
(dp649
sI235
(dp650
sI236
(dp651
sI237
(dp652
sI238
(dp653
sI239
(dp654
sI240
(dp655
sI241
(dp656
sI242
(dp657
sI243
(dp658
sI244
(dp659
sI245
(dp660
sI246
(dp661
sI247
(dp662
sI248
(dp663
sI249
(dp664
sI250
(dp665
sI251
(dp666
sI252
(dp667
sI253
(dp668
sI254
(dp669
sI255
(dp670
sI256
(dp671
sI257
(dp672
sI258
(dp673
sI259
(dp674
sI260
(dp675
sI261
(dp676
sI262
(dp677
sI263
(dp678
sI264
(dp679
sI265
(dp680
sI266
(dp681
sI267
(dp682
sI268
(dp683
sI269
(dp684
sI270
(dp685
sI271
(dp686
sI272
(dp687
sI273
(dp688
sI274
(dp689
sI275
(dp690
sI276
(dp691
sI277
(dp692
sI278
(dp693
sI279
(dp694
sI280
(dp695
sI281
(dp696
sI282
(dp697
sI283
(dp698
sI284
(dp699
sI285
(dp700
sI286
(dp701
sI287
(dp702
sI288
(dp703
sI289
(dp704
sI290
(dp705
sI291
(dp706
sI292
(dp707
sI293
(dp708
sI294
(dp709
sI295
(dp710
sI296
(dp711
sI297
(dp712
sI298
(dp713
sI299
(dp714
sI300
(dp715
sI301
(dp716
sI302
(dp717
sI303
(dp718
sI304
(dp719
sI305
(dp720
sI306
(dp721
sI307
(dp722
sI308
(dp723
sI309
(dp724
sI310
(dp725
sI311
(dp726
sI312
(dp727
sI313
(dp728
sI314
(dp729
sI315
(dp730
sI316
(dp731
sI317
(dp732
sI318
(dp733
sI319
(dp734
sI320
(dp735
sI321
(dp736
sI322
(dp737
sI323
(dp738
sI324
(dp739
sI325
(dp740
sI326
(dp741
sI327
(dp742
sI328
(dp743
sI329
(dp744
sI330
(dp745
sI331
(dp746
sI332
(dp747
sI333
(dp748
sI334
(dp749
sI335
(dp750
sI336
(dp751
sI337
(dp752
sI338
(dp753
sI339
(dp754
sI340
(dp755
sI341
(dp756
sI342
(dp757
sI343
(dp758
sI344
(dp759
sI345
(dp760
sI346
(dp761
sI347
(dp762
sI348
(dp763
sI349
(dp764
sI350
(dp765
sI351
(dp766
sI352
(dp767
sI353
(dp768
sI354
(dp769
sI355
(dp770
sI356
(dp771
sI357
(dp772
sI358
(dp773
sI359
(dp774
sI360
(dp775
sI361
(dp776
sI362
(dp777
sI363
(dp778
sI364
(dp779
sI365
(dp780
sI366
(dp781
sI367
(dp782
sI368
(dp783
sI369
(dp784
sI370
(dp785
sI371
(dp786
sI372
(dp787
sI373
(dp788
sI374
(dp789
sI375
(dp790
sI376
(dp791
sI377
(dp792
sI378
(dp793
sI379
(dp794
sI380
(dp795
sI381
(dp796
sI382
(dp797
sI383
(dp798
sI384
(dp799
sI385
(dp800
sI386
(dp801
sI387
(dp802
sI388
(dp803
sI389
(dp804
sI390
(dp805
sI391
(dp806
sI392
(dp807
sI393
(dp808
sI394
(dp809
sI395
(dp810
sI396
(dp811
sI397
(dp812
sI398
(dp813
sI399
(dp814
ssS'graph'
p815
(dp816
sS'adjlist_dict_factory'
p817
g411
sS'adj'
p818
g414
sb.