ccopy_reg
_reconstructor
p0
(cnetworkx.classes.graph
Graph
p1
c__builtin__
object
p2
Ntp3
Rp4
(dp5
S'node'
p6
(dp7
I0
(dp8
S'pos_x'
p9
F0.8748382154374471
sS'pos_y'
p10
F0.8965702033127081
ssI1
(dp11
g9
F0.9080025443539715
sg10
F0.15041653552858447
ssI2
(dp12
g9
F0.7644138645978291
sg10
F0.3861927584923277
ssI3
(dp13
g9
F0.18795751752277667
sg10
F0.8206586712443077
ssI4
(dp14
g9
F0.15323709229421756
sg10
F0.8663320804366895
ssI5
(dp15
g9
F0.7030343514200575
sg10
F0.28613577862047535
ssI6
(dp16
g9
F0.4040421436504854
sg10
F0.9564610592225224
ssI7
(dp17
g9
F0.4165337184106582
sg10
F0.6168382389083873
ssI8
(dp18
g9
F0.9968078926044545
sg10
F0.391157591908442
ssI9
(dp19
g9
F0.2452043028249078
sg10
F0.19086029280731276
ssI10
(dp20
g9
F0.501653120306698
sg10
F0.4044679200428716
ssI11
(dp21
g9
F0.00481571864338759
sg10
F0.937875797537779
ssI12
(dp22
g9
F0.7887197650902344
sg10
F0.20325054070601545
ssI13
(dp23
g9
F0.28568997708620625
sg10
F0.580772132753224
ssI14
(dp24
g9
F0.4772929917944557
sg10
F0.3734194375540495
ssI15
(dp25
g9
F0.2147820853695639
sg10
F0.007301152343537898
ssI16
(dp26
g9
F0.5080914729573659
sg10
F0.8954375497293264
ssI17
(dp27
g9
F0.05217959507585235
sg10
F0.8051608319879769
ssI18
(dp28
g9
F0.9758043708967257
sg10
F0.6910551148176967
ssI19
(dp29
g9
F0.4806226105627809
sg10
F0.12037551303219418
ssI20
(dp30
g9
F0.37826740743051834
sg10
F0.048087860260206616
ssI21
(dp31
g9
F0.11880274020420778
sg10
F0.11491405428681889
ssI22
(dp32
g9
F0.2303525644624057
sg10
F0.8168218943494981
ssI23
(dp33
g9
F0.2551831575174126
sg10
F0.8296887677443999
ssI24
(dp34
g9
F0.2559859721046912
sg10
F0.7345356875160738
ssI25
(dp35
g9
F0.7067742883711422
sg10
F0.32844347744691316
ssI26
(dp36
g9
F0.7818903457856319
sg10
F0.5221785428382664
ssI27
(dp37
g9
F0.2820131120974927
sg10
F0.47387692908498236
ssI28
(dp38
g9
F0.2130201431829848
sg10
F0.7799812774331886
ssI29
(dp39
g9
F0.23094635571623146
sg10
F0.8771731016661687
ssI30
(dp40
g9
F0.059574799527872924
sg10
F0.7486237052160186
ssI31
(dp41
g9
F0.07643451059966078
sg10
F0.08058187804832606
ssI32
(dp42
g9
F0.7591596001844206
sg10
F0.5317476426408678
ssI33
(dp43
g9
F0.4913675663097963
sg10
F0.31604847360141874
ssI34
(dp44
g9
F0.8636677341397453
sg10
F0.38433511457928327
ssI35
(dp45
g9
F0.0387057930078093
sg10
F0.8463216099256425
ssI36
(dp46
g9
F0.5161723221978152
sg10
F0.27303675119112714
ssI37
(dp47
g9
F0.022153079084716754
sg10
F0.47575371488833496
ssI38
(dp48
g9
F0.8365536712895518
sg10
F0.45190503712369945
ssI39
(dp49
g9
F0.37754014839035743
sg10
F0.43215648492596614
ssI40
(dp50
g9
F0.9414717920748767
sg10
F0.18893507423363642
ssI41
(dp51
g9
F0.8654161525010169
sg10
F0.07052341088192349
ssI42
(dp52
g9
F0.697994717005432
sg10
F0.7596040763045232
ssI43
(dp53
g9
F0.6679396053152163
sg10
F0.1450194955365155
ssI44
(dp54
g9
F0.8016197648790399
sg10
F0.5620078004844116
ssI45
(dp55
g9
F0.17677103641204794
sg10
F0.096001892582804
ssI46
(dp56
g9
F0.4852501339348495
sg10
F0.9700325382280329
ssI47
(dp57
g9
F0.3680223434066473
sg10
F0.450723858189642
ssI48
(dp58
g9
F0.27146524502787484
sg10
F0.9044772861388876
ssI49
(dp59
g9
F0.46143270904756073
sg10
F0.20198926067720635
ssI50
(dp60
g9
F0.7484136193867575
sg10
F0.8940345871258599
ssI51
(dp61
g9
F0.5407954794329206
sg10
F0.3653473899042964
ssI52
(dp62
g9
F0.9047910352303726
sg10
F0.6994139444901157
ssI53
(dp63
g9
F0.6790814513011929
sg10
F0.5621981525642402
ssI54
(dp64
g9
F0.4269351289596971
sg10
F0.8576543785894135
ssI55
(dp65
g9
F0.11189911029193411
sg10
F0.24492983133916002
ssI56
(dp66
g9
F0.9772971983267137
sg10
F0.952346750645746
ssI57
(dp67
g9
F0.36640199795892614
sg10
F0.017360625408733288
ssI58
(dp68
g9
F0.20017294850528022
sg10
F0.8877779465954264
ssI59
(dp69
g9
F0.06917217939716092
sg10
F0.9648856311269053
ssI60
(dp70
g9
F0.8970703251385178
sg10
F0.850089855425844
ssI61
(dp71
g9
F0.28082818887608385
sg10
F0.2154703430402949
ssI62
(dp72
g9
F0.7503576967738544
sg10
F0.8816620484282724
ssI63
(dp73
g9
F0.6432813770585432
sg10
F0.6258138523558612
ssI64
(dp74
g9
F0.5217179733196501
sg10
F0.8696387541597789
ssI65
(dp75
g9
F0.8519226431747466
sg10
F0.8145460471580929
ssI66
(dp76
g9
F0.5698041916857602
sg10
F0.5564512236092343
ssI67
(dp77
g9
F0.9130635963397358
sg10
F0.3233399839791331
ssI68
(dp78
g9
F0.8360348003294292
sg10
F0.7837161512495838
ssI69
(dp79
g9
F0.4802660718057137
sg10
F0.24551971526512062
ssI70
(dp80
g9
F0.17398389519849777
sg10
F0.4104106577675819
ssI71
(dp81
g9
F0.045704102033947924
sg10
F0.21801001147059007
ssI72
(dp82
g9
F0.37493734152668257
sg10
F0.6032922338854124
ssI73
(dp83
g9
F0.45013812103061845
sg10
F0.693545332192287
ssI74
(dp84
g9
F0.7193870040625627
sg10
F0.35261159597930236
ssI75
(dp85
g9
F0.32297100195273054
sg10
F0.8837798983884709
ssI76
(dp86
g9
F0.012178127914555303
sg10
F0.0057032829170464705
ssI77
(dp87
g9
F0.9536465326889471
sg10
F0.31400615754847283
ssI78
(dp88
g9
F0.4488865220573137
sg10
F0.6915350311642514
ssI79
(dp89
g9
F0.580464180256944
sg10
F0.03831338674738449
ssI80
(dp90
g9
F0.9683081344174961
sg10
F0.8382688582482359
ssI81
(dp91
g9
F0.12871598028101272
sg10
F0.3675429747533202
ssI82
(dp92
g9
F0.9268114122941232
sg10
F0.7623127682372342
ssI83
(dp93
g9
F0.9495222503644931
sg10
F0.884873979525306
ssI84
(dp94
g9
F0.5297510191243628
sg10
F0.4658988205540179
ssI85
(dp95
g9
F0.8806455883176062
sg10
F0.365643678324441
ssI86
(dp96
g9
F0.682763878962698
sg10
F0.8365756582776477
ssI87
(dp97
g9
F0.9139927945765046
sg10
F0.88716894854925
ssI88
(dp98
g9
F0.6304927743658053
sg10
F0.7470770554413119
ssI89
(dp99
g9
F0.28263905075524587
sg10
F0.030928659676777936
ssI90
(dp100
g9
F0.27143055589221277
sg10
F0.9954183173857793
ssI91
(dp101
g9
F0.5492843294416575
sg10
F0.18470700653530725
ssI92
(dp102
g9
F0.9364321071873392
sg10
F0.7032918469650051
ssI93
(dp103
g9
F0.25323617067760196
sg10
F0.6049045691355474
ssI94
(dp104
g9
F0.24810075048572
sg10
F0.13768502147661776
ssI95
(dp105
g9
F0.9965110143995327
sg10
F0.42566556996273475
ssI96
(dp106
g9
F0.906914932338286
sg10
F0.3444461672356631
ssI97
(dp107
g9
F0.010517323637725395
sg10
F0.4530541735229806
ssI98
(dp108
g9
F0.5575796214178995
sg10
F0.5313879646316402
ssI99
(dp109
g9
F0.18328299451864816
sg10
F0.9918271489906342
ssI100
(dp110
g9
F0.2146976019197241
sg10
F0.6088399823583674
ssI101
(dp111
g9
F0.6826379084129336
sg10
F0.24844925164731846
ssI102
(dp112
g9
F0.4453959179461232
sg10
F0.36634547853097
ssI103
(dp113
g9
F0.2620776477995993
sg10
F0.3016618456904244
ssI104
(dp114
g9
F0.45132715389233813
sg10
F0.1140290989106687
ssI105
(dp115
g9
F0.0646239514658481
sg10
F0.07891919849499551
ssI106
(dp116
g9
F0.6015551604929316
sg10
F0.25853535942295514
ssI107
(dp117
g9
F0.28884571452385976
sg10
F0.46692390491112845
ssI108
(dp118
g9
F0.19090723711874946
sg10
F0.18301501077167392
ssI109
(dp119
g9
F0.18179083017855124
sg10
F0.4353283445821525
ssI110
(dp120
g9
F0.2972389649766646
sg10
F0.5128020397359411
ssI111
(dp121
g9
F0.11942975598522876
sg10
F0.1337746612602152
ssI112
(dp122
g9
F0.3870189785674818
sg10
F0.5708147554384262
ssI113
(dp123
g9
F0.5391863708527136
sg10
F0.6296391515669776
ssI114
(dp124
g9
F0.22156013407278685
sg10
F0.4962612394500512
ssI115
(dp125
g9
F0.6044087428562026
sg10
F0.05908240439017676
ssI116
(dp126
g9
F0.9920454590419644
sg10
F0.8889406217655927
ssI117
(dp127
g9
F0.05725310597140609
sg10
F0.6389770839561582
ssI118
(dp128
g9
F0.5606859482226076
sg10
F0.8895746719344912
ssI119
(dp129
g9
F0.20079357858041957
sg10
F0.3494156880702294
ssI120
(dp130
g9
F0.7797148150324522
sg10
F0.9059837231677501
ssI121
(dp131
g9
F0.1534825838422691
sg10
F0.9602404392479705
ssI122
(dp132
g9
F0.4196739393807687
sg10
F0.8425533590809575
ssI123
(dp133
g9
F0.7800645862572818
sg10
F0.7376416004507704
ssI124
(dp134
g9
F0.7335075475968037
sg10
F0.46822429814103594
ssI125
(dp135
g9
F0.4490627854748971
sg10
F0.21988485046271256
ssI126
(dp136
g9
F0.017564055145938284
sg10
F0.11438770819986221
ssI127
(dp137
g9
F0.3091294099858114
sg10
F0.7135832070014075
ssI128
(dp138
g9
F0.3712956671264893
sg10
F0.4385296999082001
ssI129
(dp139
g9
F0.20569305880847055
sg10
F0.997061038892481
ssI130
(dp140
g9
F0.8587594770992555
sg10
F0.26514063676200594
ssI131
(dp141
g9
F0.7996390569053821
sg10
F0.05746411064350587
ssI132
(dp142
g9
F0.2409385098830198
sg10
F0.12356104059663031
ssI133
(dp143
g9
F0.8625433461163547
sg10
F0.9917795529803463
ssI134
(dp144
g9
F0.8242426832334598
sg10
F0.1674304403460526
ssI135
(dp145
g9
F0.943490202908386
sg10
F0.8307799361337279
ssI136
(dp146
g9
F0.07919348990509967
sg10
F0.6675756227048888
ssI137
(dp147
g9
F0.8784337296577285
sg10
F0.023253707677213575
ssI138
(dp148
g9
F0.9403775022672938
sg10
F0.3441699715372095
ssI139
(dp149
g9
F0.025881716484257078
sg10
F0.9611830729312034
ssI140
(dp150
g9
F0.17679227905448014
sg10
F0.038659584978004924
ssI141
(dp151
g9
F0.47588403792553857
sg10
F0.35178663764313267
ssI142
(dp152
g9
F0.07788087957353118
sg10
F0.8653120065760544
ssI143
(dp153
g9
F0.06510920237633044
sg10
F0.4789189835814186
ssI144
(dp154
g9
F0.6399202788000732
sg10
F0.5554188627920529
ssI145
(dp155
g9
F0.12058402584829653
sg10
F0.18247509920229388
ssI146
(dp156
g9
F0.44463327278333886
sg10
F0.4524519405594971
ssI147
(dp157
g9
F0.8928053856478183
sg10
F0.7329742477065112
ssI148
(dp158
g9
F0.7515707215436821
sg10
F0.13433532275367532
ssI149
(dp159
g9
F0.75967362815737
sg10
F0.7946462327249001
ssI150
(dp160
g9
F0.12307020646428513
sg10
F0.037064176470265164
ssI151
(dp161
g9
F0.4454905566594157
sg10
F0.035988903318831866
ssI152
(dp162
g9
F0.6665565556280417
sg10
F0.8612535429430681
ssI153
(dp163
g9
F0.46960655025773645
sg10
F0.9471208408527115
ssI154
(dp164
g9
F0.3502258185856528
sg10
F0.3063666168113611
ssI155
(dp165
g9
F0.4874857738401678
sg10
F0.32892594814243803
ssI156
(dp166
g9
F0.291202706718801
sg10
F0.8982891688072192
ssI157
(dp167
g9
F0.08425846219695254
sg10
F0.6969976240707185
ssI158
(dp168
g9
F0.6399454764832618
sg10
F0.11201487268603105
ssI159
(dp169
g9
F0.7302611405310733
sg10
F0.33510700749049915
ssI160
(dp170
g9
F0.06810673342148732
sg10
F0.6125553513573381
ssI161
(dp171
g9
F0.1771941675874963
sg10
F0.2297410960052514
ssI162
(dp172
g9
F0.6665809348142524
sg10
F0.049271202475633324
ssI163
(dp173
g9
F0.23293031406846054
sg10
F0.2686576322940173
ssI164
(dp174
g9
F0.7899823612157024
sg10
F0.5089676582319665
ssI165
(dp175
g9
F0.9430514566088288
sg10
F0.3899867478849318
ssI166
(dp176
g9
F0.8481805911121857
sg10
F0.8935825510470847
ssI167
(dp177
g9
F0.31125407209318834
sg10
F0.840978751603921
ssI168
(dp178
g9
F0.8280822286463092
sg10
F0.4155657727511485
ssI169
(dp179
g9
F0.05775316147859311
sg10
F0.6633390707844823
ssI170
(dp180
g9
F0.4860723223166932
sg10
F0.3229369413925386
ssI171
(dp181
g9
F0.0865173071430736
sg10
F0.23188932349357327
ssI172
(dp182
g9
F0.4842107025025869
sg10
F0.020331043673743388
ssI173
(dp183
g9
F0.4072568107866349
sg10
F0.8752844061886997
ssI174
(dp184
g9
F0.7870647116994205
sg10
F0.6214914899899691
ssI175
(dp185
g9
F0.7169198332605317
sg10
F0.9897959427769414
ssI176
(dp186
g9
F0.19666680689300864
sg10
F0.5959796726803676
ssI177
(dp187
g9
F0.08982933546678629
sg10
F0.754236517186849
ssI178
(dp188
g9
F0.1778522988535739
sg10
F0.30982706869132837
ssI179
(dp189
g9
F0.5041978521687173
sg10
F0.8542535064425577
ssI180
(dp190
g9
F0.8147780209413417
sg10
F0.6008224391482775
ssI181
(dp191
g9
F0.4600358638707789
sg10
F0.2860549751817093
ssI182
(dp192
g9
F0.7726547139492884
sg10
F0.5038363131687958
ssI183
(dp193
g9
F0.34965630748558807
sg10
F0.3153791530410751
ssI184
(dp194
g9
F0.03354731378128262
sg10
F0.6000807819023615
ssI185
(dp195
g9
F0.13698433728682025
sg10
F0.8987835451397898
ssI186
(dp196
g9
F0.24980067428447672
sg10
F0.4908782564292662
ssI187
(dp197
g9
F0.40758442993264143
sg10
F0.6633604195751335
ssI188
(dp198
g9
F0.8510613563371299
sg10
F0.3570789718929872
ssI189
(dp199
g9
F0.22878494416697293
sg10
F0.7095201015419784
ssI190
(dp200
g9
F0.2509032377809235
sg10
F0.5718933222630422
ssI191
(dp201
g9
F0.06938707089282681
sg10
F0.46990398971251734
ssI192
(dp202
g9
F0.9777490949219636
sg10
F0.17731964559829894
ssI193
(dp203
g9
F0.019536182540750957
sg10
F0.5904462124579953
ssI194
(dp204
g9
F0.27129990735726883
sg10
F0.7083223019462337
ssI195
(dp205
g9
F0.8504955556333887
sg10
F0.2918431693862811
ssI196
(dp206
g9
F0.9519587723776589
sg10
F0.24096997856458768
ssI197
(dp207
g9
F0.060646947078739966
sg10
F0.09334660385088511
ssI198
(dp208
g9
F0.07094578735696677
sg10
F0.3678618937159984
ssI199
(dp209
g9
F0.323386299873759
sg10
F0.2753561024997616
ssI200
(dp210
g9
F0.886004044615648
sg10
F0.9370882258806863
ssI201
(dp211
g9
F0.3826891132496274
sg10
F0.6971419071735857
ssI202
(dp212
g9
F0.24905350877113008
sg10
F0.6126797919074888
ssI203
(dp213
g9
F0.7355526593244353
sg10
F0.5114352156848856
ssI204
(dp214
g9
F0.4300592760705214
sg10
F0.9975178478801341
ssI205
(dp215
g9
F0.7996440235478318
sg10
F0.8679011293786187
ssI206
(dp216
g9
F0.10035767009235974
sg10
F0.13413910564937614
ssI207
(dp217
g9
F0.4802547716882214
sg10
F0.3358656764924156
ssI208
(dp218
g9
F0.1359866301515671
sg10
F0.36144259486238894
ssI209
(dp219
g9
F0.39309314111052573
sg10
F0.52945300632726
ssI210
(dp220
g9
F0.37825580963294925
sg10
F0.9407268492102485
ssI211
(dp221
g9
F0.9477162845525228
sg10
F0.1748483081286447
ssI212
(dp222
g9
F0.815923039476541
sg10
F0.39634876744330616
ssI213
(dp223
g9
F0.36610915519179055
sg10
F0.49895023881724065
ssI214
(dp224
g9
F0.9242804261418761
sg10
F0.9301490478244265
ssI215
(dp225
g9
F0.5687925799517386
sg10
F0.5713006416059369
ssI216
(dp226
g9
F0.37885436609318623
sg10
F0.32885160435833904
ssI217
(dp227
g9
F0.8648121725548865
sg10
F0.664918376163058
ssI218
(dp228
g9
F0.8982677097311546
sg10
F0.738325405801303
ssI219
(dp229
g9
F0.17219544569644174
sg10
F0.41384986463197504
ssI220
(dp230
g9
F0.7863230706813161
sg10
F0.00436556880375405
ssI221
(dp231
g9
F0.2293225172589478
sg10
F0.46857872154777325
ssI222
(dp232
g9
F0.7288953177335845
sg10
F0.2304556411418469
ssI223
(dp233
g9
F0.48122439560311303
sg10
F0.35723633478059513
ssI224
(dp234
g9
F0.5439965121230644
sg10
F0.434558602520958
ssI225
(dp235
g9
F0.6033434708723987
sg10
F0.8363982059181623
ssI226
(dp236
g9
F0.11539364846168487
sg10
F0.9708170610511077
ssI227
(dp237
g9
F0.4808011482820046
sg10
F0.7877740065001125
ssI228
(dp238
g9
F0.2409662300219203
sg10
F0.997639313552685
ssI229
(dp239
g9
F0.24496889064529448
sg10
F0.6734812097111347
ssI230
(dp240
g9
F0.6751107013791567
sg10
F0.49686272785221164
ssI231
(dp241
g9
F0.8997513437476949
sg10
F0.9344915247925546
ssI232
(dp242
g9
F0.186646696811835
sg10
F0.8370520579385639
ssI233
(dp243
g9
F0.7171386662409884
sg10
F0.30206353303876843
ssI234
(dp244
g9
F0.7579754715680239
sg10
F0.2751235848454171
ssI235
(dp245
g9
F0.6174620348465175
sg10
F0.1805344797818471
ssI236
(dp246
g9
F0.32926610913566035
sg10
F0.11705598547723395
ssI237
(dp247
g9
F0.21982006115408148
sg10
F0.05466257882663195
ssI238
(dp248
g9
F0.7459211824907593
sg10
F0.030053936371929213
ssI239
(dp249
g9
F0.8204077737740793
sg10
F0.6444995714953194
ssI240
(dp250
g9
F0.1190441431960183
sg10
F0.5857108265492894
ssI241
(dp251
g9
F0.21010676639887316
sg10
F0.24679876847001625
ssI242
(dp252
g9
F0.15132513673527548
sg10
F0.7187574715615347
ssI243
(dp253
g9
F0.46948609499608296
sg10
F0.8555429198252269
ssI244
(dp254
g9
F0.08185955755529128
sg10
F0.46860849748865097
ssI245
(dp255
g9
F0.4282312744314454
sg10
F0.9952776685521937
ssI246
(dp256
g9
F0.4467927112296258
sg10
F0.9228714280521653
ssI247
(dp257
g9
F0.30618279886697275
sg10
F0.07775166545039636
ssI248
(dp258
g9
F0.2880861029179703
sg10
F0.6997909468221585
ssI249
(dp259
g9
F0.43345940119884163
sg10
F0.6125542475994477
ssI250
(dp260
g9
F0.5079876584806536
sg10
F0.011900114257405003
ssI251
(dp261
g9
F0.8267111458597398
sg10
F0.6280897674283479
ssI252
(dp262
g9
F0.6242297026092763
sg10
F0.5855679110853195
ssI253
(dp263
g9
F0.2685165783348238
sg10
F0.5642354543202416
ssI254
(dp264
g9
F0.024690924498613653
sg10
F0.44556879901549284
ssI255
(dp265
g9
F0.053866395553283763
sg10
F0.9243644385676336
ssI256
(dp266
g9
F0.13569665635824313
sg10
F0.632115667567706
ssI257
(dp267
g9
F0.8557463920869504
sg10
F0.32909553043216677
ssI258
(dp268
g9
F0.7772646906658643
sg10
F0.7777220787697163
ssI259
(dp269
g9
F0.06953444803426123
sg10
F0.5655890866229673
ssI260
(dp270
g9
F0.046588703818167154
sg10
F0.6405259775491919
ssI261
(dp271
g9
F0.7248982143382844
sg10
F0.27177682185942587
ssI262
(dp272
g9
F0.9910869416705816
sg10
F0.1607134944521328
ssI263
(dp273
g9
F0.037736155578947383
sg10
F0.8589591317638893
ssI264
(dp274
g9
F0.23833727528106774
sg10
F0.12185488890938101
ssI265
(dp275
g9
F0.16628065719231766
sg10
F0.26515017444040134
ssI266
(dp276
g9
F0.9073066194504674
sg10
F0.36242332953865297
ssI267
(dp277
g9
F0.8123897948438578
sg10
F0.5641920272014875
ssI268
(dp278
g9
F0.5089515620596123
sg10
F0.5769019513774856
ssI269
(dp279
g9
F0.6340138376445753
sg10
F0.22100657556879177
ssI270
(dp280
g9
F0.6874969145540257
sg10
F0.5338284095873884
ssI271
(dp281
g9
F0.9828617656498031
sg10
F0.02286303754721475
ssI272
(dp282
g9
F0.00043028528034771973
sg10
F0.704625016606578
ssI273
(dp283
g9
F0.5100471933965647
sg10
F0.6429791768855201
ssI274
(dp284
g9
F0.44049725155544517
sg10
F0.06637703699154196
ssI275
(dp285
g9
F0.9870028751287824
sg10
F0.8286553703670344
ssI276
(dp286
g9
F0.7354447352691081
sg10
F0.03526656375932413
ssI277
(dp287
g9
F0.40097547847608805
sg10
F0.28134787746589696
ssI278
(dp288
g9
F0.5054576984120808
sg10
F0.36896757037156
ssI279
(dp289
g9
F0.12723050199118258
sg10
F0.5203923321196379
ssI280
(dp290
g9
F0.05015189415421639
sg10
F0.5244151704218968
ssI281
(dp291
g9
F0.3201930409188164
sg10
F0.684515277475294
ssI282
(dp292
g9
F0.8393056824510648
sg10
F0.14971865629358228
ssI283
(dp293
g9
F0.7078643940580962
sg10
F0.2935236555944746
ssI284
(dp294
g9
F0.5440721628272445
sg10
F0.06651468978164776
ssI285
(dp295
g9
F0.17141600235728194
sg10
F0.6100796237537818
ssI286
(dp296
g9
F0.7633785019158079
sg10
F0.16513470141993136
ssI287
(dp297
g9
F0.7329374053682027
sg10
F0.846671793953734
ssI288
(dp298
g9
F0.5497070876562508
sg10
F0.8073982554509062
ssI289
(dp299
g9
F0.5392802094435828
sg10
F0.12683451898771536
ssI290
(dp300
g9
F0.8817815260862749
sg10
F0.6784480932871877
ssI291
(dp301
g9
F0.6604040140554066
sg10
F0.6801596613057324
ssI292
(dp302
g9
F0.8673035964295333
sg10
F0.00468933359426793
ssI293
(dp303
g9
F0.8073966079146099
sg10
F0.45523843935851516
ssI294
(dp304
g9
F0.5691548500108173
sg10
F0.5811365164298157
ssI295
(dp305
g9
F0.14174283290390322
sg10
F0.9916254233889447
ssI296
(dp306
g9
F0.6412242183702361
sg10
F0.889071170863322
ssI297
(dp307
g9
F0.4211048887648683
sg10
F0.20205947959121884
ssI298
(dp308
g9
F0.6096096745655991
sg10
F0.38602064111975887
ssI299
(dp309
g9
F0.08126403636547475
sg10
F0.3624668859891861
ssI300
(dp310
g9
F0.11015193555325464
sg10
F0.9063805862194335
ssI301
(dp311
g9
F0.9433795799626148
sg10
F0.10574979251485284
ssI302
(dp312
g9
F0.5721245749540247
sg10
F0.21462666867407854
ssI303
(dp313
g9
F0.48395957074945717
sg10
F0.012190993030758657
ssI304
(dp314
g9
F0.5745292026985387
sg10
F0.16746948973194942
ssI305
(dp315
g9
F0.9458698957392823
sg10
F0.4410677326154443
ssI306
(dp316
g9
F0.4830787072658548
sg10
F0.9044523906487826
ssI307
(dp317
g9
F0.4500253945828989
sg10
F0.8357639399784755
ssI308
(dp318
g9
F0.7806812627561136
sg10
F0.6593419424579593
ssI309
(dp319
g9
F0.6226300338368493
sg10
F0.8814749101939685
ssI310
(dp320
g9
F0.1076363774925323
sg10
F0.24020181509892846
ssI311
(dp321
g9
F0.2555822790652629
sg10
F0.5020598957301906
ssI312
(dp322
g9
F0.06645617954357153
sg10
F0.3940401156807761
ssI313
(dp323
g9
F0.87657482436545
sg10
F0.9313217623931488
ssI314
(dp324
g9
F0.7465384151296064
sg10
F0.8897503254081774
ssI315
(dp325
g9
F0.6079945156431462
sg10
F0.10341816915706381
ssI316
(dp326
g9
F0.08749421735380858
sg10
F0.6722557842174612
ssI317
(dp327
g9
F0.99928539753752
sg10
F0.8482423947175136
ssI318
(dp328
g9
F0.01884968648477936
sg10
F0.8556230732948795
ssI319
(dp329
g9
F0.7896347592070229
sg10
F0.6469320819578624
ssI320
(dp330
g9
F0.7046416425820782
sg10
F0.3885959816075082
ssI321
(dp331
g9
F0.1010514139139076
sg10
F0.22326760401283918
ssI322
(dp332
g9
F0.3321576811568965
sg10
F0.17417338479168076
ssI323
(dp333
g9
F0.3948692031130534
sg10
F0.8657613217570208
ssI324
(dp334
g9
F0.03596181463893422
sg10
F0.4437875873103633
ssI325
(dp335
g9
F0.16899256924835426
sg10
F0.31488095280332407
ssI326
(dp336
g9
F0.31117054242882536
sg10
F0.6956792046337174
ssI327
(dp337
g9
F0.9571050873698611
sg10
F0.25852275313728146
ssI328
(dp338
g9
F0.08042217435352705
sg10
F0.11107550307080993
ssI329
(dp339
g9
F0.2968708087206938
sg10
F0.3356132982682881
ssI330
(dp340
g9
F0.13817797962359046
sg10
F0.10875939204740803
ssI331
(dp341
g9
F0.4043177867810315
sg10
F0.9886438015839827
ssI332
(dp342
g9
F0.9047803125755213
sg10
F0.891289856891925
ssI333
(dp343
g9
F0.6668429468206917
sg10
F0.01048705996081245
ssI334
(dp344
g9
F0.22082527436725374
sg10
F0.22157428831247516
ssI335
(dp345
g9
F0.7379181072869689
sg10
F0.7259122323505953
ssI336
(dp346
g9
F0.5774065200506936
sg10
F0.21476837955159866
ssI337
(dp347
g9
F0.9856847249583021
sg10
F0.10123203944029391
ssI338
(dp348
g9
F0.9208464362368712
sg10
F0.6344755712006619
ssI339
(dp349
g9
F0.9237879792894396
sg10
F0.45623345209273547
ssI340
(dp350
g9
F0.6691559476814607
sg10
F0.7832181073543546
ssI341
(dp351
g9
F0.19631502481008112
sg10
F0.2723377423301693
ssI342
(dp352
g9
F0.29678783613194304
sg10
F0.7574686816320045
ssI343
(dp353
g9
F0.31864771738764985
sg10
F0.7986987608530283
ssI344
(dp354
g9
F0.6485888147180917
sg10
F0.46436302723006007
ssI345
(dp355
g9
F0.5609236096211001
sg10
F0.20397193823570992
ssI346
(dp356
g9
F0.6822162073768446
sg10
F0.6793688730653689
ssI347
(dp357
g9
F0.8775688809405615
sg10
F0.5837331727759313
ssI348
(dp358
g9
F0.3848742687535496
sg10
F0.012228876256357935
ssI349
(dp359
g9
F0.5449643121731863
sg10
F0.7314402411926424
ssI350
(dp360
g9
F0.7432183907460023
sg10
F0.9009148084819122
ssI351
(dp361
g9
F0.8511592864315657
sg10
F0.0017784949927960314
ssI352
(dp362
g9
F0.699424564179147
sg10
F0.41063923181645456
ssI353
(dp363
g9
F0.011558298086189911
sg10
F0.14785893010325624
ssI354
(dp364
g9
F0.26988285099680664
sg10
F0.7606612783897228
ssI355
(dp365
g9
F0.8960440696040063
sg10
F0.9176101442244023
ssI356
(dp366
g9
F0.1745107880045882
sg10
F0.39887740595606214
ssI357
(dp367
g9
F0.3762588717983679
sg10
F0.2808865722115331
ssI358
(dp368
g9
F0.07191030276009935
sg10
F0.8105472976356574
ssI359
(dp369
g9
F0.7101588247824018
sg10
F0.026466008169109267
ssI360
(dp370
g9
F0.8962090610376379
sg10
F0.6658558460881654
ssI361
(dp371
g9
F0.24614240985767388
sg10
F0.5177532060096344
ssI362
(dp372
g9
F0.9176053037147422
sg10
F0.5914189526903574
ssI363
(dp373
g9
F0.8083927405872893
sg10
F0.020313324375871966
ssI364
(dp374
g9
F0.3537339667125371
sg10
F0.33716525005141285
ssI365
(dp375
g9
F0.11907322142959276
sg10
F0.9775114060401341
ssI366
(dp376
g9
F0.34057171691965016
sg10
F0.7537830389235257
ssI367
(dp377
g9
F0.4458412977505142
sg10
F0.7987764383899812
ssI368
(dp378
g9
F0.23379012500104968
sg10
F0.4279138459911974
ssI369
(dp379
g9
F0.18613021513969785
sg10
F0.23950536367379782
ssI370
(dp380
g9
F0.15579923425806919
sg10
F0.10492736894723576
ssI371
(dp381
g9
F0.3272619081958612
sg10
F0.42235388578424915
ssI372
(dp382
g9
F0.40772081802607363
sg10
F0.18150778458887729
ssI373
(dp383
g9
F0.3535280768764687
sg10
F0.1738395037761773
ssI374
(dp384
g9
F0.6845000693694304
sg10
F0.8875957841892633
ssI375
(dp385
g9
F0.16547709445468417
sg10
F0.17919801819826398
ssI376
(dp386
g9
F0.5721335181676164
sg10
F0.004382768382665492
ssI377
(dp387
g9
F0.6995304387699249
sg10
F0.42340163891239735
ssI378
(dp388
g9
F0.2677206868087736
sg10
F0.02873958267184984
ssI379
(dp389
g9
F0.06859967102832765
sg10
F0.8938323607254296
ssI380
(dp390
g9
F0.5042698955509284
sg10
F0.06813518665817553
ssI381
(dp391
g9
F0.59077008245923
sg10
F0.4698150535139678
ssI382
(dp392
g9
F0.38280283997190023
sg10
F0.9740898081321367
ssI383
(dp393
g9
F0.32887654763394547
sg10
F0.4053078752976418
ssI384
(dp394
g9
F0.3009924533683649
sg10
F0.034393123038475526
ssI385
(dp395
g9
F0.3528763304100103
sg10
F0.5674803641091842
ssI386
(dp396
g9
F0.7426549130504138
sg10
F0.08002148447566004
ssI387
(dp397
g9
F0.9252511041851986
sg10
F0.4401205864026313
ssI388
(dp398
g9
F0.14827725370883083
sg10
F0.08987104970490978
ssI389
(dp399
g9
F0.5933525701843265
sg10
F0.9385581790674677
ssI390
(dp400
g9
F0.4654617281710556
sg10
F0.5322026733964496
ssI391
(dp401
g9
F0.14109969973902625
sg10
F0.16849166605446808
ssI392
(dp402
g9
F0.4458743360311408
sg10
F0.0005275739042517325
ssI393
(dp403
g9
F0.08336822022748391
sg10
F0.687870896393837
ssI394
(dp404
g9
F0.21307469114747712
sg10
F0.7928272438308027
ssI395
(dp405
g9
F0.20204270270409086
sg10
F0.28117256912170663
ssI396
(dp406
g9
F0.39815882313686757
sg10
F0.8985657535144573
ssI397
(dp407
g9
F0.8896144468280244
sg10
F0.8927406298857267
ssI398
(dp408
g9
F0.14406908590622314
sg10
F0.40293766598347847
ssI399
(dp409
g9
F0.19486611230681994
sg10
F0.5110850814171857
sssS'node_dict_factory'
p410
c__builtin__
dict
p411
sS'edge_attr_dict_factory'
p412
g411
sS'edge'
p413
(dp414
I0
(dp415
sI1
(dp416
sI2
(dp417
sI3
(dp418
sI4
(dp419
sI5
(dp420
sI6
(dp421
sI7
(dp422
sI8
(dp423
sI9
(dp424
sI10
(dp425
sI11
(dp426
sI12
(dp427
sI13
(dp428
sI14
(dp429
sI15
(dp430
sI16
(dp431
sI17
(dp432
sI18
(dp433
sI19
(dp434
sI20
(dp435
sI21
(dp436
sI22
(dp437
sI23
(dp438
sI24
(dp439
sI25
(dp440
sI26
(dp441
sI27
(dp442
sI28
(dp443
sI29
(dp444
sI30
(dp445
sI31
(dp446
sI32
(dp447
sI33
(dp448
sI34
(dp449
sI35
(dp450
sI36
(dp451
sI37
(dp452
sI38
(dp453
sI39
(dp454
sI40
(dp455
sI41
(dp456
sI42
(dp457
sI43
(dp458
sI44
(dp459
sI45
(dp460
sI46
(dp461
sI47
(dp462
sI48
(dp463
sI49
(dp464
sI50
(dp465
sI51
(dp466
sI52
(dp467
sI53
(dp468
sI54
(dp469
sI55
(dp470
sI56
(dp471
sI57
(dp472
sI58
(dp473
sI59
(dp474
sI60
(dp475
sI61
(dp476
sI62
(dp477
sI63
(dp478
sI64
(dp479
sI65
(dp480
sI66
(dp481
sI67
(dp482
sI68
(dp483
sI69
(dp484
sI70
(dp485
sI71
(dp486
sI72
(dp487
sI73
(dp488
sI74
(dp489
sI75
(dp490
sI76
(dp491
sI77
(dp492
sI78
(dp493
sI79
(dp494
sI80
(dp495
sI81
(dp496
sI82
(dp497
sI83
(dp498
sI84
(dp499
sI85
(dp500
sI86
(dp501
sI87
(dp502
sI88
(dp503
sI89
(dp504
sI90
(dp505
sI91
(dp506
sI92
(dp507
sI93
(dp508
sI94
(dp509
sI95
(dp510
sI96
(dp511
sI97
(dp512
sI98
(dp513
sI99
(dp514
sI100
(dp515
sI101
(dp516
sI102
(dp517
sI103
(dp518
sI104
(dp519
sI105
(dp520
sI106
(dp521
sI107
(dp522
sI108
(dp523
sI109
(dp524
sI110
(dp525
sI111
(dp526
sI112
(dp527
sI113
(dp528
sI114
(dp529
sI115
(dp530
sI116
(dp531
sI117
(dp532
sI118
(dp533
sI119
(dp534
sI120
(dp535
sI121
(dp536
sI122
(dp537
sI123
(dp538
sI124
(dp539
sI125
(dp540
sI126
(dp541
sI127
(dp542
sI128
(dp543
sI129
(dp544
sI130
(dp545
sI131
(dp546
sI132
(dp547
sI133
(dp548
sI134
(dp549
sI135
(dp550
sI136
(dp551
sI137
(dp552
sI138
(dp553
sI139
(dp554
sI140
(dp555
sI141
(dp556
sI142
(dp557
sI143
(dp558
sI144
(dp559
sI145
(dp560
sI146
(dp561
sI147
(dp562
sI148
(dp563
sI149
(dp564
sI150
(dp565
sI151
(dp566
sI152
(dp567
sI153
(dp568
sI154
(dp569
sI155
(dp570
sI156
(dp571
sI157
(dp572
sI158
(dp573
sI159
(dp574
sI160
(dp575
sI161
(dp576
sI162
(dp577
sI163
(dp578
sI164
(dp579
sI165
(dp580
sI166
(dp581
sI167
(dp582
sI168
(dp583
sI169
(dp584
sI170
(dp585
sI171
(dp586
sI172
(dp587
sI173
(dp588
sI174
(dp589
sI175
(dp590
sI176
(dp591
sI177
(dp592
sI178
(dp593
sI179
(dp594
sI180
(dp595
sI181
(dp596
sI182
(dp597
sI183
(dp598
sI184
(dp599
sI185
(dp600
sI186
(dp601
sI187
(dp602
sI188
(dp603
sI189
(dp604
sI190
(dp605
sI191
(dp606
sI192
(dp607
sI193
(dp608
sI194
(dp609
sI195
(dp610
sI196
(dp611
sI197
(dp612
sI198
(dp613
sI199
(dp614
sI200
(dp615
sI201
(dp616
sI202
(dp617
sI203
(dp618
sI204
(dp619
sI205
(dp620
sI206
(dp621
sI207
(dp622
sI208
(dp623
sI209
(dp624
sI210
(dp625
sI211
(dp626
sI212
(dp627
sI213
(dp628
sI214
(dp629
sI215
(dp630
sI216
(dp631
sI217
(dp632
sI218
(dp633
sI219
(dp634
sI220
(dp635
sI221
(dp636
sI222
(dp637
sI223
(dp638
sI224
(dp639
sI225
(dp640
sI226
(dp641
sI227
(dp642
sI228
(dp643
sI229
(dp644
sI230
(dp645
sI231
(dp646
sI232
(dp647
sI233
(dp648
sI234
(dp649
sI235
(dp650
sI236
(dp651
sI237
(dp652
sI238
(dp653
sI239
(dp654
sI240
(dp655
sI241
(dp656
sI242
(dp657
sI243
(dp658
sI244
(dp659
sI245
(dp660
sI246
(dp661
sI247
(dp662
sI248
(dp663
sI249
(dp664
sI250
(dp665
sI251
(dp666
sI252
(dp667
sI253
(dp668
sI254
(dp669
sI255
(dp670
sI256
(dp671
sI257
(dp672
sI258
(dp673
sI259
(dp674
sI260
(dp675
sI261
(dp676
sI262
(dp677
sI263
(dp678
sI264
(dp679
sI265
(dp680
sI266
(dp681
sI267
(dp682
sI268
(dp683
sI269
(dp684
sI270
(dp685
sI271
(dp686
sI272
(dp687
sI273
(dp688
sI274
(dp689
sI275
(dp690
sI276
(dp691
sI277
(dp692
sI278
(dp693
sI279
(dp694
sI280
(dp695
sI281
(dp696
sI282
(dp697
sI283
(dp698
sI284
(dp699
sI285
(dp700
sI286
(dp701
sI287
(dp702
sI288
(dp703
sI289
(dp704
sI290
(dp705
sI291
(dp706
sI292
(dp707
sI293
(dp708
sI294
(dp709
sI295
(dp710
sI296
(dp711
sI297
(dp712
sI298
(dp713
sI299
(dp714
sI300
(dp715
sI301
(dp716
sI302
(dp717
sI303
(dp718
sI304
(dp719
sI305
(dp720
sI306
(dp721
sI307
(dp722
sI308
(dp723
sI309
(dp724
sI310
(dp725
sI311
(dp726
sI312
(dp727
sI313
(dp728
sI314
(dp729
sI315
(dp730
sI316
(dp731
sI317
(dp732
sI318
(dp733
sI319
(dp734
sI320
(dp735
sI321
(dp736
sI322
(dp737
sI323
(dp738
sI324
(dp739
sI325
(dp740
sI326
(dp741
sI327
(dp742
sI328
(dp743
sI329
(dp744
sI330
(dp745
sI331
(dp746
sI332
(dp747
sI333
(dp748
sI334
(dp749
sI335
(dp750
sI336
(dp751
sI337
(dp752
sI338
(dp753
sI339
(dp754
sI340
(dp755
sI341
(dp756
sI342
(dp757
sI343
(dp758
sI344
(dp759
sI345
(dp760
sI346
(dp761
sI347
(dp762
sI348
(dp763
sI349
(dp764
sI350
(dp765
sI351
(dp766
sI352
(dp767
sI353
(dp768
sI354
(dp769
sI355
(dp770
sI356
(dp771
sI357
(dp772
sI358
(dp773
sI359
(dp774
sI360
(dp775
sI361
(dp776
sI362
(dp777
sI363
(dp778
sI364
(dp779
sI365
(dp780
sI366
(dp781
sI367
(dp782
sI368
(dp783
sI369
(dp784
sI370
(dp785
sI371
(dp786
sI372
(dp787
sI373
(dp788
sI374
(dp789
sI375
(dp790
sI376
(dp791
sI377
(dp792
sI378
(dp793
sI379
(dp794
sI380
(dp795
sI381
(dp796
sI382
(dp797
sI383
(dp798
sI384
(dp799
sI385
(dp800
sI386
(dp801
sI387
(dp802
sI388
(dp803
sI389
(dp804
sI390
(dp805
sI391
(dp806
sI392
(dp807
sI393
(dp808
sI394
(dp809
sI395
(dp810
sI396
(dp811
sI397
(dp812
sI398
(dp813
sI399
(dp814
ssS'graph'
p815
(dp816
sS'adjlist_dict_factory'
p817
g411
sS'adj'
p818
g414
sb.