ccopy_reg
_reconstructor
p0
(cnetworkx.classes.graph
Graph
p1
c__builtin__
object
p2
Ntp3
Rp4
(dp5
S'node'
p6
(dp7
I0
(dp8
S'pos_x'
p9
F0.24143454341756954
sS'pos_y'
p10
F0.3791051020653555
ssI1
(dp11
g9
F0.8733798408117608
sg10
F0.5575329986393012
ssI2
(dp12
g9
F0.8805453793159127
sg10
F0.18742754050545196
ssI3
(dp13
g9
F0.06755521500248018
sg10
F0.28336500896069816
ssI4
(dp14
g9
F0.9781906372421394
sg10
F0.32954566617278147
ssI5
(dp15
g9
F0.5514838992477229
sg10
F0.0314573475669514
ssI6
(dp16
g9
F0.04149534681941225
sg10
F0.08426628552686377
ssI7
(dp17
g9
F0.010006678342271758
sg10
F0.16907162163054934
ssI8
(dp18
g9
F0.295817398687075
sg10
F0.451069133354735
ssI9
(dp19
g9
F0.2378980851331186
sg10
F0.14164670062915374
ssI10
(dp20
g9
F0.9216895479682594
sg10
F0.2282147657955257
ssI11
(dp21
g9
F0.5934775494294702
sg10
F0.8022271500574669
ssI12
(dp22
g9
F0.6613041759840496
sg10
F0.5090070045027133
ssI13
(dp23
g9
F0.5680136199493868
sg10
F0.929693021668605
ssI14
(dp24
g9
F0.6293804060611312
sg10
F0.6021532968340244
ssI15
(dp25
g9
F0.29367449374095966
sg10
F0.13119450273491862
ssI16
(dp26
g9
F0.5210008245127792
sg10
F0.9266693216103533
ssI17
(dp27
g9
F0.09818603551012439
sg10
F0.5905156169638542
ssI18
(dp28
g9
F0.23393679828617175
sg10
F0.7040745281931978
ssI19
(dp29
g9
F0.686487295850647
sg10
F0.3852809038853383
ssI20
(dp30
g9
F0.9225265681920131
sg10
F0.9186509077617538
ssI21
(dp31
g9
F0.14017875647880862
sg10
F0.2896415042035415
ssI22
(dp32
g9
F0.05613801713565336
sg10
F0.8135006949667095
ssI23
(dp33
g9
F0.5455656797126471
sg10
F0.1293722356989575
ssI24
(dp34
g9
F0.8896936964334197
sg10
F0.9978192700916572
ssI25
(dp35
g9
F0.6635419312104389
sg10
F0.15942304728013545
ssI26
(dp36
g9
F0.9625545154907507
sg10
F0.018900063625639008
ssI27
(dp37
g9
F0.11129272311550453
sg10
F0.11716441436731029
ssI28
(dp38
g9
F0.4400870032603922
sg10
F0.06327810827441738
ssI29
(dp39
g9
F0.04476354199782984
sg10
F0.6495962130918057
ssI30
(dp40
g9
F0.24342173716454985
sg10
F0.4962196895448283
ssI31
(dp41
g9
F0.3666580107798709
sg10
F0.5132347185856648
ssI32
(dp42
g9
F0.7687438855007154
sg10
F0.23715595176179338
ssI33
(dp43
g9
F0.06822573096265605
sg10
F0.3576842293096355
ssI34
(dp44
g9
F0.5937113294767373
sg10
F0.4949572994332393
ssI35
(dp45
g9
F0.3179544554424374
sg10
F0.18159712403504102
ssI36
(dp46
g9
F0.8327591165444721
sg10
F0.8301477661075609
ssI37
(dp47
g9
F0.9635911534386793
sg10
F0.38749959386889854
ssI38
(dp48
g9
F0.29905154610474416
sg10
F0.2520620999012111
ssI39
(dp49
g9
F0.7734422660958455
sg10
F0.14330712032244197
ssI40
(dp50
g9
F0.028936395955733607
sg10
F0.1702304493363841
ssI41
(dp51
g9
F0.2384506829068378
sg10
F0.22241584579641915
ssI42
(dp52
g9
F0.5751645661568917
sg10
F0.7023153668746908
ssI43
(dp53
g9
F0.41254030471965775
sg10
F0.7785799267441369
ssI44
(dp54
g9
F0.9622426267915468
sg10
F0.7438768231454914
ssI45
(dp55
g9
F0.3298780672318459
sg10
F0.11621691455149508
ssI46
(dp56
g9
F0.20038067067229126
sg10
F0.17974063939429463
ssI47
(dp57
g9
F0.7390861981928836
sg10
F0.09675769629326414
ssI48
(dp58
g9
F0.7061614922811241
sg10
F0.9451459740118112
ssI49
(dp59
g9
F0.6311734804196657
sg10
F0.8863783872371239
ssI50
(dp60
g9
F0.7768741437443695
sg10
F0.727224924352684
ssI51
(dp61
g9
F0.24212431822952796
sg10
F0.13138094240682818
ssI52
(dp62
g9
F0.877496625490095
sg10
F0.9394238793027935
ssI53
(dp63
g9
F0.8420662323389113
sg10
F0.2219460911887552
ssI54
(dp64
g9
F0.6795950299216574
sg10
F0.7110526270737884
ssI55
(dp65
g9
F0.5500424345998999
sg10
F0.011757703008355658
ssI56
(dp66
g9
F0.19927156271008672
sg10
F0.29809903915875846
ssI57
(dp67
g9
F0.09100210007478593
sg10
F0.18156155250434935
ssI58
(dp68
g9
F0.1749883278794343
sg10
F0.3328447427483101
ssI59
(dp69
g9
F0.9823852274952548
sg10
F0.8200543828884702
ssI60
(dp70
g9
F0.18938652265062095
sg10
F0.5791436410422685
ssI61
(dp71
g9
F0.7590868841820825
sg10
F0.7676027307674168
ssI62
(dp72
g9
F0.14190992179990602
sg10
F0.44746403576259774
ssI63
(dp73
g9
F0.14206175202349658
sg10
F0.49696900989311976
ssI64
(dp74
g9
F0.7614208187241989
sg10
F0.8705718891544123
ssI65
(dp75
g9
F0.37645630439976185
sg10
F0.632221864509733
ssI66
(dp76
g9
F0.692482211198908
sg10
F0.6196123553771516
ssI67
(dp77
g9
F0.1678153940791205
sg10
F0.7922604802196441
ssI68
(dp78
g9
F0.2344591782554547
sg10
F0.48778809871226203
ssI69
(dp79
g9
F0.4398972858948762
sg10
F0.2671146076357397
ssI70
(dp80
g9
F0.380377801782787
sg10
F0.39042943235989136
ssI71
(dp81
g9
F0.7299432720196103
sg10
F0.0781278067291239
ssI72
(dp82
g9
F0.5416585129131104
sg10
F0.07569088099277399
ssI73
(dp83
g9
F0.9557302377515544
sg10
F0.14663795214076003
ssI74
(dp84
g9
F0.2784306284520901
sg10
F0.7315014796968011
ssI75
(dp85
g9
F0.4951462943081256
sg10
F0.8137071221804708
ssI76
(dp86
g9
F0.5059567717414677
sg10
F0.21322935474652338
ssI77
(dp87
g9
F0.7151113781782976
sg10
F0.7430745400829609
ssI78
(dp88
g9
F0.3513821124229698
sg10
F0.857470353965476
ssI79
(dp89
g9
F0.016634668304014055
sg10
F0.5774260722163808
ssI80
(dp90
g9
F0.0032163825412291347
sg10
F0.28943903121024805
ssI81
(dp91
g9
F0.02563834360756545
sg10
F0.29592241737110925
ssI82
(dp92
g9
F0.8747169169720094
sg10
F0.5405447982506663
ssI83
(dp93
g9
F0.19257480742330524
sg10
F0.7160184038100785
ssI84
(dp94
g9
F0.49893243560949163
sg10
F0.5544537139901325
ssI85
(dp95
g9
F0.46447824828167283
sg10
F0.5089471847046138
ssI86
(dp96
g9
F0.1548412374384751
sg10
F0.8224788306200633
ssI87
(dp97
g9
F0.3229614762517786
sg10
F0.4870675768936501
ssI88
(dp98
g9
F0.05541261934754527
sg10
F0.06395601361246006
ssI89
(dp99
g9
F0.4149514448352605
sg10
F0.0785931319739761
ssI90
(dp100
g9
F0.9926000602108491
sg10
F0.0906631943564139
ssI91
(dp101
g9
F0.31584330756894985
sg10
F0.3529670107835391
ssI92
(dp102
g9
F0.6541053815086999
sg10
F0.26667273737550323
ssI93
(dp103
g9
F0.03406845040868489
sg10
F0.925415837660871
ssI94
(dp104
g9
F0.02059554245103068
sg10
F0.5098839583344789
ssI95
(dp105
g9
F0.40716920370260967
sg10
F0.2910153722910829
ssI96
(dp106
g9
F0.4926891330766263
sg10
F0.14144608383419377
ssI97
(dp107
g9
F0.37935593349227115
sg10
F0.018808206845051578
ssI98
(dp108
g9
F0.21578871622862206
sg10
F0.7674191772481276
ssI99
(dp109
g9
F0.37569191975897975
sg10
F0.016904145983944296
ssI100
(dp110
g9
F0.013610667869691895
sg10
F0.7826343263655727
ssI101
(dp111
g9
F0.2161488749563074
sg10
F0.8687805293901919
ssI102
(dp112
g9
F0.22482928900497645
sg10
F0.07349880151876886
ssI103
(dp113
g9
F0.23247156405583347
sg10
F0.21072139148254287
ssI104
(dp114
g9
F0.18017226142824871
sg10
F0.8486450457903268
ssI105
(dp115
g9
F0.6421494214617811
sg10
F0.30755272899807484
ssI106
(dp116
g9
F0.90201317338643
sg10
F0.35835146846757626
ssI107
(dp117
g9
F0.18551540599527894
sg10
F0.941710897723901
ssI108
(dp118
g9
F0.8175262931532452
sg10
F0.9117810268402037
ssI109
(dp119
g9
F0.19905118814520062
sg10
F0.5063826767525808
ssI110
(dp120
g9
F0.37855087419160494
sg10
F0.25943047636868255
ssI111
(dp121
g9
F0.16355428729079002
sg10
F0.38911602056634276
ssI112
(dp122
g9
F0.439473912045258
sg10
F0.5082159574883209
ssI113
(dp123
g9
F0.10243892339308192
sg10
F0.6753020155534885
ssI114
(dp124
g9
F0.13315083406220274
sg10
F0.54073065749858
ssI115
(dp125
g9
F0.7180236686046564
sg10
F0.9462542194163608
ssI116
(dp126
g9
F0.08755615570505304
sg10
F0.25453115123118497
ssI117
(dp127
g9
F0.7714475255671724
sg10
F0.1669415087770686
ssI118
(dp128
g9
F0.7551254811332322
sg10
F0.12733353114210233
ssI119
(dp129
g9
F0.5813184967528845
sg10
F0.2146896216909323
ssI120
(dp130
g9
F0.8351409881744492
sg10
F0.7727660474915989
ssI121
(dp131
g9
F0.1308764788774749
sg10
F0.08460335449318213
ssI122
(dp132
g9
F0.6304944818171383
sg10
F0.7176311630367884
ssI123
(dp133
g9
F0.2768272701896709
sg10
F0.8359801623007913
ssI124
(dp134
g9
F0.8631159252189387
sg10
F0.7055694779733114
ssI125
(dp135
g9
F0.8336920636804851
sg10
F0.15781705516079292
ssI126
(dp136
g9
F0.9700449239180284
sg10
F0.5029660509533919
ssI127
(dp137
g9
F0.09535181316375352
sg10
F0.10186480344091298
ssI128
(dp138
g9
F0.9159638108692618
sg10
F0.15652365529496293
ssI129
(dp139
g9
F0.39475428988711836
sg10
F0.0739894018260917
ssI130
(dp140
g9
F0.16033579805887355
sg10
F0.680231983277568
ssI131
(dp141
g9
F0.0377144184086492
sg10
F0.1451995154761897
ssI132
(dp142
g9
F0.2351051898007317
sg10
F0.979897006581321
ssI133
(dp143
g9
F0.42273184523425267
sg10
F0.8702096165939819
ssI134
(dp144
g9
F0.4852963888565892
sg10
F0.14096490340470613
ssI135
(dp145
g9
F0.36755918426459033
sg10
F0.27641128856884645
ssI136
(dp146
g9
F0.12794632822111152
sg10
F0.3917693972554478
ssI137
(dp147
g9
F0.05078118150267119
sg10
F0.4377800858536286
ssI138
(dp148
g9
F0.8756522877126101
sg10
F0.9574387639470094
ssI139
(dp149
g9
F0.36730610097063643
sg10
F0.939262661347029
ssI140
(dp150
g9
F0.5075496144878908
sg10
F0.37112233609830925
ssI141
(dp151
g9
F0.4486566701728125
sg10
F0.20011424977489833
ssI142
(dp152
g9
F0.037015506208559534
sg10
F0.46675815199150683
ssI143
(dp153
g9
F0.6258862787884285
sg10
F0.8221439880670091
ssI144
(dp154
g9
F0.45488145733478125
sg10
F0.7897092062055613
ssI145
(dp155
g9
F0.6610596516409157
sg10
F0.08044578180474793
ssI146
(dp156
g9
F0.30489755908618765
sg10
F0.6145892316957687
ssI147
(dp157
g9
F0.3454817365917374
sg10
F0.5918873675185612
ssI148
(dp158
g9
F0.26995791994870055
sg10
F0.36093580356112265
ssI149
(dp159
g9
F0.5132634695194053
sg10
F0.5695484462958431
ssI150
(dp160
g9
F0.10332739445835126
sg10
F0.08819467907572531
ssI151
(dp161
g9
F0.8671893949416011
sg10
F0.24798725285975942
ssI152
(dp162
g9
F0.143666503863895
sg10
F0.6755577238307915
ssI153
(dp163
g9
F0.17296937169327253
sg10
F0.7884175712098331
ssI154
(dp164
g9
F0.08368133137219647
sg10
F0.0913448698328504
ssI155
(dp165
g9
F0.8316682736762017
sg10
F0.34723464685305727
ssI156
(dp166
g9
F0.3490670585327469
sg10
F0.6724343563437838
ssI157
(dp167
g9
F0.5315648753459915
sg10
F0.5748872965097205
ssI158
(dp168
g9
F0.0735197457082356
sg10
F0.2621271847948238
ssI159
(dp169
g9
F0.5622906333968514
sg10
F0.003930246832003381
ssI160
(dp170
g9
F0.05140215312667373
sg10
F0.2844132463462108
ssI161
(dp171
g9
F0.8991198628951645
sg10
F0.27079092979960295
ssI162
(dp172
g9
F0.8369771447566938
sg10
F0.792382255979799
ssI163
(dp173
g9
F0.10217828893443048
sg10
F0.646860310156889
ssI164
(dp174
g9
F0.8353153960725046
sg10
F0.15438088838449882
ssI165
(dp175
g9
F0.6797578522296129
sg10
F0.3512874375277394
ssI166
(dp176
g9
F0.7107052782156054
sg10
F0.49916222804126953
ssI167
(dp177
g9
F0.18160663530305132
sg10
F0.9344193582040045
ssI168
(dp178
g9
F0.5884642969264278
sg10
F0.9591199487317026
ssI169
(dp179
g9
F0.5289719157595922
sg10
F0.021384331162991876
ssI170
(dp180
g9
F0.1558679028930332
sg10
F0.15332560428772501
ssI171
(dp181
g9
F0.7254176911562382
sg10
F0.853910908298137
ssI172
(dp182
g9
F0.9467892757598142
sg10
F0.7429939904324644
ssI173
(dp183
g9
F0.18074916865762847
sg10
F0.3013017700114007
ssI174
(dp184
g9
F0.6797250069339454
sg10
F0.26810703518721435
ssI175
(dp185
g9
F0.8246024490627828
sg10
F0.24288055441388878
ssI176
(dp186
g9
F0.28013736420924684
sg10
F0.5889779232862776
ssI177
(dp187
g9
F0.2740676267591413
sg10
F0.8577423613219981
ssI178
(dp188
g9
F0.8788244854985943
sg10
F0.51357790763219
ssI179
(dp189
g9
F0.575547054984048
sg10
F0.45856145777089685
ssI180
(dp190
g9
F0.7471775160915635
sg10
F0.64821222027673
ssI181
(dp191
g9
F0.028253422703300668
sg10
F0.8069416808093398
ssI182
(dp192
g9
F0.09298810276951786
sg10
F0.05112470830539906
ssI183
(dp193
g9
F0.4557736311473711
sg10
F0.8424142484492646
ssI184
(dp194
g9
F0.28811414893145926
sg10
F0.8179025153696309
ssI185
(dp195
g9
F0.7834798019848711
sg10
F0.3229824073848465
ssI186
(dp196
g9
F0.25018828074776134
sg10
F0.7199201733185167
ssI187
(dp197
g9
F0.03374915158969427
sg10
F0.08692137192121097
ssI188
(dp198
g9
F0.04519735199088315
sg10
F0.05815185499412212
ssI189
(dp199
g9
F0.901000203102228
sg10
F0.05425525436051215
ssI190
(dp200
g9
F0.7864723177446029
sg10
F0.6590225306549412
ssI191
(dp201
g9
F0.9294992211741036
sg10
F0.4368471825084155
ssI192
(dp202
g9
F0.5253370252069363
sg10
F0.7233573151576435
ssI193
(dp203
g9
F0.6843653734962734
sg10
F0.7316465411524975
ssI194
(dp204
g9
F0.5168478947702222
sg10
F0.4834794184832276
ssI195
(dp205
g9
F0.09579188915834713
sg10
F0.9897643520190865
ssI196
(dp206
g9
F0.23896345740171354
sg10
F0.7939212962899007
ssI197
(dp207
g9
F0.5356031020500153
sg10
F0.7770716897302692
ssI198
(dp208
g9
F0.6218009414194501
sg10
F0.05893263204248933
ssI199
(dp209
g9
F0.3201220631025369
sg10
F0.02520355766427762
ssI200
(dp210
g9
F0.6749694260374739
sg10
F0.4652448966018685
ssI201
(dp211
g9
F0.618230972935277
sg10
F0.43862864586337313
ssI202
(dp212
g9
F0.12907553168094232
sg10
F0.7586508353884792
ssI203
(dp213
g9
F0.31964891507447735
sg10
F0.30296782856999727
ssI204
(dp214
g9
F0.7212060297094215
sg10
F0.7855485486369175
ssI205
(dp215
g9
F0.6667790441341839
sg10
F0.7844513529254727
ssI206
(dp216
g9
F0.9583818113254398
sg10
F0.3792569668881417
ssI207
(dp217
g9
F0.5081053175903102
sg10
F0.6326710215423768
ssI208
(dp218
g9
F0.5438764304280549
sg10
F0.039272557267439834
ssI209
(dp219
g9
F0.44506436241995795
sg10
F0.5048726555728764
ssI210
(dp220
g9
F0.6603905958020604
sg10
F0.9373203421081044
ssI211
(dp221
g9
F0.31576740936210346
sg10
F0.0922020080268493
ssI212
(dp222
g9
F0.20397195413483227
sg10
F0.3155065673869615
ssI213
(dp223
g9
F0.05567299669962711
sg10
F0.6855761423944376
ssI214
(dp224
g9
F0.3525999581221534
sg10
F0.5002544990916878
ssI215
(dp225
g9
F0.8258223983384858
sg10
F0.48873695064784106
ssI216
(dp226
g9
F0.12050082450685784
sg10
F0.8990762417011312
ssI217
(dp227
g9
F0.2843468773896536
sg10
F0.17288805432409082
ssI218
(dp228
g9
F0.6220846291619165
sg10
F0.7783666657814408
ssI219
(dp229
g9
F0.45574136314705505
sg10
F0.08924328978901874
ssI220
(dp230
g9
F0.6533848673502893
sg10
F0.9215878116382016
ssI221
(dp231
g9
F0.938348221855115
sg10
F0.9537010578172018
ssI222
(dp232
g9
F0.494617614841665
sg10
F0.6016031455906498
ssI223
(dp233
g9
F0.7912557121877111
sg10
F0.32306291074277116
ssI224
(dp234
g9
F0.7016640203847443
sg10
F0.8023640098701382
ssI225
(dp235
g9
F0.33561315723146756
sg10
F0.5906554636657488
ssI226
(dp236
g9
F0.6026511310144658
sg10
F0.9264340832510716
ssI227
(dp237
g9
F0.6049352613004573
sg10
F0.5993907242052999
ssI228
(dp238
g9
F0.047129302913292204
sg10
F0.5315121168369926
ssI229
(dp239
g9
F0.742920464428915
sg10
F0.6578444953388048
ssI230
(dp240
g9
F0.8549372677398658
sg10
F0.8629757378562455
ssI231
(dp241
g9
F0.24915255751809307
sg10
F0.7057351354097555
ssI232
(dp242
g9
F0.979182740700736
sg10
F0.659491838340676
ssI233
(dp243
g9
F0.36967595653291474
sg10
F0.8793935231077258
ssI234
(dp244
g9
F0.5299396979791211
sg10
F0.286773685084601
ssI235
(dp245
g9
F0.15451686442299084
sg10
F0.40384006009650986
ssI236
(dp246
g9
F0.07386429476010248
sg10
F0.8519477285869353
ssI237
(dp247
g9
F0.7203054111829241
sg10
F0.4267241208957009
ssI238
(dp248
g9
F0.008642465420308332
sg10
F0.9849893298309365
ssI239
(dp249
g9
F0.6561106016148228
sg10
F0.32021590382255116
ssI240
(dp250
g9
F0.03203407747992848
sg10
F0.5561873248192349
ssI241
(dp251
g9
F0.39361619264912673
sg10
F0.26350462464022995
ssI242
(dp252
g9
F0.072487258426715
sg10
F0.4861586685885355
ssI243
(dp253
g9
F0.5382566023676594
sg10
F0.42032329610721353
ssI244
(dp254
g9
F0.6118406871560903
sg10
F0.5189656837360687
ssI245
(dp255
g9
F0.14421988716574863
sg10
F0.3728773812733407
ssI246
(dp256
g9
F0.381207100801781
sg10
F0.43100199178261944
ssI247
(dp257
g9
F0.9021116755790062
sg10
F0.6473225126019336
ssI248
(dp258
g9
F0.9128939656034221
sg10
F0.6427388326237174
ssI249
(dp259
g9
F0.2134250651958951
sg10
F0.9343610920436007
ssI250
(dp260
g9
F0.42635772296813446
sg10
F0.6481571816009708
ssI251
(dp261
g9
F0.24753892624108653
sg10
F0.7178224924018413
ssI252
(dp262
g9
F0.2904920341652736
sg10
F0.3411974055851643
ssI253
(dp263
g9
F0.13857305662454789
sg10
F0.5632969565477095
ssI254
(dp264
g9
F0.6584918476189425
sg10
F0.09971795821570828
ssI255
(dp265
g9
F0.2550375963613293
sg10
F0.0217494954798656
ssI256
(dp266
g9
F0.16580111103250728
sg10
F0.5365619653296714
ssI257
(dp267
g9
F0.8596649969233803
sg10
F0.5218289558244928
ssI258
(dp268
g9
F0.6987403502687269
sg10
F0.15701002648140328
ssI259
(dp269
g9
F0.222951976456933
sg10
F0.42761980764714425
ssI260
(dp270
g9
F0.973003489892406
sg10
F0.4161114301035781
ssI261
(dp271
g9
F0.08931151488616418
sg10
F0.11991624449305549
ssI262
(dp272
g9
F0.8432173235161088
sg10
F0.23427860121560318
ssI263
(dp273
g9
F0.549026778694921
sg10
F0.39850724325378395
ssI264
(dp274
g9
F0.19911628017222038
sg10
F0.8744756892125711
ssI265
(dp275
g9
F0.29286979018710213
sg10
F0.14712860545303685
ssI266
(dp276
g9
F0.7158121205038532
sg10
F0.2008092486474271
ssI267
(dp277
g9
F0.2934265039366376
sg10
F0.7527033338597504
ssI268
(dp278
g9
F0.34794146150822247
sg10
F0.9872531496120696
ssI269
(dp279
g9
F0.8571425231337296
sg10
F0.5100726946371227
ssI270
(dp280
g9
F0.0767400892834702
sg10
F0.6512467747625698
ssI271
(dp281
g9
F0.025355622349730877
sg10
F0.6926973269016085
ssI272
(dp282
g9
F0.3783543348616085
sg10
F0.7865273370756364
ssI273
(dp283
g9
F0.8807406933947108
sg10
F0.7536009286499754
ssI274
(dp284
g9
F0.8069537647304682
sg10
F0.8236813506469626
ssI275
(dp285
g9
F0.7269030912556865
sg10
F0.9467388591680135
ssI276
(dp286
g9
F0.03701112608304025
sg10
F0.731580051540104
ssI277
(dp287
g9
F0.19497235353503806
sg10
F0.7320915929457512
ssI278
(dp288
g9
F0.8613751627487178
sg10
F0.87163196065753
ssI279
(dp289
g9
F0.495651925962859
sg10
F0.22926683257484215
ssI280
(dp290
g9
F0.2039949473577709
sg10
F0.5781674441857436
ssI281
(dp291
g9
F0.42487400695575306
sg10
F0.7524781098450892
ssI282
(dp292
g9
F0.7835372579453669
sg10
F0.4866987718679928
ssI283
(dp293
g9
F0.679192968638335
sg10
F0.4203335535522139
ssI284
(dp294
g9
F0.2654448296525561
sg10
F0.10556327124095155
ssI285
(dp295
g9
F0.5928630706387595
sg10
F0.42795971944985134
ssI286
(dp296
g9
F0.01688851468063557
sg10
F0.2578829957500367
ssI287
(dp297
g9
F0.07756898162606973
sg10
F0.3797584976646291
ssI288
(dp298
g9
F0.7472602933088383
sg10
F0.1347598001420195
ssI289
(dp299
g9
F0.3857505134215118
sg10
F0.9528805626747173
ssI290
(dp300
g9
F0.8062653845690431
sg10
F0.1062777512461206
ssI291
(dp301
g9
F0.9583526416371715
sg10
F0.6603459509619075
ssI292
(dp302
g9
F0.22372701405520756
sg10
F0.03116866308862598
ssI293
(dp303
g9
F0.8546425546231412
sg10
F0.28783081493602314
ssI294
(dp304
g9
F0.3703679453301384
sg10
F0.7156440246043798
ssI295
(dp305
g9
F0.8075397930988075
sg10
F0.047702174030073596
ssI296
(dp306
g9
F0.8001170243099276
sg10
F0.28713392632215284
ssI297
(dp307
g9
F0.16737723156567852
sg10
F0.030698328876200054
ssI298
(dp308
g9
F0.23046179110532716
sg10
F0.3690912267207769
ssI299
(dp309
g9
F0.36649008614003
sg10
F0.7398702276383617
ssI300
(dp310
g9
F0.5433843381417505
sg10
F0.10737541747337065
ssI301
(dp311
g9
F0.4919628902803912
sg10
F0.39571053837348524
ssI302
(dp312
g9
F0.3429240446332006
sg10
F0.359881003994021
ssI303
(dp313
g9
F0.9570038557391559
sg10
F0.22750364231040887
ssI304
(dp314
g9
F0.7876560582799174
sg10
F0.3998880654882101
ssI305
(dp315
g9
F0.9196513348389121
sg10
F0.5405042969247182
ssI306
(dp316
g9
F0.30227572983011863
sg10
F0.11934921515013319
ssI307
(dp317
g9
F0.6738168996479879
sg10
F0.488756758795168
ssI308
(dp318
g9
F0.9379998709579586
sg10
F0.2405182472914671
ssI309
(dp319
g9
F0.6053214382990119
sg10
F0.7723817722127743
ssI310
(dp320
g9
F0.4278850572092481
sg10
F0.14857504144861466
ssI311
(dp321
g9
F0.03311437084004487
sg10
F0.47396905142233825
ssI312
(dp322
g9
F0.46124201444436963
sg10
F0.21982048996853754
ssI313
(dp323
g9
F0.6564612086397165
sg10
F0.9716613222519823
ssI314
(dp324
g9
F0.3728648304686195
sg10
F0.2993555911875201
ssI315
(dp325
g9
F0.5206679697644342
sg10
F0.4269278516405579
ssI316
(dp326
g9
F0.24778510445468238
sg10
F0.7738335245975505
ssI317
(dp327
g9
F0.699543884340548
sg10
F0.5178374063991233
ssI318
(dp328
g9
F0.7163843570466475
sg10
F0.24153616845224257
ssI319
(dp329
g9
F0.46619288166491557
sg10
F0.30392633742383457
ssI320
(dp330
g9
F0.4793309512817232
sg10
F0.7016994126666419
ssI321
(dp331
g9
F0.6663748162786777
sg10
F0.8782282802732234
ssI322
(dp332
g9
F0.6431412650293665
sg10
F0.016634085403748
ssI323
(dp333
g9
F0.0943082860850244
sg10
F0.9973646581708243
ssI324
(dp334
g9
F0.7927766764618257
sg10
F0.32503799122692856
ssI325
(dp335
g9
F0.011785411599832929
sg10
F0.8061471066113165
ssI326
(dp336
g9
F0.5515182442378966
sg10
F0.9306743257481901
ssI327
(dp337
g9
F0.07738017819857324
sg10
F0.19802706023791272
ssI328
(dp338
g9
F0.3853546237064065
sg10
F0.49780321996810273
ssI329
(dp339
g9
F0.47681590071337143
sg10
F0.7571182995632338
ssI330
(dp340
g9
F0.5967562924540296
sg10
F0.7424353144147593
ssI331
(dp341
g9
F0.29099309507265114
sg10
F0.09598463397276613
ssI332
(dp342
g9
F0.712194504229064
sg10
F0.9500152279913491
ssI333
(dp343
g9
F0.5136288918448176
sg10
F0.18803457121080358
ssI334
(dp344
g9
F0.6646852065628023
sg10
F0.232654284643095
ssI335
(dp345
g9
F0.7132178126043733
sg10
F0.16329501706197602
ssI336
(dp346
g9
F0.11375130447038495
sg10
F0.5669947625024337
ssI337
(dp347
g9
F0.384329280880089
sg10
F0.7712767003357213
ssI338
(dp348
g9
F0.5705888652309614
sg10
F0.14867427000350097
ssI339
(dp349
g9
F0.1622360795698452
sg10
F0.9339849302135619
ssI340
(dp350
g9
F0.10370738086639009
sg10
F0.7866123011503686
ssI341
(dp351
g9
F0.7852485846230912
sg10
F0.6947859544653924
ssI342
(dp352
g9
F0.008691544186307909
sg10
F0.6890957229625204
ssI343
(dp353
g9
F0.5568221427524545
sg10
F0.7210149800464368
ssI344
(dp354
g9
F0.5264196804613366
sg10
F0.5363705589508814
ssI345
(dp355
g9
F0.22697740471280903
sg10
F0.532847539632464
ssI346
(dp356
g9
F0.6647355858452167
sg10
F0.20738222339075274
ssI347
(dp357
g9
F0.617021605273375
sg10
F0.6844912585942098
ssI348
(dp358
g9
F0.21236771408675403
sg10
F0.9553322675471192
ssI349
(dp359
g9
F0.3352478923840032
sg10
F0.17040509878524823
ssI350
(dp360
g9
F0.24402730717814625
sg10
F0.46375400649198206
ssI351
(dp361
g9
F0.9762882383877893
sg10
F0.4510379100168608
ssI352
(dp362
g9
F0.3901672270091803
sg10
F0.2963054552672151
ssI353
(dp363
g9
F0.04872005789281797
sg10
F0.9463526612609556
ssI354
(dp364
g9
F0.5560453469951444
sg10
F0.7955614602852501
ssI355
(dp365
g9
F0.010583599889040562
sg10
F0.9132397687933304
ssI356
(dp366
g9
F0.7995434435821867
sg10
F0.04059474626996529
ssI357
(dp367
g9
F0.8572037807477434
sg10
F0.09293225480987699
ssI358
(dp368
g9
F0.16796659036263173
sg10
F0.872265365200003
ssI359
(dp369
g9
F0.2992475559882334
sg10
F0.6795509117077865
ssI360
(dp370
g9
F0.03325222136435624
sg10
F0.43732935354967273
ssI361
(dp371
g9
F0.9958624574392975
sg10
F0.5511233716474332
ssI362
(dp372
g9
F0.25380971978723044
sg10
F0.8811842852209938
ssI363
(dp373
g9
F0.535160873980533
sg10
F0.9162598518759311
ssI364
(dp374
g9
F0.4850857073181547
sg10
F0.4822967686061669
ssI365
(dp375
g9
F0.6245443699501066
sg10
F0.698995855943928
ssI366
(dp376
g9
F0.6844807930199205
sg10
F0.9447000183994088
ssI367
(dp377
g9
F0.5662384147833159
sg10
F0.7030699701790365
ssI368
(dp378
g9
F0.6618443951471351
sg10
F0.9915415724246294
ssI369
(dp379
g9
F0.8849109344115673
sg10
F0.8561493153354699
ssI370
(dp380
g9
F0.6858561092648314
sg10
F0.7276900069785532
ssI371
(dp381
g9
F0.4177160810753022
sg10
F0.343187409805371
ssI372
(dp382
g9
F0.7209592422313466
sg10
F0.7840217634446434
ssI373
(dp383
g9
F0.87814646399462
sg10
F0.14443524925306161
ssI374
(dp384
g9
F0.3494302634563453
sg10
F0.44775925288404794
ssI375
(dp385
g9
F0.007646021622926269
sg10
F0.4544980389695493
ssI376
(dp386
g9
F0.032520817894805654
sg10
F0.21832192455511945
ssI377
(dp387
g9
F0.7650978928202125
sg10
F0.23335615270108212
ssI378
(dp388
g9
F0.11276563819838392
sg10
F0.8019567908286697
ssI379
(dp389
g9
F0.6205315595701671
sg10
F0.15155389992225443
ssI380
(dp390
g9
F0.30000084574655883
sg10
F0.6371198602037452
ssI381
(dp391
g9
F0.32116149607526756
sg10
F0.016497110339423693
ssI382
(dp392
g9
F0.8731880773297634
sg10
F0.9174322673009548
ssI383
(dp393
g9
F0.9849360153440276
sg10
F0.3281779285162252
ssI384
(dp394
g9
F0.024768216558098022
sg10
F0.48613145111808886
ssI385
(dp395
g9
F0.539505022090596
sg10
F0.5731532979503234
ssI386
(dp396
g9
F0.6622838154098364
sg10
F0.4217908567042403
ssI387
(dp397
g9
F0.6535373454805729
sg10
F0.25007594877154105
ssI388
(dp398
g9
F0.39866563183545056
sg10
F0.015022387557228623
ssI389
(dp399
g9
F0.6013941524662932
sg10
F0.5244396450034892
ssI390
(dp400
g9
F0.9786537657643003
sg10
F0.13938409819653963
ssI391
(dp401
g9
F0.16760525759061096
sg10
F0.6832105065807998
ssI392
(dp402
g9
F0.7242965273468066
sg10
F0.29653716590945567
ssI393
(dp403
g9
F0.8249430150440247
sg10
F0.8154013472864423
ssI394
(dp404
g9
F0.22831936062098124
sg10
F0.33936634547448685
ssI395
(dp405
g9
F0.6364878213533939
sg10
F0.07215885370179687
ssI396
(dp406
g9
F0.49005368759331336
sg10
F0.9289031225926744
ssI397
(dp407
g9
F0.23958803083403268
sg10
F0.7555002786106858
ssI398
(dp408
g9
F0.914298875468343
sg10
F0.2953802612498213
ssI399
(dp409
g9
F0.7185019710579498
sg10
F0.6259547193401519
sssS'node_dict_factory'
p410
c__builtin__
dict
p411
sS'edge_attr_dict_factory'
p412
g411
sS'edge'
p413
(dp414
I0
(dp415
sI1
(dp416
sI2
(dp417
sI3
(dp418
sI4
(dp419
sI5
(dp420
sI6
(dp421
sI7
(dp422
sI8
(dp423
sI9
(dp424
sI10
(dp425
sI11
(dp426
sI12
(dp427
sI13
(dp428
sI14
(dp429
sI15
(dp430
sI16
(dp431
sI17
(dp432
sI18
(dp433
sI19
(dp434
sI20
(dp435
sI21
(dp436
sI22
(dp437
sI23
(dp438
sI24
(dp439
sI25
(dp440
sI26
(dp441
sI27
(dp442
sI28
(dp443
sI29
(dp444
sI30
(dp445
sI31
(dp446
sI32
(dp447
sI33
(dp448
sI34
(dp449
sI35
(dp450
sI36
(dp451
sI37
(dp452
sI38
(dp453
sI39
(dp454
sI40
(dp455
sI41
(dp456
sI42
(dp457
sI43
(dp458
sI44
(dp459
sI45
(dp460
sI46
(dp461
sI47
(dp462
sI48
(dp463
sI49
(dp464
sI50
(dp465
sI51
(dp466
sI52
(dp467
sI53
(dp468
sI54
(dp469
sI55
(dp470
sI56
(dp471
sI57
(dp472
sI58
(dp473
sI59
(dp474
sI60
(dp475
sI61
(dp476
sI62
(dp477
sI63
(dp478
sI64
(dp479
sI65
(dp480
sI66
(dp481
sI67
(dp482
sI68
(dp483
sI69
(dp484
sI70
(dp485
sI71
(dp486
sI72
(dp487
sI73
(dp488
sI74
(dp489
sI75
(dp490
sI76
(dp491
sI77
(dp492
sI78
(dp493
sI79
(dp494
sI80
(dp495
sI81
(dp496
sI82
(dp497
sI83
(dp498
sI84
(dp499
sI85
(dp500
sI86
(dp501
sI87
(dp502
sI88
(dp503
sI89
(dp504
sI90
(dp505
sI91
(dp506
sI92
(dp507
sI93
(dp508
sI94
(dp509
sI95
(dp510
sI96
(dp511
sI97
(dp512
sI98
(dp513
sI99
(dp514
sI100
(dp515
sI101
(dp516
sI102
(dp517
sI103
(dp518
sI104
(dp519
sI105
(dp520
sI106
(dp521
sI107
(dp522
sI108
(dp523
sI109
(dp524
sI110
(dp525
sI111
(dp526
sI112
(dp527
sI113
(dp528
sI114
(dp529
sI115
(dp530
sI116
(dp531
sI117
(dp532
sI118
(dp533
sI119
(dp534
sI120
(dp535
sI121
(dp536
sI122
(dp537
sI123
(dp538
sI124
(dp539
sI125
(dp540
sI126
(dp541
sI127
(dp542
sI128
(dp543
sI129
(dp544
sI130
(dp545
sI131
(dp546
sI132
(dp547
sI133
(dp548
sI134
(dp549
sI135
(dp550
sI136
(dp551
sI137
(dp552
sI138
(dp553
sI139
(dp554
sI140
(dp555
sI141
(dp556
sI142
(dp557
sI143
(dp558
sI144
(dp559
sI145
(dp560
sI146
(dp561
sI147
(dp562
sI148
(dp563
sI149
(dp564
sI150
(dp565
sI151
(dp566
sI152
(dp567
sI153
(dp568
sI154
(dp569
sI155
(dp570
sI156
(dp571
sI157
(dp572
sI158
(dp573
sI159
(dp574
sI160
(dp575
sI161
(dp576
sI162
(dp577
sI163
(dp578
sI164
(dp579
sI165
(dp580
sI166
(dp581
sI167
(dp582
sI168
(dp583
sI169
(dp584
sI170
(dp585
sI171
(dp586
sI172
(dp587
sI173
(dp588
sI174
(dp589
sI175
(dp590
sI176
(dp591
sI177
(dp592
sI178
(dp593
sI179
(dp594
sI180
(dp595
sI181
(dp596
sI182
(dp597
sI183
(dp598
sI184
(dp599
sI185
(dp600
sI186
(dp601
sI187
(dp602
sI188
(dp603
sI189
(dp604
sI190
(dp605
sI191
(dp606
sI192
(dp607
sI193
(dp608
sI194
(dp609
sI195
(dp610
sI196
(dp611
sI197
(dp612
sI198
(dp613
sI199
(dp614
sI200
(dp615
sI201
(dp616
sI202
(dp617
sI203
(dp618
sI204
(dp619
sI205
(dp620
sI206
(dp621
sI207
(dp622
sI208
(dp623
sI209
(dp624
sI210
(dp625
sI211
(dp626
sI212
(dp627
sI213
(dp628
sI214
(dp629
sI215
(dp630
sI216
(dp631
sI217
(dp632
sI218
(dp633
sI219
(dp634
sI220
(dp635
sI221
(dp636
sI222
(dp637
sI223
(dp638
sI224
(dp639
sI225
(dp640
sI226
(dp641
sI227
(dp642
sI228
(dp643
sI229
(dp644
sI230
(dp645
sI231
(dp646
sI232
(dp647
sI233
(dp648
sI234
(dp649
sI235
(dp650
sI236
(dp651
sI237
(dp652
sI238
(dp653
sI239
(dp654
sI240
(dp655
sI241
(dp656
sI242
(dp657
sI243
(dp658
sI244
(dp659
sI245
(dp660
sI246
(dp661
sI247
(dp662
sI248
(dp663
sI249
(dp664
sI250
(dp665
sI251
(dp666
sI252
(dp667
sI253
(dp668
sI254
(dp669
sI255
(dp670
sI256
(dp671
sI257
(dp672
sI258
(dp673
sI259
(dp674
sI260
(dp675
sI261
(dp676
sI262
(dp677
sI263
(dp678
sI264
(dp679
sI265
(dp680
sI266
(dp681
sI267
(dp682
sI268
(dp683
sI269
(dp684
sI270
(dp685
sI271
(dp686
sI272
(dp687
sI273
(dp688
sI274
(dp689
sI275
(dp690
sI276
(dp691
sI277
(dp692
sI278
(dp693
sI279
(dp694
sI280
(dp695
sI281
(dp696
sI282
(dp697
sI283
(dp698
sI284
(dp699
sI285
(dp700
sI286
(dp701
sI287
(dp702
sI288
(dp703
sI289
(dp704
sI290
(dp705
sI291
(dp706
sI292
(dp707
sI293
(dp708
sI294
(dp709
sI295
(dp710
sI296
(dp711
sI297
(dp712
sI298
(dp713
sI299
(dp714
sI300
(dp715
sI301
(dp716
sI302
(dp717
sI303
(dp718
sI304
(dp719
sI305
(dp720
sI306
(dp721
sI307
(dp722
sI308
(dp723
sI309
(dp724
sI310
(dp725
sI311
(dp726
sI312
(dp727
sI313
(dp728
sI314
(dp729
sI315
(dp730
sI316
(dp731
sI317
(dp732
sI318
(dp733
sI319
(dp734
sI320
(dp735
sI321
(dp736
sI322
(dp737
sI323
(dp738
sI324
(dp739
sI325
(dp740
sI326
(dp741
sI327
(dp742
sI328
(dp743
sI329
(dp744
sI330
(dp745
sI331
(dp746
sI332
(dp747
sI333
(dp748
sI334
(dp749
sI335
(dp750
sI336
(dp751
sI337
(dp752
sI338
(dp753
sI339
(dp754
sI340
(dp755
sI341
(dp756
sI342
(dp757
sI343
(dp758
sI344
(dp759
sI345
(dp760
sI346
(dp761
sI347
(dp762
sI348
(dp763
sI349
(dp764
sI350
(dp765
sI351
(dp766
sI352
(dp767
sI353
(dp768
sI354
(dp769
sI355
(dp770
sI356
(dp771
sI357
(dp772
sI358
(dp773
sI359
(dp774
sI360
(dp775
sI361
(dp776
sI362
(dp777
sI363
(dp778
sI364
(dp779
sI365
(dp780
sI366
(dp781
sI367
(dp782
sI368
(dp783
sI369
(dp784
sI370
(dp785
sI371
(dp786
sI372
(dp787
sI373
(dp788
sI374
(dp789
sI375
(dp790
sI376
(dp791
sI377
(dp792
sI378
(dp793
sI379
(dp794
sI380
(dp795
sI381
(dp796
sI382
(dp797
sI383
(dp798
sI384
(dp799
sI385
(dp800
sI386
(dp801
sI387
(dp802
sI388
(dp803
sI389
(dp804
sI390
(dp805
sI391
(dp806
sI392
(dp807
sI393
(dp808
sI394
(dp809
sI395
(dp810
sI396
(dp811
sI397
(dp812
sI398
(dp813
sI399
(dp814
ssS'graph'
p815
(dp816
sS'adjlist_dict_factory'
p817
g411
sS'adj'
p818
g414
sb.