ccopy_reg
_reconstructor
p0
(cnetworkx.classes.graph
Graph
p1
c__builtin__
object
p2
Ntp3
Rp4
(dp5
S'node'
p6
(dp7
I0
(dp8
S'pos_x'
p9
F0.8089767490896714
sS'pos_y'
p10
F0.015333594447088483
ssI1
(dp11
g9
F0.8995034541558153
sg10
F0.7564831196200057
ssI2
(dp12
g9
F0.928408305720208
sg10
F0.36990955496577793
ssI3
(dp13
g9
F0.8363593076338184
sg10
F0.12684653204136542
ssI4
(dp14
g9
F0.8575600053356146
sg10
F0.1599302332199265
ssI5
(dp15
g9
F0.6118177787823736
sg10
F0.04783455363140299
ssI6
(dp16
g9
F0.5951481027835765
sg10
F0.6198666019891301
ssI7
(dp17
g9
F0.6405621909014666
sg10
F0.05749427647803129
ssI8
(dp18
g9
F0.2971718854123483
sg10
F0.07694670382941027
ssI9
(dp19
g9
F0.9673367195017678
sg10
F0.06191654109485223
ssI10
(dp20
g9
F0.4476842283296699
sg10
F0.7041980912123339
ssI11
(dp21
g9
F0.7431655428532008
sg10
F0.27218634462006785
ssI12
(dp22
g9
F0.00931053205315635
sg10
F0.35714275343914526
ssI13
(dp23
g9
F0.8721940436730065
sg10
F0.6502648166109263
ssI14
(dp24
g9
F0.008102483320395315
sg10
F0.29450340563179733
ssI15
(dp25
g9
F0.23131757692121402
sg10
F0.8900308071708999
ssI16
(dp26
g9
F0.8196051940688874
sg10
F0.714860341461124
ssI17
(dp27
g9
F0.057621655985386044
sg10
F0.3931688383592331
ssI18
(dp28
g9
F0.19861641116913487
sg10
F0.9811403341565963
ssI19
(dp29
g9
F0.6409745983809628
sg10
F0.1695066979306471
ssI20
(dp30
g9
F0.2552255113649887
sg10
F0.06284979771936827
ssI21
(dp31
g9
F0.9423329816827215
sg10
F0.15020434424464868
ssI22
(dp32
g9
F0.7806017156583751
sg10
F0.6917177121898359
ssI23
(dp33
g9
F0.9343497315207394
sg10
F0.9078347392011074
ssI24
(dp34
g9
F0.9058081506794124
sg10
F0.17132839486276175
ssI25
(dp35
g9
F0.5854016683457685
sg10
F0.2449648778509842
ssI26
(dp36
g9
F0.09430187574772819
sg10
F0.5818331618910685
ssI27
(dp37
g9
F0.7668069644566431
sg10
F0.9885762138228804
ssI28
(dp38
g9
F0.5017856521879067
sg10
F0.2357311358063564
ssI29
(dp39
g9
F0.31481681860350785
sg10
F0.45995493332657156
ssI30
(dp40
g9
F0.9307014336409053
sg10
F0.09724200025245022
ssI31
(dp41
g9
F0.650294641689994
sg10
F0.14292512379563416
ssI32
(dp42
g9
F0.9251550070272312
sg10
F0.11098907852610163
ssI33
(dp43
g9
F0.6655366775380908
sg10
F0.7567159643671874
ssI34
(dp44
g9
F0.3960986420295186
sg10
F0.48647163876648947
ssI35
(dp45
g9
F0.01364241129004684
sg10
F0.7909025199649006
ssI36
(dp46
g9
F0.8637928073813866
sg10
F0.9398908321272831
ssI37
(dp47
g9
F0.38276376869606554
sg10
F0.49272325746306245
ssI38
(dp48
g9
F0.6929886560048013
sg10
F0.2999417262143623
ssI39
(dp49
g9
F0.24733841357907815
sg10
F0.07789333094054296
ssI40
(dp50
g9
F0.9117023615326485
sg10
F0.4601013494918589
ssI41
(dp51
g9
F0.9595639289222574
sg10
F0.9988455193916074
ssI42
(dp52
g9
F0.18471607003650792
sg10
F0.3559528200942498
ssI43
(dp53
g9
F0.548555202107161
sg10
F0.4782421371709883
ssI44
(dp54
g9
F0.46576395089291156
sg10
F0.9992591417529083
ssI45
(dp55
g9
F0.014558858429315591
sg10
F0.2936115082394508
ssI46
(dp56
g9
F0.8320173930762317
sg10
F0.45222877034845066
ssI47
(dp57
g9
F0.44007560015175506
sg10
F0.442054497658562
ssI48
(dp58
g9
F0.6442849434404199
sg10
F0.6550862119081486
ssI49
(dp59
g9
F0.038906934870190035
sg10
F0.4588341896978603
ssI50
(dp60
g9
F0.9802355254684789
sg10
F0.06688144618307834
ssI51
(dp61
g9
F0.9178750170155883
sg10
F0.11794808733480644
ssI52
(dp62
g9
F0.7490322272457876
sg10
F0.8626123502029751
ssI53
(dp63
g9
F0.13796306294474336
sg10
F0.7267626188474182
ssI54
(dp64
g9
F0.07563596053517763
sg10
F0.9355048380791732
ssI55
(dp65
g9
F0.7523267898052902
sg10
F0.2358985276492922
ssI56
(dp66
g9
F0.7031114558250282
sg10
F0.7642118130634261
ssI57
(dp67
g9
F0.18010455492326927
sg10
F0.9969955572363469
ssI58
(dp68
g9
F0.2116117609264626
sg10
F0.9295453978965905
ssI59
(dp69
g9
F0.5803233235151041
sg10
F0.6804329436329298
ssI60
(dp70
g9
F0.4881692684530837
sg10
F0.1769121923332313
ssI61
(dp71
g9
F0.7995369171299883
sg10
F0.49457256102516234
ssI62
(dp72
g9
F0.08147654673900329
sg10
F0.2340070039033163
ssI63
(dp73
g9
F0.3848715386576259
sg10
F0.04571169650467244
ssI64
(dp74
g9
F0.7853287805278374
sg10
F0.32541965200356515
ssI65
(dp75
g9
F0.5042788889819597
sg10
F0.301064607265057
ssI66
(dp76
g9
F0.99188495849891
sg10
F0.9259025107053658
ssI67
(dp77
g9
F0.2613381445926445
sg10
F0.09521527508142491
ssI68
(dp78
g9
F0.989797960310592
sg10
F0.511447522673622
ssI69
(dp79
g9
F0.07375513293801716
sg10
F0.7668960901718191
ssI70
(dp80
g9
F0.02107348597137637
sg10
F0.7262512743448712
ssI71
(dp81
g9
F0.7633569359494812
sg10
F0.5045347853691994
ssI72
(dp82
g9
F0.8146389748649187
sg10
F0.016824306855036775
ssI73
(dp83
g9
F0.272495289782697
sg10
F0.05580047815853584
ssI74
(dp84
g9
F0.5777289699192818
sg10
F0.8417297378145321
ssI75
(dp85
g9
F0.8744065581293329
sg10
F0.12664944075424656
ssI76
(dp86
g9
F0.4011310205030799
sg10
F0.10547936913657308
ssI77
(dp87
g9
F0.19342510604384233
sg10
F0.8244562285754151
ssI78
(dp88
g9
F0.2717327088572008
sg10
F0.4007517236315017
ssI79
(dp89
g9
F0.7700528047689575
sg10
F0.7098259715470004
ssI80
(dp90
g9
F0.05589809945871649
sg10
F0.7459164624527626
ssI81
(dp91
g9
F0.9455033727286148
sg10
F0.7377643569297858
ssI82
(dp92
g9
F0.7383292391899606
sg10
F0.733454295852637
ssI83
(dp93
g9
F0.575524054018122
sg10
F0.39995529582827705
ssI84
(dp94
g9
F0.07797358722132952
sg10
F0.32792075342201765
ssI85
(dp95
g9
F0.06545179581447302
sg10
F0.3915886439090497
ssI86
(dp96
g9
F0.31731709609815284
sg10
F0.35573649559102793
ssI87
(dp97
g9
F0.005525219263566861
sg10
F0.9601156598584106
ssI88
(dp98
g9
F0.3951377302394945
sg10
F0.4173756832572212
ssI89
(dp99
g9
F0.8751909477745812
sg10
F0.45408492904195197
ssI90
(dp100
g9
F0.7440416183388214
sg10
F0.2579872290024392
ssI91
(dp101
g9
F0.24462995332035264
sg10
F0.4401688862648022
ssI92
(dp102
g9
F0.9813538522044022
sg10
F0.6089810357588634
ssI93
(dp103
g9
F0.02961480417527118
sg10
F0.6584661016904276
ssI94
(dp104
g9
F0.003907677542604238
sg10
F0.22280865542236994
ssI95
(dp105
g9
F0.5208082745149728
sg10
F0.682398464606114
ssI96
(dp106
g9
F0.892415677108088
sg10
F0.046247834294921186
ssI97
(dp107
g9
F0.35842133776552276
sg10
F0.9812095766340866
ssI98
(dp108
g9
F0.13141192198060236
sg10
F0.9651080195933253
ssI99
(dp109
g9
F0.6672233092842158
sg10
F0.3349190020598226
ssI100
(dp110
g9
F0.6555124168180054
sg10
F0.36682502618427304
ssI101
(dp111
g9
F0.3749644017575404
sg10
F0.8391649621630012
ssI102
(dp112
g9
F0.04236852150122583
sg10
F0.3923819808079613
ssI103
(dp113
g9
F0.5298856943016207
sg10
F0.21537007397773944
ssI104
(dp114
g9
F0.7232410959836624
sg10
F0.13364493432142388
ssI105
(dp115
g9
F0.8605286056615774
sg10
F0.4281070042761346
ssI106
(dp116
g9
F0.7947687724641532
sg10
F0.6451500599655902
ssI107
(dp117
g9
F0.5022718082704322
sg10
F0.08436392328938491
ssI108
(dp118
g9
F0.2745247448833864
sg10
F0.14476551784863756
ssI109
(dp119
g9
F0.4585701013006023
sg10
F0.5980266180866491
ssI110
(dp120
g9
F0.7627762644840093
sg10
F0.005956808234671485
ssI111
(dp121
g9
F0.7287616529307224
sg10
F0.9930040626245165
ssI112
(dp122
g9
F0.6327911188767512
sg10
F0.18844603165644025
ssI113
(dp123
g9
F0.35727463849907004
sg10
F0.24187034428229193
ssI114
(dp124
g9
F0.6295590689965935
sg10
F0.9829886017573221
ssI115
(dp125
g9
F0.6959964957612768
sg10
F0.9285424780759468
ssI116
(dp126
g9
F0.8095271017123697
sg10
F0.6059424452553768
ssI117
(dp127
g9
F0.8128952101557577
sg10
F0.6997766658991169
ssI118
(dp128
g9
F0.2746416667958387
sg10
F0.7188279251673269
ssI119
(dp129
g9
F0.09720910479915168
sg10
F0.6199337439444912
ssI120
(dp130
g9
F0.13322701006461468
sg10
F0.8720364609649484
ssI121
(dp131
g9
F0.0765905124833226
sg10
F0.07498337772277264
ssI122
(dp132
g9
F0.6087943356760204
sg10
F0.43987583783401596
ssI123
(dp133
g9
F0.5542335823732398
sg10
F0.8005641188876184
ssI124
(dp134
g9
F0.18628315274268614
sg10
F0.3716408735959955
ssI125
(dp135
g9
F0.49818702866937037
sg10
F0.5965676337998376
ssI126
(dp136
g9
F0.8755965766914574
sg10
F0.05736598923583536
ssI127
(dp137
g9
F0.9370890890372547
sg10
F0.23539251749871748
ssI128
(dp138
g9
F0.16701279546188175
sg10
F0.8819855377348677
ssI129
(dp139
g9
F0.21335545685619517
sg10
F0.68320761555844
ssI130
(dp140
g9
F0.0010091566086068982
sg10
F0.4832335614459252
ssI131
(dp141
g9
F0.24664451759641493
sg10
F0.8964105425482477
ssI132
(dp142
g9
F0.3217123747258013
sg10
F0.6202397365747802
ssI133
(dp143
g9
F0.23792221072656938
sg10
F0.51944653407907
ssI134
(dp144
g9
F0.28124327726703646
sg10
F0.47402279918612666
ssI135
(dp145
g9
F0.13316516911994947
sg10
F0.14176396682384562
ssI136
(dp146
g9
F0.8483567730933665
sg10
F0.4580151187327418
ssI137
(dp147
g9
F0.5878286978825951
sg10
F0.9729970861686238
ssI138
(dp148
g9
F0.9672336503922234
sg10
F0.797927490761405
ssI139
(dp149
g9
F0.006436531615340302
sg10
F0.8013385715822281
ssI140
(dp150
g9
F0.29561012266228537
sg10
F0.27570305695236463
ssI141
(dp151
g9
F0.2434185667464469
sg10
F0.0881587617943278
ssI142
(dp152
g9
F0.21260159208360097
sg10
F0.6692201531496325
ssI143
(dp153
g9
F0.7214460638423459
sg10
F0.585997582316112
ssI144
(dp154
g9
F0.40148137957948193
sg10
F0.7581573257551771
ssI145
(dp155
g9
F0.3483386143680073
sg10
F0.20728657009533513
ssI146
(dp156
g9
F0.3901235107561164
sg10
F0.14585220811040633
ssI147
(dp157
g9
F0.5571861327189443
sg10
F0.16432083761358496
ssI148
(dp158
g9
F0.3036263553380204
sg10
F0.23897942787189919
ssI149
(dp159
g9
F0.4832141410025771
sg10
F0.9687400794456645
ssI150
(dp160
g9
F0.7083412525394318
sg10
F0.9516064518509698
ssI151
(dp161
g9
F0.16104836468410655
sg10
F0.8288238617145557
ssI152
(dp162
g9
F0.6660992038749753
sg10
F0.2550123771335021
ssI153
(dp163
g9
F0.8901237214777477
sg10
F0.7052595551768238
ssI154
(dp164
g9
F0.04612246748172544
sg10
F0.6032741458933405
ssI155
(dp165
g9
F0.37471233486245537
sg10
F0.03417612461095876
ssI156
(dp166
g9
F0.8210651587373083
sg10
F0.3587776932545711
ssI157
(dp167
g9
F0.7902930300157802
sg10
F0.639103892631403
ssI158
(dp168
g9
F0.9711431728375398
sg10
F0.03693108592413785
ssI159
(dp169
g9
F0.8033388753722399
sg10
F0.9352926784877544
ssI160
(dp170
g9
F0.3858097232679226
sg10
F0.35688630121703036
ssI161
(dp171
g9
F0.8065802675031865
sg10
F0.6716431308845295
ssI162
(dp172
g9
F0.694476337329289
sg10
F0.5282772278395831
ssI163
(dp173
g9
F0.9168077013977588
sg10
F0.5224373342689635
ssI164
(dp174
g9
F0.7328183819289646
sg10
F0.9211580756449609
ssI165
(dp175
g9
F0.9242687524929862
sg10
F0.7354758856733374
ssI166
(dp176
g9
F0.2133105623034075
sg10
F0.21606998090932927
ssI167
(dp177
g9
F0.025725896835911866
sg10
F0.8107027481130503
ssI168
(dp178
g9
F0.6165497400322669
sg10
F0.1711090649076148
ssI169
(dp179
g9
F0.30836956353915723
sg10
F0.409030304628632
ssI170
(dp180
g9
F0.022971199513908025
sg10
F0.49696650579585044
ssI171
(dp181
g9
F0.45302465440900275
sg10
F0.11909476804354979
ssI172
(dp182
g9
F0.65491470483561
sg10
F0.1317757282382297
ssI173
(dp183
g9
F0.11822281832054282
sg10
F0.6047258880410821
ssI174
(dp184
g9
F0.01985376931429572
sg10
F0.8909927461268736
ssI175
(dp185
g9
F0.0850626433296312
sg10
F0.008469434852701685
ssI176
(dp186
g9
F0.5235744574013692
sg10
F0.1958770336291531
ssI177
(dp187
g9
F0.4294293788896806
sg10
F0.4313854528452802
ssI178
(dp188
g9
F0.8002221064643349
sg10
F0.2364483863653981
ssI179
(dp189
g9
F0.35949234667030017
sg10
F0.6157892346821662
ssI180
(dp190
g9
F0.8719202116373321
sg10
F0.8376814708824919
ssI181
(dp191
g9
F0.04643266575016969
sg10
F0.1721169102217115
ssI182
(dp192
g9
F0.39629458441644694
sg10
F0.3720034517626878
ssI183
(dp193
g9
F0.6177491514691156
sg10
F0.5315676184633823
ssI184
(dp194
g9
F0.5552997120424009
sg10
F0.9718816237100277
ssI185
(dp195
g9
F0.10462732899643945
sg10
F0.40688786406510347
ssI186
(dp196
g9
F0.5597412221654895
sg10
F0.7625783029314002
ssI187
(dp197
g9
F0.8728517092163872
sg10
F0.07819172573185029
ssI188
(dp198
g9
F0.9373002407024952
sg10
F0.4636440418721709
ssI189
(dp199
g9
F0.0911083170828293
sg10
F0.5141776227142899
ssI190
(dp200
g9
F0.9914022592813664
sg10
F0.19766619603135183
ssI191
(dp201
g9
F0.12312106312196291
sg10
F0.30249014135919017
ssI192
(dp202
g9
F0.03148039186743401
sg10
F0.9657999729458194
ssI193
(dp203
g9
F0.8636500692040638
sg10
F0.11621908566778028
ssI194
(dp204
g9
F0.3665127051063133
sg10
F0.1933037897505846
ssI195
(dp205
g9
F0.48069975712078383
sg10
F0.8630768273228678
ssI196
(dp206
g9
F0.062039093693582514
sg10
F0.15194237873960525
ssI197
(dp207
g9
F0.5616360381504327
sg10
F0.2288161213111226
ssI198
(dp208
g9
F0.6801688318825188
sg10
F0.34916057491124375
ssI199
(dp209
g9
F0.5759356088431512
sg10
F0.09252756364186443
ssI200
(dp210
g9
F0.8214328055727289
sg10
F0.0623969069199769
ssI201
(dp211
g9
F0.8432678267810042
sg10
F0.9739513860811382
ssI202
(dp212
g9
F0.26058248664534267
sg10
F0.5194656092268999
ssI203
(dp213
g9
F0.012814210355361788
sg10
F0.31637950040338636
ssI204
(dp214
g9
F0.8421666351320588
sg10
F0.5808886030921169
ssI205
(dp215
g9
F0.8080723827807014
sg10
F0.6803458810182894
ssI206
(dp216
g9
F0.9203930828654027
sg10
F0.3454676794626157
ssI207
(dp217
g9
F0.14234656995281436
sg10
F0.9861763360841195
ssI208
(dp218
g9
F0.9133206438762289
sg10
F0.3172644416539988
ssI209
(dp219
g9
F0.12157830168640626
sg10
F0.6615629168117731
ssI210
(dp220
g9
F0.4783715588541717
sg10
F0.30520506653656043
ssI211
(dp221
g9
F0.07196567420105549
sg10
F0.4224940083596824
ssI212
(dp222
g9
F0.4050659179845809
sg10
F0.14588538161797537
ssI213
(dp223
g9
F0.8043459584967726
sg10
F0.05016296612200433
ssI214
(dp224
g9
F0.3363558924317869
sg10
F0.5869866150673257
ssI215
(dp225
g9
F0.47186630791687967
sg10
F0.8415373645658784
ssI216
(dp226
g9
F0.28391516390887805
sg10
F0.7597978058584701
ssI217
(dp227
g9
F0.4939544028470979
sg10
F0.3850229771141159
ssI218
(dp228
g9
F0.05017128293080242
sg10
F0.9076106871704376
ssI219
(dp229
g9
F0.22654083440230188
sg10
F0.7106981747157638
ssI220
(dp230
g9
F0.585106104071958
sg10
F0.45975149145639416
ssI221
(dp231
g9
F0.6867922552292433
sg10
F0.21487016099677037
ssI222
(dp232
g9
F0.4317403974534443
sg10
F0.8340333216308602
ssI223
(dp233
g9
F0.025875999081683698
sg10
F0.9837768288841994
ssI224
(dp234
g9
F0.2663131861183413
sg10
F0.807063814749122
ssI225
(dp235
g9
F0.1320305762053121
sg10
F0.44540255121906225
ssI226
(dp236
g9
F0.20965539356120888
sg10
F0.0651366472352618
ssI227
(dp237
g9
F0.5856016067667771
sg10
F0.38549163651401286
ssI228
(dp238
g9
F0.7929946894493687
sg10
F0.14005784601706384
ssI229
(dp239
g9
F0.32323564067258126
sg10
F0.3642407813373916
ssI230
(dp240
g9
F0.03679246170524941
sg10
F0.5172477735530514
ssI231
(dp241
g9
F0.38277098916142016
sg10
F0.21465307415722723
ssI232
(dp242
g9
F0.6143880068963922
sg10
F0.4074372530009346
ssI233
(dp243
g9
F0.6943149413543712
sg10
F0.33525989016917046
ssI234
(dp244
g9
F0.5525751754588657
sg10
F0.12777836231043016
ssI235
(dp245
g9
F0.5349671171608956
sg10
F0.5412249893276354
ssI236
(dp246
g9
F0.9094034338498386
sg10
F0.8365431096650183
ssI237
(dp247
g9
F0.4475039874491521
sg10
F0.0225875369063101
ssI238
(dp248
g9
F0.4545875814068773
sg10
F0.8553730992444807
ssI239
(dp249
g9
F0.5144837320821568
sg10
F0.3265714186273183
ssI240
(dp250
g9
F0.2865364515505301
sg10
F0.6476295502045003
ssI241
(dp251
g9
F0.4448757715874445
sg10
F0.1750843086844328
ssI242
(dp252
g9
F0.7452836829831957
sg10
F0.3507619096730591
ssI243
(dp253
g9
F0.1435710752836824
sg10
F0.005136379302915772
ssI244
(dp254
g9
F0.1344298118674897
sg10
F0.19005403393779952
ssI245
(dp255
g9
F0.6834054341961131
sg10
F0.19985548386619245
ssI246
(dp256
g9
F0.22714246268492244
sg10
F0.08160710996965692
ssI247
(dp257
g9
F0.674872974732942
sg10
F0.7430952154904367
ssI248
(dp258
g9
F0.7449237165051116
sg10
F0.3526083875388709
ssI249
(dp259
g9
F0.40119283385766225
sg10
F0.3668748114934548
ssI250
(dp260
g9
F0.4933532665110477
sg10
F0.5662925412304484
ssI251
(dp261
g9
F0.37893253112760816
sg10
F0.32934620951173554
ssI252
(dp262
g9
F0.5385685156577905
sg10
F0.7856263996901768
ssI253
(dp263
g9
F0.8233656666618866
sg10
F0.7022131189229999
ssI254
(dp264
g9
F0.8300624466095221
sg10
F0.614490991748351
ssI255
(dp265
g9
F0.6532325802805142
sg10
F0.8689029737653918
ssI256
(dp266
g9
F0.06849679653388308
sg10
F0.5616149027733679
ssI257
(dp267
g9
F0.12006259176669565
sg10
F0.7197320919629351
ssI258
(dp268
g9
F0.7123372734168532
sg10
F0.1059570377488318
ssI259
(dp269
g9
F0.3617756762283816
sg10
F0.7925479204156127
ssI260
(dp270
g9
F0.795859593403767
sg10
F0.33334894888999833
ssI261
(dp271
g9
F0.915569949088882
sg10
F0.055962945318066226
ssI262
(dp272
g9
F0.9096838748940185
sg10
F0.6833901317734723
ssI263
(dp273
g9
F0.551419654292229
sg10
F0.6714488719915126
ssI264
(dp274
g9
F0.7560636392702317
sg10
F0.6307863795358171
ssI265
(dp275
g9
F0.9855488072645825
sg10
F0.7572447998755583
ssI266
(dp276
g9
F0.39282182733395343
sg10
F0.5004755291939921
ssI267
(dp277
g9
F0.9799520929819965
sg10
F0.8882813548444248
ssI268
(dp278
g9
F0.5256547343648037
sg10
F0.15675915166026344
ssI269
(dp279
g9
F0.21660404585953041
sg10
F0.6839969271834374
ssI270
(dp280
g9
F0.558526136532264
sg10
F0.9462320261266411
ssI271
(dp281
g9
F0.24596364098650592
sg10
F0.5458640514153402
ssI272
(dp282
g9
F0.4079913636629725
sg10
F0.6802689851157913
ssI273
(dp283
g9
F0.13042090650678773
sg10
F0.08456104210606696
ssI274
(dp284
g9
F0.30546711843932817
sg10
F0.5743759468696618
ssI275
(dp285
g9
F0.05220945576816727
sg10
F0.9112267138078857
ssI276
(dp286
g9
F0.34251648552639224
sg10
F0.5231332513143866
ssI277
(dp287
g9
F0.26637341891404387
sg10
F0.4681727739210346
ssI278
(dp288
g9
F0.6014662066840206
sg10
F0.997747398079477
ssI279
(dp289
g9
F0.9337450490308111
sg10
F0.3652732907585896
ssI280
(dp290
g9
F0.9382436786770677
sg10
F0.47517832478622624
ssI281
(dp291
g9
F0.4767975119099034
sg10
F0.059980416582303686
ssI282
(dp292
g9
F0.27180676496619305
sg10
F0.30034388154196456
ssI283
(dp293
g9
F0.9759042871581037
sg10
F0.4830410543948849
ssI284
(dp294
g9
F0.7897149852870923
sg10
F0.25423176536479963
ssI285
(dp295
g9
F0.09469318686882777
sg10
F0.19629016959317025
ssI286
(dp296
g9
F0.31411835035374913
sg10
F0.9301002445522922
ssI287
(dp297
g9
F0.6740341309349528
sg10
F0.007974367576980113
ssI288
(dp298
g9
F0.8532641821145831
sg10
F0.28281433224698527
ssI289
(dp299
g9
F0.6318056236656906
sg10
F0.13833205888666988
ssI290
(dp300
g9
F0.4333018647644912
sg10
F0.5788034747454548
ssI291
(dp301
g9
F0.6089368100683707
sg10
F0.10361131939615564
ssI292
(dp302
g9
F0.4552142229227807
sg10
F0.20441000874397774
ssI293
(dp303
g9
F0.7866416520164952
sg10
F0.8421506433190995
ssI294
(dp304
g9
F0.49363373385815623
sg10
F0.022582048869637328
ssI295
(dp305
g9
F0.8348946155026028
sg10
F0.8603081488908245
ssI296
(dp306
g9
F0.783144999770341
sg10
F0.32563187569918983
ssI297
(dp307
g9
F0.22998608420101563
sg10
F0.7748178267721201
ssI298
(dp308
g9
F0.7719311967475667
sg10
F0.7505751543687337
ssI299
(dp309
g9
F0.6520907734409048
sg10
F0.844740868114353
ssI300
(dp310
g9
F0.8460679549332887
sg10
F0.037673687220747265
ssI301
(dp311
g9
F0.7439575677606428
sg10
F0.2477876642950655
ssI302
(dp312
g9
F0.16492614252797422
sg10
F0.8344041151261283
ssI303
(dp313
g9
F0.5324053593353226
sg10
F0.9525734699533489
ssI304
(dp314
g9
F0.6049076172436608
sg10
F0.7430052605982764
ssI305
(dp315
g9
F0.0035232296940160834
sg10
F0.36099559909757106
ssI306
(dp316
g9
F0.08305949745991537
sg10
F0.8066677905248096
ssI307
(dp317
g9
F0.41938535216845374
sg10
F0.9828041677303736
ssI308
(dp318
g9
F0.07176778450965737
sg10
F0.9499474351601574
ssI309
(dp319
g9
F0.9993295735134649
sg10
F0.4779911805164232
ssI310
(dp320
g9
F0.1916869797786549
sg10
F0.015190842789295611
ssI311
(dp321
g9
F0.4130652458089511
sg10
F0.12387738588557673
ssI312
(dp322
g9
F0.20007517144791265
sg10
F0.9648498674241134
ssI313
(dp323
g9
F0.8322288422472405
sg10
F0.7466884304004747
ssI314
(dp324
g9
F0.018717583774181423
sg10
F0.3675259261611201
ssI315
(dp325
g9
F0.7742227374891907
sg10
F0.14975423681130196
ssI316
(dp326
g9
F0.6678526338112186
sg10
F0.567531204380264
ssI317
(dp327
g9
F0.5282629752192337
sg10
F0.9146932521951922
ssI318
(dp328
g9
F0.9127499176099507
sg10
F0.5063127724499803
ssI319
(dp329
g9
F0.29639626550362164
sg10
F0.13683375019821586
ssI320
(dp330
g9
F0.47596590858740206
sg10
F0.1251621110498804
ssI321
(dp331
g9
F0.6164701576982674
sg10
F0.009960468860522487
ssI322
(dp332
g9
F0.6826140362518743
sg10
F0.32710706508560483
ssI323
(dp333
g9
F0.15703271322026524
sg10
F0.30055404124553586
ssI324
(dp334
g9
F0.015050848230898528
sg10
F0.15864621687656655
ssI325
(dp335
g9
F0.8021177133858591
sg10
F0.6168151923462063
ssI326
(dp336
g9
F0.33967972055544926
sg10
F0.6815739372593507
ssI327
(dp337
g9
F0.9653178570221616
sg10
F0.28021408178338747
ssI328
(dp338
g9
F0.862969573042367
sg10
F0.07703654331672227
ssI329
(dp339
g9
F0.8240026041910006
sg10
F0.7395918190532833
ssI330
(dp340
g9
F0.3763793666659946
sg10
F0.37268684253478834
ssI331
(dp341
g9
F0.4025265391699536
sg10
F0.9179329010639974
ssI332
(dp342
g9
F0.9609919325822628
sg10
F0.4584495534603148
ssI333
(dp343
g9
F0.5316221015757497
sg10
F0.5836925753698436
ssI334
(dp344
g9
F0.8056471003097851
sg10
F0.17054463177110557
ssI335
(dp345
g9
F0.07695047655550102
sg10
F0.2554032054553277
ssI336
(dp346
g9
F0.2616858252348716
sg10
F0.9057361399778845
ssI337
(dp347
g9
F0.9661073420412633
sg10
F0.43434299014717237
ssI338
(dp348
g9
F0.07280462184537007
sg10
F0.9294696040351658
ssI339
(dp349
g9
F0.3363108153844292
sg10
F0.004538646671798707
ssI340
(dp350
g9
F0.4539635008184548
sg10
F0.870435487459174
ssI341
(dp351
g9
F0.9893729011490826
sg10
F0.32100024178800357
ssI342
(dp352
g9
F0.3254615734995141
sg10
F0.9833881808740136
ssI343
(dp353
g9
F0.10510292295998258
sg10
F0.7259545106238986
ssI344
(dp354
g9
F0.34152631322620597
sg10
F0.2834843923985594
ssI345
(dp355
g9
F0.728224894420412
sg10
F0.537364950993995
ssI346
(dp356
g9
F0.706774313331203
sg10
F0.3313020346401806
ssI347
(dp357
g9
F0.9209635492204673
sg10
F0.8020574317550446
ssI348
(dp358
g9
F0.10140096764355733
sg10
F0.6061049342880694
ssI349
(dp359
g9
F0.005512439405624514
sg10
F0.359710349417795
ssI350
(dp360
g9
F0.6762173617353696
sg10
F0.35030597721297985
ssI351
(dp361
g9
F0.7125974696274338
sg10
F0.032646840345776695
ssI352
(dp362
g9
F0.9087893060064669
sg10
F0.9817696729366331
ssI353
(dp363
g9
F0.428000690351628
sg10
F0.46663849609952823
ssI354
(dp364
g9
F0.38883232882267516
sg10
F0.6214722417709092
ssI355
(dp365
g9
F0.3359351807456623
sg10
F0.7210525763907155
ssI356
(dp366
g9
F0.010323331207236719
sg10
F0.4424644411196339
ssI357
(dp367
g9
F0.8639869104692484
sg10
F0.2672528484573323
ssI358
(dp368
g9
F0.8530541296064879
sg10
F0.5150993982211143
ssI359
(dp369
g9
F0.5902601703020488
sg10
F0.5491770343896214
ssI360
(dp370
g9
F0.9563522066519804
sg10
F0.24221774113031158
ssI361
(dp371
g9
F0.8619339403223902
sg10
F0.40968802726422815
ssI362
(dp372
g9
F0.4022003067151513
sg10
F0.18630422079922804
ssI363
(dp373
g9
F0.2776641335629898
sg10
F0.0458603156588242
ssI364
(dp374
g9
F0.3348753018541313
sg10
F0.7514113831437524
ssI365
(dp375
g9
F0.02938570245890182
sg10
F0.19799693945541363
ssI366
(dp376
g9
F0.4116361409850623
sg10
F0.5186320125917254
ssI367
(dp377
g9
F0.6168837867743387
sg10
F0.8618085053252814
ssI368
(dp378
g9
F0.5129708242821587
sg10
F0.7751249771917994
ssI369
(dp379
g9
F0.3638539910777694
sg10
F0.8526831621909897
ssI370
(dp380
g9
F0.1595611560494815
sg10
F0.3942396863304458
ssI371
(dp381
g9
F0.15137914784180195
sg10
F0.15534479971674542
ssI372
(dp382
g9
F0.8026453952856824
sg10
F0.5743627262981431
ssI373
(dp383
g9
F0.46395935053390724
sg10
F0.16351313337629003
ssI374
(dp384
g9
F0.500699729855028
sg10
F0.30417342673472847
ssI375
(dp385
g9
F0.2855258835793377
sg10
F0.8421340127884447
ssI376
(dp386
g9
F0.6767121152536252
sg10
F0.9529382675721821
ssI377
(dp387
g9
F0.6127955832275124
sg10
F0.9646064089235229
ssI378
(dp388
g9
F0.9842958792950762
sg10
F0.9180560247825594
ssI379
(dp389
g9
F0.8522805008133297
sg10
F0.012011887034650615
ssI380
(dp390
g9
F0.9530829890080541
sg10
F0.9690099119472662
ssI381
(dp391
g9
F0.4880986287961383
sg10
F0.5227450978804037
ssI382
(dp392
g9
F0.9367995389028004
sg10
F0.24188285615900218
ssI383
(dp393
g9
F0.6189651488445744
sg10
F0.31254517712936825
ssI384
(dp394
g9
F0.6695701637261712
sg10
F0.34846317671322435
ssI385
(dp395
g9
F0.10493391195172064
sg10
F0.6235145636675121
ssI386
(dp396
g9
F0.021427317657048417
sg10
F0.9119258945464284
ssI387
(dp397
g9
F0.8537013047377053
sg10
F0.5853694689369653
ssI388
(dp398
g9
F0.4235995614831851
sg10
F0.7611039104471581
ssI389
(dp399
g9
F0.9931987064607183
sg10
F0.493967288205717
ssI390
(dp400
g9
F0.8668668167501308
sg10
F0.23412471969673254
ssI391
(dp401
g9
F0.856442259117238
sg10
F0.06790646194726901
ssI392
(dp402
g9
F0.5605055602993214
sg10
F0.4325560570274223
ssI393
(dp403
g9
F0.7550123431287459
sg10
F0.48331095890531595
ssI394
(dp404
g9
F0.7764589961667956
sg10
F0.27429286100788375
ssI395
(dp405
g9
F0.7237703069349536
sg10
F0.07999794894930812
ssI396
(dp406
g9
F0.5445980783103604
sg10
F0.03744868500504328
ssI397
(dp407
g9
F0.39265230108503846
sg10
F0.1356471085727856
ssI398
(dp408
g9
F0.799866388104436
sg10
F0.577838553751062
ssI399
(dp409
g9
F0.49712560064518496
sg10
F0.012049103839034347
sssS'node_dict_factory'
p410
c__builtin__
dict
p411
sS'edge_attr_dict_factory'
p412
g411
sS'edge'
p413
(dp414
I0
(dp415
sI1
(dp416
sI2
(dp417
sI3
(dp418
sI4
(dp419
sI5
(dp420
sI6
(dp421
sI7
(dp422
sI8
(dp423
sI9
(dp424
sI10
(dp425
sI11
(dp426
sI12
(dp427
sI13
(dp428
sI14
(dp429
sI15
(dp430
sI16
(dp431
sI17
(dp432
sI18
(dp433
sI19
(dp434
sI20
(dp435
sI21
(dp436
sI22
(dp437
sI23
(dp438
sI24
(dp439
sI25
(dp440
sI26
(dp441
sI27
(dp442
sI28
(dp443
sI29
(dp444
sI30
(dp445
sI31
(dp446
sI32
(dp447
sI33
(dp448
sI34
(dp449
sI35
(dp450
sI36
(dp451
sI37
(dp452
sI38
(dp453
sI39
(dp454
sI40
(dp455
sI41
(dp456
sI42
(dp457
sI43
(dp458
sI44
(dp459
sI45
(dp460
sI46
(dp461
sI47
(dp462
sI48
(dp463
sI49
(dp464
sI50
(dp465
sI51
(dp466
sI52
(dp467
sI53
(dp468
sI54
(dp469
sI55
(dp470
sI56
(dp471
sI57
(dp472
sI58
(dp473
sI59
(dp474
sI60
(dp475
sI61
(dp476
sI62
(dp477
sI63
(dp478
sI64
(dp479
sI65
(dp480
sI66
(dp481
sI67
(dp482
sI68
(dp483
sI69
(dp484
sI70
(dp485
sI71
(dp486
sI72
(dp487
sI73
(dp488
sI74
(dp489
sI75
(dp490
sI76
(dp491
sI77
(dp492
sI78
(dp493
sI79
(dp494
sI80
(dp495
sI81
(dp496
sI82
(dp497
sI83
(dp498
sI84
(dp499
sI85
(dp500
sI86
(dp501
sI87
(dp502
sI88
(dp503
sI89
(dp504
sI90
(dp505
sI91
(dp506
sI92
(dp507
sI93
(dp508
sI94
(dp509
sI95
(dp510
sI96
(dp511
sI97
(dp512
sI98
(dp513
sI99
(dp514
sI100
(dp515
sI101
(dp516
sI102
(dp517
sI103
(dp518
sI104
(dp519
sI105
(dp520
sI106
(dp521
sI107
(dp522
sI108
(dp523
sI109
(dp524
sI110
(dp525
sI111
(dp526
sI112
(dp527
sI113
(dp528
sI114
(dp529
sI115
(dp530
sI116
(dp531
sI117
(dp532
sI118
(dp533
sI119
(dp534
sI120
(dp535
sI121
(dp536
sI122
(dp537
sI123
(dp538
sI124
(dp539
sI125
(dp540
sI126
(dp541
sI127
(dp542
sI128
(dp543
sI129
(dp544
sI130
(dp545
sI131
(dp546
sI132
(dp547
sI133
(dp548
sI134
(dp549
sI135
(dp550
sI136
(dp551
sI137
(dp552
sI138
(dp553
sI139
(dp554
sI140
(dp555
sI141
(dp556
sI142
(dp557
sI143
(dp558
sI144
(dp559
sI145
(dp560
sI146
(dp561
sI147
(dp562
sI148
(dp563
sI149
(dp564
sI150
(dp565
sI151
(dp566
sI152
(dp567
sI153
(dp568
sI154
(dp569
sI155
(dp570
sI156
(dp571
sI157
(dp572
sI158
(dp573
sI159
(dp574
sI160
(dp575
sI161
(dp576
sI162
(dp577
sI163
(dp578
sI164
(dp579
sI165
(dp580
sI166
(dp581
sI167
(dp582
sI168
(dp583
sI169
(dp584
sI170
(dp585
sI171
(dp586
sI172
(dp587
sI173
(dp588
sI174
(dp589
sI175
(dp590
sI176
(dp591
sI177
(dp592
sI178
(dp593
sI179
(dp594
sI180
(dp595
sI181
(dp596
sI182
(dp597
sI183
(dp598
sI184
(dp599
sI185
(dp600
sI186
(dp601
sI187
(dp602
sI188
(dp603
sI189
(dp604
sI190
(dp605
sI191
(dp606
sI192
(dp607
sI193
(dp608
sI194
(dp609
sI195
(dp610
sI196
(dp611
sI197
(dp612
sI198
(dp613
sI199
(dp614
sI200
(dp615
sI201
(dp616
sI202
(dp617
sI203
(dp618
sI204
(dp619
sI205
(dp620
sI206
(dp621
sI207
(dp622
sI208
(dp623
sI209
(dp624
sI210
(dp625
sI211
(dp626
sI212
(dp627
sI213
(dp628
sI214
(dp629
sI215
(dp630
sI216
(dp631
sI217
(dp632
sI218
(dp633
sI219
(dp634
sI220
(dp635
sI221
(dp636
sI222
(dp637
sI223
(dp638
sI224
(dp639
sI225
(dp640
sI226
(dp641
sI227
(dp642
sI228
(dp643
sI229
(dp644
sI230
(dp645
sI231
(dp646
sI232
(dp647
sI233
(dp648
sI234
(dp649
sI235
(dp650
sI236
(dp651
sI237
(dp652
sI238
(dp653
sI239
(dp654
sI240
(dp655
sI241
(dp656
sI242
(dp657
sI243
(dp658
sI244
(dp659
sI245
(dp660
sI246
(dp661
sI247
(dp662
sI248
(dp663
sI249
(dp664
sI250
(dp665
sI251
(dp666
sI252
(dp667
sI253
(dp668
sI254
(dp669
sI255
(dp670
sI256
(dp671
sI257
(dp672
sI258
(dp673
sI259
(dp674
sI260
(dp675
sI261
(dp676
sI262
(dp677
sI263
(dp678
sI264
(dp679
sI265
(dp680
sI266
(dp681
sI267
(dp682
sI268
(dp683
sI269
(dp684
sI270
(dp685
sI271
(dp686
sI272
(dp687
sI273
(dp688
sI274
(dp689
sI275
(dp690
sI276
(dp691
sI277
(dp692
sI278
(dp693
sI279
(dp694
sI280
(dp695
sI281
(dp696
sI282
(dp697
sI283
(dp698
sI284
(dp699
sI285
(dp700
sI286
(dp701
sI287
(dp702
sI288
(dp703
sI289
(dp704
sI290
(dp705
sI291
(dp706
sI292
(dp707
sI293
(dp708
sI294
(dp709
sI295
(dp710
sI296
(dp711
sI297
(dp712
sI298
(dp713
sI299
(dp714
sI300
(dp715
sI301
(dp716
sI302
(dp717
sI303
(dp718
sI304
(dp719
sI305
(dp720
sI306
(dp721
sI307
(dp722
sI308
(dp723
sI309
(dp724
sI310
(dp725
sI311
(dp726
sI312
(dp727
sI313
(dp728
sI314
(dp729
sI315
(dp730
sI316
(dp731
sI317
(dp732
sI318
(dp733
sI319
(dp734
sI320
(dp735
sI321
(dp736
sI322
(dp737
sI323
(dp738
sI324
(dp739
sI325
(dp740
sI326
(dp741
sI327
(dp742
sI328
(dp743
sI329
(dp744
sI330
(dp745
sI331
(dp746
sI332
(dp747
sI333
(dp748
sI334
(dp749
sI335
(dp750
sI336
(dp751
sI337
(dp752
sI338
(dp753
sI339
(dp754
sI340
(dp755
sI341
(dp756
sI342
(dp757
sI343
(dp758
sI344
(dp759
sI345
(dp760
sI346
(dp761
sI347
(dp762
sI348
(dp763
sI349
(dp764
sI350
(dp765
sI351
(dp766
sI352
(dp767
sI353
(dp768
sI354
(dp769
sI355
(dp770
sI356
(dp771
sI357
(dp772
sI358
(dp773
sI359
(dp774
sI360
(dp775
sI361
(dp776
sI362
(dp777
sI363
(dp778
sI364
(dp779
sI365
(dp780
sI366
(dp781
sI367
(dp782
sI368
(dp783
sI369
(dp784
sI370
(dp785
sI371
(dp786
sI372
(dp787
sI373
(dp788
sI374
(dp789
sI375
(dp790
sI376
(dp791
sI377
(dp792
sI378
(dp793
sI379
(dp794
sI380
(dp795
sI381
(dp796
sI382
(dp797
sI383
(dp798
sI384
(dp799
sI385
(dp800
sI386
(dp801
sI387
(dp802
sI388
(dp803
sI389
(dp804
sI390
(dp805
sI391
(dp806
sI392
(dp807
sI393
(dp808
sI394
(dp809
sI395
(dp810
sI396
(dp811
sI397
(dp812
sI398
(dp813
sI399
(dp814
ssS'graph'
p815
(dp816
sS'adjlist_dict_factory'
p817
g411
sS'adj'
p818
g414
sb.