ccopy_reg
_reconstructor
p0
(cnetworkx.classes.graph
Graph
p1
c__builtin__
object
p2
Ntp3
Rp4
(dp5
S'node'
p6
(dp7
I0
(dp8
S'pos_x'
p9
F0.2744207388969976
sS'pos_y'
p10
F0.5539276118034594
ssI1
(dp11
g9
F0.6605331957529059
sg10
F0.8058649751695556
ssI2
(dp12
g9
F0.1005518837673105
sg10
F0.36191765304956125
ssI3
(dp13
g9
F0.0369680139529851
sg10
F0.9697018542778999
ssI4
(dp14
g9
F0.6548545899158367
sg10
F0.7415881986356647
ssI5
(dp15
g9
F0.8049065387662232
sg10
F0.3714351950865443
ssI6
(dp16
g9
F0.4659454307486185
sg10
F0.6242650803584664
ssI7
(dp17
g9
F0.39254569393432504
sg10
F0.3372483385581848
ssI8
(dp18
g9
F0.28142294800449397
sg10
F0.16718012407780325
ssI9
(dp19
g9
F0.8418145329623377
sg10
F0.7401985000182272
ssI10
(dp20
g9
F0.5338341743907187
sg10
F0.7973583355782564
ssI11
(dp21
g9
F0.028781772139715556
sg10
F0.7727554902166193
ssI12
(dp22
g9
F0.04976595876252288
sg10
F0.03008838816635362
ssI13
(dp23
g9
F0.5487042366721082
sg10
F0.09256746610021804
ssI14
(dp24
g9
F0.9479497736531882
sg10
F0.5927043697132263
ssI15
(dp25
g9
F0.09252713332609264
sg10
F0.6120168113987071
ssI16
(dp26
g9
F0.9060680852344845
sg10
F0.1824892385064366
ssI17
(dp27
g9
F0.12410893590977579
sg10
F0.20241727740041238
ssI18
(dp28
g9
F0.5399108646675257
sg10
F0.8345557970311763
ssI19
(dp29
g9
F0.3772175644620662
sg10
F0.5445373437681733
ssI20
(dp30
g9
F0.38838082706228094
sg10
F0.7485438997258398
ssI21
(dp31
g9
F0.46309436061588893
sg10
F0.011738278354336273
ssI22
(dp32
g9
F0.356676843017663
sg10
F0.003452874776366577
ssI23
(dp33
g9
F0.20601463620504346
sg10
F0.32715664565745883
ssI24
(dp34
g9
F0.5782600260833579
sg10
F0.34633685538856684
ssI25
(dp35
g9
F0.7221623248264407
sg10
F0.517530539927442
ssI26
(dp36
g9
F0.6258947897908467
sg10
F0.030400494211215823
ssI27
(dp37
g9
F0.3257215773440214
sg10
F0.2430634301396487
ssI28
(dp38
g9
F0.7672028594576102
sg10
F0.5756364469073464
ssI29
(dp39
g9
F0.7080973900406735
sg10
F0.03952638654613383
ssI30
(dp40
g9
F0.710485352993914
sg10
F0.8414499330492975
ssI31
(dp41
g9
F0.8385656916690066
sg10
F0.3737214922480322
ssI32
(dp42
g9
F0.9924189557775743
sg10
F0.840304162581188
ssI33
(dp43
g9
F0.8646838948744251
sg10
F0.5475893766069417
ssI34
(dp44
g9
F0.5049598726515206
sg10
F0.5162793534242318
ssI35
(dp45
g9
F0.4573708323914124
sg10
F0.19695622358300469
ssI36
(dp46
g9
F0.5393077319161526
sg10
F0.861560582055848
ssI37
(dp47
g9
F0.6923472229904322
sg10
F0.8341166922327914
ssI38
(dp48
g9
F0.06752804427532733
sg10
F0.9136607277423651
ssI39
(dp49
g9
F0.08848206275243753
sg10
F0.060887412710775246
ssI40
(dp50
g9
F0.11313039241911371
sg10
F0.8141218505006602
ssI41
(dp51
g9
F0.5160316016609362
sg10
F0.6744563862869781
ssI42
(dp52
g9
F0.7021725928869321
sg10
F0.9562711504130129
ssI43
(dp53
g9
F0.09599542841195619
sg10
F0.7827772679232012
ssI44
(dp54
g9
F0.7170295109689355
sg10
F0.4397668061712716
ssI45
(dp55
g9
F0.839525566261124
sg10
F0.5837168440796083
ssI46
(dp56
g9
F0.6350948945365179
sg10
F0.6559481100941007
ssI47
(dp57
g9
F0.36488550290097754
sg10
F0.08607918988250507
ssI48
(dp58
g9
F0.06370262813299454
sg10
F0.2089317445891452
ssI49
(dp59
g9
F0.681880072252484
sg10
F0.6666034417952242
ssI50
(dp60
g9
F0.45765414125508663
sg10
F0.2167747098819992
ssI51
(dp61
g9
F0.4244999360652837
sg10
F0.6869672368190889
ssI52
(dp62
g9
F0.6135034192097737
sg10
F0.48817703592477635
ssI53
(dp63
g9
F0.7126703832150971
sg10
F0.6790694941487194
ssI54
(dp64
g9
F0.8318023673111005
sg10
F0.5715017445906175
ssI55
(dp65
g9
F0.964908524489983
sg10
F0.12314168733248221
ssI56
(dp66
g9
F0.672269865292243
sg10
F0.8718695689327445
ssI57
(dp67
g9
F0.729847232556442
sg10
F0.4765936283924015
ssI58
(dp68
g9
F0.22652909809750021
sg10
F0.7234837813447902
ssI59
(dp69
g9
F0.4463494673047802
sg10
F0.08520850588054285
ssI60
(dp70
g9
F0.9169572656639705
sg10
F0.4633218805236624
ssI61
(dp71
g9
F0.9148170232238123
sg10
F0.8391214634996527
ssI62
(dp72
g9
F0.315229030882589
sg10
F0.20823095582581397
ssI63
(dp73
g9
F0.6899673447623622
sg10
F0.3542589003901838
ssI64
(dp74
g9
F0.48941071354345145
sg10
F0.08562383183420164
ssI65
(dp75
g9
F0.9191542567200321
sg10
F0.2583019326040482
ssI66
(dp76
g9
F0.33274024464214935
sg10
F0.651144131227038
ssI67
(dp77
g9
F0.7930827051585784
sg10
F0.6252785527621105
ssI68
(dp78
g9
F0.9177279684984021
sg10
F0.25749682149062414
ssI69
(dp79
g9
F0.3993113932373209
sg10
F0.569593936383707
ssI70
(dp80
g9
F0.741746118198488
sg10
F0.26949282704257016
ssI71
(dp81
g9
F0.3538028584591818
sg10
F0.7048479841216757
ssI72
(dp82
g9
F0.9784583450091162
sg10
F0.8202532397100438
ssI73
(dp83
g9
F0.44831367843332937
sg10
F0.7901966719012261
ssI74
(dp84
g9
F0.6195868162506065
sg10
F0.3717964171587306
ssI75
(dp85
g9
F0.07440162629734903
sg10
F0.9394862749468367
ssI76
(dp86
g9
F0.439784835916857
sg10
F0.4616773048699909
ssI77
(dp87
g9
F0.7024121853251948
sg10
F0.6798650159486969
ssI78
(dp88
g9
F0.6585755403605554
sg10
F0.8224192890675495
ssI79
(dp89
g9
F0.6364769181904116
sg10
F0.33950880827353924
ssI80
(dp90
g9
F0.13954342499161698
sg10
F0.2657039391357753
ssI81
(dp91
g9
F0.22826050775503848
sg10
F0.3797544255586087
ssI82
(dp92
g9
F0.8507385889848191
sg10
F0.11307572742114014
ssI83
(dp93
g9
F0.9001249172010484
sg10
F0.831589352244941
ssI84
(dp94
g9
F0.39756783901154913
sg10
F0.6723975578390983
ssI85
(dp95
g9
F0.46314618827297815
sg10
F0.8187418128067745
ssI86
(dp96
g9
F0.17904883532160365
sg10
F0.8373916617795822
ssI87
(dp97
g9
F0.1226832493602884
sg10
F0.7029778097909299
ssI88
(dp98
g9
F0.386684189656167
sg10
F0.8308919547308721
ssI89
(dp99
g9
F0.9361127637192358
sg10
F0.6636986481716904
ssI90
(dp100
g9
F0.5901640825173018
sg10
F0.08419240552464802
ssI91
(dp101
g9
F0.7734992991251037
sg10
F0.3549780157292056
ssI92
(dp102
g9
F0.8454848194448886
sg10
F0.7596549351013534
ssI93
(dp103
g9
F0.3992646357603884
sg10
F0.47967465920311003
ssI94
(dp104
g9
F0.6225436191623577
sg10
F0.21420386073269015
ssI95
(dp105
g9
F0.14700970429338522
sg10
F0.37415178990774434
ssI96
(dp106
g9
F0.7738956045804664
sg10
F0.3961566019023802
ssI97
(dp107
g9
F0.6453585498369614
sg10
F0.9735764137534381
ssI98
(dp108
g9
F0.15001338213637538
sg10
F0.6300921068876862
ssI99
(dp109
g9
F0.5050049302967472
sg10
F0.9183797121603969
ssI100
(dp110
g9
F0.03319800873521994
sg10
F0.5931089685398863
ssI101
(dp111
g9
F0.7010814859472433
sg10
F0.9615142030212092
ssI102
(dp112
g9
F0.4143611358227546
sg10
F0.4358202542467534
ssI103
(dp113
g9
F0.5127420418156049
sg10
F0.10538108676514846
ssI104
(dp114
g9
F0.15824168497834934
sg10
F0.4734960724948739
ssI105
(dp115
g9
F0.5271197559149939
sg10
F0.17091755370954553
ssI106
(dp116
g9
F0.9183113277535793
sg10
F0.035310291102384816
ssI107
(dp117
g9
F0.7347055963979994
sg10
F0.4919670921200012
ssI108
(dp118
g9
F0.7349792431975818
sg10
F0.5519306681742228
ssI109
(dp119
g9
F0.3669462000060788
sg10
F0.42295629048680616
ssI110
(dp120
g9
F0.307970553876568
sg10
F0.6800096110713875
ssI111
(dp121
g9
F0.7173191359385742
sg10
F0.8316558504711172
ssI112
(dp122
g9
F0.4633606828331155
sg10
F0.8042542492574448
ssI113
(dp123
g9
F0.9197764346459996
sg10
F0.7599003276927127
ssI114
(dp124
g9
F0.10428589942118771
sg10
F0.23754048762873825
ssI115
(dp125
g9
F0.26857425383147293
sg10
F0.681989526356708
ssI116
(dp126
g9
F0.17830417294425194
sg10
F0.3505261434102216
ssI117
(dp127
g9
F0.0629739699898868
sg10
F0.42198795314957105
ssI118
(dp128
g9
F0.48633381709865353
sg10
F0.7204972442056718
ssI119
(dp129
g9
F0.1501922751653484
sg10
F0.10384130527765456
ssI120
(dp130
g9
F0.6794488970781049
sg10
F0.734868882280174
ssI121
(dp131
g9
F0.11682976215677499
sg10
F0.36038304058035964
ssI122
(dp132
g9
F0.12747020310135349
sg10
F0.28151201165153006
ssI123
(dp133
g9
F0.3125747246657452
sg10
F0.15269249966744092
ssI124
(dp134
g9
F0.5882465004938581
sg10
F0.781152876953078
ssI125
(dp135
g9
F0.6001210434344131
sg10
F0.3847645546190013
ssI126
(dp136
g9
F0.2608319665878669
sg10
F0.38834116865753365
ssI127
(dp137
g9
F0.06796874980800094
sg10
F0.3567342125416254
ssI128
(dp138
g9
F0.27803826340267657
sg10
F0.09029962392509383
ssI129
(dp139
g9
F0.993240463677086
sg10
F0.3347273977509274
ssI130
(dp140
g9
F0.6742178366487005
sg10
F0.6751718423844261
ssI131
(dp141
g9
F0.011638523325416705
sg10
F0.014851492718632286
ssI132
(dp142
g9
F0.3997296609134817
sg10
F0.3932928455712321
ssI133
(dp143
g9
F0.7936758950800273
sg10
F0.8998837028215735
ssI134
(dp144
g9
F0.4294390240438225
sg10
F0.726202374874978
ssI135
(dp145
g9
F0.9073052818402322
sg10
F0.01752175693254643
ssI136
(dp146
g9
F0.9082709556894848
sg10
F0.44138551790325287
ssI137
(dp147
g9
F0.6777825465596463
sg10
F0.4361140834481667
ssI138
(dp148
g9
F0.4176790992395658
sg10
F0.7501157355505227
ssI139
(dp149
g9
F0.1620840498760029
sg10
F0.36231744806138244
ssI140
(dp150
g9
F0.42225074107708027
sg10
F0.705118427489303
ssI141
(dp151
g9
F0.054667776441592264
sg10
F0.31306492589627555
ssI142
(dp152
g9
F0.512265307856375
sg10
F0.779515913425552
ssI143
(dp153
g9
F0.7208882528490618
sg10
F0.850392753591885
ssI144
(dp154
g9
F0.279936947567469
sg10
F0.042019280252462266
ssI145
(dp155
g9
F0.1677661885556776
sg10
F0.3341461195382923
ssI146
(dp156
g9
F0.7957772831586268
sg10
F0.6080178457306529
ssI147
(dp157
g9
F0.936225927874752
sg10
F0.9952161163326474
ssI148
(dp158
g9
F0.9931153220014282
sg10
F0.839408975855774
ssI149
(dp159
g9
F0.7294371757169932
sg10
F0.6226354501836682
ssI150
(dp160
g9
F0.7330717774152793
sg10
F0.5183318095552284
ssI151
(dp161
g9
F0.28776087999785005
sg10
F0.8050310540647989
ssI152
(dp162
g9
F0.20900064819672837
sg10
F0.6028071411430508
ssI153
(dp163
g9
F0.002737336399931012
sg10
F0.4269023359726858
ssI154
(dp164
g9
F0.6835250092467934
sg10
F0.26516207276462367
ssI155
(dp165
g9
F0.6157502572741839
sg10
F0.3095121749142573
ssI156
(dp166
g9
F0.425043843436564
sg10
F0.5842431790007168
ssI157
(dp167
g9
F0.5971758603259296
sg10
F0.9262506678057622
ssI158
(dp168
g9
F0.15101363798020884
sg10
F0.6431955121379594
ssI159
(dp169
g9
F0.5524713689316751
sg10
F0.3710279336445238
ssI160
(dp170
g9
F0.2704137885065421
sg10
F0.052243396750013216
ssI161
(dp171
g9
F0.9032058769735508
sg10
F0.8315801489937328
ssI162
(dp172
g9
F0.4184403282747766
sg10
F0.1456386522959946
ssI163
(dp173
g9
F0.7183679517246156
sg10
F0.2427402471845984
ssI164
(dp174
g9
F0.8189186464417199
sg10
F0.7193134325081572
ssI165
(dp175
g9
F0.1989338578299551
sg10
F0.25180871090288404
ssI166
(dp176
g9
F0.4403377049515287
sg10
F0.8912900307875918
ssI167
(dp177
g9
F0.3285415539508325
sg10
F0.6946212199226385
ssI168
(dp178
g9
F0.37330340831846864
sg10
F0.5293173585822522
ssI169
(dp179
g9
F0.46971772019454483
sg10
F0.3256384052403799
ssI170
(dp180
g9
F0.9712406993771168
sg10
F0.4602872930492454
ssI171
(dp181
g9
F0.3682249025689033
sg10
F0.4748649491143164
ssI172
(dp182
g9
F0.7649401493627125
sg10
F0.4810104557037639
ssI173
(dp183
g9
F0.3284530600516291
sg10
F0.7649693309241947
ssI174
(dp184
g9
F0.3290744097147641
sg10
F0.8321087858753442
ssI175
(dp185
g9
F0.4376269932312121
sg10
F0.807778290422763
ssI176
(dp186
g9
F0.6273048567589226
sg10
F0.18747193149587338
ssI177
(dp187
g9
F0.7087566165133394
sg10
F0.5103530587930354
ssI178
(dp188
g9
F0.09444816472507578
sg10
F0.19093947853252502
ssI179
(dp189
g9
F0.4146990320974645
sg10
F0.39723107183459105
ssI180
(dp190
g9
F0.10423923697727777
sg10
F0.8753125560051822
ssI181
(dp191
g9
F0.20250433172700544
sg10
F0.9113767971002507
ssI182
(dp192
g9
F0.6339081419597785
sg10
F0.9496442941176217
ssI183
(dp193
g9
F0.24646651477689763
sg10
F0.42115907251124396
ssI184
(dp194
g9
F0.02694108201524681
sg10
F0.6726238308199209
ssI185
(dp195
g9
F0.036084044972878315
sg10
F0.5683983395210426
ssI186
(dp196
g9
F0.9032242494032598
sg10
F0.28635307192216186
ssI187
(dp197
g9
F0.2551821095234299
sg10
F0.5429030130422948
ssI188
(dp198
g9
F0.4390235460741565
sg10
F0.2800272976241126
ssI189
(dp199
g9
F0.9543024259624806
sg10
F0.8855829463767533
ssI190
(dp200
g9
F0.08253784225781224
sg10
F0.5601671323801763
ssI191
(dp201
g9
F0.9226191933501295
sg10
F0.48240473858824406
ssI192
(dp202
g9
F0.29236694019367526
sg10
F0.4616930719087736
ssI193
(dp203
g9
F0.8977928996213411
sg10
F0.8538049881826567
ssI194
(dp204
g9
F0.6981418386976112
sg10
F0.09280828636874261
ssI195
(dp205
g9
F0.4333964063178304
sg10
F0.6105881385087104
ssI196
(dp206
g9
F0.7154856769314849
sg10
F0.22263361513924218
ssI197
(dp207
g9
F0.05014835633763781
sg10
F0.0007687676144493283
ssI198
(dp208
g9
F0.8109807143043815
sg10
F0.704525658671138
ssI199
(dp209
g9
F0.07224717128416902
sg10
F0.8376153503644264
ssI200
(dp210
g9
F0.11913686957871761
sg10
F0.8438742928718383
ssI201
(dp211
g9
F0.3680376402144325
sg10
F0.9507044337857166
ssI202
(dp212
g9
F0.1829608657450662
sg10
F0.14081849488799802
ssI203
(dp213
g9
F0.7538584943036666
sg10
F0.06841719514511413
ssI204
(dp214
g9
F0.9150574656600575
sg10
F0.41088617377467684
ssI205
(dp215
g9
F0.0073483520186955475
sg10
F0.6925648448322459
ssI206
(dp216
g9
F0.9789411469770106
sg10
F0.702879402353627
ssI207
(dp217
g9
F0.3594504614985533
sg10
F0.42249628110870174
ssI208
(dp218
g9
F0.006694918471472744
sg10
F0.7954490754946457
ssI209
(dp219
g9
F0.9942141051018543
sg10
F0.6178377732823166
ssI210
(dp220
g9
F0.40509445819502676
sg10
F0.9129989168063649
ssI211
(dp221
g9
F0.42493188445587493
sg10
F0.8005005109050245
ssI212
(dp222
g9
F0.9403970017640328
sg10
F0.8621083070375904
ssI213
(dp223
g9
F0.5973290036255318
sg10
F0.8929358644556942
ssI214
(dp224
g9
F0.8160606470391262
sg10
F0.49379383520344544
ssI215
(dp225
g9
F0.23637376975019853
sg10
F0.6930793965405211
ssI216
(dp226
g9
F0.5757488110131486
sg10
F0.44344500884853066
ssI217
(dp227
g9
F0.7533395847712221
sg10
F0.4961574773520102
ssI218
(dp228
g9
F0.8431720491667081
sg10
F0.0005557393443865744
ssI219
(dp229
g9
F0.12897007030789442
sg10
F0.787109470934652
ssI220
(dp230
g9
F0.8787118989699358
sg10
F0.1630938509224511
ssI221
(dp231
g9
F0.554978584035978
sg10
F0.8342083844770327
ssI222
(dp232
g9
F0.6739740057132819
sg10
F0.3413042585278895
ssI223
(dp233
g9
F0.975855849767518
sg10
F0.26103283023604706
ssI224
(dp234
g9
F0.8770567931740694
sg10
F0.5816430888630121
ssI225
(dp235
g9
F0.14684002353068315
sg10
F0.933499708477418
ssI226
(dp236
g9
F0.02710855780552024
sg10
F0.6424652465963941
ssI227
(dp237
g9
F0.7867606884074565
sg10
F0.07294607525709551
ssI228
(dp238
g9
F0.2819136960837597
sg10
F0.14660343602474823
ssI229
(dp239
g9
F0.09303962605571248
sg10
F0.010423823006696087
ssI230
(dp240
g9
F0.09813109553425936
sg10
F0.10399365524052484
ssI231
(dp241
g9
F0.9236230054305893
sg10
F0.9958877481812903
ssI232
(dp242
g9
F0.5108322918031584
sg10
F0.553074915418776
ssI233
(dp243
g9
F0.09427304602031095
sg10
F0.853957891067828
ssI234
(dp244
g9
F0.42269669075305394
sg10
F0.09953399857718326
ssI235
(dp245
g9
F0.39220664770598046
sg10
F0.6684214685554871
ssI236
(dp246
g9
F0.9503242868491087
sg10
F0.6890149551183359
ssI237
(dp247
g9
F0.1281143177397337
sg10
F0.5871575964013014
ssI238
(dp248
g9
F0.6552003888693211
sg10
F0.5737667752827923
ssI239
(dp249
g9
F0.16013177758985653
sg10
F0.3835316448193268
ssI240
(dp250
g9
F0.32855936903922134
sg10
F0.44020793814094816
ssI241
(dp251
g9
F0.43948288285056747
sg10
F0.3980112203422215
ssI242
(dp252
g9
F0.094174443765216
sg10
F0.8241318471310033
ssI243
(dp253
g9
F0.7489100626040087
sg10
F0.09840029680931384
ssI244
(dp254
g9
F0.8122714076412183
sg10
F0.32812467186910077
ssI245
(dp255
g9
F0.20436767874972106
sg10
F0.09618669089890297
ssI246
(dp256
g9
F0.4222145169576179
sg10
F0.9605759675240035
ssI247
(dp257
g9
F0.1629279324748546
sg10
F0.5512400417121032
ssI248
(dp258
g9
F0.6708980014562137
sg10
F0.1315623251646557
ssI249
(dp259
g9
F0.20798676481408274
sg10
F0.1652804215678817
ssI250
(dp260
g9
F0.8524895110337516
sg10
F0.47261328152247606
ssI251
(dp261
g9
F0.9766300518332818
sg10
F0.44448727359699935
ssI252
(dp262
g9
F0.7271929536716074
sg10
F0.21136436828248173
ssI253
(dp263
g9
F0.8777881977984104
sg10
F0.8574082828189756
ssI254
(dp264
g9
F0.7257489812978978
sg10
F0.9058464579584667
ssI255
(dp265
g9
F0.550731923995463
sg10
F0.9634926668411242
ssI256
(dp266
g9
F0.8790374860140971
sg10
F0.3220452885726338
ssI257
(dp267
g9
F0.8057259682828105
sg10
F0.7000191470110942
ssI258
(dp268
g9
F0.6204606408821373
sg10
F0.9185693370016829
ssI259
(dp269
g9
F0.05237931322586453
sg10
F0.17753242292842997
ssI260
(dp270
g9
F0.469360553563097
sg10
F0.5211361100616617
ssI261
(dp271
g9
F0.7058610708873452
sg10
F0.8414424269178599
ssI262
(dp272
g9
F0.7683343417040535
sg10
F0.8142139914549781
ssI263
(dp273
g9
F0.7381245070042232
sg10
F0.8359396411055032
ssI264
(dp274
g9
F0.41331307057424105
sg10
F0.4877862266128239
ssI265
(dp275
g9
F0.8526854422788374
sg10
F0.2730865937010334
ssI266
(dp276
g9
F0.5377436340134709
sg10
F0.741394426478891
ssI267
(dp277
g9
F0.8345671083633427
sg10
F0.4997657814554175
ssI268
(dp278
g9
F0.3824163542506649
sg10
F0.5768779731249296
ssI269
(dp279
g9
F0.32626042740720607
sg10
F0.3096870297115605
ssI270
(dp280
g9
F0.8674905015177813
sg10
F0.2207597633782462
ssI271
(dp281
g9
F0.05820342366789544
sg10
F0.33365135364127607
ssI272
(dp282
g9
F0.052782557500597016
sg10
F0.4999035660037364
ssI273
(dp283
g9
F0.5905618861726497
sg10
F0.2667316801468115
ssI274
(dp284
g9
F0.3279132696028705
sg10
F0.08734220158056882
ssI275
(dp285
g9
F0.512456962395625
sg10
F0.15997219684007946
ssI276
(dp286
g9
F0.1610830133696587
sg10
F0.5239742522721476
ssI277
(dp287
g9
F0.09548706592467193
sg10
F0.5804266770041282
ssI278
(dp288
g9
F0.09213771462812892
sg10
F0.2901163776505632
ssI279
(dp289
g9
F0.7675514032250943
sg10
F0.5251775032682441
ssI280
(dp290
g9
F0.09365176521763885
sg10
F0.03235951727188058
ssI281
(dp291
g9
F0.16756344022240677
sg10
F0.41973221752297396
ssI282
(dp292
g9
F0.3542549867087874
sg10
F0.06789620606328806
ssI283
(dp293
g9
F0.8360336477027316
sg10
F0.7141575788911402
ssI284
(dp294
g9
F0.2886091318567977
sg10
F0.9104604934336914
ssI285
(dp295
g9
F0.2450461449065735
sg10
F0.4091842726322604
ssI286
(dp296
g9
F0.20175295266355564
sg10
F0.687687683186553
ssI287
(dp297
g9
F0.9293254478813086
sg10
F0.21821980112606987
ssI288
(dp298
g9
F0.7903345553942114
sg10
F0.0727421093412638
ssI289
(dp299
g9
F0.7755153203290743
sg10
F0.034866821368757295
ssI290
(dp300
g9
F0.22320843520673694
sg10
F0.12135826325941712
ssI291
(dp301
g9
F0.28639991234714146
sg10
F0.995297904967782
ssI292
(dp302
g9
F0.37514675450812196
sg10
F0.5795706384025779
ssI293
(dp303
g9
F0.07841169130805925
sg10
F0.20220000579438435
ssI294
(dp304
g9
F0.18719191315964856
sg10
F0.4432746703198077
ssI295
(dp305
g9
F0.8541555098245819
sg10
F0.4526698012981729
ssI296
(dp306
g9
F0.9753585336603758
sg10
F0.9270894451725313
ssI297
(dp307
g9
F0.8663715413875396
sg10
F0.6002276854536253
ssI298
(dp308
g9
F0.2621082905067592
sg10
F0.2891751004248827
ssI299
(dp309
g9
F0.794138241110866
sg10
F0.3505244975200643
ssI300
(dp310
g9
F0.4863232609262652
sg10
F0.10994163624811404
ssI301
(dp311
g9
F0.7381309911851605
sg10
F0.2810563568775869
ssI302
(dp312
g9
F0.12525850582802445
sg10
F0.7952572422427079
ssI303
(dp313
g9
F0.267521266040863
sg10
F0.043452164397110304
ssI304
(dp314
g9
F0.8294952196101865
sg10
F0.5130375413361182
ssI305
(dp315
g9
F0.7522702020637985
sg10
F0.7185393723300072
ssI306
(dp316
g9
F0.9936049751829809
sg10
F0.7523183082102284
ssI307
(dp317
g9
F0.36875238751527817
sg10
F0.9747891719330094
ssI308
(dp318
g9
F0.5188710317549163
sg10
F0.12679848447510678
ssI309
(dp319
g9
F0.8196078033528469
sg10
F0.23513595709670299
ssI310
(dp320
g9
F0.8338832663516015
sg10
F0.027905245281387825
ssI311
(dp321
g9
F0.8116324328503894
sg10
F0.04041852390635947
ssI312
(dp322
g9
F0.2915298731700804
sg10
F0.940986646107482
ssI313
(dp323
g9
F0.9053832319244982
sg10
F0.32184049151975824
ssI314
(dp324
g9
F0.28530454955545537
sg10
F0.6348914255811604
ssI315
(dp325
g9
F0.49918224977492376
sg10
F0.28283659188084953
ssI316
(dp326
g9
F0.5203268368588226
sg10
F0.4694655574829979
ssI317
(dp327
g9
F0.3484501815891079
sg10
F0.03455077098843495
ssI318
(dp328
g9
F0.0008504830307654032
sg10
F0.4565189065430697
ssI319
(dp329
g9
F0.7259411123052694
sg10
F0.9182797612164161
ssI320
(dp330
g9
F0.1114196999920608
sg10
F0.7456872214614103
ssI321
(dp331
g9
F0.6570457281423313
sg10
F0.8856200864611837
ssI322
(dp332
g9
F0.4308320988210329
sg10
F0.7975169213469283
ssI323
(dp333
g9
F0.4728872069105877
sg10
F0.13668161504205623
ssI324
(dp334
g9
F0.010265374073253564
sg10
F0.6947522298071511
ssI325
(dp335
g9
F0.30427251596922866
sg10
F0.3690151632209958
ssI326
(dp336
g9
F0.13349603668748133
sg10
F0.5090744039710671
ssI327
(dp337
g9
F0.4751398319570579
sg10
F0.07703371035031492
ssI328
(dp338
g9
F0.394240423961256
sg10
F0.440393377914056
ssI329
(dp339
g9
F0.4953180675809631
sg10
F0.12051871129761882
ssI330
(dp340
g9
F0.15752815016147192
sg10
F0.6151136295264659
ssI331
(dp341
g9
F0.6457997056455688
sg10
F0.4580883903835947
ssI332
(dp342
g9
F0.7466837391687198
sg10
F0.6842162452281428
ssI333
(dp343
g9
F0.6517313014835071
sg10
F0.15982742857437537
ssI334
(dp344
g9
F0.9273185385034634
sg10
F0.14688460786658164
ssI335
(dp345
g9
F0.721649677518196
sg10
F0.2646182793037474
ssI336
(dp346
g9
F0.6241068608877165
sg10
F0.45147303892099766
ssI337
(dp347
g9
F0.459273448979053
sg10
F0.6172594287240804
ssI338
(dp348
g9
F0.2116468085658656
sg10
F0.3767094600885259
ssI339
(dp349
g9
F0.7805408985020403
sg10
F0.4303794654534959
ssI340
(dp350
g9
F0.7616296439915233
sg10
F0.619590972250143
ssI341
(dp351
g9
F0.9275193656375368
sg10
F0.6791384031960115
ssI342
(dp352
g9
F0.6688827153552429
sg10
F0.2832665789647647
ssI343
(dp353
g9
F0.6489881040363294
sg10
F0.4313625883984906
ssI344
(dp354
g9
F0.08121175546002135
sg10
F0.8103621566713232
ssI345
(dp355
g9
F0.8237856666111211
sg10
F0.6529335284020902
ssI346
(dp356
g9
F0.5859668202778302
sg10
F0.8903684382123958
ssI347
(dp357
g9
F0.9068960973668305
sg10
F0.49784506133340933
ssI348
(dp358
g9
F0.2995918074303119
sg10
F0.2832236484351086
ssI349
(dp359
g9
F0.1567173997286898
sg10
F0.13730096453836738
ssI350
(dp360
g9
F0.7971024265410452
sg10
F0.20415016348718962
ssI351
(dp361
g9
F0.8350331865194016
sg10
F0.8584278764724339
ssI352
(dp362
g9
F0.04680411729902423
sg10
F0.08596140490490944
ssI353
(dp363
g9
F0.8231889218356881
sg10
F0.9109338261276637
ssI354
(dp364
g9
F0.8452087729431816
sg10
F0.35249702871010113
ssI355
(dp365
g9
F0.7967745706432001
sg10
F0.7089194344403946
ssI356
(dp366
g9
F0.10688493506919594
sg10
F0.5481083768262116
ssI357
(dp367
g9
F0.5999515839973586
sg10
F0.21415490703630813
ssI358
(dp368
g9
F0.9335028177696049
sg10
F0.9480642484181173
ssI359
(dp369
g9
F0.06593530160057459
sg10
F0.8868980767384763
ssI360
(dp370
g9
F0.36238155436640884
sg10
F0.08579802195711306
ssI361
(dp371
g9
F0.3239836028366432
sg10
F0.6602723980492503
ssI362
(dp372
g9
F0.33293362515422475
sg10
F0.8793966354318128
ssI363
(dp373
g9
F0.3704987749868556
sg10
F0.46310133654402796
ssI364
(dp374
g9
F0.9579239065538554
sg10
F0.8649989965403607
ssI365
(dp375
g9
F0.8206025628125447
sg10
F0.7172235225200231
ssI366
(dp376
g9
F0.24134456457852116
sg10
F0.4275131431429835
ssI367
(dp377
g9
F0.48762366628442055
sg10
F0.011249474156627248
ssI368
(dp378
g9
F0.12301753024091022
sg10
F0.222689173448834
ssI369
(dp379
g9
F0.5165279604854297
sg10
F0.13459868569887523
ssI370
(dp380
g9
F0.2613119434833394
sg10
F0.03445155863551208
ssI371
(dp381
g9
F0.23214476583907928
sg10
F0.07934713248991099
ssI372
(dp382
g9
F0.3035198407861974
sg10
F0.7947132721325986
ssI373
(dp383
g9
F0.9331024424978756
sg10
F0.16221492824455896
ssI374
(dp384
g9
F0.133559475402645
sg10
F0.9502782169245492
ssI375
(dp385
g9
F0.6654348996522504
sg10
F0.9502847535681397
ssI376
(dp386
g9
F0.61783677160495
sg10
F0.8132529197543354
ssI377
(dp387
g9
F0.8591710518552995
sg10
F0.8792192114435627
ssI378
(dp388
g9
F0.5986357925879667
sg10
F0.3498327957505434
ssI379
(dp389
g9
F0.7268012979953449
sg10
F0.5187388602780612
ssI380
(dp390
g9
F0.17778280283551506
sg10
F0.6143400647449668
ssI381
(dp391
g9
F0.6117811053115846
sg10
F0.7098958552832286
ssI382
(dp392
g9
F0.6505868457303478
sg10
F0.21901188865075227
ssI383
(dp393
g9
F0.1296242672197152
sg10
F0.4622407677187016
ssI384
(dp394
g9
F0.2935825739313609
sg10
F0.7382658880461002
ssI385
(dp395
g9
F0.15143503640544675
sg10
F0.014114035939462588
ssI386
(dp396
g9
F0.27502316748475075
sg10
F0.16678779421513812
ssI387
(dp397
g9
F0.9653110685326529
sg10
F0.7210321033075313
ssI388
(dp398
g9
F0.2164890555745157
sg10
F0.6674307514895147
ssI389
(dp399
g9
F0.4205171896540151
sg10
F0.03912654579018093
ssI390
(dp400
g9
F0.807921803829174
sg10
F0.4331789524541576
ssI391
(dp401
g9
F0.9504945464095003
sg10
F0.5064686860868771
ssI392
(dp402
g9
F0.9326546433637136
sg10
F0.0870553092201991
ssI393
(dp403
g9
F0.4663405441049927
sg10
F0.7170586350177015
ssI394
(dp404
g9
F0.7823904410063023
sg10
F0.8232788333705452
ssI395
(dp405
g9
F0.7144423952012313
sg10
F0.961361146478936
ssI396
(dp406
g9
F0.5179525425505237
sg10
F0.40931045604821525
ssI397
(dp407
g9
F0.05688027801479434
sg10
F0.7661647802287725
ssI398
(dp408
g9
F0.9919989510254884
sg10
F0.7755911106598438
ssI399
(dp409
g9
F0.6412919853732917
sg10
F0.6740418055720602
sssS'node_dict_factory'
p410
c__builtin__
dict
p411
sS'edge_attr_dict_factory'
p412
g411
sS'edge'
p413
(dp414
I0
(dp415
sI1
(dp416
sI2
(dp417
sI3
(dp418
sI4
(dp419
sI5
(dp420
sI6
(dp421
sI7
(dp422
sI8
(dp423
sI9
(dp424
sI10
(dp425
sI11
(dp426
sI12
(dp427
sI13
(dp428
sI14
(dp429
sI15
(dp430
sI16
(dp431
sI17
(dp432
sI18
(dp433
sI19
(dp434
sI20
(dp435
sI21
(dp436
sI22
(dp437
sI23
(dp438
sI24
(dp439
sI25
(dp440
sI26
(dp441
sI27
(dp442
sI28
(dp443
sI29
(dp444
sI30
(dp445
sI31
(dp446
sI32
(dp447
sI33
(dp448
sI34
(dp449
sI35
(dp450
sI36
(dp451
sI37
(dp452
sI38
(dp453
sI39
(dp454
sI40
(dp455
sI41
(dp456
sI42
(dp457
sI43
(dp458
sI44
(dp459
sI45
(dp460
sI46
(dp461
sI47
(dp462
sI48
(dp463
sI49
(dp464
sI50
(dp465
sI51
(dp466
sI52
(dp467
sI53
(dp468
sI54
(dp469
sI55
(dp470
sI56
(dp471
sI57
(dp472
sI58
(dp473
sI59
(dp474
sI60
(dp475
sI61
(dp476
sI62
(dp477
sI63
(dp478
sI64
(dp479
sI65
(dp480
sI66
(dp481
sI67
(dp482
sI68
(dp483
sI69
(dp484
sI70
(dp485
sI71
(dp486
sI72
(dp487
sI73
(dp488
sI74
(dp489
sI75
(dp490
sI76
(dp491
sI77
(dp492
sI78
(dp493
sI79
(dp494
sI80
(dp495
sI81
(dp496
sI82
(dp497
sI83
(dp498
sI84
(dp499
sI85
(dp500
sI86
(dp501
sI87
(dp502
sI88
(dp503
sI89
(dp504
sI90
(dp505
sI91
(dp506
sI92
(dp507
sI93
(dp508
sI94
(dp509
sI95
(dp510
sI96
(dp511
sI97
(dp512
sI98
(dp513
sI99
(dp514
sI100
(dp515
sI101
(dp516
sI102
(dp517
sI103
(dp518
sI104
(dp519
sI105
(dp520
sI106
(dp521
sI107
(dp522
sI108
(dp523
sI109
(dp524
sI110
(dp525
sI111
(dp526
sI112
(dp527
sI113
(dp528
sI114
(dp529
sI115
(dp530
sI116
(dp531
sI117
(dp532
sI118
(dp533
sI119
(dp534
sI120
(dp535
sI121
(dp536
sI122
(dp537
sI123
(dp538
sI124
(dp539
sI125
(dp540
sI126
(dp541
sI127
(dp542
sI128
(dp543
sI129
(dp544
sI130
(dp545
sI131
(dp546
sI132
(dp547
sI133
(dp548
sI134
(dp549
sI135
(dp550
sI136
(dp551
sI137
(dp552
sI138
(dp553
sI139
(dp554
sI140
(dp555
sI141
(dp556
sI142
(dp557
sI143
(dp558
sI144
(dp559
sI145
(dp560
sI146
(dp561
sI147
(dp562
sI148
(dp563
sI149
(dp564
sI150
(dp565
sI151
(dp566
sI152
(dp567
sI153
(dp568
sI154
(dp569
sI155
(dp570
sI156
(dp571
sI157
(dp572
sI158
(dp573
sI159
(dp574
sI160
(dp575
sI161
(dp576
sI162
(dp577
sI163
(dp578
sI164
(dp579
sI165
(dp580
sI166
(dp581
sI167
(dp582
sI168
(dp583
sI169
(dp584
sI170
(dp585
sI171
(dp586
sI172
(dp587
sI173
(dp588
sI174
(dp589
sI175
(dp590
sI176
(dp591
sI177
(dp592
sI178
(dp593
sI179
(dp594
sI180
(dp595
sI181
(dp596
sI182
(dp597
sI183
(dp598
sI184
(dp599
sI185
(dp600
sI186
(dp601
sI187
(dp602
sI188
(dp603
sI189
(dp604
sI190
(dp605
sI191
(dp606
sI192
(dp607
sI193
(dp608
sI194
(dp609
sI195
(dp610
sI196
(dp611
sI197
(dp612
sI198
(dp613
sI199
(dp614
sI200
(dp615
sI201
(dp616
sI202
(dp617
sI203
(dp618
sI204
(dp619
sI205
(dp620
sI206
(dp621
sI207
(dp622
sI208
(dp623
sI209
(dp624
sI210
(dp625
sI211
(dp626
sI212
(dp627
sI213
(dp628
sI214
(dp629
sI215
(dp630
sI216
(dp631
sI217
(dp632
sI218
(dp633
sI219
(dp634
sI220
(dp635
sI221
(dp636
sI222
(dp637
sI223
(dp638
sI224
(dp639
sI225
(dp640
sI226
(dp641
sI227
(dp642
sI228
(dp643
sI229
(dp644
sI230
(dp645
sI231
(dp646
sI232
(dp647
sI233
(dp648
sI234
(dp649
sI235
(dp650
sI236
(dp651
sI237
(dp652
sI238
(dp653
sI239
(dp654
sI240
(dp655
sI241
(dp656
sI242
(dp657
sI243
(dp658
sI244
(dp659
sI245
(dp660
sI246
(dp661
sI247
(dp662
sI248
(dp663
sI249
(dp664
sI250
(dp665
sI251
(dp666
sI252
(dp667
sI253
(dp668
sI254
(dp669
sI255
(dp670
sI256
(dp671
sI257
(dp672
sI258
(dp673
sI259
(dp674
sI260
(dp675
sI261
(dp676
sI262
(dp677
sI263
(dp678
sI264
(dp679
sI265
(dp680
sI266
(dp681
sI267
(dp682
sI268
(dp683
sI269
(dp684
sI270
(dp685
sI271
(dp686
sI272
(dp687
sI273
(dp688
sI274
(dp689
sI275
(dp690
sI276
(dp691
sI277
(dp692
sI278
(dp693
sI279
(dp694
sI280
(dp695
sI281
(dp696
sI282
(dp697
sI283
(dp698
sI284
(dp699
sI285
(dp700
sI286
(dp701
sI287
(dp702
sI288
(dp703
sI289
(dp704
sI290
(dp705
sI291
(dp706
sI292
(dp707
sI293
(dp708
sI294
(dp709
sI295
(dp710
sI296
(dp711
sI297
(dp712
sI298
(dp713
sI299
(dp714
sI300
(dp715
sI301
(dp716
sI302
(dp717
sI303
(dp718
sI304
(dp719
sI305
(dp720
sI306
(dp721
sI307
(dp722
sI308
(dp723
sI309
(dp724
sI310
(dp725
sI311
(dp726
sI312
(dp727
sI313
(dp728
sI314
(dp729
sI315
(dp730
sI316
(dp731
sI317
(dp732
sI318
(dp733
sI319
(dp734
sI320
(dp735
sI321
(dp736
sI322
(dp737
sI323
(dp738
sI324
(dp739
sI325
(dp740
sI326
(dp741
sI327
(dp742
sI328
(dp743
sI329
(dp744
sI330
(dp745
sI331
(dp746
sI332
(dp747
sI333
(dp748
sI334
(dp749
sI335
(dp750
sI336
(dp751
sI337
(dp752
sI338
(dp753
sI339
(dp754
sI340
(dp755
sI341
(dp756
sI342
(dp757
sI343
(dp758
sI344
(dp759
sI345
(dp760
sI346
(dp761
sI347
(dp762
sI348
(dp763
sI349
(dp764
sI350
(dp765
sI351
(dp766
sI352
(dp767
sI353
(dp768
sI354
(dp769
sI355
(dp770
sI356
(dp771
sI357
(dp772
sI358
(dp773
sI359
(dp774
sI360
(dp775
sI361
(dp776
sI362
(dp777
sI363
(dp778
sI364
(dp779
sI365
(dp780
sI366
(dp781
sI367
(dp782
sI368
(dp783
sI369
(dp784
sI370
(dp785
sI371
(dp786
sI372
(dp787
sI373
(dp788
sI374
(dp789
sI375
(dp790
sI376
(dp791
sI377
(dp792
sI378
(dp793
sI379
(dp794
sI380
(dp795
sI381
(dp796
sI382
(dp797
sI383
(dp798
sI384
(dp799
sI385
(dp800
sI386
(dp801
sI387
(dp802
sI388
(dp803
sI389
(dp804
sI390
(dp805
sI391
(dp806
sI392
(dp807
sI393
(dp808
sI394
(dp809
sI395
(dp810
sI396
(dp811
sI397
(dp812
sI398
(dp813
sI399
(dp814
ssS'graph'
p815
(dp816
sS'adjlist_dict_factory'
p817
g411
sS'adj'
p818
g414
sb.