ccopy_reg
_reconstructor
p0
(cnetworkx.classes.graph
Graph
p1
c__builtin__
object
p2
Ntp3
Rp4
(dp5
S'node'
p6
(dp7
I0
(dp8
S'pos_x'
p9
F0.6554824762457342
sS'pos_y'
p10
F0.9868345208333273
ssI1
(dp11
g9
F0.30229584355960837
sg10
F0.6781689374418739
ssI2
(dp12
g9
F0.11483714539695056
sg10
F0.23660564327778733
ssI3
(dp13
g9
F0.2414655007053781
sg10
F0.4572332667338501
ssI4
(dp14
g9
F0.3831763305837844
sg10
F0.580438959669866
ssI5
(dp15
g9
F0.4038614416800299
sg10
F0.8261176722325233
ssI6
(dp16
g9
F0.5570975582458444
sg10
F0.8273420129778676
ssI7
(dp17
g9
F0.654476024264631
sg10
F0.35908545529409786
ssI8
(dp18
g9
F0.48826218999949733
sg10
F0.8204885033681031
ssI9
(dp19
g9
F0.30336089325752436
sg10
F0.09914735399076813
ssI10
(dp20
g9
F0.6487339010748338
sg10
F0.11942090367713298
ssI11
(dp21
g9
F0.5148992483889732
sg10
F0.42233132650756744
ssI12
(dp22
g9
F0.9730884797665581
sg10
F0.40610654012832514
ssI13
(dp23
g9
F0.890082275333886
sg10
F0.004938029779774533
ssI14
(dp24
g9
F0.587728950927637
sg10
F0.17329281764674254
ssI15
(dp25
g9
F0.9629676298888382
sg10
F0.9965360335037463
ssI16
(dp26
g9
F0.9633154886689644
sg10
F0.6144569747996573
ssI17
(dp27
g9
F0.6340876263618292
sg10
F0.5602174705097734
ssI18
(dp28
g9
F0.05741605164028685
sg10
F0.7777821448942052
ssI19
(dp29
g9
F0.8307037695080471
sg10
F0.6913895199489744
ssI20
(dp30
g9
F0.8387060318510783
sg10
F0.8973524996545961
ssI21
(dp31
g9
F0.2614385311778643
sg10
F0.7499271890042948
ssI22
(dp32
g9
F0.03906811591635051
sg10
F0.19696354675127148
ssI23
(dp33
g9
F0.5753069233908308
sg10
F0.7183264691382013
ssI24
(dp34
g9
F0.656920004882577
sg10
F0.9501636683992545
ssI25
(dp35
g9
F0.036268848151775335
sg10
F0.12249307310273072
ssI26
(dp36
g9
F0.11214761284641861
sg10
F0.7868926325321152
ssI27
(dp37
g9
F0.0705273364646457
sg10
F0.2585384678815349
ssI28
(dp38
g9
F0.19619360271175168
sg10
F0.13006153630995798
ssI29
(dp39
g9
F0.48857505506787813
sg10
F0.16730944203376696
ssI30
(dp40
g9
F0.6610319677393706
sg10
F0.8089923244408573
ssI31
(dp41
g9
F0.051860628067903924
sg10
F0.17839318610796862
ssI32
(dp42
g9
F0.10652553647222396
sg10
F0.6421164431593248
ssI33
(dp43
g9
F0.5647532649059063
sg10
F0.10212832701738783
ssI34
(dp44
g9
F0.28425364705053624
sg10
F0.46942932433744133
ssI35
(dp45
g9
F0.5446043938692132
sg10
F0.02046705172178076
ssI36
(dp46
g9
F0.15367487273885383
sg10
F0.21111403680833174
ssI37
(dp47
g9
F0.06256037122382385
sg10
F0.13421028591920636
ssI38
(dp48
g9
F0.6617225520121002
sg10
F0.7539836687564346
ssI39
(dp49
g9
F0.7685860974266276
sg10
F0.4536065894975918
ssI40
(dp50
g9
F0.8929700124233528
sg10
F0.266746160152058
ssI41
(dp51
g9
F0.717605924367581
sg10
F0.9933495649933578
ssI42
(dp52
g9
F0.9602228328606948
sg10
F0.5698683591742386
ssI43
(dp53
g9
F0.42575078710451064
sg10
F0.5004756408686395
ssI44
(dp54
g9
F0.117478447260706
sg10
F0.33736854795450044
ssI45
(dp55
g9
F0.4397664659328696
sg10
F0.08662611978975165
ssI46
(dp56
g9
F0.28600653164913725
sg10
F0.16532667970478743
ssI47
(dp57
g9
F0.745431305657225
sg10
F0.1010865974467503
ssI48
(dp58
g9
F0.3716975151981696
sg10
F0.24628766109379363
ssI49
(dp59
g9
F0.6569334652606751
sg10
F0.7276955577848534
ssI50
(dp60
g9
F0.7626654249486595
sg10
F0.7807615851658118
ssI51
(dp61
g9
F0.9157759378951804
sg10
F0.5360801798870982
ssI52
(dp62
g9
F0.9528526728664141
sg10
F0.9802450827077962
ssI53
(dp63
g9
F0.9018832278351028
sg10
F0.2178219388339505
ssI54
(dp64
g9
F0.17888469006947216
sg10
F0.17579016266657765
ssI55
(dp65
g9
F0.9149138449488754
sg10
F0.11791471529952768
ssI56
(dp66
g9
F0.1637396910961748
sg10
F0.3531959762884137
ssI57
(dp67
g9
F0.8143097627095406
sg10
F0.5324532623545521
ssI58
(dp68
g9
F0.9985315306640267
sg10
F0.7597340543047365
ssI59
(dp69
g9
F0.43311296776069985
sg10
F0.6967466866257284
ssI60
(dp70
g9
F0.2359820416509919
sg10
F0.728665919792592
ssI61
(dp71
g9
F0.07093645335017906
sg10
F0.1178036558919392
ssI62
(dp72
g9
F0.06267022447228088
sg10
F0.9379600428899729
ssI63
(dp73
g9
F0.8411803749028725
sg10
F0.32476889443337154
ssI64
(dp74
g9
F0.293795890705115
sg10
F0.03951206252732764
ssI65
(dp75
g9
F0.2730813238066683
sg10
F0.4360365795171627
ssI66
(dp76
g9
F0.4474323130549357
sg10
F0.2416840060574469
ssI67
(dp77
g9
F0.1979550816694201
sg10
F0.46032611637691245
ssI68
(dp78
g9
F0.9890261153345968
sg10
F0.1407239701033146
ssI69
(dp79
g9
F0.7649905821557784
sg10
F0.28380908292909257
ssI70
(dp80
g9
F0.11449434598720265
sg10
F0.2301285298662834
ssI71
(dp81
g9
F0.07180328090876176
sg10
F0.2708944469905865
ssI72
(dp82
g9
F0.07518091139830918
sg10
F0.6782444906527143
ssI73
(dp83
g9
F0.872106937894324
sg10
F0.48662705640511716
ssI74
(dp84
g9
F0.05451104623811853
sg10
F0.6052060432818258
ssI75
(dp85
g9
F0.43074779955701603
sg10
F0.619520846526999
ssI76
(dp86
g9
F0.9065511032498029
sg10
F0.10038597262893967
ssI77
(dp87
g9
F0.6807772465295768
sg10
F0.9974550330536891
ssI78
(dp88
g9
F0.10610696645510231
sg10
F0.4380344812149992
ssI79
(dp89
g9
F0.9424313034145656
sg10
F0.5632604517086233
ssI80
(dp90
g9
F0.3324408936849448
sg10
F0.17714608841060198
ssI81
(dp91
g9
F0.5610237965731819
sg10
F0.5463220447701238
ssI82
(dp92
g9
F0.8604767940884569
sg10
F0.3473744312251069
ssI83
(dp93
g9
F0.6575926770526284
sg10
F0.22536908540296186
ssI84
(dp94
g9
F0.6141249440940222
sg10
F0.5219512037524382
ssI85
(dp95
g9
F0.09788174831762331
sg10
F0.6836440261973371
ssI86
(dp96
g9
F0.466911112695379
sg10
F0.8370809523195578
ssI87
(dp97
g9
F0.7651887870143107
sg10
F0.10910663878104965
ssI88
(dp98
g9
F0.7967478028693804
sg10
F0.974600737415518
ssI89
(dp99
g9
F0.955987528932681
sg10
F0.02223290101301978
ssI90
(dp100
g9
F0.5607776070432314
sg10
F0.6360100845164365
ssI91
(dp101
g9
F0.7753158581800679
sg10
F0.05162871468996577
ssI92
(dp102
g9
F0.6473115753202338
sg10
F0.4680345083956935
ssI93
(dp103
g9
F0.37493079694617804
sg10
F0.6171217887175603
ssI94
(dp104
g9
F0.053155169551839965
sg10
F0.6438077751091917
ssI95
(dp105
g9
F0.1348845923442762
sg10
F0.3033173139934199
ssI96
(dp106
g9
F0.8787850126582282
sg10
F0.2837280193216861
ssI97
(dp107
g9
F0.7327826075934517
sg10
F0.43133005620098097
ssI98
(dp108
g9
F0.1468763445622473
sg10
F0.7102691440573005
ssI99
(dp109
g9
F0.6698788493675969
sg10
F0.3942374773401045
ssI100
(dp110
g9
F0.12108381082750941
sg10
F0.6758091569243785
ssI101
(dp111
g9
F0.593422644186608
sg10
F0.042622697034353174
ssI102
(dp112
g9
F0.1728709416626707
sg10
F0.3279820964004908
ssI103
(dp113
g9
F0.9605124216632477
sg10
F0.11806268899513894
ssI104
(dp114
g9
F0.6981907707154003
sg10
F0.42996659082578126
ssI105
(dp115
g9
F0.29574989188944434
sg10
F0.9277558949586372
ssI106
(dp116
g9
F0.2008968448153292
sg10
F0.3346721923414204
ssI107
(dp117
g9
F0.5867760588174442
sg10
F0.24524665823235448
ssI108
(dp118
g9
F0.1496398071735484
sg10
F0.7825413254165462
ssI109
(dp119
g9
F0.714469863984808
sg10
F0.3391018809776227
ssI110
(dp120
g9
F0.38405680267579634
sg10
F0.6542776097045793
ssI111
(dp121
g9
F0.3541921033882792
sg10
F0.033082976986544166
ssI112
(dp122
g9
F0.8910560520729434
sg10
F0.6713346522533231
ssI113
(dp123
g9
F0.7762669237966016
sg10
F0.5447464494521563
ssI114
(dp124
g9
F0.3117048908748191
sg10
F0.2325836527067736
ssI115
(dp125
g9
F0.9543799473477425
sg10
F0.2167957542733585
ssI116
(dp126
g9
F0.34429261638235054
sg10
F0.13983840823840976
ssI117
(dp127
g9
F0.3692543640956033
sg10
F0.11611007454125744
ssI118
(dp128
g9
F0.2713567660789932
sg10
F0.8251103573642735
ssI119
(dp129
g9
F0.8061825247115666
sg10
F0.5584198838217556
ssI120
(dp130
g9
F0.7149290186261926
sg10
F0.4670686882498202
ssI121
(dp131
g9
F0.09515282870221797
sg10
F0.32526145480794644
ssI122
(dp132
g9
F0.5053619661604876
sg10
F0.20856131304862768
ssI123
(dp133
g9
F0.24814340565846338
sg10
F0.21236080189121354
ssI124
(dp134
g9
F0.5700079235626191
sg10
F0.6485666996580255
ssI125
(dp135
g9
F0.5508124073374959
sg10
F0.7094730611699482
ssI126
(dp136
g9
F0.722081672528829
sg10
F0.17886812644389982
ssI127
(dp137
g9
F0.7430542653768426
sg10
F0.6343319854543396
ssI128
(dp138
g9
F0.647338166102508
sg10
F0.06237279684094421
ssI129
(dp139
g9
F0.21663042061424387
sg10
F0.44532445995505543
ssI130
(dp140
g9
F0.9251959911062203
sg10
F0.18813861777181662
ssI131
(dp141
g9
F0.11356636909207063
sg10
F0.955778274219765
ssI132
(dp142
g9
F0.7503836701190367
sg10
F0.5815014583258752
ssI133
(dp143
g9
F0.12844037841259914
sg10
F0.34113884655288795
ssI134
(dp144
g9
F0.46829765982039673
sg10
F0.8777741872038075
ssI135
(dp145
g9
F0.5715021782736196
sg10
F0.1765016704734127
ssI136
(dp146
g9
F0.3890735366653071
sg10
F0.5074180365843399
ssI137
(dp147
g9
F0.9580183754437496
sg10
F0.6059942984908279
ssI138
(dp148
g9
F0.9749220837439125
sg10
F0.347714584727292
ssI139
(dp149
g9
F0.9248063509661353
sg10
F0.11002985527891185
ssI140
(dp150
g9
F0.3453558020051828
sg10
F0.49108294645738104
ssI141
(dp151
g9
F0.7637183904079528
sg10
F0.5089590254020228
ssI142
(dp152
g9
F0.4713620411773445
sg10
F0.19050640211352787
ssI143
(dp153
g9
F0.6142454702237616
sg10
F0.014986682271437846
ssI144
(dp154
g9
F0.22542281632452854
sg10
F0.3005221320300012
ssI145
(dp155
g9
F0.2796123499387543
sg10
F0.6441817445580034
ssI146
(dp156
g9
F0.505180051754546
sg10
F0.4606515606049707
ssI147
(dp157
g9
F0.08194916083336967
sg10
F0.260860123793092
ssI148
(dp158
g9
F0.011401151620291983
sg10
F0.417790768115441
ssI149
(dp159
g9
F0.7702171922754106
sg10
F0.3248981720688138
ssI150
(dp160
g9
F0.7168191076102164
sg10
F0.30989942852367847
ssI151
(dp161
g9
F0.17519789936471153
sg10
F0.9537181202851193
ssI152
(dp162
g9
F0.4502758271827959
sg10
F0.640029480507669
ssI153
(dp163
g9
F0.484142856074109
sg10
F0.7520738339929228
ssI154
(dp164
g9
F0.7804724042036937
sg10
F0.694581568017202
ssI155
(dp165
g9
F0.4505552967397186
sg10
F0.7906314492381727
ssI156
(dp166
g9
F0.1519830823122269
sg10
F0.14979817154761077
ssI157
(dp167
g9
F0.33562684870304504
sg10
F0.9010274407290448
ssI158
(dp168
g9
F0.7644971029817141
sg10
F0.06825335602359184
ssI159
(dp169
g9
F0.11497859361997409
sg10
F0.4899229091592817
ssI160
(dp170
g9
F0.16233169144046733
sg10
F0.6098030666138848
ssI161
(dp171
g9
F0.2813540694241423
sg10
F0.746231655246341
ssI162
(dp172
g9
F0.0035338422398655256
sg10
F0.47650407569030984
ssI163
(dp173
g9
F0.7902193799060875
sg10
F0.6060404519885021
ssI164
(dp174
g9
F0.36300180421545303
sg10
F0.07165595731297636
ssI165
(dp175
g9
F0.16113321875121656
sg10
F0.14244700883789707
ssI166
(dp176
g9
F0.44896315755262284
sg10
F0.9084543344123126
ssI167
(dp177
g9
F0.11025245609160694
sg10
F0.4902215840352232
ssI168
(dp178
g9
F0.6717291216151036
sg10
F0.872845874109668
ssI169
(dp179
g9
F0.4030511716066124
sg10
F0.3563307948356872
ssI170
(dp180
g9
F0.9849346981196861
sg10
F0.12849562404156967
ssI171
(dp181
g9
F0.2785548354752022
sg10
F0.4014725581801507
ssI172
(dp182
g9
F0.7130639991330858
sg10
F0.8662440599368693
ssI173
(dp183
g9
F0.7588138182443779
sg10
F0.6666214638219211
ssI174
(dp184
g9
F0.6025201986817706
sg10
F0.5840233372737818
ssI175
(dp185
g9
F0.6994074760509057
sg10
F0.21630495936560767
ssI176
(dp186
g9
F0.40408694983201643
sg10
F0.8327386550680939
ssI177
(dp187
g9
F0.8861157432711552
sg10
F0.4618320959478067
ssI178
(dp188
g9
F0.441680658811472
sg10
F0.9007092859536675
ssI179
(dp189
g9
F0.5504667874458904
sg10
F0.528342800928873
ssI180
(dp190
g9
F0.5088517227659415
sg10
F0.6813964367095747
ssI181
(dp191
g9
F0.8953178275209135
sg10
F0.4415105840991692
ssI182
(dp192
g9
F0.43618928159474124
sg10
F0.4140830195677403
ssI183
(dp193
g9
F0.02973376719329468
sg10
F0.3652864642698148
ssI184
(dp194
g9
F0.9015307693597087
sg10
F0.09254753206046473
ssI185
(dp195
g9
F0.7291090815626858
sg10
F0.4717057568754742
ssI186
(dp196
g9
F0.8270842691734639
sg10
F0.5897701903952881
ssI187
(dp197
g9
F0.001310416627383404
sg10
F0.7693598882452113
ssI188
(dp198
g9
F0.8340623070144308
sg10
F0.03918360546281696
ssI189
(dp199
g9
F0.8054416508802766
sg10
F0.5020603787508072
ssI190
(dp200
g9
F0.10378749626978745
sg10
F0.12815288984761353
ssI191
(dp201
g9
F0.6067941684069486
sg10
F0.08112427547109746
ssI192
(dp202
g9
F0.1635415648369365
sg10
F0.5418010975268157
ssI193
(dp203
g9
F0.24293689019306197
sg10
F0.9795774130501598
ssI194
(dp204
g9
F0.9725954111571746
sg10
F0.8514134808887324
ssI195
(dp205
g9
F0.7149927135404638
sg10
F0.552703774359934
ssI196
(dp206
g9
F0.09109467689945205
sg10
F0.6895726955374819
ssI197
(dp207
g9
F0.3903748459320998
sg10
F0.5148352032585385
ssI198
(dp208
g9
F0.927318011133989
sg10
F0.14031959792126314
ssI199
(dp209
g9
F0.9274205569961325
sg10
F0.16416815252482342
ssI200
(dp210
g9
F0.7157083989853605
sg10
F0.5351829052009663
ssI201
(dp211
g9
F0.38805062593218853
sg10
F0.9027396510423106
ssI202
(dp212
g9
F0.24125701597222515
sg10
F0.15890869908487226
ssI203
(dp213
g9
F0.6026868689165872
sg10
F0.5617122142262324
ssI204
(dp214
g9
F0.11187420589169894
sg10
F0.36408398559084043
ssI205
(dp215
g9
F0.7758334455809477
sg10
F0.41576797981198865
ssI206
(dp216
g9
F0.35430874331219486
sg10
F0.6034055337068461
ssI207
(dp217
g9
F0.08503580224692253
sg10
F0.4211026431669814
ssI208
(dp218
g9
F0.02456486986636297
sg10
F0.07288126993174426
ssI209
(dp219
g9
F0.8309475990008297
sg10
F0.4014968735730752
ssI210
(dp220
g9
F0.2356293347796089
sg10
F0.17132131672545503
ssI211
(dp221
g9
F0.3216885743950878
sg10
F0.3555948542279792
ssI212
(dp222
g9
F0.6571620851955391
sg10
F0.6550980336790879
ssI213
(dp223
g9
F0.27160808646352375
sg10
F0.26560139224413815
ssI214
(dp224
g9
F0.0971564884319509
sg10
F0.11098709294483344
ssI215
(dp225
g9
F0.879917937009897
sg10
F0.21372634984943617
ssI216
(dp226
g9
F0.49198449687012713
sg10
F0.6880347761261864
ssI217
(dp227
g9
F0.43084933671218595
sg10
F0.21089389695124916
ssI218
(dp228
g9
F0.5980629547006838
sg10
F0.8458063161205068
ssI219
(dp229
g9
F0.763569376910303
sg10
F0.02790984420419451
ssI220
(dp230
g9
F0.5644881585858504
sg10
F0.16235660938233698
ssI221
(dp231
g9
F0.8212786957549262
sg10
F0.8957474338962559
ssI222
(dp232
g9
F0.14572335303804929
sg10
F0.22416572147196556
ssI223
(dp233
g9
F0.7255093315094668
sg10
F0.7403994179373157
ssI224
(dp234
g9
F0.9030458210375764
sg10
F0.061578627185729706
ssI225
(dp235
g9
F0.6431520728439256
sg10
F0.14604798811332187
ssI226
(dp236
g9
F0.5774153939932678
sg10
F0.6177363723054202
ssI227
(dp237
g9
F0.45517312754625516
sg10
F0.8132991128116932
ssI228
(dp238
g9
F0.5514938087802719
sg10
F0.36416497034384254
ssI229
(dp239
g9
F0.31648140698801863
sg10
F0.6834976659307234
ssI230
(dp240
g9
F0.39916230875347947
sg10
F0.9489894728711663
ssI231
(dp241
g9
F0.3096051707908337
sg10
F0.864402047896961
ssI232
(dp242
g9
F0.08088118000854072
sg10
F0.08019101730622236
ssI233
(dp243
g9
F0.12152244387842337
sg10
F0.9840795997972582
ssI234
(dp244
g9
F0.6986699972969153
sg10
F0.6897049836202468
ssI235
(dp245
g9
F0.2044208252623445
sg10
F0.4764068241311745
ssI236
(dp246
g9
F0.868080188003368
sg10
F0.14372667507993098
ssI237
(dp247
g9
F0.9447643786010204
sg10
F0.6637237546181619
ssI238
(dp248
g9
F0.8717522636339311
sg10
F0.7885171438867945
ssI239
(dp249
g9
F0.6540600271998582
sg10
F0.6781988430637618
ssI240
(dp250
g9
F0.810457276143474
sg10
F0.7908742011713145
ssI241
(dp251
g9
F0.6617766988064507
sg10
F0.572455795721313
ssI242
(dp252
g9
F0.0686557993640462
sg10
F0.7930262265835948
ssI243
(dp253
g9
F0.5799412968515728
sg10
F0.40694432830225513
ssI244
(dp254
g9
F0.22459883856369223
sg10
F0.03255801770705302
ssI245
(dp255
g9
F0.9754233780414795
sg10
F0.8352535635647049
ssI246
(dp256
g9
F0.2668320297634559
sg10
F0.7921424611752592
ssI247
(dp257
g9
F0.5241141863191433
sg10
F0.5519724741278176
ssI248
(dp258
g9
F0.29139208613472345
sg10
F0.5747952207284287
ssI249
(dp259
g9
F0.4707783568984797
sg10
F0.2686698833421375
ssI250
(dp260
g9
F0.8938830481363922
sg10
F0.4278804635252209
ssI251
(dp261
g9
F0.6254810848518276
sg10
F0.23586399758713228
ssI252
(dp262
g9
F0.8173616939818864
sg10
F0.6532845614425621
ssI253
(dp263
g9
F0.7345268602971617
sg10
F0.8543322278437748
ssI254
(dp264
g9
F0.3513374570910317
sg10
F0.8385329131168854
ssI255
(dp265
g9
F0.516895888298592
sg10
F0.48719408517114837
ssI256
(dp266
g9
F0.8861529040268065
sg10
F0.9681409086447121
ssI257
(dp267
g9
F0.9227956841518687
sg10
F0.28706262592878484
ssI258
(dp268
g9
F0.6696097216900369
sg10
F0.25400601285110325
ssI259
(dp269
g9
F0.14107724758941897
sg10
F0.3587227090981212
ssI260
(dp270
g9
F0.2655165405655212
sg10
F0.01969614773933437
ssI261
(dp271
g9
F0.9493469711869619
sg10
F0.08832890946376748
ssI262
(dp272
g9
F0.21496767470301892
sg10
F0.04460128479902681
ssI263
(dp273
g9
F0.07956182576761617
sg10
F0.5405890932561825
ssI264
(dp274
g9
F0.5605659538838234
sg10
F0.23582635850680245
ssI265
(dp275
g9
F0.3458291772711647
sg10
F0.038074531749148766
ssI266
(dp276
g9
F0.35146251670865225
sg10
F0.33981819815304737
ssI267
(dp277
g9
F0.7817094530326699
sg10
F0.913016717771052
ssI268
(dp278
g9
F0.5817920973985218
sg10
F0.05141807105060603
ssI269
(dp279
g9
F0.33116740380376486
sg10
F0.31737818106631044
ssI270
(dp280
g9
F0.9240898487694209
sg10
F0.23700623952033484
ssI271
(dp281
g9
F0.35476760125499474
sg10
F0.08291377670786482
ssI272
(dp282
g9
F0.9835194746392184
sg10
F0.5980415216049253
ssI273
(dp283
g9
F0.8461730811254154
sg10
F0.26602059147401735
ssI274
(dp284
g9
F0.33939444629241067
sg10
F0.5961584020390992
ssI275
(dp285
g9
F0.29888152766892584
sg10
F0.3406185822247919
ssI276
(dp286
g9
F0.6563823903308521
sg10
F0.2274077206877827
ssI277
(dp287
g9
F0.4930659527656591
sg10
F0.5964478960371524
ssI278
(dp288
g9
F0.6953610882960795
sg10
F0.9252444347956759
ssI279
(dp289
g9
F0.5255747664775424
sg10
F0.22598628788638941
ssI280
(dp290
g9
F0.7664326204618199
sg10
F0.43064148850949957
ssI281
(dp291
g9
F0.4109144831508059
sg10
F0.4284776240244411
ssI282
(dp292
g9
F0.6955957786058813
sg10
F0.4619280444893451
ssI283
(dp293
g9
F0.7350937904105748
sg10
F0.9460703739314044
ssI284
(dp294
g9
F0.5648875891399204
sg10
F0.2232600846543884
ssI285
(dp295
g9
F0.5330158990473864
sg10
F0.972146685836101
ssI286
(dp296
g9
F0.2831166415373224
sg10
F0.4646894354945187
ssI287
(dp297
g9
F0.7225312354398181
sg10
F0.4565442444113338
ssI288
(dp298
g9
F0.5721950993988835
sg10
F0.04566573121546624
ssI289
(dp299
g9
F0.9661509540363394
sg10
F0.35211756638858893
ssI290
(dp300
g9
F0.45126223152445
sg10
F0.8544256163433466
ssI291
(dp301
g9
F0.07342224694579114
sg10
F0.287794853193189
ssI292
(dp302
g9
F0.15496395427466847
sg10
F0.8383440095550329
ssI293
(dp303
g9
F0.4219021180225445
sg10
F0.2024018027885921
ssI294
(dp304
g9
F0.5196419770941508
sg10
F0.17068039019047687
ssI295
(dp305
g9
F0.9768197400278923
sg10
F0.8624040264453292
ssI296
(dp306
g9
F0.6241385037588929
sg10
F0.8907508827115294
ssI297
(dp307
g9
F0.9463698938433626
sg10
F0.4380823988998994
ssI298
(dp308
g9
F0.13089813469350342
sg10
F0.28803176938225783
ssI299
(dp309
g9
F0.29483402088647137
sg10
F0.07879106310257011
ssI300
(dp310
g9
F0.48657458902399753
sg10
F0.8975978472606535
ssI301
(dp311
g9
F0.27986555302691585
sg10
F0.33603906196899713
ssI302
(dp312
g9
F0.5614303642896812
sg10
F0.06453678652756567
ssI303
(dp313
g9
F0.28261210421793614
sg10
F0.056929655222415776
ssI304
(dp314
g9
F0.16842380411063895
sg10
F0.5239912650212692
ssI305
(dp315
g9
F0.3658585232938584
sg10
F0.4188410700845271
ssI306
(dp316
g9
F0.025540465622556963
sg10
F0.8832384158016913
ssI307
(dp317
g9
F0.9243316199948157
sg10
F0.06747311242841003
ssI308
(dp318
g9
F0.6766677976384895
sg10
F0.6467963726189001
ssI309
(dp319
g9
F0.8617173374977957
sg10
F0.7774403634772495
ssI310
(dp320
g9
F0.1819869240174946
sg10
F0.05187808831331375
ssI311
(dp321
g9
F0.8326623327803219
sg10
F0.9817482848596338
ssI312
(dp322
g9
F0.019312974521324855
sg10
F0.810549320612545
ssI313
(dp323
g9
F0.29332164259290816
sg10
F0.021326126640562992
ssI314
(dp324
g9
F0.21901718875712306
sg10
F0.37911555192822466
ssI315
(dp325
g9
F0.9788077904978713
sg10
F0.0025509016285756303
ssI316
(dp326
g9
F0.726305818043633
sg10
F0.26678209722479107
ssI317
(dp327
g9
F0.820137130955384
sg10
F0.6268621150550583
ssI318
(dp328
g9
F0.20428073238497102
sg10
F0.3099519101576228
ssI319
(dp329
g9
F0.07457076184494427
sg10
F0.24580517557148884
ssI320
(dp330
g9
F0.6054343121041593
sg10
F0.2816532284052241
ssI321
(dp331
g9
F0.09917546630197105
sg10
F0.8472842599189416
ssI322
(dp332
g9
F0.018140580413312124
sg10
F0.35800601656345554
ssI323
(dp333
g9
F0.1497389094104129
sg10
F0.77684577867978
ssI324
(dp334
g9
F0.43368960576154225
sg10
F0.31239951663872845
ssI325
(dp335
g9
F0.5957695453395723
sg10
F0.22051599479030592
ssI326
(dp336
g9
F0.2885101479236126
sg10
F0.6730945398784505
ssI327
(dp337
g9
F0.6770810389052454
sg10
F0.3701218029614175
ssI328
(dp338
g9
F0.5382478706587994
sg10
F0.9350619482188843
ssI329
(dp339
g9
F0.9722122692936785
sg10
F0.3889097241910934
ssI330
(dp340
g9
F0.48323990681132745
sg10
F0.41015848159719526
ssI331
(dp341
g9
F0.5260615602136244
sg10
F0.010944915011899203
ssI332
(dp342
g9
F0.25297572640925914
sg10
F0.8924824285649049
ssI333
(dp343
g9
F0.7951648914704164
sg10
F0.24989211509557963
ssI334
(dp344
g9
F0.8468910860958697
sg10
F0.6206668529110808
ssI335
(dp345
g9
F0.9515707028846835
sg10
F0.41320508999483485
ssI336
(dp346
g9
F0.6945490444029325
sg10
F0.8495796769470434
ssI337
(dp347
g9
F0.6686548070382314
sg10
F0.878024735717913
ssI338
(dp348
g9
F0.8532302430620293
sg10
F0.8032165580429128
ssI339
(dp349
g9
F0.710603851210352
sg10
F0.49746543080462235
ssI340
(dp350
g9
F0.3131547611092007
sg10
F0.9487266700210654
ssI341
(dp351
g9
F0.06988176474717633
sg10
F0.2550288695687113
ssI342
(dp352
g9
F0.4701791660090905
sg10
F0.7835641976196529
ssI343
(dp353
g9
F0.31626939290148703
sg10
F0.3863261241031687
ssI344
(dp354
g9
F0.1960019822157979
sg10
F0.16620617160917106
ssI345
(dp355
g9
F0.5306759862709733
sg10
F0.7345760419428681
ssI346
(dp356
g9
F0.20653184669968883
sg10
F0.35917282633700454
ssI347
(dp357
g9
F0.6572645583143071
sg10
F0.37507931480001766
ssI348
(dp358
g9
F0.40673516348242245
sg10
F0.7862656611316255
ssI349
(dp359
g9
F0.7087568147054656
sg10
F0.9456580478642646
ssI350
(dp360
g9
F0.8509660641080872
sg10
F0.24612803292328156
ssI351
(dp361
g9
F0.664904619250147
sg10
F0.6538293519158707
ssI352
(dp362
g9
F0.7619068798784912
sg10
F0.0969623532696604
ssI353
(dp363
g9
F0.6168240757698752
sg10
F0.5159329729778477
ssI354
(dp364
g9
F0.8340623282151473
sg10
F0.2958848316259455
ssI355
(dp365
g9
F0.5356322265807841
sg10
F0.09487456716009035
ssI356
(dp366
g9
F0.19605018387971462
sg10
F0.7240743932146455
ssI357
(dp367
g9
F0.1211701298536243
sg10
F0.798118787105505
ssI358
(dp368
g9
F0.11968409828805227
sg10
F0.007123124035447459
ssI359
(dp369
g9
F0.8895613847883647
sg10
F0.43819625859037303
ssI360
(dp370
g9
F0.3892527445890095
sg10
F0.04360329995534229
ssI361
(dp371
g9
F0.3786301333905001
sg10
F0.3848224913010805
ssI362
(dp372
g9
F0.6742765110968479
sg10
F0.0869597173107004
ssI363
(dp373
g9
F0.5151916331098644
sg10
F0.10144279764942976
ssI364
(dp374
g9
F0.06653680276498253
sg10
F0.9316349242077823
ssI365
(dp375
g9
F0.8000981168429158
sg10
F0.780952516841236
ssI366
(dp376
g9
F0.3109089843568731
sg10
F0.3238941270811433
ssI367
(dp377
g9
F0.1510624874461698
sg10
F0.3772838612226731
ssI368
(dp378
g9
F0.4380717706326608
sg10
F0.7615076918602214
ssI369
(dp379
g9
F0.7109917125183499
sg10
F0.32635455173930283
ssI370
(dp380
g9
F0.18375164479811146
sg10
F0.4348134334855851
ssI371
(dp381
g9
F0.0567790212395376
sg10
F0.6057209488370507
ssI372
(dp382
g9
F0.01588700478082339
sg10
F0.723854016008585
ssI373
(dp383
g9
F0.5666490431684785
sg10
F0.3697267675548366
ssI374
(dp384
g9
F0.2664847334817878
sg10
F0.4464069291281282
ssI375
(dp385
g9
F0.4253456955104308
sg10
F0.5031388215348053
ssI376
(dp386
g9
F0.4051686874546172
sg10
F0.7800712510164755
ssI377
(dp387
g9
F0.8572130219792036
sg10
F0.2983286081078963
ssI378
(dp388
g9
F0.43941587461710674
sg10
F0.5259500043592179
ssI379
(dp389
g9
F0.23891448351438305
sg10
F0.678442940068296
ssI380
(dp390
g9
F0.6880870584886324
sg10
F0.06648562057497343
ssI381
(dp391
g9
F0.5231066283875627
sg10
F0.6182962761299906
ssI382
(dp392
g9
F0.48632202124281854
sg10
F0.9168728580033441
ssI383
(dp393
g9
F0.33816877579238236
sg10
F0.635386872265926
ssI384
(dp394
g9
F0.6954613455727798
sg10
F0.7361547617629466
ssI385
(dp395
g9
F0.7830812474413864
sg10
F0.062180203855325744
ssI386
(dp396
g9
F0.7870181210875444
sg10
F0.13178108425333535
ssI387
(dp397
g9
F0.7839202278199158
sg10
F0.013606777249419832
ssI388
(dp398
g9
F0.29877492742827305
sg10
F0.9823128973072932
ssI389
(dp399
g9
F0.9081191601589172
sg10
F0.09971441662090008
ssI390
(dp400
g9
F0.19900332224039607
sg10
F0.8014478097482988
ssI391
(dp401
g9
F0.3069881288743044
sg10
F0.42261754366026794
ssI392
(dp402
g9
F0.7644201353236476
sg10
F0.8770489238053324
ssI393
(dp403
g9
F0.7933795465287524
sg10
F0.13277441802370615
ssI394
(dp404
g9
F0.9512949607279819
sg10
F0.7626668940347484
ssI395
(dp405
g9
F0.110376061307637
sg10
F0.4371321451690754
ssI396
(dp406
g9
F0.6175294310283901
sg10
F0.24271883100128666
ssI397
(dp407
g9
F0.6911311404703356
sg10
F0.19634666724991978
ssI398
(dp408
g9
F0.06979691107912223
sg10
F0.04374711399970099
ssI399
(dp409
g9
F0.33907196778072635
sg10
F0.6034438490389475
sssS'node_dict_factory'
p410
c__builtin__
dict
p411
sS'edge_attr_dict_factory'
p412
g411
sS'edge'
p413
(dp414
I0
(dp415
sI1
(dp416
sI2
(dp417
sI3
(dp418
sI4
(dp419
sI5
(dp420
sI6
(dp421
sI7
(dp422
sI8
(dp423
sI9
(dp424
sI10
(dp425
sI11
(dp426
sI12
(dp427
sI13
(dp428
sI14
(dp429
sI15
(dp430
sI16
(dp431
sI17
(dp432
sI18
(dp433
sI19
(dp434
sI20
(dp435
sI21
(dp436
sI22
(dp437
sI23
(dp438
sI24
(dp439
sI25
(dp440
sI26
(dp441
sI27
(dp442
sI28
(dp443
sI29
(dp444
sI30
(dp445
sI31
(dp446
sI32
(dp447
sI33
(dp448
sI34
(dp449
sI35
(dp450
sI36
(dp451
sI37
(dp452
sI38
(dp453
sI39
(dp454
sI40
(dp455
sI41
(dp456
sI42
(dp457
sI43
(dp458
sI44
(dp459
sI45
(dp460
sI46
(dp461
sI47
(dp462
sI48
(dp463
sI49
(dp464
sI50
(dp465
sI51
(dp466
sI52
(dp467
sI53
(dp468
sI54
(dp469
sI55
(dp470
sI56
(dp471
sI57
(dp472
sI58
(dp473
sI59
(dp474
sI60
(dp475
sI61
(dp476
sI62
(dp477
sI63
(dp478
sI64
(dp479
sI65
(dp480
sI66
(dp481
sI67
(dp482
sI68
(dp483
sI69
(dp484
sI70
(dp485
sI71
(dp486
sI72
(dp487
sI73
(dp488
sI74
(dp489
sI75
(dp490
sI76
(dp491
sI77
(dp492
sI78
(dp493
sI79
(dp494
sI80
(dp495
sI81
(dp496
sI82
(dp497
sI83
(dp498
sI84
(dp499
sI85
(dp500
sI86
(dp501
sI87
(dp502
sI88
(dp503
sI89
(dp504
sI90
(dp505
sI91
(dp506
sI92
(dp507
sI93
(dp508
sI94
(dp509
sI95
(dp510
sI96
(dp511
sI97
(dp512
sI98
(dp513
sI99
(dp514
sI100
(dp515
sI101
(dp516
sI102
(dp517
sI103
(dp518
sI104
(dp519
sI105
(dp520
sI106
(dp521
sI107
(dp522
sI108
(dp523
sI109
(dp524
sI110
(dp525
sI111
(dp526
sI112
(dp527
sI113
(dp528
sI114
(dp529
sI115
(dp530
sI116
(dp531
sI117
(dp532
sI118
(dp533
sI119
(dp534
sI120
(dp535
sI121
(dp536
sI122
(dp537
sI123
(dp538
sI124
(dp539
sI125
(dp540
sI126
(dp541
sI127
(dp542
sI128
(dp543
sI129
(dp544
sI130
(dp545
sI131
(dp546
sI132
(dp547
sI133
(dp548
sI134
(dp549
sI135
(dp550
sI136
(dp551
sI137
(dp552
sI138
(dp553
sI139
(dp554
sI140
(dp555
sI141
(dp556
sI142
(dp557
sI143
(dp558
sI144
(dp559
sI145
(dp560
sI146
(dp561
sI147
(dp562
sI148
(dp563
sI149
(dp564
sI150
(dp565
sI151
(dp566
sI152
(dp567
sI153
(dp568
sI154
(dp569
sI155
(dp570
sI156
(dp571
sI157
(dp572
sI158
(dp573
sI159
(dp574
sI160
(dp575
sI161
(dp576
sI162
(dp577
sI163
(dp578
sI164
(dp579
sI165
(dp580
sI166
(dp581
sI167
(dp582
sI168
(dp583
sI169
(dp584
sI170
(dp585
sI171
(dp586
sI172
(dp587
sI173
(dp588
sI174
(dp589
sI175
(dp590
sI176
(dp591
sI177
(dp592
sI178
(dp593
sI179
(dp594
sI180
(dp595
sI181
(dp596
sI182
(dp597
sI183
(dp598
sI184
(dp599
sI185
(dp600
sI186
(dp601
sI187
(dp602
sI188
(dp603
sI189
(dp604
sI190
(dp605
sI191
(dp606
sI192
(dp607
sI193
(dp608
sI194
(dp609
sI195
(dp610
sI196
(dp611
sI197
(dp612
sI198
(dp613
sI199
(dp614
sI200
(dp615
sI201
(dp616
sI202
(dp617
sI203
(dp618
sI204
(dp619
sI205
(dp620
sI206
(dp621
sI207
(dp622
sI208
(dp623
sI209
(dp624
sI210
(dp625
sI211
(dp626
sI212
(dp627
sI213
(dp628
sI214
(dp629
sI215
(dp630
sI216
(dp631
sI217
(dp632
sI218
(dp633
sI219
(dp634
sI220
(dp635
sI221
(dp636
sI222
(dp637
sI223
(dp638
sI224
(dp639
sI225
(dp640
sI226
(dp641
sI227
(dp642
sI228
(dp643
sI229
(dp644
sI230
(dp645
sI231
(dp646
sI232
(dp647
sI233
(dp648
sI234
(dp649
sI235
(dp650
sI236
(dp651
sI237
(dp652
sI238
(dp653
sI239
(dp654
sI240
(dp655
sI241
(dp656
sI242
(dp657
sI243
(dp658
sI244
(dp659
sI245
(dp660
sI246
(dp661
sI247
(dp662
sI248
(dp663
sI249
(dp664
sI250
(dp665
sI251
(dp666
sI252
(dp667
sI253
(dp668
sI254
(dp669
sI255
(dp670
sI256
(dp671
sI257
(dp672
sI258
(dp673
sI259
(dp674
sI260
(dp675
sI261
(dp676
sI262
(dp677
sI263
(dp678
sI264
(dp679
sI265
(dp680
sI266
(dp681
sI267
(dp682
sI268
(dp683
sI269
(dp684
sI270
(dp685
sI271
(dp686
sI272
(dp687
sI273
(dp688
sI274
(dp689
sI275
(dp690
sI276
(dp691
sI277
(dp692
sI278
(dp693
sI279
(dp694
sI280
(dp695
sI281
(dp696
sI282
(dp697
sI283
(dp698
sI284
(dp699
sI285
(dp700
sI286
(dp701
sI287
(dp702
sI288
(dp703
sI289
(dp704
sI290
(dp705
sI291
(dp706
sI292
(dp707
sI293
(dp708
sI294
(dp709
sI295
(dp710
sI296
(dp711
sI297
(dp712
sI298
(dp713
sI299
(dp714
sI300
(dp715
sI301
(dp716
sI302
(dp717
sI303
(dp718
sI304
(dp719
sI305
(dp720
sI306
(dp721
sI307
(dp722
sI308
(dp723
sI309
(dp724
sI310
(dp725
sI311
(dp726
sI312
(dp727
sI313
(dp728
sI314
(dp729
sI315
(dp730
sI316
(dp731
sI317
(dp732
sI318
(dp733
sI319
(dp734
sI320
(dp735
sI321
(dp736
sI322
(dp737
sI323
(dp738
sI324
(dp739
sI325
(dp740
sI326
(dp741
sI327
(dp742
sI328
(dp743
sI329
(dp744
sI330
(dp745
sI331
(dp746
sI332
(dp747
sI333
(dp748
sI334
(dp749
sI335
(dp750
sI336
(dp751
sI337
(dp752
sI338
(dp753
sI339
(dp754
sI340
(dp755
sI341
(dp756
sI342
(dp757
sI343
(dp758
sI344
(dp759
sI345
(dp760
sI346
(dp761
sI347
(dp762
sI348
(dp763
sI349
(dp764
sI350
(dp765
sI351
(dp766
sI352
(dp767
sI353
(dp768
sI354
(dp769
sI355
(dp770
sI356
(dp771
sI357
(dp772
sI358
(dp773
sI359
(dp774
sI360
(dp775
sI361
(dp776
sI362
(dp777
sI363
(dp778
sI364
(dp779
sI365
(dp780
sI366
(dp781
sI367
(dp782
sI368
(dp783
sI369
(dp784
sI370
(dp785
sI371
(dp786
sI372
(dp787
sI373
(dp788
sI374
(dp789
sI375
(dp790
sI376
(dp791
sI377
(dp792
sI378
(dp793
sI379
(dp794
sI380
(dp795
sI381
(dp796
sI382
(dp797
sI383
(dp798
sI384
(dp799
sI385
(dp800
sI386
(dp801
sI387
(dp802
sI388
(dp803
sI389
(dp804
sI390
(dp805
sI391
(dp806
sI392
(dp807
sI393
(dp808
sI394
(dp809
sI395
(dp810
sI396
(dp811
sI397
(dp812
sI398
(dp813
sI399
(dp814
ssS'graph'
p815
(dp816
sS'adjlist_dict_factory'
p817
g411
sS'adj'
p818
g414
sb.