ccopy_reg
_reconstructor
p0
(cnetworkx.classes.graph
Graph
p1
c__builtin__
object
p2
Ntp3
Rp4
(dp5
S'node'
p6
(dp7
I0
(dp8
S'pos_x'
p9
F0.5326289984651392
sS'pos_y'
p10
F0.08293653503365095
ssI1
(dp11
g9
F0.4110692483633005
sg10
F0.26206656163547726
ssI2
(dp12
g9
F0.0805070099745222
sg10
F0.9255345234762108
ssI3
(dp13
g9
F0.9433754589800365
sg10
F0.22962335491232067
ssI4
(dp14
g9
F0.9304678098868612
sg10
F0.20628607541739774
ssI5
(dp15
g9
F0.29527839347174845
sg10
F0.7185108808790474
ssI6
(dp16
g9
F0.3277876980926837
sg10
F0.45990092653808357
ssI7
(dp17
g9
F0.7950568907673853
sg10
F0.2730927744695184
ssI8
(dp18
g9
F0.7340958486232577
sg10
F0.5465563370760984
ssI9
(dp19
g9
F0.01665370184011461
sg10
F0.5445384521903261
ssI10
(dp20
g9
F0.23869512289293815
sg10
F0.9292000597461693
ssI11
(dp21
g9
F0.6980460238799671
sg10
F0.5126215507762847
ssI12
(dp22
g9
F0.9401709129396743
sg10
F0.5610454171287887
ssI13
(dp23
g9
F0.6539918276143045
sg10
F0.6740975850830249
ssI14
(dp24
g9
F0.5903540700453836
sg10
F0.21749540720851268
ssI15
(dp25
g9
F0.01754692226292598
sg10
F0.5506481151715541
ssI16
(dp26
g9
F0.31821699493108135
sg10
F0.7546893164941536
ssI17
(dp27
g9
F0.8558432186117194
sg10
F0.6781002888306724
ssI18
(dp28
g9
F0.3462243725197621
sg10
F0.18312330431664325
ssI19
(dp29
g9
F0.1576195269619074
sg10
F0.32788854860850725
ssI20
(dp30
g9
F0.5671333169133108
sg10
F0.2732582617482825
ssI21
(dp31
g9
F0.7073221096232905
sg10
F0.07320881185924366
ssI22
(dp32
g9
F0.24048495427360628
sg10
F0.6627917957519149
ssI23
(dp33
g9
F0.3691255606404652
sg10
F0.5467119107723319
ssI24
(dp34
g9
F0.4786846958342684
sg10
F0.48587582287400355
ssI25
(dp35
g9
F0.6992818091485357
sg10
F0.915788045238108
ssI26
(dp36
g9
F0.22477757622519323
sg10
F0.704051156264345
ssI27
(dp37
g9
F0.7222527688641047
sg10
F0.7444130092874718
ssI28
(dp38
g9
F0.5866631201008737
sg10
F0.19427901750521093
ssI29
(dp39
g9
F0.0763614735525503
sg10
F0.3418488009600509
ssI30
(dp40
g9
F0.4989983531143125
sg10
F0.8345668374770471
ssI31
(dp41
g9
F0.7118704871252053
sg10
F0.576988074714664
ssI32
(dp42
g9
F0.5296242522997997
sg10
F0.3881752975766234
ssI33
(dp43
g9
F0.5655804598413944
sg10
F0.3236117958048995
ssI34
(dp44
g9
F0.18249027779849702
sg10
F0.16187346337675212
ssI35
(dp45
g9
F0.23762118941751786
sg10
F0.4928473540529721
ssI36
(dp46
g9
F0.05905118469585202
sg10
F0.37334259384475665
ssI37
(dp47
g9
F0.30341539733056255
sg10
F0.9322323862723054
ssI38
(dp48
g9
F0.21836175704154315
sg10
F0.5455484315875523
ssI39
(dp49
g9
F0.09834741924045698
sg10
F0.1826345475857134
ssI40
(dp50
g9
F0.19460975675567327
sg10
F0.976134845592098
ssI41
(dp51
g9
F0.3975717407383206
sg10
F0.8063897708769138
ssI42
(dp52
g9
F0.8418845989719586
sg10
F0.37953012918881424
ssI43
(dp53
g9
F0.6033465331938324
sg10
F0.2365009574216369
ssI44
(dp54
g9
F0.34402535313412896
sg10
F0.524133580739889
ssI45
(dp55
g9
F0.08837779660189471
sg10
F0.9720479346256757
ssI46
(dp56
g9
F0.08492286508115121
sg10
F0.22643420088135613
ssI47
(dp57
g9
F0.9157564893874525
sg10
F0.9432294277845017
ssI48
(dp58
g9
F0.03012446356565468
sg10
F0.30876427735927015
ssI49
(dp59
g9
F0.503745340550544
sg10
F0.05777647153644083
ssI50
(dp60
g9
F0.04256315168361702
sg10
F0.4953328708906598
ssI51
(dp61
g9
F0.34179146766239565
sg10
F0.0030457989465997315
ssI52
(dp62
g9
F0.349790176423716
sg10
F0.945782160810687
ssI53
(dp63
g9
F0.007256826077134959
sg10
F0.74386183416131
ssI54
(dp64
g9
F0.46712140668007895
sg10
F0.3732284819724542
ssI55
(dp65
g9
F0.3783722810026271
sg10
F0.015493008168715572
ssI56
(dp66
g9
F0.2796112623895335
sg10
F0.8989815392825552
ssI57
(dp67
g9
F0.12762575873381243
sg10
F0.26824157632869017
ssI58
(dp68
g9
F0.9506011654854569
sg10
F0.9210339262104805
ssI59
(dp69
g9
F0.8915593292494379
sg10
F0.1348175178187644
ssI60
(dp70
g9
F0.6152698777279727
sg10
F0.596314837382632
ssI61
(dp71
g9
F0.9664578021374514
sg10
F0.6327537534460723
ssI62
(dp72
g9
F0.06866404432806428
sg10
F0.8798488637623064
ssI63
(dp73
g9
F0.5602490821282252
sg10
F0.1460869481849899
ssI64
(dp74
g9
F0.06532818667864193
sg10
F0.04710859600712414
ssI65
(dp75
g9
F0.299183861597934
sg10
F0.692916301626962
ssI66
(dp76
g9
F0.9601469916566185
sg10
F0.11805393625520799
ssI67
(dp77
g9
F0.09938446610063278
sg10
F0.858122508513392
ssI68
(dp78
g9
F0.04349682531625598
sg10
F0.8413349047115083
ssI69
(dp79
g9
F0.060415759547502335
sg10
F0.45093786120598145
ssI70
(dp80
g9
F0.6178065363467324
sg10
F0.8436723439087902
ssI71
(dp81
g9
F0.20802457774432737
sg10
F0.6212334914907124
ssI72
(dp82
g9
F0.9037895628166345
sg10
F0.43706176758738624
ssI73
(dp83
g9
F0.870748200240984
sg10
F0.941476264210524
ssI74
(dp84
g9
F0.642913994372674
sg10
F0.8606614930815133
ssI75
(dp85
g9
F0.7259502457032332
sg10
F0.6616595293231763
ssI76
(dp86
g9
F0.6498705031182782
sg10
F0.5725406438393669
ssI77
(dp87
g9
F0.8405469108209379
sg10
F0.1321878282462755
ssI78
(dp88
g9
F0.3932627796548186
sg10
F0.18817498547899436
ssI79
(dp89
g9
F0.6155487882530624
sg10
F0.23263926869451534
ssI80
(dp90
g9
F0.6950879338280607
sg10
F0.3637652793678955
ssI81
(dp91
g9
F0.44630851586414255
sg10
F0.24465557124787962
ssI82
(dp92
g9
F0.308218809737021
sg10
F0.13590686252279038
ssI83
(dp93
g9
F0.6351407117889267
sg10
F0.9190410925915546
ssI84
(dp94
g9
F0.7866780895705252
sg10
F0.6379836214685826
ssI85
(dp95
g9
F0.6940676196317249
sg10
F0.17672567127584093
ssI86
(dp96
g9
F0.9322873745809354
sg10
F0.21612915060130033
ssI87
(dp97
g9
F0.8854511356064786
sg10
F0.8935669241418227
ssI88
(dp98
g9
F0.7587044782867931
sg10
F0.2655734644613804
ssI89
(dp99
g9
F0.22348899191622063
sg10
F0.6327512867860976
ssI90
(dp100
g9
F0.9134323849662707
sg10
F0.6009860171266567
ssI91
(dp101
g9
F0.558273779486344
sg10
F0.1568996006219988
ssI92
(dp102
g9
F0.8493427730873081
sg10
F0.9813923114304907
ssI93
(dp103
g9
F0.6548191525838389
sg10
F0.11958284660673779
ssI94
(dp104
g9
F0.5124852022052204
sg10
F0.24204387572737351
ssI95
(dp105
g9
F0.17239070585061333
sg10
F0.3810163425778179
ssI96
(dp106
g9
F0.8799791287095214
sg10
F0.8046087679789126
ssI97
(dp107
g9
F0.462140647004294
sg10
F0.18173885516492894
ssI98
(dp108
g9
F0.8335631334505393
sg10
F0.7511860456299777
ssI99
(dp109
g9
F0.5794743188951155
sg10
F0.3127381209903176
ssI100
(dp110
g9
F0.9934892434742719
sg10
F0.49864706181174934
ssI101
(dp111
g9
F0.13249210954851998
sg10
F0.6027601737122545
ssI102
(dp112
g9
F0.25978395977564894
sg10
F0.44212453818491804
ssI103
(dp113
g9
F0.4796311828832627
sg10
F0.7070519121212874
ssI104
(dp114
g9
F0.8428185149108726
sg10
F0.290439226348407
ssI105
(dp115
g9
F0.7851450009746112
sg10
F0.36617723884657327
ssI106
(dp116
g9
F0.7111695723280683
sg10
F0.3211480573552645
ssI107
(dp117
g9
F0.23872444221258504
sg10
F0.1815974487043862
ssI108
(dp118
g9
F0.26902789907203817
sg10
F0.826755728784958
ssI109
(dp119
g9
F0.43016143077309077
sg10
F0.5477483494407211
ssI110
(dp120
g9
F0.6305356428265438
sg10
F0.9660146278315885
ssI111
(dp121
g9
F0.8978420172259679
sg10
F0.046868058974153914
ssI112
(dp122
g9
F0.43864594025750214
sg10
F0.7964260888786392
ssI113
(dp123
g9
F0.5845477690472346
sg10
F0.9473322887022626
ssI114
(dp124
g9
F0.10895616829466492
sg10
F0.5397245645015767
ssI115
(dp125
g9
F0.06295831683440656
sg10
F0.33628898880159097
ssI116
(dp126
g9
F0.8718917192712566
sg10
F0.24967761666080468
ssI117
(dp127
g9
F0.254939661821446
sg10
F0.7114261501658741
ssI118
(dp128
g9
F0.8247326251305247
sg10
F0.027351006187766647
ssI119
(dp129
g9
F0.07641465679538684
sg10
F0.5436375892820218
ssI120
(dp130
g9
F0.2641456603066804
sg10
F0.3707279281119018
ssI121
(dp131
g9
F0.7496541696336102
sg10
F0.2193027030880661
ssI122
(dp132
g9
F0.48106547038671454
sg10
F0.19503880464187306
ssI123
(dp133
g9
F0.3778174855962867
sg10
F0.7443689380195261
ssI124
(dp134
g9
F0.6241953104575896
sg10
F0.8026521284326584
ssI125
(dp135
g9
F0.16693292519018765
sg10
F0.04683494497831464
ssI126
(dp136
g9
F0.7699280237336384
sg10
F0.26212629132813314
ssI127
(dp137
g9
F0.022884307642160984
sg10
F0.8301851295438034
ssI128
(dp138
g9
F0.35747916880982955
sg10
F0.7793950451440367
ssI129
(dp139
g9
F0.11080400841503368
sg10
F0.36848790121711417
ssI130
(dp140
g9
F0.2213989508003621
sg10
F0.3442260168750242
ssI131
(dp141
g9
F0.7730110817457345
sg10
F0.026235785266612632
ssI132
(dp142
g9
F0.7428746734496015
sg10
F0.2324507562015118
ssI133
(dp143
g9
F0.787338027679605
sg10
F0.9359266474497104
ssI134
(dp144
g9
F0.24863580452711675
sg10
F0.30713081714505286
ssI135
(dp145
g9
F0.38519698013340986
sg10
F0.016371640316739655
ssI136
(dp146
g9
F0.1168083331018609
sg10
F0.64608681043269
ssI137
(dp147
g9
F0.486000751734847
sg10
F0.03637141839045599
ssI138
(dp148
g9
F0.6638921731452644
sg10
F0.42142585349345907
ssI139
(dp149
g9
F0.7323346106925341
sg10
F0.77205941426789
ssI140
(dp150
g9
F0.22551365125087186
sg10
F0.15214943387627078
ssI141
(dp151
g9
F0.514775782408859
sg10
F0.9004356321058913
ssI142
(dp152
g9
F0.7339734399110219
sg10
F0.01692577047061694
ssI143
(dp153
g9
F0.5646793464232713
sg10
F0.41217776517933047
ssI144
(dp154
g9
F0.13030228956568768
sg10
F0.5696326909917347
ssI145
(dp155
g9
F0.6478115480472592
sg10
F0.5996781670209697
ssI146
(dp156
g9
F0.8542545387348041
sg10
F0.17455852498524405
ssI147
(dp157
g9
F0.48742253426397497
sg10
F0.5753621112900952
ssI148
(dp158
g9
F0.6576083873685042
sg10
F0.14818565427198271
ssI149
(dp159
g9
F0.3148391264859657
sg10
F0.5244542480189024
ssI150
(dp160
g9
F0.5328870463809692
sg10
F0.8451186653296836
ssI151
(dp161
g9
F0.020495740072376534
sg10
F0.6773022207851556
ssI152
(dp162
g9
F0.9476528261859051
sg10
F0.8041927532533668
ssI153
(dp163
g9
F0.8106667703345246
sg10
F0.11409343092647484
ssI154
(dp164
g9
F0.5596732043060149
sg10
F0.411909576329169
ssI155
(dp165
g9
F0.6231567597272081
sg10
F0.45460275086369983
ssI156
(dp166
g9
F0.9559261231642476
sg10
F0.9433091048195059
ssI157
(dp167
g9
F0.5575451368101301
sg10
F0.4985009607185946
ssI158
(dp168
g9
F0.6446441586211851
sg10
F0.40335794539418734
ssI159
(dp169
g9
F0.8884115461539225
sg10
F0.20600092091348898
ssI160
(dp170
g9
F0.9529611808532845
sg10
F0.027436002598824283
ssI161
(dp171
g9
F0.020083091326398184
sg10
F0.8129748112196397
ssI162
(dp172
g9
F0.5498407805487252
sg10
F0.04356612039603147
ssI163
(dp173
g9
F0.033370793916540964
sg10
F0.43582551933037916
ssI164
(dp174
g9
F0.3869454479077077
sg10
F0.2689851786865489
ssI165
(dp175
g9
F0.23036573560994933
sg10
F0.587791870114572
ssI166
(dp176
g9
F0.4078963823956936
sg10
F0.9972736553368531
ssI167
(dp177
g9
F0.5495632746502529
sg10
F0.8462258307414041
ssI168
(dp178
g9
F0.49570852664165965
sg10
F0.23357970476608292
ssI169
(dp179
g9
F0.45205398736763824
sg10
F0.9722999521296011
ssI170
(dp180
g9
F0.7725526814558119
sg10
F0.6623484202170725
ssI171
(dp181
g9
F0.5578004766899364
sg10
F0.8701369725110897
ssI172
(dp182
g9
F0.3965690794064761
sg10
F0.12605535193940387
ssI173
(dp183
g9
F0.7080931853665732
sg10
F0.7476495744856654
ssI174
(dp184
g9
F0.808409116468468
sg10
F0.898238971096547
ssI175
(dp185
g9
F0.23929129918331393
sg10
F0.4940126867218023
ssI176
(dp186
g9
F0.3728529856886791
sg10
F0.6963836679479232
ssI177
(dp187
g9
F0.13284175528358688
sg10
F0.692382252373267
ssI178
(dp188
g9
F0.860660195492316
sg10
F0.942814952537964
ssI179
(dp189
g9
F0.5139164191073298
sg10
F0.5176575639460557
ssI180
(dp190
g9
F0.14569559371238372
sg10
F0.5094040007563608
ssI181
(dp191
g9
F0.21581894927765222
sg10
F0.09561939914463213
ssI182
(dp192
g9
F0.3078659641860695
sg10
F0.8588693845003019
ssI183
(dp193
g9
F0.7089515342632613
sg10
F0.9878784366076463
ssI184
(dp194
g9
F0.030353653749724208
sg10
F0.8358934833891276
ssI185
(dp195
g9
F0.010475589645147387
sg10
F0.26116328743926065
ssI186
(dp196
g9
F0.32176349208344035
sg10
F0.8734034260026551
ssI187
(dp197
g9
F0.2767175261633218
sg10
F0.561302601537468
ssI188
(dp198
g9
F0.5086955614251343
sg10
F0.3649831769872225
ssI189
(dp199
g9
F0.22221701594843613
sg10
F0.8280962222473325
ssI190
(dp200
g9
F0.2668312333435743
sg10
F0.15508231620178292
ssI191
(dp201
g9
F0.698934857848852
sg10
F0.09125463130088418
ssI192
(dp202
g9
F0.9875055707678579
sg10
F0.5689842137273273
ssI193
(dp203
g9
F0.2622788285630062
sg10
F0.6800394748863337
ssI194
(dp204
g9
F0.2259719752186845
sg10
F0.8129807619349122
ssI195
(dp205
g9
F0.01014742984719097
sg10
F0.09837421864413387
ssI196
(dp206
g9
F0.9783257891971092
sg10
F0.9649286868349609
ssI197
(dp207
g9
F0.07797117705212009
sg10
F0.537959298750972
ssI198
(dp208
g9
F0.0935146946390728
sg10
F0.8199632056864088
ssI199
(dp209
g9
F0.6687265196736368
sg10
F0.07178537517658723
ssI200
(dp210
g9
F0.37810591908170776
sg10
F0.6510074610733128
ssI201
(dp211
g9
F0.783553926179191
sg10
F0.6652320014513703
ssI202
(dp212
g9
F0.3995184603663633
sg10
F0.8243900102149656
ssI203
(dp213
g9
F0.8756388378745849
sg10
F0.30940908644094145
ssI204
(dp214
g9
F0.24084881601753982
sg10
F0.015810812783606742
ssI205
(dp215
g9
F0.5158882704903448
sg10
F0.9391749550370065
ssI206
(dp216
g9
F0.8775215780234756
sg10
F0.349071155623907
ssI207
(dp217
g9
F0.6444483489712783
sg10
F0.3229336318646201
ssI208
(dp218
g9
F0.44658053719483815
sg10
F0.3454779403117534
ssI209
(dp219
g9
F0.3290266517975836
sg10
F0.6607118376051544
ssI210
(dp220
g9
F0.021091956914651933
sg10
F0.08395978070294075
ssI211
(dp221
g9
F0.88947571075085
sg10
F0.37520059446833576
ssI212
(dp222
g9
F0.3650996878758477
sg10
F0.05022050636278608
ssI213
(dp223
g9
F0.47809678165646274
sg10
F0.22048109513862235
ssI214
(dp224
g9
F0.7952986623764949
sg10
F0.6942161217477791
ssI215
(dp225
g9
F0.25542441879372213
sg10
F0.09027996228758028
ssI216
(dp226
g9
F0.5222665188779991
sg10
F0.6772499917380483
ssI217
(dp227
g9
F0.4416629801399746
sg10
F0.7179740914432882
ssI218
(dp228
g9
F0.3331350610075148
sg10
F0.3514963012677985
ssI219
(dp229
g9
F0.5340196866719025
sg10
F0.5318642460206392
ssI220
(dp230
g9
F0.6618088337078438
sg10
F0.44025302485091167
ssI221
(dp231
g9
F0.6695143478306822
sg10
F0.4123732862750642
ssI222
(dp232
g9
F0.11320584112780618
sg10
F0.9482951352603897
ssI223
(dp233
g9
F0.5898752906269497
sg10
F0.6488826805249097
ssI224
(dp234
g9
F0.26404081872379737
sg10
F0.5185926429088733
ssI225
(dp235
g9
F0.3204361481912331
sg10
F0.4316670098059362
ssI226
(dp236
g9
F0.18538331007678688
sg10
F0.31770599982615344
ssI227
(dp237
g9
F0.4946732907549839
sg10
F0.6008857012954144
ssI228
(dp238
g9
F0.6887572157106568
sg10
F0.7943860209468735
ssI229
(dp239
g9
F0.8544339049658022
sg10
F0.010020979330514601
ssI230
(dp240
g9
F0.7931819221410139
sg10
F0.7256417935107167
ssI231
(dp241
g9
F0.9285307528128199
sg10
F0.22980039283746
ssI232
(dp242
g9
F0.6353882303701189
sg10
F0.3608356536869385
ssI233
(dp243
g9
F0.8966631252503707
sg10
F0.17720642456150637
ssI234
(dp244
g9
F0.5129922232338164
sg10
F0.060026399254301976
ssI235
(dp245
g9
F0.602886563675276
sg10
F0.830897272997653
ssI236
(dp246
g9
F0.9305848728870002
sg10
F0.5249301084357801
ssI237
(dp247
g9
F0.21888282375502377
sg10
F0.12105541956654287
ssI238
(dp248
g9
F0.5326017124674431
sg10
F0.8048698222163496
ssI239
(dp249
g9
F0.6404645527258954
sg10
F0.31118446564197466
ssI240
(dp250
g9
F0.4566089070534155
sg10
F0.329415554582566
ssI241
(dp251
g9
F0.9079606283967883
sg10
F0.05402300133472693
ssI242
(dp252
g9
F0.7190621445857526
sg10
F0.6355503220897389
ssI243
(dp253
g9
F0.7516231504292809
sg10
F0.9546699004377139
ssI244
(dp254
g9
F0.6974570002866398
sg10
F0.5565269406017793
ssI245
(dp255
g9
F0.38185403943474194
sg10
F0.9408540642227436
ssI246
(dp256
g9
F0.5425853358342689
sg10
F0.8018026433023463
ssI247
(dp257
g9
F0.5358806063919821
sg10
F0.41338454678444336
ssI248
(dp258
g9
F0.3133801586432352
sg10
F0.7545713342835074
ssI249
(dp259
g9
F0.43176040741335253
sg10
F0.09651904904346997
ssI250
(dp260
g9
F0.5259997191834374
sg10
F0.9994831260684082
ssI251
(dp261
g9
F0.524618609547352
sg10
F0.9134490718081831
ssI252
(dp262
g9
F0.20014631753891876
sg10
F0.5277368176065466
ssI253
(dp263
g9
F0.9903072775024164
sg10
F0.3471817691874628
ssI254
(dp264
g9
F0.38666820957104386
sg10
F0.8627240416726158
ssI255
(dp265
g9
F0.6762003832006438
sg10
F0.7124603773074702
ssI256
(dp266
g9
F0.20897147921926418
sg10
F0.49833975544836273
ssI257
(dp267
g9
F0.6463696916351636
sg10
F0.2545904444298315
ssI258
(dp268
g9
F0.06097829360534557
sg10
F0.7829027094193179
ssI259
(dp269
g9
F0.8143174151256338
sg10
F0.21194760486887854
ssI260
(dp270
g9
F0.7391012678592597
sg10
F0.6360309384215932
ssI261
(dp271
g9
F0.06568953038692948
sg10
F0.49889094848936866
ssI262
(dp272
g9
F0.39095601949945225
sg10
F0.6214882853390437
ssI263
(dp273
g9
F0.7153183438632409
sg10
F0.29549696615276755
ssI264
(dp274
g9
F0.3468701734323688
sg10
F0.06267204640543678
ssI265
(dp275
g9
F0.8086548314089295
sg10
F0.15932459451997705
ssI266
(dp276
g9
F0.7576878367353042
sg10
F0.08114648941797031
ssI267
(dp277
g9
F0.4678389758459929
sg10
F0.57827582191172
ssI268
(dp278
g9
F0.6995598568478782
sg10
F0.5574775797885132
ssI269
(dp279
g9
F0.37530142417795975
sg10
F0.708852135607626
ssI270
(dp280
g9
F0.32542265605226606
sg10
F0.8857459654911982
ssI271
(dp281
g9
F0.577035471434832
sg10
F0.1584584209485217
ssI272
(dp282
g9
F0.8954181959103245
sg10
F0.8426834229924343
ssI273
(dp283
g9
F0.9313072819355737
sg10
F0.42453416744995576
ssI274
(dp284
g9
F0.5789326794631735
sg10
F0.19863440274648503
ssI275
(dp285
g9
F0.7479313297795642
sg10
F0.04574870073351711
ssI276
(dp286
g9
F0.8933392067201391
sg10
F0.5621957891636437
ssI277
(dp287
g9
F0.7562995550836438
sg10
F0.13660454080130824
ssI278
(dp288
g9
F0.5267473007453922
sg10
F0.5350300215782162
ssI279
(dp289
g9
F0.588197017177129
sg10
F0.3487068163499776
ssI280
(dp290
g9
F0.381955465041544
sg10
F0.7729365419738347
ssI281
(dp291
g9
F0.37476553665833945
sg10
F0.0870878879989897
ssI282
(dp292
g9
F0.3523098095467614
sg10
F0.1945501640833328
ssI283
(dp293
g9
F0.8819713794677612
sg10
F0.711473532020985
ssI284
(dp294
g9
F0.7550411499396137
sg10
F0.2893139244516528
ssI285
(dp295
g9
F0.05307524888844817
sg10
F0.07703424077862242
ssI286
(dp296
g9
F0.8518958602468139
sg10
F0.5047755997395426
ssI287
(dp297
g9
F0.12824330871478262
sg10
F0.9576473056775863
ssI288
(dp298
g9
F0.8398447003269365
sg10
F0.06503987025798597
ssI289
(dp299
g9
F0.09322542544296497
sg10
F0.16395871026017217
ssI290
(dp300
g9
F0.6071707385384335
sg10
F0.1387093092081011
ssI291
(dp301
g9
F0.5254596405002324
sg10
F0.2576378730036847
ssI292
(dp302
g9
F0.369599185384653
sg10
F0.9329521307912002
ssI293
(dp303
g9
F0.8253462952185988
sg10
F0.4721465268597965
ssI294
(dp304
g9
F0.6271688451427335
sg10
F0.17860063152283412
ssI295
(dp305
g9
F0.033917501184766996
sg10
F0.2585248816218917
ssI296
(dp306
g9
F0.7585412120186483
sg10
F0.6152735253042881
ssI297
(dp307
g9
F0.8536435186429243
sg10
F0.8654267239894479
ssI298
(dp308
g9
F0.9988252047471785
sg10
F0.2607675807135491
ssI299
(dp309
g9
F0.9114449186140781
sg10
F0.7957563184000227
ssI300
(dp310
g9
F0.3780944449435423
sg10
F0.30267820145792346
ssI301
(dp311
g9
F0.5389731302658604
sg10
F0.16905483847429525
ssI302
(dp312
g9
F0.22125466980484343
sg10
F0.5693284583812791
ssI303
(dp313
g9
F0.7512448722472297
sg10
F0.8868864013036634
ssI304
(dp314
g9
F0.030719687726059153
sg10
F0.33813199905694824
ssI305
(dp315
g9
F0.8563284286744296
sg10
F0.5946181361265568
ssI306
(dp316
g9
F0.43012504513562577
sg10
F0.5433002874264778
ssI307
(dp317
g9
F0.16076751327500582
sg10
F0.6303655264092678
ssI308
(dp318
g9
F0.7639052845238171
sg10
F0.37258887867531354
ssI309
(dp319
g9
F0.3301040318493802
sg10
F0.10616106109716916
ssI310
(dp320
g9
F0.659150874898724
sg10
F0.6020754900961106
ssI311
(dp321
g9
F0.6546741469913305
sg10
F0.5134386130011567
ssI312
(dp322
g9
F0.8661476855955196
sg10
F0.8575953429639784
ssI313
(dp323
g9
F0.571000859864552
sg10
F0.3262232598342085
ssI314
(dp324
g9
F0.19570764661191742
sg10
F0.7418316875982794
ssI315
(dp325
g9
F0.7864610713664503
sg10
F0.032869189668078946
ssI316
(dp326
g9
F0.03868587322653483
sg10
F0.5250565439994297
ssI317
(dp327
g9
F0.49561557008681467
sg10
F0.15185412063172143
ssI318
(dp328
g9
F0.5784648513157674
sg10
F0.9418211047290621
ssI319
(dp329
g9
F0.96751535788204
sg10
F0.1507996778319829
ssI320
(dp330
g9
F0.4094499378720887
sg10
F0.554909698626566
ssI321
(dp331
g9
F0.17117983347755716
sg10
F0.07442281408777007
ssI322
(dp332
g9
F0.8138636940191301
sg10
F0.08457679782782335
ssI323
(dp333
g9
F0.7221927871982471
sg10
F0.9506486549850126
ssI324
(dp334
g9
F0.1840828081458905
sg10
F0.7426178225323242
ssI325
(dp335
g9
F0.3333674217543112
sg10
F0.1486312658863389
ssI326
(dp336
g9
F0.8256731795696243
sg10
F0.10954974887353452
ssI327
(dp337
g9
F0.45528767292713224
sg10
F0.8341370157309735
ssI328
(dp338
g9
F0.9966420669751852
sg10
F0.4794698506356565
ssI329
(dp339
g9
F0.6276666538418025
sg10
F0.33737015318406227
ssI330
(dp340
g9
F0.711514390341195
sg10
F0.2834580558333262
ssI331
(dp341
g9
F0.6809246067311417
sg10
F0.14667430931136238
ssI332
(dp342
g9
F0.7095384880583034
sg10
F0.05730351514681986
ssI333
(dp343
g9
F0.013562532919646708
sg10
F0.6023071770816398
ssI334
(dp344
g9
F0.7948630553443911
sg10
F0.5062305364944256
ssI335
(dp345
g9
F0.12999505149734203
sg10
F0.82317727357422
ssI336
(dp346
g9
F0.17204080973621783
sg10
F0.5459640433706723
ssI337
(dp347
g9
F0.2588786598881804
sg10
F0.35633065320913415
ssI338
(dp348
g9
F0.5610786653621287
sg10
F0.01550535850093604
ssI339
(dp349
g9
F0.1392944290688365
sg10
F0.8714992340590432
ssI340
(dp350
g9
F0.7550513809907536
sg10
F0.91664596422521
ssI341
(dp351
g9
F0.29294597883819784
sg10
F0.08025022721032038
ssI342
(dp352
g9
F0.3779845244857698
sg10
F0.7472873166067862
ssI343
(dp353
g9
F0.14449898965582963
sg10
F0.24972953102520778
ssI344
(dp354
g9
F0.9149725965131351
sg10
F0.9916460760236584
ssI345
(dp355
g9
F0.80642417910658
sg10
F0.9791359912328594
ssI346
(dp356
g9
F0.533427101849806
sg10
F0.1922295965612656
ssI347
(dp357
g9
F0.34719841510057314
sg10
F0.9346744548746968
ssI348
(dp358
g9
F0.473574474821289
sg10
F0.2564485966396868
ssI349
(dp359
g9
F0.5477955182121523
sg10
F0.1628385888487477
ssI350
(dp360
g9
F0.2292513858725449
sg10
F0.4045898857376924
ssI351
(dp361
g9
F0.5077982052269843
sg10
F0.3406657829916081
ssI352
(dp362
g9
F0.699399230410957
sg10
F0.7312692419452855
ssI353
(dp363
g9
F0.9126370327857968
sg10
F0.49541073840888117
ssI354
(dp364
g9
F0.05700962129995657
sg10
F0.8370353050968848
ssI355
(dp365
g9
F0.8535395534279292
sg10
F0.3311243346960744
ssI356
(dp366
g9
F0.20924256641502859
sg10
F0.9299919938252817
ssI357
(dp367
g9
F0.8285055235669575
sg10
F0.9594938550910123
ssI358
(dp368
g9
F0.1208356672210481
sg10
F0.7486967270343334
ssI359
(dp369
g9
F0.249759092673579
sg10
F0.6597191992950748
ssI360
(dp370
g9
F0.3172620729184502
sg10
F0.03734595610624125
ssI361
(dp371
g9
F0.6674306915819547
sg10
F0.4611966828791191
ssI362
(dp372
g9
F0.0381720501890519
sg10
F0.9294407637939645
ssI363
(dp373
g9
F0.6703184026952366
sg10
F0.2500520726817592
ssI364
(dp374
g9
F0.1027016813795919
sg10
F0.3441036069070933
ssI365
(dp375
g9
F0.9602886025003885
sg10
F0.16096497655756292
ssI366
(dp376
g9
F0.14256042699291738
sg10
F0.7948807404142624
ssI367
(dp377
g9
F0.7006536240283471
sg10
F0.6178929549181048
ssI368
(dp378
g9
F0.14932566008412151
sg10
F0.7601150086176756
ssI369
(dp379
g9
F0.06399830309976284
sg10
F0.5614810976894387
ssI370
(dp380
g9
F0.19139185527821112
sg10
F0.1437767932174422
ssI371
(dp381
g9
F0.4850540813972327
sg10
F0.9428887198252481
ssI372
(dp382
g9
F0.7993325224533868
sg10
F0.6140660154863608
ssI373
(dp383
g9
F0.2502473238901195
sg10
F0.2421024974365702
ssI374
(dp384
g9
F0.6782004687996182
sg10
F0.11870628658732763
ssI375
(dp385
g9
F0.37113550857904
sg10
F0.8481769553894412
ssI376
(dp386
g9
F0.9877057170616469
sg10
F0.9061831034961039
ssI377
(dp387
g9
F0.6215388192055891
sg10
F0.6004376743078759
ssI378
(dp388
g9
F0.8848652034218729
sg10
F0.5853545520354188
ssI379
(dp389
g9
F0.3701908900293378
sg10
F0.6100184249717201
ssI380
(dp390
g9
F0.6702692792617634
sg10
F0.7783965700466783
ssI381
(dp391
g9
F0.21885160446828378
sg10
F0.4928517696605552
ssI382
(dp392
g9
F0.40007182676753106
sg10
F0.6281575454908641
ssI383
(dp393
g9
F0.915097809043348
sg10
F0.757667469031433
ssI384
(dp394
g9
F0.12324157300553928
sg10
F0.17889687063948956
ssI385
(dp395
g9
F0.15970661023061905
sg10
F0.22242788596995555
ssI386
(dp396
g9
F0.2610585257353103
sg10
F0.9548076518225376
ssI387
(dp397
g9
F0.9076654521260898
sg10
F0.9695136025684439
ssI388
(dp398
g9
F0.5328914188467616
sg10
F0.3849379882084153
ssI389
(dp399
g9
F0.13071038055436834
sg10
F0.5063557844097363
ssI390
(dp400
g9
F0.02890390854712921
sg10
F0.27582943917714187
ssI391
(dp401
g9
F0.6249842488533286
sg10
F0.8150785161349254
ssI392
(dp402
g9
F0.18806439329436964
sg10
F0.8306393115918502
ssI393
(dp403
g9
F0.9798677795454812
sg10
F0.8085781213592396
ssI394
(dp404
g9
F0.3941679447386921
sg10
F0.6936106663324965
ssI395
(dp405
g9
F0.6242532370821862
sg10
F0.1668211776056564
ssI396
(dp406
g9
F0.6445052309103537
sg10
F0.02731122549602838
ssI397
(dp407
g9
F0.5925419033633833
sg10
F0.7703014323515707
ssI398
(dp408
g9
F0.3930625719337162
sg10
F0.6836818955277705
ssI399
(dp409
g9
F0.22064204942360022
sg10
F0.7841465904803591
sssS'node_dict_factory'
p410
c__builtin__
dict
p411
sS'edge_attr_dict_factory'
p412
g411
sS'edge'
p413
(dp414
I0
(dp415
sI1
(dp416
sI2
(dp417
sI3
(dp418
sI4
(dp419
sI5
(dp420
sI6
(dp421
sI7
(dp422
sI8
(dp423
sI9
(dp424
sI10
(dp425
sI11
(dp426
sI12
(dp427
sI13
(dp428
sI14
(dp429
sI15
(dp430
sI16
(dp431
sI17
(dp432
sI18
(dp433
sI19
(dp434
sI20
(dp435
sI21
(dp436
sI22
(dp437
sI23
(dp438
sI24
(dp439
sI25
(dp440
sI26
(dp441
sI27
(dp442
sI28
(dp443
sI29
(dp444
sI30
(dp445
sI31
(dp446
sI32
(dp447
sI33
(dp448
sI34
(dp449
sI35
(dp450
sI36
(dp451
sI37
(dp452
sI38
(dp453
sI39
(dp454
sI40
(dp455
sI41
(dp456
sI42
(dp457
sI43
(dp458
sI44
(dp459
sI45
(dp460
sI46
(dp461
sI47
(dp462
sI48
(dp463
sI49
(dp464
sI50
(dp465
sI51
(dp466
sI52
(dp467
sI53
(dp468
sI54
(dp469
sI55
(dp470
sI56
(dp471
sI57
(dp472
sI58
(dp473
sI59
(dp474
sI60
(dp475
sI61
(dp476
sI62
(dp477
sI63
(dp478
sI64
(dp479
sI65
(dp480
sI66
(dp481
sI67
(dp482
sI68
(dp483
sI69
(dp484
sI70
(dp485
sI71
(dp486
sI72
(dp487
sI73
(dp488
sI74
(dp489
sI75
(dp490
sI76
(dp491
sI77
(dp492
sI78
(dp493
sI79
(dp494
sI80
(dp495
sI81
(dp496
sI82
(dp497
sI83
(dp498
sI84
(dp499
sI85
(dp500
sI86
(dp501
sI87
(dp502
sI88
(dp503
sI89
(dp504
sI90
(dp505
sI91
(dp506
sI92
(dp507
sI93
(dp508
sI94
(dp509
sI95
(dp510
sI96
(dp511
sI97
(dp512
sI98
(dp513
sI99
(dp514
sI100
(dp515
sI101
(dp516
sI102
(dp517
sI103
(dp518
sI104
(dp519
sI105
(dp520
sI106
(dp521
sI107
(dp522
sI108
(dp523
sI109
(dp524
sI110
(dp525
sI111
(dp526
sI112
(dp527
sI113
(dp528
sI114
(dp529
sI115
(dp530
sI116
(dp531
sI117
(dp532
sI118
(dp533
sI119
(dp534
sI120
(dp535
sI121
(dp536
sI122
(dp537
sI123
(dp538
sI124
(dp539
sI125
(dp540
sI126
(dp541
sI127
(dp542
sI128
(dp543
sI129
(dp544
sI130
(dp545
sI131
(dp546
sI132
(dp547
sI133
(dp548
sI134
(dp549
sI135
(dp550
sI136
(dp551
sI137
(dp552
sI138
(dp553
sI139
(dp554
sI140
(dp555
sI141
(dp556
sI142
(dp557
sI143
(dp558
sI144
(dp559
sI145
(dp560
sI146
(dp561
sI147
(dp562
sI148
(dp563
sI149
(dp564
sI150
(dp565
sI151
(dp566
sI152
(dp567
sI153
(dp568
sI154
(dp569
sI155
(dp570
sI156
(dp571
sI157
(dp572
sI158
(dp573
sI159
(dp574
sI160
(dp575
sI161
(dp576
sI162
(dp577
sI163
(dp578
sI164
(dp579
sI165
(dp580
sI166
(dp581
sI167
(dp582
sI168
(dp583
sI169
(dp584
sI170
(dp585
sI171
(dp586
sI172
(dp587
sI173
(dp588
sI174
(dp589
sI175
(dp590
sI176
(dp591
sI177
(dp592
sI178
(dp593
sI179
(dp594
sI180
(dp595
sI181
(dp596
sI182
(dp597
sI183
(dp598
sI184
(dp599
sI185
(dp600
sI186
(dp601
sI187
(dp602
sI188
(dp603
sI189
(dp604
sI190
(dp605
sI191
(dp606
sI192
(dp607
sI193
(dp608
sI194
(dp609
sI195
(dp610
sI196
(dp611
sI197
(dp612
sI198
(dp613
sI199
(dp614
sI200
(dp615
sI201
(dp616
sI202
(dp617
sI203
(dp618
sI204
(dp619
sI205
(dp620
sI206
(dp621
sI207
(dp622
sI208
(dp623
sI209
(dp624
sI210
(dp625
sI211
(dp626
sI212
(dp627
sI213
(dp628
sI214
(dp629
sI215
(dp630
sI216
(dp631
sI217
(dp632
sI218
(dp633
sI219
(dp634
sI220
(dp635
sI221
(dp636
sI222
(dp637
sI223
(dp638
sI224
(dp639
sI225
(dp640
sI226
(dp641
sI227
(dp642
sI228
(dp643
sI229
(dp644
sI230
(dp645
sI231
(dp646
sI232
(dp647
sI233
(dp648
sI234
(dp649
sI235
(dp650
sI236
(dp651
sI237
(dp652
sI238
(dp653
sI239
(dp654
sI240
(dp655
sI241
(dp656
sI242
(dp657
sI243
(dp658
sI244
(dp659
sI245
(dp660
sI246
(dp661
sI247
(dp662
sI248
(dp663
sI249
(dp664
sI250
(dp665
sI251
(dp666
sI252
(dp667
sI253
(dp668
sI254
(dp669
sI255
(dp670
sI256
(dp671
sI257
(dp672
sI258
(dp673
sI259
(dp674
sI260
(dp675
sI261
(dp676
sI262
(dp677
sI263
(dp678
sI264
(dp679
sI265
(dp680
sI266
(dp681
sI267
(dp682
sI268
(dp683
sI269
(dp684
sI270
(dp685
sI271
(dp686
sI272
(dp687
sI273
(dp688
sI274
(dp689
sI275
(dp690
sI276
(dp691
sI277
(dp692
sI278
(dp693
sI279
(dp694
sI280
(dp695
sI281
(dp696
sI282
(dp697
sI283
(dp698
sI284
(dp699
sI285
(dp700
sI286
(dp701
sI287
(dp702
sI288
(dp703
sI289
(dp704
sI290
(dp705
sI291
(dp706
sI292
(dp707
sI293
(dp708
sI294
(dp709
sI295
(dp710
sI296
(dp711
sI297
(dp712
sI298
(dp713
sI299
(dp714
sI300
(dp715
sI301
(dp716
sI302
(dp717
sI303
(dp718
sI304
(dp719
sI305
(dp720
sI306
(dp721
sI307
(dp722
sI308
(dp723
sI309
(dp724
sI310
(dp725
sI311
(dp726
sI312
(dp727
sI313
(dp728
sI314
(dp729
sI315
(dp730
sI316
(dp731
sI317
(dp732
sI318
(dp733
sI319
(dp734
sI320
(dp735
sI321
(dp736
sI322
(dp737
sI323
(dp738
sI324
(dp739
sI325
(dp740
sI326
(dp741
sI327
(dp742
sI328
(dp743
sI329
(dp744
sI330
(dp745
sI331
(dp746
sI332
(dp747
sI333
(dp748
sI334
(dp749
sI335
(dp750
sI336
(dp751
sI337
(dp752
sI338
(dp753
sI339
(dp754
sI340
(dp755
sI341
(dp756
sI342
(dp757
sI343
(dp758
sI344
(dp759
sI345
(dp760
sI346
(dp761
sI347
(dp762
sI348
(dp763
sI349
(dp764
sI350
(dp765
sI351
(dp766
sI352
(dp767
sI353
(dp768
sI354
(dp769
sI355
(dp770
sI356
(dp771
sI357
(dp772
sI358
(dp773
sI359
(dp774
sI360
(dp775
sI361
(dp776
sI362
(dp777
sI363
(dp778
sI364
(dp779
sI365
(dp780
sI366
(dp781
sI367
(dp782
sI368
(dp783
sI369
(dp784
sI370
(dp785
sI371
(dp786
sI372
(dp787
sI373
(dp788
sI374
(dp789
sI375
(dp790
sI376
(dp791
sI377
(dp792
sI378
(dp793
sI379
(dp794
sI380
(dp795
sI381
(dp796
sI382
(dp797
sI383
(dp798
sI384
(dp799
sI385
(dp800
sI386
(dp801
sI387
(dp802
sI388
(dp803
sI389
(dp804
sI390
(dp805
sI391
(dp806
sI392
(dp807
sI393
(dp808
sI394
(dp809
sI395
(dp810
sI396
(dp811
sI397
(dp812
sI398
(dp813
sI399
(dp814
ssS'graph'
p815
(dp816
sS'adjlist_dict_factory'
p817
g411
sS'adj'
p818
g414
sb.