ccopy_reg
_reconstructor
p0
(cnetworkx.classes.graph
Graph
p1
c__builtin__
object
p2
Ntp3
Rp4
(dp5
S'node'
p6
(dp7
I0
(dp8
S'pos_x'
p9
F0.4816520662170811
sS'pos_y'
p10
F0.7507826052955756
ssI1
(dp11
g9
F0.2527329549662729
sg10
F0.14990806137144919
ssI2
(dp12
g9
F0.37159276054649926
sg10
F0.09740007462992972
ssI3
(dp13
g9
F0.0008211043521986205
sg10
F0.6373098019314254
ssI4
(dp14
g9
F0.7823755416462969
sg10
F0.2526711809365898
ssI5
(dp15
g9
F0.40715241343490305
sg10
F0.1612951486298101
ssI6
(dp16
g9
F0.8802448810696603
sg10
F0.92265349470336
ssI7
(dp17
g9
F0.29520098543143625
sg10
F0.8191078917322816
ssI8
(dp18
g9
F0.0034586947949803992
sg10
F0.6890035813197898
ssI9
(dp19
g9
F0.7149935334727723
sg10
F0.7425933369174114
ssI10
(dp20
g9
F0.45525865556733314
sg10
F0.990269871389055
ssI11
(dp21
g9
F0.7788750499896355
sg10
F0.15097360314906538
ssI12
(dp22
g9
F0.40989602384841606
sg10
F0.42918053628607156
ssI13
(dp23
g9
F0.973343855594783
sg10
F0.5415421339727445
ssI14
(dp24
g9
F0.18868470369211998
sg10
F0.33736163278254216
ssI15
(dp25
g9
F0.6542029342918337
sg10
F0.04235974086292671
ssI16
(dp26
g9
F0.08441037638876114
sg10
F0.2717633679146697
ssI17
(dp27
g9
F0.9977525229917376
sg10
F0.3520366621789979
ssI18
(dp28
g9
F0.8712254788167866
sg10
F0.047297272489411735
ssI19
(dp29
g9
F0.9936892505296049
sg10
F0.35291723327861735
ssI20
(dp30
g9
F0.04820947773259021
sg10
F0.3190714194662494
ssI21
(dp31
g9
F0.914034152113028
sg10
F0.051144236015933764
ssI22
(dp32
g9
F0.20454626630669792
sg10
F0.07934176334652454
ssI23
(dp33
g9
F0.6586185944809484
sg10
F0.9901801939364128
ssI24
(dp34
g9
F0.3332615762439376
sg10
F0.9736765714674802
ssI25
(dp35
g9
F0.8825616490696713
sg10
F0.2071983073927166
ssI26
(dp36
g9
F0.7629595891215465
sg10
F0.12571696555750678
ssI27
(dp37
g9
F0.5291391668786873
sg10
F0.48295760954248845
ssI28
(dp38
g9
F0.9266288732641242
sg10
F0.22616957462542986
ssI29
(dp39
g9
F0.48124621428212666
sg10
F0.5449798196611976
ssI30
(dp40
g9
F0.1295244749969584
sg10
F0.7706273726826253
ssI31
(dp41
g9
F0.7637440087241196
sg10
F0.9786930349998574
ssI32
(dp42
g9
F0.5836738667127179
sg10
F0.5334811427063005
ssI33
(dp43
g9
F0.8587071910752698
sg10
F0.2550458368496933
ssI34
(dp44
g9
F0.4255585445177531
sg10
F0.7120344908512674
ssI35
(dp45
g9
F0.8026978489059365
sg10
F0.6241729793570939
ssI36
(dp46
g9
F0.16422906081004585
sg10
F0.248380969667792
ssI37
(dp47
g9
F0.7260056856079575
sg10
F0.05965806078003477
ssI38
(dp48
g9
F0.7055131770901898
sg10
F0.55002754241333
ssI39
(dp49
g9
F0.7586436408213795
sg10
F0.3018821129624487
ssI40
(dp50
g9
F0.0531964543494684
sg10
F0.5580567849814464
ssI41
(dp51
g9
F0.41538865562403504
sg10
F0.16791693795656493
ssI42
(dp52
g9
F0.7840218483982441
sg10
F0.6081968737805784
ssI43
(dp53
g9
F0.8896319660163744
sg10
F0.2561004676395121
ssI44
(dp54
g9
F0.6849370268530426
sg10
F0.7185075106435782
ssI45
(dp55
g9
F0.7506555044787201
sg10
F0.39037143589302525
ssI46
(dp56
g9
F0.833889036073279
sg10
F0.3232809779334256
ssI47
(dp57
g9
F0.04879793729246196
sg10
F0.9183416511452571
ssI48
(dp58
g9
F0.27700863593606595
sg10
F0.02658640004348234
ssI49
(dp59
g9
F0.33775274097054053
sg10
F0.5236344051110202
ssI50
(dp60
g9
F0.4556792990049231
sg10
F0.26535350247521694
ssI51
(dp61
g9
F0.10272661934623506
sg10
F0.10430343714940427
ssI52
(dp62
g9
F0.04446575995434221
sg10
F0.1380466636041815
ssI53
(dp63
g9
F0.024358960217763403
sg10
F0.8098726995938016
ssI54
(dp64
g9
F0.19536457136185548
sg10
F0.9647015367870856
ssI55
(dp65
g9
F0.18283241370173187
sg10
F0.38226489061959945
ssI56
(dp66
g9
F0.4932700938456932
sg10
F0.9902579797381689
ssI57
(dp67
g9
F0.5642701883542285
sg10
F0.21468441847377562
ssI58
(dp68
g9
F0.2630033239941876
sg10
F0.22199111872745003
ssI59
(dp69
g9
F0.7346602399357408
sg10
F0.7305585927565096
ssI60
(dp70
g9
F0.30753514438016516
sg10
F0.05179610023336034
ssI61
(dp71
g9
F0.6247160833168005
sg10
F0.6768704963354257
ssI62
(dp72
g9
F0.11166851470698835
sg10
F0.717737737436816
ssI63
(dp73
g9
F0.4072695798473128
sg10
F0.6948655117205224
ssI64
(dp74
g9
F0.03650674431419543
sg10
F0.4493196207514494
ssI65
(dp75
g9
F0.780952926855159
sg10
F0.8392295652209516
ssI66
(dp76
g9
F0.2676668367525473
sg10
F0.28201672271980494
ssI67
(dp77
g9
F0.6554829976540423
sg10
F0.1828229992057092
ssI68
(dp78
g9
F0.16548315114046708
sg10
F0.3030244007432392
ssI69
(dp79
g9
F0.4387201470111982
sg10
F0.8906330765992595
ssI70
(dp80
g9
F0.7887176128512013
sg10
F0.20786581436909857
ssI71
(dp81
g9
F0.13580280472190798
sg10
F0.6226913863700166
ssI72
(dp82
g9
F0.5155962570609569
sg10
F0.7574130909859592
ssI73
(dp83
g9
F0.3581393922028099
sg10
F0.17176443152738508
ssI74
(dp84
g9
F0.40768131001322994
sg10
F0.5921493648718597
ssI75
(dp85
g9
F0.3386090347426364
sg10
F0.007236016344194018
ssI76
(dp86
g9
F0.4878657412348161
sg10
F0.13962633189920126
ssI77
(dp87
g9
F0.0839342468365133
sg10
F0.7677059439458528
ssI78
(dp88
g9
F0.8384975351615065
sg10
F0.09947797711184792
ssI79
(dp89
g9
F0.6592938945190621
sg10
F0.6124623947289898
ssI80
(dp90
g9
F0.9579272841578672
sg10
F0.26408821004326
ssI81
(dp91
g9
F0.34149738806257224
sg10
F0.9687296796853118
ssI82
(dp92
g9
F0.06843207044135835
sg10
F0.5110293553692672
ssI83
(dp93
g9
F0.3668617622332442
sg10
F0.13393138988811526
ssI84
(dp94
g9
F0.9876960758094736
sg10
F0.7764265434977468
ssI85
(dp95
g9
F0.8971469976421429
sg10
F0.9541926412704597
ssI86
(dp96
g9
F0.637027938998546
sg10
F0.629284949706762
ssI87
(dp97
g9
F0.592069221793292
sg10
F0.7834924915005059
ssI88
(dp98
g9
F0.39241367086695167
sg10
F0.5813447765933915
ssI89
(dp99
g9
F0.2770224107325574
sg10
F0.7490684227789779
ssI90
(dp100
g9
F0.3224664474198895
sg10
F0.9305683800372172
ssI91
(dp101
g9
F0.4596992414460658
sg10
F0.6762517031867359
ssI92
(dp102
g9
F0.10603825349296081
sg10
F0.10240965273688063
ssI93
(dp103
g9
F0.04612186154937148
sg10
F0.9414144744222622
ssI94
(dp104
g9
F0.39811073575925215
sg10
F0.04775437882682143
ssI95
(dp105
g9
F0.8159973913756311
sg10
F0.10847787385880381
ssI96
(dp106
g9
F0.30639232972062935
sg10
F0.6795977079064774
ssI97
(dp107
g9
F0.5248446889005225
sg10
F0.9910979184104836
ssI98
(dp108
g9
F0.8613511387440078
sg10
F0.9470667851368434
ssI99
(dp109
g9
F0.6917221865452247
sg10
F0.14611919187097056
ssI100
(dp110
g9
F0.45139394311025116
sg10
F0.4018427078106245
ssI101
(dp111
g9
F0.8499887908594121
sg10
F0.23043000858743978
ssI102
(dp112
g9
F0.4302347894507633
sg10
F0.9577133423923596
ssI103
(dp113
g9
F0.6746979269877118
sg10
F0.5216994026441012
ssI104
(dp114
g9
F0.22417434761778954
sg10
F0.6326413126208221
ssI105
(dp115
g9
F0.3017119054260009
sg10
F0.8513276461516481
ssI106
(dp116
g9
F0.6133655310204584
sg10
F0.662078484350778
ssI107
(dp117
g9
F0.3210893770964983
sg10
F0.02844166419870442
ssI108
(dp118
g9
F0.6546180933808426
sg10
F0.6410093996725286
ssI109
(dp119
g9
F0.5303444088734003
sg10
F0.592865920778841
ssI110
(dp120
g9
F0.10533463268670562
sg10
F0.7154072523302532
ssI111
(dp121
g9
F0.9504513324539098
sg10
F0.01480174162268677
ssI112
(dp122
g9
F0.08451298363717041
sg10
F0.8680199209389535
ssI113
(dp123
g9
F0.8588480414692902
sg10
F0.2591890117793815
ssI114
(dp124
g9
F0.10580602692904006
sg10
F0.4651310919320374
ssI115
(dp125
g9
F0.7100114442923541
sg10
F0.25421757743889606
ssI116
(dp126
g9
F0.5743407621425148
sg10
F0.737253787267059
ssI117
(dp127
g9
F0.10754649607373512
sg10
F0.17279141543354404
ssI118
(dp128
g9
F0.615860207707997
sg10
F0.12437531690441017
ssI119
(dp129
g9
F0.232142466281265
sg10
F0.7631989906338585
ssI120
(dp130
g9
F0.15003054559849172
sg10
F0.7803433995020571
ssI121
(dp131
g9
F0.6445998438662548
sg10
F0.7816877392842251
ssI122
(dp132
g9
F0.7793562897116173
sg10
F0.13400369077644714
ssI123
(dp133
g9
F0.2332460520369627
sg10
F0.8866925626182767
ssI124
(dp134
g9
F0.5787603421543343
sg10
F0.6260417567208153
ssI125
(dp135
g9
F0.17893134776406627
sg10
F0.983104228936241
ssI126
(dp136
g9
F0.8710977879725066
sg10
F0.24042617688436396
ssI127
(dp137
g9
F0.21021669107144025
sg10
F0.7721660969236633
ssI128
(dp138
g9
F0.598790549234668
sg10
F0.16111240350137201
ssI129
(dp139
g9
F0.7786945834740632
sg10
F0.6465127789190134
ssI130
(dp140
g9
F0.37053997075116996
sg10
F0.26190730428830733
ssI131
(dp141
g9
F0.806638523521849
sg10
F0.401366035263781
ssI132
(dp142
g9
F0.8946058589392938
sg10
F0.5395029088373807
ssI133
(dp143
g9
F0.9572596095160296
sg10
F0.22925965773607349
ssI134
(dp144
g9
F0.5988874388080284
sg10
F0.22791357333630224
ssI135
(dp145
g9
F0.8586116023421156
sg10
F0.39289651998026
ssI136
(dp146
g9
F0.455559973972403
sg10
F0.9585183517259096
ssI137
(dp147
g9
F0.310653367324111
sg10
F0.2834935549752734
ssI138
(dp148
g9
F0.62968260209129
sg10
F0.3820520878842609
ssI139
(dp149
g9
F0.9512216806140529
sg10
F0.42610923676629997
ssI140
(dp150
g9
F0.36079340538317195
sg10
F0.8359933147314177
ssI141
(dp151
g9
F0.611422241318604
sg10
F0.6880661880298848
ssI142
(dp152
g9
F0.26547572689627574
sg10
F0.6947570845720157
ssI143
(dp153
g9
F0.860660908363367
sg10
F0.6847604335046028
ssI144
(dp154
g9
F0.4224823460297784
sg10
F0.11194305720283038
ssI145
(dp155
g9
F0.06265963080287451
sg10
F0.715999058731495
ssI146
(dp156
g9
F0.9811835582479957
sg10
F0.25035917091979154
ssI147
(dp157
g9
F0.13568803085886227
sg10
F0.3794491720562827
ssI148
(dp158
g9
F0.8697034169478831
sg10
F0.9122302810049931
ssI149
(dp159
g9
F0.3707203926061462
sg10
F0.9791366378380448
ssI150
(dp160
g9
F0.18972056493029266
sg10
F0.6150473098071088
ssI151
(dp161
g9
F0.5931707453460956
sg10
F0.5348266698401065
ssI152
(dp162
g9
F0.7330465803258939
sg10
F0.9752938149553346
ssI153
(dp163
g9
F0.9360394727635709
sg10
F0.6564053866994306
ssI154
(dp164
g9
F0.6465710186698892
sg10
F0.7335905084032884
ssI155
(dp165
g9
F0.7722044817013501
sg10
F0.09468218233912407
ssI156
(dp166
g9
F0.6493250738297807
sg10
F0.26005176831809973
ssI157
(dp167
g9
F0.8425458298349693
sg10
F0.8130549808921593
ssI158
(dp168
g9
F0.5008514902898717
sg10
F0.05153354072438043
ssI159
(dp169
g9
F0.5520510206832735
sg10
F0.9778687352574683
ssI160
(dp170
g9
F0.21684622744620763
sg10
F0.6154208128299914
ssI161
(dp171
g9
F0.7869766098618574
sg10
F0.5125445130616878
ssI162
(dp172
g9
F0.2159064421681155
sg10
F0.019500073875909907
ssI163
(dp173
g9
F0.0003399570112382344
sg10
F0.14577863478700526
ssI164
(dp174
g9
F0.21548514255530582
sg10
F0.15038388585484697
ssI165
(dp175
g9
F0.07485811320519442
sg10
F0.4023980894202235
ssI166
(dp176
g9
F0.47115589370241007
sg10
F0.13093660449015143
ssI167
(dp177
g9
F0.705242999033276
sg10
F0.522196760862326
ssI168
(dp178
g9
F0.6007319673578919
sg10
F0.07187546672284528
ssI169
(dp179
g9
F0.19633655308692566
sg10
F0.8882258337935712
ssI170
(dp180
g9
F0.28360395503058056
sg10
F0.06740963277455503
ssI171
(dp181
g9
F0.06768717912006483
sg10
F0.5827328390346935
ssI172
(dp182
g9
F0.4689273215469675
sg10
F0.11309850070668948
ssI173
(dp183
g9
F0.2120488889879304
sg10
F0.15872548866205682
ssI174
(dp184
g9
F0.854780946586126
sg10
F0.7731869651979516
ssI175
(dp185
g9
F0.6405527924522927
sg10
F0.9837979037875597
ssI176
(dp186
g9
F0.9387447363124554
sg10
F0.9246621596561916
ssI177
(dp187
g9
F0.31555410487742674
sg10
F0.5923650384066537
ssI178
(dp188
g9
F0.8561909086856391
sg10
F0.9111079563230642
ssI179
(dp189
g9
F0.7564038275099263
sg10
F0.1295452300962069
ssI180
(dp190
g9
F0.43830647213895224
sg10
F0.3979586131946393
ssI181
(dp191
g9
F0.2425086603762563
sg10
F0.017443013556945552
ssI182
(dp192
g9
F0.12167274293916008
sg10
F0.3850205165210654
ssI183
(dp193
g9
F0.6108170309945592
sg10
F0.7426140214241148
ssI184
(dp194
g9
F0.11341039686296683
sg10
F0.43204081558208673
ssI185
(dp195
g9
F0.5796276187973675
sg10
F0.9601024752478163
ssI186
(dp196
g9
F0.6385001046985251
sg10
F0.5029964626095091
ssI187
(dp197
g9
F0.16190970587438924
sg10
F0.1691074636943949
ssI188
(dp198
g9
F0.5378720102359913
sg10
F0.6285633929880873
ssI189
(dp199
g9
F0.49002434581403687
sg10
F0.2881120936741983
ssI190
(dp200
g9
F0.2024995526008153
sg10
F0.30475540328353723
ssI191
(dp201
g9
F0.6808288554318309
sg10
F0.3088201894969841
ssI192
(dp202
g9
F0.25762951537956735
sg10
F0.6058778445537195
ssI193
(dp203
g9
F0.02279984919824929
sg10
F0.15781771103821873
ssI194
(dp204
g9
F0.4977630594651328
sg10
F0.8697475681415078
ssI195
(dp205
g9
F0.9394850387468436
sg10
F0.8288303947775622
ssI196
(dp206
g9
F0.6329880018653332
sg10
F0.9271420489235298
ssI197
(dp207
g9
F0.4127702018756947
sg10
F0.29171558452337076
ssI198
(dp208
g9
F0.8041344187353446
sg10
F0.4322032503433828
ssI199
(dp209
g9
F0.9087605787814863
sg10
F0.08279994593747986
ssI200
(dp210
g9
F0.5080497888674899
sg10
F0.17415030536768417
ssI201
(dp211
g9
F0.39654004400705734
sg10
F0.2026181680872815
ssI202
(dp212
g9
F0.38892588772532655
sg10
F0.5806944483823689
ssI203
(dp213
g9
F0.677520839569212
sg10
F0.724672956981779
ssI204
(dp214
g9
F0.9549026465850357
sg10
F0.9319335399048727
ssI205
(dp215
g9
F0.9602659176081945
sg10
F0.7077603368367863
ssI206
(dp216
g9
F0.488411270210358
sg10
F0.9462530223361671
ssI207
(dp217
g9
F0.6245368040953483
sg10
F0.08402245432458355
ssI208
(dp218
g9
F0.6171741282096044
sg10
F0.9749929450817766
ssI209
(dp219
g9
F0.1188845750440396
sg10
F0.5649112422751622
ssI210
(dp220
g9
F0.8842026072423804
sg10
F0.3295078161751329
ssI211
(dp221
g9
F0.5853690598472217
sg10
F0.3933084672887507
ssI212
(dp222
g9
F0.6625995860842503
sg10
F0.7373268206198483
ssI213
(dp223
g9
F0.19737575499646698
sg10
F0.09668166566840586
ssI214
(dp224
g9
F0.990179983168867
sg10
F0.11860152119724698
ssI215
(dp225
g9
F0.7810961227720489
sg10
F0.21602881020118714
ssI216
(dp226
g9
F0.8615773212879542
sg10
F0.5818574472648104
ssI217
(dp227
g9
F0.44404399232213754
sg10
F0.5893480530597852
ssI218
(dp228
g9
F0.0020533239416005156
sg10
F0.4378783798662653
ssI219
(dp229
g9
F0.333148117105299
sg10
F0.015520781836188435
ssI220
(dp230
g9
F0.698457682748414
sg10
F0.026379602484713605
ssI221
(dp231
g9
F0.5474291248597938
sg10
F0.2972999807271427
ssI222
(dp232
g9
F0.20080170893254023
sg10
F0.8178964184995328
ssI223
(dp233
g9
F0.5237656788132368
sg10
F0.9420478776577911
ssI224
(dp234
g9
F0.360503839598313
sg10
F0.6230886968901667
ssI225
(dp235
g9
F0.8008876276424908
sg10
F0.5493589275884152
ssI226
(dp236
g9
F0.6215277673879148
sg10
F0.6259129501513157
ssI227
(dp237
g9
F0.45167596485413974
sg10
F0.6874187111293916
ssI228
(dp238
g9
F0.11418198736482732
sg10
F0.4067520447013825
ssI229
(dp239
g9
F0.09993554607952826
sg10
F0.07694127465239553
ssI230
(dp240
g9
F0.35907402320996606
sg10
F0.8220900733805618
ssI231
(dp241
g9
F0.1550827310567925
sg10
F0.6262345490486857
ssI232
(dp242
g9
F0.1713013661296825
sg10
F0.5766277579168362
ssI233
(dp243
g9
F0.6065385177912699
sg10
F0.9025466059759587
ssI234
(dp244
g9
F0.231182528076595
sg10
F0.36079170958837137
ssI235
(dp245
g9
F0.8782600440020191
sg10
F0.8319317274139745
ssI236
(dp246
g9
F0.7385291855146601
sg10
F0.9408167969143227
ssI237
(dp247
g9
F0.9486995612388864
sg10
F0.895768224103338
ssI238
(dp248
g9
F0.8431359780143806
sg10
F0.6116705357833628
ssI239
(dp249
g9
F0.6998068830703913
sg10
F0.2856800564060493
ssI240
(dp250
g9
F0.6054983858794961
sg10
F0.4625125262149882
ssI241
(dp251
g9
F0.9778703336739604
sg10
F0.15129761462014457
ssI242
(dp252
g9
F0.10305674922775077
sg10
F0.026106319018778135
ssI243
(dp253
g9
F0.5570738607876845
sg10
F0.3862697723507188
ssI244
(dp254
g9
F0.6310903150764885
sg10
F0.32200817418572125
ssI245
(dp255
g9
F0.41030394598743625
sg10
F0.012297830864995696
ssI246
(dp256
g9
F0.06930621812976279
sg10
F0.7299846719386743
ssI247
(dp257
g9
F0.8290950492531363
sg10
F0.3742173091245199
ssI248
(dp258
g9
F0.8370514944463296
sg10
F0.15764283801573542
ssI249
(dp259
g9
F0.5813109493848511
sg10
F0.2549872227805646
ssI250
(dp260
g9
F0.7450449116209372
sg10
F0.9473918338118352
ssI251
(dp261
g9
F0.09863658799060016
sg10
F0.8880305528135333
ssI252
(dp262
g9
F0.035106161483422715
sg10
F0.3552943604062022
ssI253
(dp263
g9
F0.11296956771794886
sg10
F0.20013256616268205
ssI254
(dp264
g9
F0.4831964587085963
sg10
F0.5244017637536001
ssI255
(dp265
g9
F0.41644875602163134
sg10
F0.6835374123705497
ssI256
(dp266
g9
F0.8639301250516499
sg10
F0.43576696540693016
ssI257
(dp267
g9
F0.30987379933029213
sg10
F0.23357029409518681
ssI258
(dp268
g9
F0.29205403524607576
sg10
F0.38892501615854747
ssI259
(dp269
g9
F0.10063584871540421
sg10
F0.2433417819929642
ssI260
(dp270
g9
F0.5315186747661739
sg10
F0.6960358049436777
ssI261
(dp271
g9
F0.15665472181522544
sg10
F0.6681289587065125
ssI262
(dp272
g9
F0.4465612405784266
sg10
F0.17365358477323523
ssI263
(dp273
g9
F0.286910658657052
sg10
F0.2565352406469388
ssI264
(dp274
g9
F0.9419031403192761
sg10
F0.7001955054412535
ssI265
(dp275
g9
F0.4258602623438972
sg10
F0.7771942774285057
ssI266
(dp276
g9
F0.689268116908036
sg10
F0.06414399383901603
ssI267
(dp277
g9
F0.8766241285590733
sg10
F0.43384391879287587
ssI268
(dp278
g9
F0.7268922198857859
sg10
F0.6875563953836051
ssI269
(dp279
g9
F0.1335225540484951
sg10
F0.06699856220311362
ssI270
(dp280
g9
F0.8128471062716552
sg10
F0.6033876226536051
ssI271
(dp281
g9
F0.08742515891994995
sg10
F0.5106423395837298
ssI272
(dp282
g9
F0.9005475288862209
sg10
F0.4765629964977628
ssI273
(dp283
g9
F0.9096249172443757
sg10
F0.6551091925390848
ssI274
(dp284
g9
F0.9658415207729953
sg10
F0.6550371678877863
ssI275
(dp285
g9
F0.8797011439706187
sg10
F0.6452624212587684
ssI276
(dp286
g9
F0.7037655265196044
sg10
F0.19594388092053494
ssI277
(dp287
g9
F0.7156241451572598
sg10
F0.42274761860222676
ssI278
(dp288
g9
F0.89856797827636
sg10
F0.4861526705062834
ssI279
(dp289
g9
F0.16287236894611168
sg10
F0.9671390934200033
ssI280
(dp290
g9
F0.35094265335640795
sg10
F0.4999499829165083
ssI281
(dp291
g9
F0.699854979478308
sg10
F0.17009314870288428
ssI282
(dp292
g9
F0.8787006679249879
sg10
F0.8322060799738008
ssI283
(dp293
g9
F0.28957954997389723
sg10
F0.8271383808024724
ssI284
(dp294
g9
F0.978819752400975
sg10
F0.24454504789335918
ssI285
(dp295
g9
F0.38738689836296636
sg10
F0.5510745772673682
ssI286
(dp296
g9
F0.5707871962969172
sg10
F0.4137998571944995
ssI287
(dp297
g9
F0.18337405759269942
sg10
F0.9506331562498883
ssI288
(dp298
g9
F0.0016242727066936302
sg10
F0.27034083983678103
ssI289
(dp299
g9
F0.3477735030210687
sg10
F0.3041587941170093
ssI290
(dp300
g9
F0.8044333094203887
sg10
F0.2668629233337694
ssI291
(dp301
g9
F0.7790864884822964
sg10
F0.3472226020148772
ssI292
(dp302
g9
F0.3794802191729484
sg10
F0.39535472671424277
ssI293
(dp303
g9
F0.1750220152221389
sg10
F0.4780277617067923
ssI294
(dp304
g9
F0.02161439653501951
sg10
F0.10821165435787228
ssI295
(dp305
g9
F0.06967369688626146
sg10
F0.1362183161618964
ssI296
(dp306
g9
F0.33020367765108305
sg10
F0.4815741715459593
ssI297
(dp307
g9
F0.010171614747036428
sg10
F0.5974202354986814
ssI298
(dp308
g9
F0.38161755626183014
sg10
F0.6148762394987187
ssI299
(dp309
g9
F0.1253289587719819
sg10
F0.8117274194691588
ssI300
(dp310
g9
F0.46568136123377846
sg10
F0.4541685901891537
ssI301
(dp311
g9
F0.6350141505226278
sg10
F0.45205242821282265
ssI302
(dp312
g9
F0.8931288540975835
sg10
F0.03219854729928917
ssI303
(dp313
g9
F0.044049303312987176
sg10
F0.04987012479088171
ssI304
(dp314
g9
F0.7765566950108295
sg10
F0.8057458353865317
ssI305
(dp315
g9
F0.5777484261331214
sg10
F0.34289835711410255
ssI306
(dp316
g9
F0.9307750706557341
sg10
F0.7352799782045866
ssI307
(dp317
g9
F0.35222696035163825
sg10
F0.5263598399682571
ssI308
(dp318
g9
F0.050335841940936654
sg10
F0.48935446083692236
ssI309
(dp319
g9
F0.5679126295536508
sg10
F0.5375014735742979
ssI310
(dp320
g9
F0.5167297151443028
sg10
F0.272224417892581
ssI311
(dp321
g9
F0.9537782177254552
sg10
F0.20740269800129152
ssI312
(dp322
g9
F0.01839993253121719
sg10
F0.9996235645334134
ssI313
(dp323
g9
F0.5802963095373085
sg10
F0.2263762457010391
ssI314
(dp324
g9
F0.8247902549008163
sg10
F0.8070334656944536
ssI315
(dp325
g9
F0.5980426784530299
sg10
F0.9008511793371097
ssI316
(dp326
g9
F0.6343266656891282
sg10
F0.8432405681920856
ssI317
(dp327
g9
F0.08943802950086299
sg10
F0.6083125121433194
ssI318
(dp328
g9
F0.5551948146733126
sg10
F0.4389352897026969
ssI319
(dp329
g9
F0.07689178193772139
sg10
F0.9767966385022042
ssI320
(dp330
g9
F0.6286097808816984
sg10
F0.8408252212397568
ssI321
(dp331
g9
F0.7383443697227459
sg10
F0.4708683852630724
ssI322
(dp332
g9
F0.7679478401430739
sg10
F0.03144360453780204
ssI323
(dp333
g9
F0.13973159331147822
sg10
F0.8336095737057517
ssI324
(dp334
g9
F0.8636595531661997
sg10
F0.9433918035625852
ssI325
(dp335
g9
F0.37717391907950404
sg10
F0.11467970936288252
ssI326
(dp336
g9
F0.9068675978424557
sg10
F0.0008358074661186654
ssI327
(dp337
g9
F0.7282233778721307
sg10
F0.8552987672277675
ssI328
(dp338
g9
F0.13048429595775612
sg10
F0.3686201110828542
ssI329
(dp339
g9
F0.25636264029711975
sg10
F0.8858511931254736
ssI330
(dp340
g9
F0.6367061276424058
sg10
F0.06868161556246022
ssI331
(dp341
g9
F0.6320981154497055
sg10
F0.5660926840354847
ssI332
(dp342
g9
F0.10618490214826604
sg10
F0.5558061127118865
ssI333
(dp343
g9
F0.3565757310805655
sg10
F0.4268095410722894
ssI334
(dp344
g9
F0.5724525781648685
sg10
F0.44408278894588693
ssI335
(dp345
g9
F0.8974324331445881
sg10
F0.9700810614114604
ssI336
(dp346
g9
F0.7137571699270157
sg10
F0.9748800653247413
ssI337
(dp347
g9
F0.31438081052623734
sg10
F0.09209741919773318
ssI338
(dp348
g9
F0.5458619870863124
sg10
F0.05485795421303741
ssI339
(dp349
g9
F0.42085952931412085
sg10
F0.9563724946446499
ssI340
(dp350
g9
F0.18860156748507562
sg10
F0.062060689003914815
ssI341
(dp351
g9
F0.1077340843851986
sg10
F0.12786725547794742
ssI342
(dp352
g9
F0.07788549162749647
sg10
F0.5202315894650497
ssI343
(dp353
g9
F0.6281241099860269
sg10
F0.27189151137808776
ssI344
(dp354
g9
F0.8840553780362475
sg10
F0.02778689934358758
ssI345
(dp355
g9
F0.35026519807457646
sg10
F0.8614672730225086
ssI346
(dp356
g9
F0.11761386768563464
sg10
F0.7813859562792577
ssI347
(dp357
g9
F0.5254538325185185
sg10
F0.4084615765053702
ssI348
(dp358
g9
F0.026624812020981103
sg10
F0.855946827081724
ssI349
(dp359
g9
F0.4113183202894314
sg10
F0.9206101404865679
ssI350
(dp360
g9
F0.3438728887486485
sg10
F0.8362077597954833
ssI351
(dp361
g9
F0.7712876071262484
sg10
F0.4531156005840724
ssI352
(dp362
g9
F0.09451917272656973
sg10
F0.9545698940612013
ssI353
(dp363
g9
F0.3025957287269406
sg10
F0.17892392272107127
ssI354
(dp364
g9
F0.607703856061117
sg10
F0.9309016033404329
ssI355
(dp365
g9
F0.3545075137451711
sg10
F0.6014371374477849
ssI356
(dp366
g9
F0.4577665222981151
sg10
F0.07734166008990484
ssI357
(dp367
g9
F0.19762564959900253
sg10
F0.352370845406048
ssI358
(dp368
g9
F0.6801143435147903
sg10
F0.5722178867674887
ssI359
(dp369
g9
F0.29986939062941775
sg10
F0.8595500053960513
ssI360
(dp370
g9
F0.5258463395580832
sg10
F0.45938625740132744
ssI361
(dp371
g9
F0.3077812444727418
sg10
F0.046084458607646095
ssI362
(dp372
g9
F0.3650746985446892
sg10
F0.37589508177266884
ssI363
(dp373
g9
F0.4706375085839012
sg10
F0.7656686077808523
ssI364
(dp374
g9
F0.8092975528962176
sg10
F0.7286309742329571
ssI365
(dp375
g9
F0.11490869711043628
sg10
F0.08236993980133167
ssI366
(dp376
g9
F0.06384275352958702
sg10
F0.6205699971182077
ssI367
(dp377
g9
F0.403474996670114
sg10
F0.5474984748554795
ssI368
(dp378
g9
F0.8234691052680273
sg10
F0.42716848134055185
ssI369
(dp379
g9
F0.2582284998959754
sg10
F0.6788636395053286
ssI370
(dp380
g9
F0.8232651759057723
sg10
F0.772303113547778
ssI371
(dp381
g9
F0.27646208589122423
sg10
F0.6056177162285891
ssI372
(dp382
g9
F0.8280647513909289
sg10
F0.7118605579863805
ssI373
(dp383
g9
F0.1413256302486532
sg10
F0.7521491519816618
ssI374
(dp384
g9
F0.544926045222632
sg10
F0.8362704875019523
ssI375
(dp385
g9
F0.11713988698138411
sg10
F0.5864232997257063
ssI376
(dp386
g9
F0.048464223681175866
sg10
F0.6683726548591492
ssI377
(dp387
g9
F0.8547606282600594
sg10
F0.04091759898441527
ssI378
(dp388
g9
F0.9245954093344113
sg10
F0.5535380095819575
ssI379
(dp389
g9
F0.24982615641627837
sg10
F0.06132151373415373
ssI380
(dp390
g9
F0.11255459927179157
sg10
F0.03141694271087614
ssI381
(dp391
g9
F0.9165412865908915
sg10
F0.09008663560593422
ssI382
(dp392
g9
F0.8442922006378962
sg10
F0.01348113014281771
ssI383
(dp393
g9
F0.19404471285394242
sg10
F0.37590889363040936
ssI384
(dp394
g9
F0.6765159821193656
sg10
F0.6210073026514686
ssI385
(dp395
g9
F0.22458882348107334
sg10
F0.9529401678870509
ssI386
(dp396
g9
F0.8367521094886797
sg10
F0.5261097663297409
ssI387
(dp397
g9
F0.6005934416707206
sg10
F0.6355026319680603
ssI388
(dp398
g9
F0.562522136562245
sg10
F0.14976914129572483
ssI389
(dp399
g9
F0.2071762442788091
sg10
F0.26183211935330475
ssI390
(dp400
g9
F0.15102753667696422
sg10
F0.6091527397672489
ssI391
(dp401
g9
F0.10766889737070673
sg10
F0.6831842167406514
ssI392
(dp402
g9
F0.35936531870853816
sg10
F0.3450636766172407
ssI393
(dp403
g9
F0.16058186911271444
sg10
F0.7327421736000574
ssI394
(dp404
g9
F0.0020943674358980813
sg10
F0.9109088990705284
ssI395
(dp405
g9
F0.8738905417709392
sg10
F0.9807273804154792
ssI396
(dp406
g9
F0.3239353862287324
sg10
F0.002512679931174433
ssI397
(dp407
g9
F0.3882718688107646
sg10
F0.7024254975391614
ssI398
(dp408
g9
F0.5949524667143359
sg10
F0.21402254514509866
ssI399
(dp409
g9
F0.8084764249597484
sg10
F0.8499951096006514
sssS'node_dict_factory'
p410
c__builtin__
dict
p411
sS'edge_attr_dict_factory'
p412
g411
sS'edge'
p413
(dp414
I0
(dp415
sI1
(dp416
sI2
(dp417
sI3
(dp418
sI4
(dp419
sI5
(dp420
sI6
(dp421
sI7
(dp422
sI8
(dp423
sI9
(dp424
sI10
(dp425
sI11
(dp426
sI12
(dp427
sI13
(dp428
sI14
(dp429
sI15
(dp430
sI16
(dp431
sI17
(dp432
sI18
(dp433
sI19
(dp434
sI20
(dp435
sI21
(dp436
sI22
(dp437
sI23
(dp438
sI24
(dp439
sI25
(dp440
sI26
(dp441
sI27
(dp442
sI28
(dp443
sI29
(dp444
sI30
(dp445
sI31
(dp446
sI32
(dp447
sI33
(dp448
sI34
(dp449
sI35
(dp450
sI36
(dp451
sI37
(dp452
sI38
(dp453
sI39
(dp454
sI40
(dp455
sI41
(dp456
sI42
(dp457
sI43
(dp458
sI44
(dp459
sI45
(dp460
sI46
(dp461
sI47
(dp462
sI48
(dp463
sI49
(dp464
sI50
(dp465
sI51
(dp466
sI52
(dp467
sI53
(dp468
sI54
(dp469
sI55
(dp470
sI56
(dp471
sI57
(dp472
sI58
(dp473
sI59
(dp474
sI60
(dp475
sI61
(dp476
sI62
(dp477
sI63
(dp478
sI64
(dp479
sI65
(dp480
sI66
(dp481
sI67
(dp482
sI68
(dp483
sI69
(dp484
sI70
(dp485
sI71
(dp486
sI72
(dp487
sI73
(dp488
sI74
(dp489
sI75
(dp490
sI76
(dp491
sI77
(dp492
sI78
(dp493
sI79
(dp494
sI80
(dp495
sI81
(dp496
sI82
(dp497
sI83
(dp498
sI84
(dp499
sI85
(dp500
sI86
(dp501
sI87
(dp502
sI88
(dp503
sI89
(dp504
sI90
(dp505
sI91
(dp506
sI92
(dp507
sI93
(dp508
sI94
(dp509
sI95
(dp510
sI96
(dp511
sI97
(dp512
sI98
(dp513
sI99
(dp514
sI100
(dp515
sI101
(dp516
sI102
(dp517
sI103
(dp518
sI104
(dp519
sI105
(dp520
sI106
(dp521
sI107
(dp522
sI108
(dp523
sI109
(dp524
sI110
(dp525
sI111
(dp526
sI112
(dp527
sI113
(dp528
sI114
(dp529
sI115
(dp530
sI116
(dp531
sI117
(dp532
sI118
(dp533
sI119
(dp534
sI120
(dp535
sI121
(dp536
sI122
(dp537
sI123
(dp538
sI124
(dp539
sI125
(dp540
sI126
(dp541
sI127
(dp542
sI128
(dp543
sI129
(dp544
sI130
(dp545
sI131
(dp546
sI132
(dp547
sI133
(dp548
sI134
(dp549
sI135
(dp550
sI136
(dp551
sI137
(dp552
sI138
(dp553
sI139
(dp554
sI140
(dp555
sI141
(dp556
sI142
(dp557
sI143
(dp558
sI144
(dp559
sI145
(dp560
sI146
(dp561
sI147
(dp562
sI148
(dp563
sI149
(dp564
sI150
(dp565
sI151
(dp566
sI152
(dp567
sI153
(dp568
sI154
(dp569
sI155
(dp570
sI156
(dp571
sI157
(dp572
sI158
(dp573
sI159
(dp574
sI160
(dp575
sI161
(dp576
sI162
(dp577
sI163
(dp578
sI164
(dp579
sI165
(dp580
sI166
(dp581
sI167
(dp582
sI168
(dp583
sI169
(dp584
sI170
(dp585
sI171
(dp586
sI172
(dp587
sI173
(dp588
sI174
(dp589
sI175
(dp590
sI176
(dp591
sI177
(dp592
sI178
(dp593
sI179
(dp594
sI180
(dp595
sI181
(dp596
sI182
(dp597
sI183
(dp598
sI184
(dp599
sI185
(dp600
sI186
(dp601
sI187
(dp602
sI188
(dp603
sI189
(dp604
sI190
(dp605
sI191
(dp606
sI192
(dp607
sI193
(dp608
sI194
(dp609
sI195
(dp610
sI196
(dp611
sI197
(dp612
sI198
(dp613
sI199
(dp614
sI200
(dp615
sI201
(dp616
sI202
(dp617
sI203
(dp618
sI204
(dp619
sI205
(dp620
sI206
(dp621
sI207
(dp622
sI208
(dp623
sI209
(dp624
sI210
(dp625
sI211
(dp626
sI212
(dp627
sI213
(dp628
sI214
(dp629
sI215
(dp630
sI216
(dp631
sI217
(dp632
sI218
(dp633
sI219
(dp634
sI220
(dp635
sI221
(dp636
sI222
(dp637
sI223
(dp638
sI224
(dp639
sI225
(dp640
sI226
(dp641
sI227
(dp642
sI228
(dp643
sI229
(dp644
sI230
(dp645
sI231
(dp646
sI232
(dp647
sI233
(dp648
sI234
(dp649
sI235
(dp650
sI236
(dp651
sI237
(dp652
sI238
(dp653
sI239
(dp654
sI240
(dp655
sI241
(dp656
sI242
(dp657
sI243
(dp658
sI244
(dp659
sI245
(dp660
sI246
(dp661
sI247
(dp662
sI248
(dp663
sI249
(dp664
sI250
(dp665
sI251
(dp666
sI252
(dp667
sI253
(dp668
sI254
(dp669
sI255
(dp670
sI256
(dp671
sI257
(dp672
sI258
(dp673
sI259
(dp674
sI260
(dp675
sI261
(dp676
sI262
(dp677
sI263
(dp678
sI264
(dp679
sI265
(dp680
sI266
(dp681
sI267
(dp682
sI268
(dp683
sI269
(dp684
sI270
(dp685
sI271
(dp686
sI272
(dp687
sI273
(dp688
sI274
(dp689
sI275
(dp690
sI276
(dp691
sI277
(dp692
sI278
(dp693
sI279
(dp694
sI280
(dp695
sI281
(dp696
sI282
(dp697
sI283
(dp698
sI284
(dp699
sI285
(dp700
sI286
(dp701
sI287
(dp702
sI288
(dp703
sI289
(dp704
sI290
(dp705
sI291
(dp706
sI292
(dp707
sI293
(dp708
sI294
(dp709
sI295
(dp710
sI296
(dp711
sI297
(dp712
sI298
(dp713
sI299
(dp714
sI300
(dp715
sI301
(dp716
sI302
(dp717
sI303
(dp718
sI304
(dp719
sI305
(dp720
sI306
(dp721
sI307
(dp722
sI308
(dp723
sI309
(dp724
sI310
(dp725
sI311
(dp726
sI312
(dp727
sI313
(dp728
sI314
(dp729
sI315
(dp730
sI316
(dp731
sI317
(dp732
sI318
(dp733
sI319
(dp734
sI320
(dp735
sI321
(dp736
sI322
(dp737
sI323
(dp738
sI324
(dp739
sI325
(dp740
sI326
(dp741
sI327
(dp742
sI328
(dp743
sI329
(dp744
sI330
(dp745
sI331
(dp746
sI332
(dp747
sI333
(dp748
sI334
(dp749
sI335
(dp750
sI336
(dp751
sI337
(dp752
sI338
(dp753
sI339
(dp754
sI340
(dp755
sI341
(dp756
sI342
(dp757
sI343
(dp758
sI344
(dp759
sI345
(dp760
sI346
(dp761
sI347
(dp762
sI348
(dp763
sI349
(dp764
sI350
(dp765
sI351
(dp766
sI352
(dp767
sI353
(dp768
sI354
(dp769
sI355
(dp770
sI356
(dp771
sI357
(dp772
sI358
(dp773
sI359
(dp774
sI360
(dp775
sI361
(dp776
sI362
(dp777
sI363
(dp778
sI364
(dp779
sI365
(dp780
sI366
(dp781
sI367
(dp782
sI368
(dp783
sI369
(dp784
sI370
(dp785
sI371
(dp786
sI372
(dp787
sI373
(dp788
sI374
(dp789
sI375
(dp790
sI376
(dp791
sI377
(dp792
sI378
(dp793
sI379
(dp794
sI380
(dp795
sI381
(dp796
sI382
(dp797
sI383
(dp798
sI384
(dp799
sI385
(dp800
sI386
(dp801
sI387
(dp802
sI388
(dp803
sI389
(dp804
sI390
(dp805
sI391
(dp806
sI392
(dp807
sI393
(dp808
sI394
(dp809
sI395
(dp810
sI396
(dp811
sI397
(dp812
sI398
(dp813
sI399
(dp814
ssS'graph'
p815
(dp816
sS'adjlist_dict_factory'
p817
g411
sS'adj'
p818
g414
sb.