ccopy_reg
_reconstructor
p0
(cnetworkx.classes.graph
Graph
p1
c__builtin__
object
p2
Ntp3
Rp4
(dp5
S'node'
p6
(dp7
I0
(dp8
S'pos_x'
p9
F0.2888306817074979
sS'pos_y'
p10
F0.3069738558718248
ssI1
(dp11
g9
F0.8651822642956446
sg10
F0.06449682299182735
ssI2
(dp12
g9
F0.9164665702606832
sg10
F0.1472516917230301
ssI3
(dp13
g9
F0.3088084675290319
sg10
F0.65401560233567
ssI4
(dp14
g9
F0.21439091230735952
sg10
F0.6489736620088568
ssI5
(dp15
g9
F0.5776354839488345
sg10
F0.0101430553426749
ssI6
(dp16
g9
F0.5758495365250714
sg10
F0.7838374149986116
ssI7
(dp17
g9
F0.18516592894528383
sg10
F0.7403413240479569
ssI8
(dp18
g9
F0.7313205095050709
sg10
F0.4961369695784774
ssI9
(dp19
g9
F0.1770920901124845
sg10
F0.7970900378959186
ssI10
(dp20
g9
F0.7215592858024813
sg10
F0.33222951298531544
ssI11
(dp21
g9
F0.19951171020908676
sg10
F0.2802920091369969
ssI12
(dp22
g9
F0.13092304216076867
sg10
F0.4685337117280629
ssI13
(dp23
g9
F0.05808339988490219
sg10
F0.37822219676014757
ssI14
(dp24
g9
F0.9320207503753396
sg10
F0.5707376147125613
ssI15
(dp25
g9
F0.5880384411610355
sg10
F0.43570004340936197
ssI16
(dp26
g9
F0.04075949685228264
sg10
F0.9157210480664759
ssI17
(dp27
g9
F0.5017432445954259
sg10
F0.7878333962995594
ssI18
(dp28
g9
F0.2784263708647253
sg10
F0.7673247099655865
ssI19
(dp29
g9
F0.5670675888958101
sg10
F0.586684908384457
ssI20
(dp30
g9
F0.16634045547176068
sg10
F0.5759044469456975
ssI21
(dp31
g9
F0.4732689864545089
sg10
F0.8377574548375966
ssI22
(dp32
g9
F0.0061791954742658195
sg10
F0.9127972825993942
ssI23
(dp33
g9
F0.09791765461694313
sg10
F0.9473570158153276
ssI24
(dp34
g9
F0.6622364270762154
sg10
F0.7136978752585911
ssI25
(dp35
g9
F0.03788486624486609
sg10
F0.94156225644649
ssI26
(dp36
g9
F0.9568442832857291
sg10
F0.35669488529825577
ssI27
(dp37
g9
F0.5088153936191201
sg10
F0.1868165729300486
ssI28
(dp38
g9
F0.9381823112900401
sg10
F0.4494304737372057
ssI29
(dp39
g9
F0.017639266464153258
sg10
F0.5914014978852759
ssI30
(dp40
g9
F0.6281644694488858
sg10
F0.2440957563413111
ssI31
(dp41
g9
F0.45357234936964597
sg10
F0.5468360759970105
ssI32
(dp42
g9
F0.8308037600392029
sg10
F0.05504719627815979
ssI33
(dp43
g9
F0.8022547026401882
sg10
F0.5037727275604428
ssI34
(dp44
g9
F0.7513119318448643
sg10
F0.1388270409241137
ssI35
(dp45
g9
F0.8264585335344318
sg10
F0.5897250776699435
ssI36
(dp46
g9
F0.954297336711989
sg10
F0.5172413602112321
ssI37
(dp47
g9
F0.8789719352930929
sg10
F0.12135662604202824
ssI38
(dp48
g9
F0.6166895228635692
sg10
F0.26256728416458563
ssI39
(dp49
g9
F0.6727769089131208
sg10
F0.8278680121221148
ssI40
(dp50
g9
F0.25119548551159065
sg10
F0.7042312454501196
ssI41
(dp51
g9
F0.4713400167651627
sg10
F0.5748058769094031
ssI42
(dp52
g9
F0.1199706153918233
sg10
F0.22926272210379406
ssI43
(dp53
g9
F0.9402164888558462
sg10
F0.2218406774426661
ssI44
(dp54
g9
F0.7735941497749617
sg10
F0.721286541624415
ssI45
(dp55
g9
F0.06904674645710263
sg10
F0.22128762263315072
ssI46
(dp56
g9
F0.7173063866425385
sg10
F0.7081189176136143
ssI47
(dp57
g9
F0.8517675595387854
sg10
F0.597382805970488
ssI48
(dp58
g9
F0.4702630205342342
sg10
F0.3692459543477469
ssI49
(dp59
g9
F0.14632064422890245
sg10
F0.9913570427096612
ssI50
(dp60
g9
F0.10554751627101067
sg10
F0.9708243477759476
ssI51
(dp61
g9
F0.7943588132885837
sg10
F0.48712525300816945
ssI52
(dp62
g9
F0.5753837399275001
sg10
F0.17911747956367163
ssI53
(dp63
g9
F0.2634301725010866
sg10
F0.8278752283231674
ssI54
(dp64
g9
F0.04635470990863366
sg10
F0.8801199685157115
ssI55
(dp65
g9
F0.8873980120796625
sg10
F0.1598082367835416
ssI56
(dp66
g9
F0.9297960695996839
sg10
F0.07266270389464113
ssI57
(dp67
g9
F0.2883913644790156
sg10
F0.40875851687882614
ssI58
(dp68
g9
F0.3841633845056449
sg10
F0.6230594987652222
ssI59
(dp69
g9
F0.9047788324413671
sg10
F0.16125448694374644
ssI60
(dp70
g9
F0.7434944743851227
sg10
F0.41290551169495027
ssI61
(dp71
g9
F0.4913587684460675
sg10
F0.5292511307531816
ssI62
(dp72
g9
F0.3486402208959507
sg10
F0.6422697160823848
ssI63
(dp73
g9
F0.8289259752193886
sg10
F0.9298138908696544
ssI64
(dp74
g9
F0.5857330697798072
sg10
F0.8317889561228506
ssI65
(dp75
g9
F0.5574875723950659
sg10
F0.3817467151232694
ssI66
(dp76
g9
F0.16067460108955278
sg10
F0.4581629873567721
ssI67
(dp77
g9
F0.46247001396124865
sg10
F0.192412409001955
ssI68
(dp78
g9
F0.5228980046649385
sg10
F0.6610791662011296
ssI69
(dp79
g9
F0.35981223279287555
sg10
F0.8748747328141157
ssI70
(dp80
g9
F0.9910445725949003
sg10
F0.26293689316708657
ssI71
(dp81
g9
F0.08190398545074684
sg10
F0.10263727451065319
ssI72
(dp82
g9
F0.9840428287419014
sg10
F0.37570588955910666
ssI73
(dp83
g9
F0.887503547117312
sg10
F0.8604951604389753
ssI74
(dp84
g9
F0.24186868789727967
sg10
F0.9302493117476598
ssI75
(dp85
g9
F0.19547202968853217
sg10
F0.5514546262339111
ssI76
(dp86
g9
F0.316677900951178
sg10
F0.015461020864616981
ssI77
(dp87
g9
F0.370438996599191
sg10
F0.6346710228225575
ssI78
(dp88
g9
F0.6613147809311474
sg10
F0.1480653803532601
ssI79
(dp89
g9
F0.9403835501750321
sg10
F0.6266573488142521
ssI80
(dp90
g9
F0.2361673055407072
sg10
F0.12375176335847649
ssI81
(dp91
g9
F0.3489672829735403
sg10
F0.34894428177862713
ssI82
(dp92
g9
F0.16410767742911248
sg10
F0.020611559567459414
ssI83
(dp93
g9
F0.6773666426467116
sg10
F0.2717205031548193
ssI84
(dp94
g9
F0.42189641302563774
sg10
F0.2580272001852134
ssI85
(dp95
g9
F0.38100979127647305
sg10
F0.016072393610572666
ssI86
(dp96
g9
F0.9908535026415711
sg10
F0.6346292443322572
ssI87
(dp97
g9
F0.2929924919449258
sg10
F0.28925596198495174
ssI88
(dp98
g9
F0.0641128240644464
sg10
F0.3577054763333303
ssI89
(dp99
g9
F0.28473669999076423
sg10
F0.49140790684102087
ssI90
(dp100
g9
F0.613058561916314
sg10
F0.5462086624343978
ssI91
(dp101
g9
F0.9118746318655432
sg10
F0.12527457471764902
ssI92
(dp102
g9
F0.005227848261536772
sg10
F0.7579311013150648
ssI93
(dp103
g9
F0.038739093339371644
sg10
F0.24334015826205835
ssI94
(dp104
g9
F0.13558849141252338
sg10
F0.2583712404570988
ssI95
(dp105
g9
F0.5592677394513614
sg10
F0.11920574248316829
ssI96
(dp106
g9
F0.9817898521187146
sg10
F0.9286021703609141
ssI97
(dp107
g9
F0.5027663294068857
sg10
F0.8158034682437845
ssI98
(dp108
g9
F0.18172267017247445
sg10
F0.231420379066697
ssI99
(dp109
g9
F0.019025789837834872
sg10
F0.8731580315743446
ssI100
(dp110
g9
F0.10300637907014609
sg10
F0.014151394182194577
ssI101
(dp111
g9
F0.5958693880880457
sg10
F0.13653553348655556
ssI102
(dp112
g9
F0.10223330670177455
sg10
F0.5313839445875609
ssI103
(dp113
g9
F0.9167264932006963
sg10
F0.7966585170536111
ssI104
(dp114
g9
F0.553055241060615
sg10
F0.7796984834524222
ssI105
(dp115
g9
F0.7627712236999552
sg10
F0.948704498674909
ssI106
(dp116
g9
F0.29226025554857527
sg10
F0.0013547903143462658
ssI107
(dp117
g9
F0.15011602018330406
sg10
F0.5561740105694231
ssI108
(dp118
g9
F0.9572601101744599
sg10
F0.08636740577583202
ssI109
(dp119
g9
F0.7792035951477221
sg10
F0.852894451282793
ssI110
(dp120
g9
F0.6102802722737981
sg10
F0.0698060549841103
ssI111
(dp121
g9
F0.45635002852317563
sg10
F0.3349842662188973
ssI112
(dp122
g9
F0.23524661216693332
sg10
F0.7594186342185902
ssI113
(dp123
g9
F0.9335756021471185
sg10
F0.6213719928196774
ssI114
(dp124
g9
F0.2647639003839807
sg10
F0.16910510523333055
ssI115
(dp125
g9
F0.5687202336296452
sg10
F0.6468263540693785
ssI116
(dp126
g9
F0.5721921039975311
sg10
F0.05613399158418264
ssI117
(dp127
g9
F0.07049052659969668
sg10
F0.4158667300674278
ssI118
(dp128
g9
F0.9880786191505649
sg10
F0.7796894626471373
ssI119
(dp129
g9
F0.014948839135851877
sg10
F0.8207250225914476
ssI120
(dp130
g9
F0.43743782553000854
sg10
F0.37028236579926566
ssI121
(dp131
g9
F0.6683466962963472
sg10
F0.19924441691946293
ssI122
(dp132
g9
F0.4187940495733349
sg10
F0.7441137729646651
ssI123
(dp133
g9
F0.06300022013103301
sg10
F0.35397618755919824
ssI124
(dp134
g9
F0.7811247616975207
sg10
F0.37154283980317604
ssI125
(dp135
g9
F0.6711587830154915
sg10
F0.6074648160606501
ssI126
(dp136
g9
F0.9820589900864467
sg10
F0.9871980597039746
ssI127
(dp137
g9
F0.0885191296788671
sg10
F0.7462073731166374
ssI128
(dp138
g9
F0.30598652804396176
sg10
F0.32184408307403045
ssI129
(dp139
g9
F0.24178585350573367
sg10
F0.2601520060013742
ssI130
(dp140
g9
F0.0490477298542098
sg10
F0.010540931335955572
ssI131
(dp141
g9
F0.12554468654470308
sg10
F0.014846984205404423
ssI132
(dp142
g9
F0.1060784462575709
sg10
F0.5307716691682023
ssI133
(dp143
g9
F0.3987883968045758
sg10
F0.07062886735014795
ssI134
(dp144
g9
F0.39821304675185787
sg10
F0.6300826441189916
ssI135
(dp145
g9
F0.21459498732975646
sg10
F0.9512787188686964
ssI136
(dp146
g9
F0.9368818558880561
sg10
F0.7311193326977513
ssI137
(dp147
g9
F0.11536812315380485
sg10
F0.005498360962573723
ssI138
(dp148
g9
F0.11779473834532983
sg10
F0.2752602396727828
ssI139
(dp149
g9
F0.9050357850663047
sg10
F0.97501087285802
ssI140
(dp150
g9
F0.725443802796136
sg10
F0.4010153175817305
ssI141
(dp151
g9
F0.6445134855346082
sg10
F0.7055897158746526
ssI142
(dp152
g9
F0.13741199217454558
sg10
F0.6656107235352098
ssI143
(dp153
g9
F0.7038563265820535
sg10
F0.7470777183339145
ssI144
(dp154
g9
F0.8487862891628163
sg10
F0.04331677347579743
ssI145
(dp155
g9
F0.17297574103695978
sg10
F0.7311010065958831
ssI146
(dp156
g9
F0.3874170980294772
sg10
F0.8299212432169132
ssI147
(dp157
g9
F0.3267366650533552
sg10
F0.2707122214023835
ssI148
(dp158
g9
F0.9237876809305383
sg10
F0.29891857270788735
ssI149
(dp159
g9
F0.5480148901177638
sg10
F0.05759699297956067
ssI150
(dp160
g9
F0.6554086557952862
sg10
F0.3729844259743832
ssI151
(dp161
g9
F0.11966071381407029
sg10
F0.6681131012585148
ssI152
(dp162
g9
F0.023708035940122274
sg10
F0.7011436176770903
ssI153
(dp163
g9
F0.15295625709045246
sg10
F0.8231144120302558
ssI154
(dp164
g9
F0.6892898366146784
sg10
F0.9022306058391234
ssI155
(dp165
g9
F0.7566040615541212
sg10
F0.018543645541354126
ssI156
(dp166
g9
F0.9501387529147701
sg10
F0.5373197032735162
ssI157
(dp167
g9
F0.3567958287659938
sg10
F0.31798897486198074
ssI158
(dp168
g9
F0.6464422242274874
sg10
F0.004960343591928429
ssI159
(dp169
g9
F0.882217475007584
sg10
F0.9596458109898727
ssI160
(dp170
g9
F0.2877601851677424
sg10
F0.349664830120501
ssI161
(dp171
g9
F0.3437953953553209
sg10
F0.35762724886998054
ssI162
(dp172
g9
F0.5743321211939435
sg10
F0.13762289415744955
ssI163
(dp173
g9
F0.2256521598038974
sg10
F0.8262738735279802
ssI164
(dp174
g9
F0.34507911098375943
sg10
F0.11789782156876794
ssI165
(dp175
g9
F0.6130909459080797
sg10
F0.8049688252665831
ssI166
(dp176
g9
F0.09319632730176663
sg10
F0.8392570908551574
ssI167
(dp177
g9
F0.3085910520866658
sg10
F0.931762942209876
ssI168
(dp178
g9
F0.752999989087848
sg10
F0.1031433598169883
ssI169
(dp179
g9
F0.6415854523978931
sg10
F0.18835511184948361
ssI170
(dp180
g9
F0.714479481075963
sg10
F0.9724957792923017
ssI171
(dp181
g9
F0.25478718178927584
sg10
F0.8344665525420469
ssI172
(dp182
g9
F0.882525051516121
sg10
F0.18565674395824927
ssI173
(dp183
g9
F0.31080365240225283
sg10
F0.4163594306714036
ssI174
(dp184
g9
F0.4523886244359223
sg10
F0.5193166002120002
ssI175
(dp185
g9
F0.8210315705444883
sg10
F0.9124119901174139
ssI176
(dp186
g9
F0.6656797571001255
sg10
F0.28983392253347384
ssI177
(dp187
g9
F0.024355519314817276
sg10
F0.869955919217436
ssI178
(dp188
g9
F0.3085786727900376
sg10
F0.6218698410472416
ssI179
(dp189
g9
F0.05969342534508115
sg10
F0.4529387157308994
ssI180
(dp190
g9
F0.14878847120534044
sg10
F0.1138007450641001
ssI181
(dp191
g9
F0.5454582924889899
sg10
F0.8044264931623764
ssI182
(dp192
g9
F0.8180096871676971
sg10
F0.4932244515264873
ssI183
(dp193
g9
F0.803578389512445
sg10
F0.7104614265413297
ssI184
(dp194
g9
F0.18891134682959154
sg10
F0.8690112463517806
ssI185
(dp195
g9
F0.48635368175054516
sg10
F0.16069678928626918
ssI186
(dp196
g9
F0.3642485372719112
sg10
F0.18778142569511613
ssI187
(dp197
g9
F0.3874424156461447
sg10
F0.1408076426758098
ssI188
(dp198
g9
F0.4849067954967975
sg10
F0.6205015407362917
ssI189
(dp199
g9
F0.5791213052797921
sg10
F0.7639047415986185
ssI190
(dp200
g9
F0.2508952374479122
sg10
F0.08928165872104554
ssI191
(dp201
g9
F0.5047574390809012
sg10
F0.7692716117561185
ssI192
(dp202
g9
F0.5646061053346637
sg10
F0.31377174486336723
ssI193
(dp203
g9
F0.7921777297121313
sg10
F0.1877588395711044
ssI194
(dp204
g9
F0.006382170930547715
sg10
F0.11935771377030568
ssI195
(dp205
g9
F0.28909760948284224
sg10
F0.5316548916433348
ssI196
(dp206
g9
F0.4775951377911898
sg10
F0.6955181573585844
ssI197
(dp207
g9
F0.6798392732618819
sg10
F0.023294991921754216
ssI198
(dp208
g9
F0.4261115780885586
sg10
F0.6844539435022766
ssI199
(dp209
g9
F0.2818060442899497
sg10
F0.6338369138567699
ssI200
(dp210
g9
F0.14176688992581354
sg10
F0.8724322775967105
ssI201
(dp211
g9
F0.02801645743931991
sg10
F0.33752515992682464
ssI202
(dp212
g9
F0.16405920501014204
sg10
F0.581807430676863
ssI203
(dp213
g9
F0.4094807882677999
sg10
F0.8707037698270127
ssI204
(dp214
g9
F0.18934282171868677
sg10
F0.7624134660529607
ssI205
(dp215
g9
F0.7645749252043142
sg10
F0.7231132833110591
ssI206
(dp216
g9
F0.1358335121760621
sg10
F0.06596840850432828
ssI207
(dp217
g9
F0.11830676705016796
sg10
F0.3940687323187514
ssI208
(dp218
g9
F0.3994165872039068
sg10
F0.06225198880355054
ssI209
(dp219
g9
F0.519318071018736
sg10
F0.558832442857832
ssI210
(dp220
g9
F0.40542696360413677
sg10
F0.4402334938272461
ssI211
(dp221
g9
F0.008412133706488412
sg10
F0.8897814426257319
ssI212
(dp222
g9
F0.3920458322826522
sg10
F0.08682929884624968
ssI213
(dp223
g9
F0.0029713912944434595
sg10
F0.27145721335996276
ssI214
(dp224
g9
F0.48172891517185445
sg10
F0.46096597898736713
ssI215
(dp225
g9
F0.5211277380311339
sg10
F0.31044142297446187
ssI216
(dp226
g9
F0.7381633196158254
sg10
F0.38580494566589874
ssI217
(dp227
g9
F0.23220277812455314
sg10
F0.31713077984726856
ssI218
(dp228
g9
F0.07385629486698542
sg10
F0.45064786298758785
ssI219
(dp229
g9
F0.4286997396135186
sg10
F0.11557040908070926
ssI220
(dp230
g9
F0.8195333601212241
sg10
F0.7459788207500131
ssI221
(dp231
g9
F0.5962944239546313
sg10
F0.48966996805705276
ssI222
(dp232
g9
F0.7195219670005888
sg10
F0.7447567805727783
ssI223
(dp233
g9
F0.8482456107136089
sg10
F0.17385002849996056
ssI224
(dp234
g9
F0.9268135234576355
sg10
F0.018147759437966093
ssI225
(dp235
g9
F0.8135983605108961
sg10
F0.07981572215081134
ssI226
(dp236
g9
F0.486712836277136
sg10
F0.5890644892227118
ssI227
(dp237
g9
F0.3927897746552562
sg10
F0.2702523109245665
ssI228
(dp238
g9
F0.9034962249767631
sg10
F0.5634903643261043
ssI229
(dp239
g9
F0.3237853625963969
sg10
F0.2610377822922464
ssI230
(dp240
g9
F0.4560287165560577
sg10
F0.922003901152877
ssI231
(dp241
g9
F0.6379153635258603
sg10
F0.8048752931402381
ssI232
(dp242
g9
F0.11005545468419786
sg10
F0.39578661137673976
ssI233
(dp243
g9
F0.31822214352386724
sg10
F0.8922910950735794
ssI234
(dp244
g9
F0.9475281399745584
sg10
F0.4623450665520532
ssI235
(dp245
g9
F0.7428238047243857
sg10
F0.021994913209327227
ssI236
(dp246
g9
F0.6031233298283015
sg10
F0.6274587966109152
ssI237
(dp247
g9
F0.6355785580812365
sg10
F0.9010767241712954
ssI238
(dp248
g9
F0.800459321939481
sg10
F0.7714903830544213
ssI239
(dp249
g9
F0.6165888004371332
sg10
F0.5580359833095567
ssI240
(dp250
g9
F0.47960728204694125
sg10
F0.1585812191422018
ssI241
(dp251
g9
F0.08458704177377985
sg10
F0.8419965187459932
ssI242
(dp252
g9
F0.5321029346162338
sg10
F0.037323351473506294
ssI243
(dp253
g9
F0.20816831147767278
sg10
F0.2633053894185816
ssI244
(dp254
g9
F0.8274214672215151
sg10
F0.15599780283603115
ssI245
(dp255
g9
F0.14145423052809714
sg10
F0.20079695827210697
ssI246
(dp256
g9
F0.8288836255059904
sg10
F0.183727007929827
ssI247
(dp257
g9
F0.39361247279337885
sg10
F0.024408723747606498
ssI248
(dp258
g9
F0.15463694983525256
sg10
F0.6434124030065067
ssI249
(dp259
g9
F0.12372954074546727
sg10
F0.6999872271923493
ssI250
(dp260
g9
F0.13545051941347552
sg10
F0.9716752510037584
ssI251
(dp261
g9
F0.23754103863604936
sg10
F0.8561567345571094
ssI252
(dp262
g9
F0.7192857707846043
sg10
F0.9760409254105954
ssI253
(dp263
g9
F0.039753112969939886
sg10
F0.30805070788996114
ssI254
(dp264
g9
F0.5284878041274207
sg10
F0.46478322669075567
ssI255
(dp265
g9
F0.3568278084417791
sg10
F0.9739200116697448
ssI256
(dp266
g9
F0.0004532931493093084
sg10
F0.29392725364551664
ssI257
(dp267
g9
F0.4958082021731487
sg10
F0.4320776502614587
ssI258
(dp268
g9
F0.638777495633937
sg10
F0.5074436065329366
ssI259
(dp269
g9
F0.010358368192621703
sg10
F0.988134789603489
ssI260
(dp270
g9
F0.3698913894985779
sg10
F0.30480513522853037
ssI261
(dp271
g9
F0.39484501190277965
sg10
F0.08868410845145125
ssI262
(dp272
g9
F0.6466603989583599
sg10
F0.9667726415775936
ssI263
(dp273
g9
F0.4477190101616749
sg10
F0.007740591953965925
ssI264
(dp274
g9
F0.9011951180639415
sg10
F0.10610900899904585
ssI265
(dp275
g9
F0.5925664942475102
sg10
F0.5340135883697772
ssI266
(dp276
g9
F0.28916943712390863
sg10
F0.5088548761309023
ssI267
(dp277
g9
F0.11465681495396474
sg10
F0.07020441550380285
ssI268
(dp278
g9
F0.3487381121331117
sg10
F0.45140080603669663
ssI269
(dp279
g9
F0.39734617900934355
sg10
F0.4473488557838494
ssI270
(dp280
g9
F0.3943902205318369
sg10
F0.001992499403225101
ssI271
(dp281
g9
F0.4199152062959526
sg10
F0.17807478905469343
ssI272
(dp282
g9
F0.11900941858844916
sg10
F0.33083179438157306
ssI273
(dp283
g9
F0.9338980382930602
sg10
F0.017743898706993222
ssI274
(dp284
g9
F0.3188695374590085
sg10
F0.8251561126348324
ssI275
(dp285
g9
F0.09287719515249127
sg10
F0.06856972310013865
ssI276
(dp286
g9
F0.2643422808242408
sg10
F0.3175182093305323
ssI277
(dp287
g9
F0.5046205584030021
sg10
F0.51236048304587
ssI278
(dp288
g9
F0.11864795846033738
sg10
F0.5783316560848367
ssI279
(dp289
g9
F0.010343111519850567
sg10
F0.9014548161405916
ssI280
(dp290
g9
F0.5861596329815192
sg10
F0.449777122506538
ssI281
(dp291
g9
F0.8694015032737941
sg10
F0.6320236616150239
ssI282
(dp292
g9
F0.584065952212717
sg10
F0.22034560444479734
ssI283
(dp293
g9
F0.11322304854319243
sg10
F0.6626942133833701
ssI284
(dp294
g9
F0.20883661294804767
sg10
F0.4155963629691105
ssI285
(dp295
g9
F0.43411076638491297
sg10
F0.8389920063620886
ssI286
(dp296
g9
F0.1902142452471023
sg10
F0.013442764891165915
ssI287
(dp297
g9
F0.6292354278520597
sg10
F0.18967486959456004
ssI288
(dp298
g9
F0.45885392835867367
sg10
F0.1289331361323598
ssI289
(dp299
g9
F0.19360964603802744
sg10
F0.33783668845795733
ssI290
(dp300
g9
F0.4017616171034587
sg10
F0.7493553642905699
ssI291
(dp301
g9
F0.935856465571038
sg10
F0.2226938594875656
ssI292
(dp302
g9
F0.7060080478552101
sg10
F0.798126236899059
ssI293
(dp303
g9
F0.40639045878439883
sg10
F0.9286737605881047
ssI294
(dp304
g9
F0.6349493186933409
sg10
F0.2530859526430691
ssI295
(dp305
g9
F0.7246402327891062
sg10
F0.8278172842812035
ssI296
(dp306
g9
F0.6336686407645812
sg10
F0.09860200618810988
ssI297
(dp307
g9
F0.5843690594477016
sg10
F0.4720315499484018
ssI298
(dp308
g9
F0.13265482849002486
sg10
F0.436970876012179
ssI299
(dp309
g9
F0.4492067160836759
sg10
F0.9530914085497065
ssI300
(dp310
g9
F0.2492642146829156
sg10
F0.3518094278113967
ssI301
(dp311
g9
F0.5324462913390143
sg10
F0.765543544153431
ssI302
(dp312
g9
F0.7855698713175948
sg10
F0.5485595179598781
ssI303
(dp313
g9
F0.9856015777161006
sg10
F0.7225632904882827
ssI304
(dp314
g9
F0.5730927980576509
sg10
F0.5183341136156973
ssI305
(dp315
g9
F0.7082325669094904
sg10
F0.2548693431127388
ssI306
(dp316
g9
F0.49046331902618023
sg10
F0.5016036883810092
ssI307
(dp317
g9
F0.7106295946213772
sg10
F0.9264996543558907
ssI308
(dp318
g9
F0.19956680917860625
sg10
F0.7528567884300539
ssI309
(dp319
g9
F0.7363900023063077
sg10
F0.26105028520637463
ssI310
(dp320
g9
F0.26551380634350075
sg10
F0.5726402771573482
ssI311
(dp321
g9
F0.7824267582071547
sg10
F0.5954693367295393
ssI312
(dp322
g9
F0.709558949000196
sg10
F0.16036378523232264
ssI313
(dp323
g9
F0.9523813649007608
sg10
F0.5363546569324529
ssI314
(dp324
g9
F0.24718662027007177
sg10
F0.19937587635434018
ssI315
(dp325
g9
F0.5549216003531983
sg10
F0.9633124007155295
ssI316
(dp326
g9
F0.6829499911723906
sg10
F0.622336284147217
ssI317
(dp327
g9
F0.6846249240294918
sg10
F0.7528462643523497
ssI318
(dp328
g9
F0.21405825630927922
sg10
F0.8287761050305443
ssI319
(dp329
g9
F0.28182702442192176
sg10
F0.5707048750082209
ssI320
(dp330
g9
F0.7151801986893569
sg10
F0.8679204586077855
ssI321
(dp331
g9
F0.9817127033716416
sg10
F0.2585558770714397
ssI322
(dp332
g9
F0.39188828249038976
sg10
F0.2859142848487064
ssI323
(dp333
g9
F0.10953692509678659
sg10
F0.9956342556577039
ssI324
(dp334
g9
F0.7956843463992709
sg10
F0.6701854339865639
ssI325
(dp335
g9
F0.06962006236674734
sg10
F0.1885704251628989
ssI326
(dp336
g9
F0.7030206398722348
sg10
F0.6210355772705565
ssI327
(dp337
g9
F0.5418447814248999
sg10
F0.9586902676995479
ssI328
(dp338
g9
F0.871125928328045
sg10
F0.8903007316227666
ssI329
(dp339
g9
F0.4866796419066698
sg10
F0.3654802601678737
ssI330
(dp340
g9
F0.6668949294450399
sg10
F0.9154867777498411
ssI331
(dp341
g9
F0.31791850232864716
sg10
F0.7526907793718041
ssI332
(dp342
g9
F0.9045640969491784
sg10
F0.03472559148725396
ssI333
(dp343
g9
F0.9861329632472212
sg10
F0.9450307424308863
ssI334
(dp344
g9
F0.25564342936863726
sg10
F0.6410121015584724
ssI335
(dp345
g9
F0.014503085086343459
sg10
F0.14589130076150092
ssI336
(dp346
g9
F0.5080076862340821
sg10
F0.436180768675137
ssI337
(dp347
g9
F0.8937877367779711
sg10
F0.22703860885647187
ssI338
(dp348
g9
F0.7284682693273922
sg10
F0.8878978883597639
ssI339
(dp349
g9
F0.8952750742644658
sg10
F0.6031565927727381
ssI340
(dp350
g9
F0.5513039638911382
sg10
F0.13734593048820487
ssI341
(dp351
g9
F0.15451451943955796
sg10
F0.24429515919280542
ssI342
(dp352
g9
F0.6396445662010533
sg10
F0.5533050178450031
ssI343
(dp353
g9
F0.7422211368322432
sg10
F0.210250076531598
ssI344
(dp354
g9
F0.048014507871415146
sg10
F0.35051337225068024
ssI345
(dp355
g9
F0.7181602483068784
sg10
F0.8918839053174337
ssI346
(dp356
g9
F0.3539822102414927
sg10
F0.9770712304612245
ssI347
(dp357
g9
F0.784651402208333
sg10
F0.3316527529232576
ssI348
(dp358
g9
F0.3757824161350286
sg10
F0.25993782436424173
ssI349
(dp359
g9
F0.5142677344805014
sg10
F0.972306913296096
ssI350
(dp360
g9
F0.9368600947501318
sg10
F0.9736147327757251
ssI351
(dp361
g9
F0.9759745946971206
sg10
F0.8997375289205881
ssI352
(dp362
g9
F0.8004558029673065
sg10
F0.9131848319293866
ssI353
(dp363
g9
F0.2375848483403129
sg10
F0.5066814666937516
ssI354
(dp364
g9
F0.08967421384650376
sg10
F0.44428614907140707
ssI355
(dp365
g9
F0.014912447680344831
sg10
F0.6470018758499857
ssI356
(dp366
g9
F0.951406844585848
sg10
F0.38043655815129784
ssI357
(dp367
g9
F0.36638914589783145
sg10
F0.7145604228921323
ssI358
(dp368
g9
F0.15985812240687847
sg10
F0.8952784198159476
ssI359
(dp369
g9
F0.8262221928883462
sg10
F0.4025548028693474
ssI360
(dp370
g9
F0.04022994525821444
sg10
F0.774363629395403
ssI361
(dp371
g9
F0.19147261464148324
sg10
F0.7373566459614702
ssI362
(dp372
g9
F0.8901723173074061
sg10
F0.8542178719165135
ssI363
(dp373
g9
F0.5723894273305921
sg10
F0.05319031226739679
ssI364
(dp374
g9
F0.35219775079529414
sg10
F0.09831176029468602
ssI365
(dp375
g9
F0.20110045885231864
sg10
F0.30485657356470663
ssI366
(dp376
g9
F0.6883495227621632
sg10
F0.19390040818039134
ssI367
(dp377
g9
F0.2971038817986933
sg10
F0.19136991921872015
ssI368
(dp378
g9
F0.9433047284973417
sg10
F0.08593917152785713
ssI369
(dp379
g9
F0.17147648300862994
sg10
F0.6849131622270812
ssI370
(dp380
g9
F0.9669621822388689
sg10
F0.2686303971179905
ssI371
(dp381
g9
F0.3383447330966495
sg10
F0.25470548806010873
ssI372
(dp382
g9
F0.8745540056015058
sg10
F0.9766975748406377
ssI373
(dp383
g9
F0.012840783810671996
sg10
F0.6219681536198338
ssI374
(dp384
g9
F0.4070636288212527
sg10
F0.7241651845213906
ssI375
(dp385
g9
F0.08366045556767887
sg10
F0.7498624132911749
ssI376
(dp386
g9
F0.3688639216473477
sg10
F0.3531846994589435
ssI377
(dp387
g9
F0.9832835773323911
sg10
F0.8857775275521986
ssI378
(dp388
g9
F0.05934521505849699
sg10
F0.31005103917642174
ssI379
(dp389
g9
F0.5829772878328309
sg10
F0.11102945718219959
ssI380
(dp390
g9
F0.5480505476160958
sg10
F0.328788856456116
ssI381
(dp391
g9
F0.8348959800705246
sg10
F0.5757109965497533
ssI382
(dp392
g9
F0.4744681477380067
sg10
F0.6981543271149803
ssI383
(dp393
g9
F0.822456998196526
sg10
F0.015748336462887313
ssI384
(dp394
g9
F0.6942285079655367
sg10
F0.0662422602355055
ssI385
(dp395
g9
F0.1586888097429736
sg10
F0.32407235532643974
ssI386
(dp396
g9
F0.4953698289234023
sg10
F0.45993066318170417
ssI387
(dp397
g9
F0.35139509802923796
sg10
F0.7052984052795609
ssI388
(dp398
g9
F0.4130902945191238
sg10
F0.17798740679628322
ssI389
(dp399
g9
F0.844289068331616
sg10
F0.4052406929347061
ssI390
(dp400
g9
F0.04757581476572881
sg10
F0.6342078631566683
ssI391
(dp401
g9
F0.08100178266952063
sg10
F0.0876718099371675
ssI392
(dp402
g9
F0.8529943727098763
sg10
F0.7560706491234153
ssI393
(dp403
g9
F0.34553307407094447
sg10
F0.6395174266937813
ssI394
(dp404
g9
F0.9285515321143271
sg10
F0.7747036814609662
ssI395
(dp405
g9
F0.07582410547994267
sg10
F0.8197379743339283
ssI396
(dp406
g9
F0.017868497882123302
sg10
F0.9894392577390492
ssI397
(dp407
g9
F0.7285629617108978
sg10
F0.05955782748855176
ssI398
(dp408
g9
F0.23674395333140508
sg10
F0.10646518563824037
ssI399
(dp409
g9
F0.1290726542942
sg10
F0.24723580212606833
sssS'node_dict_factory'
p410
c__builtin__
dict
p411
sS'edge_attr_dict_factory'
p412
g411
sS'edge'
p413
(dp414
I0
(dp415
sI1
(dp416
sI2
(dp417
sI3
(dp418
sI4
(dp419
sI5
(dp420
sI6
(dp421
sI7
(dp422
sI8
(dp423
sI9
(dp424
sI10
(dp425
sI11
(dp426
sI12
(dp427
sI13
(dp428
sI14
(dp429
sI15
(dp430
sI16
(dp431
sI17
(dp432
sI18
(dp433
sI19
(dp434
sI20
(dp435
sI21
(dp436
sI22
(dp437
sI23
(dp438
sI24
(dp439
sI25
(dp440
sI26
(dp441
sI27
(dp442
sI28
(dp443
sI29
(dp444
sI30
(dp445
sI31
(dp446
sI32
(dp447
sI33
(dp448
sI34
(dp449
sI35
(dp450
sI36
(dp451
sI37
(dp452
sI38
(dp453
sI39
(dp454
sI40
(dp455
sI41
(dp456
sI42
(dp457
sI43
(dp458
sI44
(dp459
sI45
(dp460
sI46
(dp461
sI47
(dp462
sI48
(dp463
sI49
(dp464
sI50
(dp465
sI51
(dp466
sI52
(dp467
sI53
(dp468
sI54
(dp469
sI55
(dp470
sI56
(dp471
sI57
(dp472
sI58
(dp473
sI59
(dp474
sI60
(dp475
sI61
(dp476
sI62
(dp477
sI63
(dp478
sI64
(dp479
sI65
(dp480
sI66
(dp481
sI67
(dp482
sI68
(dp483
sI69
(dp484
sI70
(dp485
sI71
(dp486
sI72
(dp487
sI73
(dp488
sI74
(dp489
sI75
(dp490
sI76
(dp491
sI77
(dp492
sI78
(dp493
sI79
(dp494
sI80
(dp495
sI81
(dp496
sI82
(dp497
sI83
(dp498
sI84
(dp499
sI85
(dp500
sI86
(dp501
sI87
(dp502
sI88
(dp503
sI89
(dp504
sI90
(dp505
sI91
(dp506
sI92
(dp507
sI93
(dp508
sI94
(dp509
sI95
(dp510
sI96
(dp511
sI97
(dp512
sI98
(dp513
sI99
(dp514
sI100
(dp515
sI101
(dp516
sI102
(dp517
sI103
(dp518
sI104
(dp519
sI105
(dp520
sI106
(dp521
sI107
(dp522
sI108
(dp523
sI109
(dp524
sI110
(dp525
sI111
(dp526
sI112
(dp527
sI113
(dp528
sI114
(dp529
sI115
(dp530
sI116
(dp531
sI117
(dp532
sI118
(dp533
sI119
(dp534
sI120
(dp535
sI121
(dp536
sI122
(dp537
sI123
(dp538
sI124
(dp539
sI125
(dp540
sI126
(dp541
sI127
(dp542
sI128
(dp543
sI129
(dp544
sI130
(dp545
sI131
(dp546
sI132
(dp547
sI133
(dp548
sI134
(dp549
sI135
(dp550
sI136
(dp551
sI137
(dp552
sI138
(dp553
sI139
(dp554
sI140
(dp555
sI141
(dp556
sI142
(dp557
sI143
(dp558
sI144
(dp559
sI145
(dp560
sI146
(dp561
sI147
(dp562
sI148
(dp563
sI149
(dp564
sI150
(dp565
sI151
(dp566
sI152
(dp567
sI153
(dp568
sI154
(dp569
sI155
(dp570
sI156
(dp571
sI157
(dp572
sI158
(dp573
sI159
(dp574
sI160
(dp575
sI161
(dp576
sI162
(dp577
sI163
(dp578
sI164
(dp579
sI165
(dp580
sI166
(dp581
sI167
(dp582
sI168
(dp583
sI169
(dp584
sI170
(dp585
sI171
(dp586
sI172
(dp587
sI173
(dp588
sI174
(dp589
sI175
(dp590
sI176
(dp591
sI177
(dp592
sI178
(dp593
sI179
(dp594
sI180
(dp595
sI181
(dp596
sI182
(dp597
sI183
(dp598
sI184
(dp599
sI185
(dp600
sI186
(dp601
sI187
(dp602
sI188
(dp603
sI189
(dp604
sI190
(dp605
sI191
(dp606
sI192
(dp607
sI193
(dp608
sI194
(dp609
sI195
(dp610
sI196
(dp611
sI197
(dp612
sI198
(dp613
sI199
(dp614
sI200
(dp615
sI201
(dp616
sI202
(dp617
sI203
(dp618
sI204
(dp619
sI205
(dp620
sI206
(dp621
sI207
(dp622
sI208
(dp623
sI209
(dp624
sI210
(dp625
sI211
(dp626
sI212
(dp627
sI213
(dp628
sI214
(dp629
sI215
(dp630
sI216
(dp631
sI217
(dp632
sI218
(dp633
sI219
(dp634
sI220
(dp635
sI221
(dp636
sI222
(dp637
sI223
(dp638
sI224
(dp639
sI225
(dp640
sI226
(dp641
sI227
(dp642
sI228
(dp643
sI229
(dp644
sI230
(dp645
sI231
(dp646
sI232
(dp647
sI233
(dp648
sI234
(dp649
sI235
(dp650
sI236
(dp651
sI237
(dp652
sI238
(dp653
sI239
(dp654
sI240
(dp655
sI241
(dp656
sI242
(dp657
sI243
(dp658
sI244
(dp659
sI245
(dp660
sI246
(dp661
sI247
(dp662
sI248
(dp663
sI249
(dp664
sI250
(dp665
sI251
(dp666
sI252
(dp667
sI253
(dp668
sI254
(dp669
sI255
(dp670
sI256
(dp671
sI257
(dp672
sI258
(dp673
sI259
(dp674
sI260
(dp675
sI261
(dp676
sI262
(dp677
sI263
(dp678
sI264
(dp679
sI265
(dp680
sI266
(dp681
sI267
(dp682
sI268
(dp683
sI269
(dp684
sI270
(dp685
sI271
(dp686
sI272
(dp687
sI273
(dp688
sI274
(dp689
sI275
(dp690
sI276
(dp691
sI277
(dp692
sI278
(dp693
sI279
(dp694
sI280
(dp695
sI281
(dp696
sI282
(dp697
sI283
(dp698
sI284
(dp699
sI285
(dp700
sI286
(dp701
sI287
(dp702
sI288
(dp703
sI289
(dp704
sI290
(dp705
sI291
(dp706
sI292
(dp707
sI293
(dp708
sI294
(dp709
sI295
(dp710
sI296
(dp711
sI297
(dp712
sI298
(dp713
sI299
(dp714
sI300
(dp715
sI301
(dp716
sI302
(dp717
sI303
(dp718
sI304
(dp719
sI305
(dp720
sI306
(dp721
sI307
(dp722
sI308
(dp723
sI309
(dp724
sI310
(dp725
sI311
(dp726
sI312
(dp727
sI313
(dp728
sI314
(dp729
sI315
(dp730
sI316
(dp731
sI317
(dp732
sI318
(dp733
sI319
(dp734
sI320
(dp735
sI321
(dp736
sI322
(dp737
sI323
(dp738
sI324
(dp739
sI325
(dp740
sI326
(dp741
sI327
(dp742
sI328
(dp743
sI329
(dp744
sI330
(dp745
sI331
(dp746
sI332
(dp747
sI333
(dp748
sI334
(dp749
sI335
(dp750
sI336
(dp751
sI337
(dp752
sI338
(dp753
sI339
(dp754
sI340
(dp755
sI341
(dp756
sI342
(dp757
sI343
(dp758
sI344
(dp759
sI345
(dp760
sI346
(dp761
sI347
(dp762
sI348
(dp763
sI349
(dp764
sI350
(dp765
sI351
(dp766
sI352
(dp767
sI353
(dp768
sI354
(dp769
sI355
(dp770
sI356
(dp771
sI357
(dp772
sI358
(dp773
sI359
(dp774
sI360
(dp775
sI361
(dp776
sI362
(dp777
sI363
(dp778
sI364
(dp779
sI365
(dp780
sI366
(dp781
sI367
(dp782
sI368
(dp783
sI369
(dp784
sI370
(dp785
sI371
(dp786
sI372
(dp787
sI373
(dp788
sI374
(dp789
sI375
(dp790
sI376
(dp791
sI377
(dp792
sI378
(dp793
sI379
(dp794
sI380
(dp795
sI381
(dp796
sI382
(dp797
sI383
(dp798
sI384
(dp799
sI385
(dp800
sI386
(dp801
sI387
(dp802
sI388
(dp803
sI389
(dp804
sI390
(dp805
sI391
(dp806
sI392
(dp807
sI393
(dp808
sI394
(dp809
sI395
(dp810
sI396
(dp811
sI397
(dp812
sI398
(dp813
sI399
(dp814
ssS'graph'
p815
(dp816
sS'adjlist_dict_factory'
p817
g411
sS'adj'
p818
g414
sb.