ccopy_reg
_reconstructor
p0
(cnetworkx.classes.graph
Graph
p1
c__builtin__
object
p2
Ntp3
Rp4
(dp5
S'node'
p6
(dp7
I0
(dp8
S'pos_x'
p9
F0.9772501214839965
sS'pos_y'
p10
F0.034059488506751556
ssI1
(dp11
g9
F0.8334676333600414
sg10
F0.08161007742054438
ssI2
(dp12
g9
F0.017431303573614554
sg10
F0.15150338007753894
ssI3
(dp13
g9
F0.25293903017189445
sg10
F0.1656137665494094
ssI4
(dp14
g9
F0.4647147485543972
sg10
F0.3458788426355094
ssI5
(dp15
g9
F0.2448646439752732
sg10
F0.5154513541495477
ssI6
(dp16
g9
F0.11738341068676217
sg10
F0.4214870503093515
ssI7
(dp17
g9
F0.32870327861101833
sg10
F0.2569618275659885
ssI8
(dp18
g9
F0.9043481788648224
sg10
F0.21051239088789753
ssI9
(dp19
g9
F0.6578021719708405
sg10
F0.8844599742662937
ssI10
(dp20
g9
F0.8969972715138087
sg10
F0.5906736385476035
ssI11
(dp21
g9
F0.9710976217468197
sg10
F0.6082513663049299
ssI12
(dp22
g9
F0.3963336019615308
sg10
F0.9230129480789875
ssI13
(dp23
g9
F0.583321342926733
sg10
F0.8923954559932625
ssI14
(dp24
g9
F0.3217918374157487
sg10
F0.988360384741995
ssI15
(dp25
g9
F0.6021085790047591
sg10
F0.30293193708775634
ssI16
(dp26
g9
F0.8515514841479708
sg10
F0.7404166216750103
ssI17
(dp27
g9
F0.8898393300387373
sg10
F0.8675362867355156
ssI18
(dp28
g9
F0.15705629179728997
sg10
F0.7144299458543367
ssI19
(dp29
g9
F0.1136494525374766
sg10
F0.8189595123036174
ssI20
(dp30
g9
F0.022952082370460425
sg10
F0.0297866161541247
ssI21
(dp31
g9
F0.49012061613794433
sg10
F0.793054734378816
ssI22
(dp32
g9
F0.689538106587846
sg10
F0.9598424594743468
ssI23
(dp33
g9
F0.8582865261691895
sg10
F0.7010195792259893
ssI24
(dp34
g9
F0.15375458437555056
sg10
F0.05768262196183338
ssI25
(dp35
g9
F0.17265722030363828
sg10
F0.17318921882796623
ssI26
(dp36
g9
F0.1460106278025236
sg10
F0.42212869223853366
ssI27
(dp37
g9
F0.731237021200738
sg10
F0.1970133609212753
ssI28
(dp38
g9
F0.15233446963021047
sg10
F0.2922664077003484
ssI29
(dp39
g9
F0.3071436476000947
sg10
F0.49445782285019435
ssI30
(dp40
g9
F0.87929507746953
sg10
F0.473387268138044
ssI31
(dp41
g9
F0.2583198571079114
sg10
F0.5435684916252059
ssI32
(dp42
g9
F0.3851488600789673
sg10
F0.5437179335527942
ssI33
(dp43
g9
F0.008180704179277853
sg10
F0.7899754364972962
ssI34
(dp44
g9
F0.36819322134539556
sg10
F0.5921954912527769
ssI35
(dp45
g9
F0.22236246023216522
sg10
F0.8787659120992423
ssI36
(dp46
g9
F0.1829484589132493
sg10
F0.8681101284181804
ssI37
(dp47
g9
F0.7610733452285697
sg10
F0.03677114966221107
ssI38
(dp48
g9
F0.8191978164943869
sg10
F0.3915007617854678
ssI39
(dp49
g9
F0.22862034688867205
sg10
F0.8778710607379671
ssI40
(dp50
g9
F0.763599614740149
sg10
F0.5091025440992897
ssI41
(dp51
g9
F0.6293284260322483
sg10
F0.9671437510111663
ssI42
(dp52
g9
F0.22051794372657418
sg10
F0.5374798177595812
ssI43
(dp53
g9
F0.20914625359398087
sg10
F0.1712611292310785
ssI44
(dp54
g9
F0.8435378443777771
sg10
F0.33534120119629385
ssI45
(dp55
g9
F0.5985285087576732
sg10
F0.26854847800431314
ssI46
(dp56
g9
F0.22834568595669513
sg10
F0.40248177369621363
ssI47
(dp57
g9
F0.8030760865801004
sg10
F0.6141106011170926
ssI48
(dp58
g9
F0.1832904446980872
sg10
F0.47002271055397515
ssI49
(dp59
g9
F0.07791722998617523
sg10
F0.08795300627648739
ssI50
(dp60
g9
F0.8030030632131643
sg10
F0.4974708311940178
ssI51
(dp61
g9
F0.694209401577223
sg10
F0.9753350475187583
ssI52
(dp62
g9
F0.2172011450376311
sg10
F0.14136992711002205
ssI53
(dp63
g9
F0.4732831840305365
sg10
F0.7185819015192931
ssI54
(dp64
g9
F0.28812334176163057
sg10
F0.5599662104443203
ssI55
(dp65
g9
F0.8705856341007687
sg10
F0.4878434061268122
ssI56
(dp66
g9
F0.9859860979871513
sg10
F0.8048388533450088
ssI57
(dp67
g9
F0.26061513404754877
sg10
F0.04951892163066973
ssI58
(dp68
g9
F0.683559814332388
sg10
F0.026217307409223567
ssI59
(dp69
g9
F0.26401829328545157
sg10
F0.7977953959924484
ssI60
(dp70
g9
F0.10473754838650728
sg10
F0.660733914301706
ssI61
(dp71
g9
F0.6651212742415593
sg10
F0.4291705066459972
ssI62
(dp72
g9
F0.9586931755247577
sg10
F0.45770028402190555
ssI63
(dp73
g9
F0.5115755646250917
sg10
F0.7672431273316056
ssI64
(dp74
g9
F0.7863356426855816
sg10
F0.5864559160811097
ssI65
(dp75
g9
F0.09198014468326032
sg10
F0.7117146588256491
ssI66
(dp76
g9
F0.32952261745839284
sg10
F0.547608195100278
ssI67
(dp77
g9
F0.636307492913298
sg10
F0.011607801042972432
ssI68
(dp78
g9
F0.5786115082382665
sg10
F0.661706402526633
ssI69
(dp79
g9
F0.8146263891510999
sg10
F0.19826580181633502
ssI70
(dp80
g9
F0.6707654354981866
sg10
F0.19033544718508433
ssI71
(dp81
g9
F0.20144568604256863
sg10
F0.6304023884313865
ssI72
(dp82
g9
F0.7180292547006822
sg10
F0.9762786270979058
ssI73
(dp83
g9
F0.45425520748645953
sg10
F0.26505469843631657
ssI74
(dp84
g9
F0.44822512022909144
sg10
F0.19065554156382625
ssI75
(dp85
g9
F0.7062546437666408
sg10
F0.6669965713417916
ssI76
(dp86
g9
F0.654210719274874
sg10
F0.6010933446796448
ssI77
(dp87
g9
F0.6188620282324379
sg10
F0.8018605285069714
ssI78
(dp88
g9
F0.0922385351911823
sg10
F0.2502520038243703
ssI79
(dp89
g9
F0.3056070668477968
sg10
F0.5926394127871422
ssI80
(dp90
g9
F0.9619210889808759
sg10
F0.8237814162375874
ssI81
(dp91
g9
F0.5450004757044332
sg10
F0.3027848726637863
ssI82
(dp92
g9
F0.3883810402575456
sg10
F0.03036905684878588
ssI83
(dp93
g9
F0.24900682945114716
sg10
F0.8834187290325647
ssI84
(dp94
g9
F0.6293555906575494
sg10
F0.873627819031575
ssI85
(dp95
g9
F0.17742418686192818
sg10
F0.8849419655865962
ssI86
(dp96
g9
F0.7361526561623133
sg10
F0.062166488740381665
ssI87
(dp97
g9
F0.8750268271171501
sg10
F0.5402114218349592
ssI88
(dp98
g9
F0.996008414473453
sg10
F0.6539987343950423
ssI89
(dp99
g9
F0.8878984752617066
sg10
F0.4254040163905555
ssI90
(dp100
g9
F0.7552297053492416
sg10
F0.9001774034627893
ssI91
(dp101
g9
F0.971427442540154
sg10
F0.8006322090852568
ssI92
(dp102
g9
F0.5223650082849143
sg10
F0.21624360940180465
ssI93
(dp103
g9
F0.8103116165018267
sg10
F0.4897521250177196
ssI94
(dp104
g9
F0.3886592064593416
sg10
F0.4280014561435971
ssI95
(dp105
g9
F0.8667505894416442
sg10
F0.20551753892942026
ssI96
(dp106
g9
F0.9191447827493341
sg10
F0.2583255927579111
ssI97
(dp107
g9
F0.1690710062710219
sg10
F0.36196007363815275
ssI98
(dp108
g9
F0.9251966550263996
sg10
F0.5780869225630035
ssI99
(dp109
g9
F0.3010169943115847
sg10
F0.7381687159197988
ssI100
(dp110
g9
F0.2649396364239909
sg10
F0.8199627448102463
ssI101
(dp111
g9
F0.6899748343077818
sg10
F0.8642089087470483
ssI102
(dp112
g9
F0.46551278995477174
sg10
F0.9329351593599678
ssI103
(dp113
g9
F0.2665752373241398
sg10
F0.3044635712333652
ssI104
(dp114
g9
F0.5441071040672869
sg10
F0.6919523959967931
ssI105
(dp115
g9
F0.07940520063308854
sg10
F0.9952619413437621
ssI106
(dp116
g9
F0.6684939988725681
sg10
F0.02279116932516545
ssI107
(dp117
g9
F0.6343768714361089
sg10
F0.7268189842687126
ssI108
(dp118
g9
F0.6679105424696703
sg10
F0.19352684419759636
ssI109
(dp119
g9
F0.27973534349881035
sg10
F0.3053494910523995
ssI110
(dp120
g9
F0.42054840268758875
sg10
F0.19576961406548843
ssI111
(dp121
g9
F0.9033841593804853
sg10
F0.14409781186284287
ssI112
(dp122
g9
F0.05483000972919028
sg10
F0.11262468412644189
ssI113
(dp123
g9
F0.5908571528864653
sg10
F0.47013773493008537
ssI114
(dp124
g9
F0.10359221620987857
sg10
F0.6533304489646896
ssI115
(dp125
g9
F0.2944608525453071
sg10
F0.9491680465345481
ssI116
(dp126
g9
F0.8791677701681827
sg10
F0.10632476167883675
ssI117
(dp127
g9
F0.6307048791155897
sg10
F0.24631432284776944
ssI118
(dp128
g9
F0.23325504261348395
sg10
F0.5673006822895533
ssI119
(dp129
g9
F0.75593494101005
sg10
F0.8529578057917145
ssI120
(dp130
g9
F0.7383158792056009
sg10
F0.37743254579511354
ssI121
(dp131
g9
F0.18252852787512697
sg10
F0.83170340672792
ssI122
(dp132
g9
F0.8870394501394419
sg10
F0.17174828484049987
ssI123
(dp133
g9
F0.35589976979775706
sg10
F0.007989839931888842
ssI124
(dp134
g9
F0.378707300564495
sg10
F0.5951440415589606
ssI125
(dp135
g9
F0.8535587983460516
sg10
F0.4835623952283854
ssI126
(dp136
g9
F0.7207560482309266
sg10
F0.4519160678394524
ssI127
(dp137
g9
F0.9366237909942737
sg10
F0.2638197087676686
ssI128
(dp138
g9
F0.8961061281555529
sg10
F0.339432488468571
ssI129
(dp139
g9
F0.8030166276625104
sg10
F0.43028865159835783
ssI130
(dp140
g9
F0.04487428742482247
sg10
F0.37961640834592636
ssI131
(dp141
g9
F0.24014626361943137
sg10
F0.21663266815903803
ssI132
(dp142
g9
F0.7358081280731511
sg10
F0.24252310501233987
ssI133
(dp143
g9
F0.11297337095105842
sg10
F0.8382039365737227
ssI134
(dp144
g9
F0.3888688787336966
sg10
F0.07552323330150656
ssI135
(dp145
g9
F0.9895675151022035
sg10
F0.3035985680955068
ssI136
(dp146
g9
F0.4838614722087261
sg10
F0.21672991938483122
ssI137
(dp147
g9
F0.21889675438488065
sg10
F0.7944202470205145
ssI138
(dp148
g9
F0.0838087235441487
sg10
F0.4168912919896086
ssI139
(dp149
g9
F0.7756341866853748
sg10
F0.5158404718105978
ssI140
(dp150
g9
F0.4157951349972565
sg10
F0.1759651210515053
ssI141
(dp151
g9
F0.20283025456395454
sg10
F0.1600569518106988
ssI142
(dp152
g9
F0.36564107358097653
sg10
F0.44747217241290915
ssI143
(dp153
g9
F0.13998647706990042
sg10
F0.9282403546328342
ssI144
(dp154
g9
F0.4449861556741077
sg10
F0.4025557747572929
ssI145
(dp155
g9
F0.2259558592301697
sg10
F0.5685071637992979
ssI146
(dp156
g9
F0.5857090452700213
sg10
F0.2764766869312629
ssI147
(dp157
g9
F0.42133423800205494
sg10
F0.22889528255091363
ssI148
(dp158
g9
F0.3107821210429381
sg10
F0.8145233348530941
ssI149
(dp159
g9
F0.9636031590254497
sg10
F0.5184577292929001
ssI150
(dp160
g9
F0.0066873890454762774
sg10
F0.2333953013250144
ssI151
(dp161
g9
F0.4346954276295809
sg10
F0.5430640164309126
ssI152
(dp162
g9
F0.907750489808723
sg10
F0.2974786866111474
ssI153
(dp163
g9
F0.4599417519830741
sg10
F0.47634358196412285
ssI154
(dp164
g9
F0.18373254389812133
sg10
F0.8819188454892994
ssI155
(dp165
g9
F0.22244503293457774
sg10
F0.4509411201766036
ssI156
(dp166
g9
F0.7453997854678485
sg10
F0.8770805354883627
ssI157
(dp167
g9
F0.5785126832545221
sg10
F0.6387945993401973
ssI158
(dp168
g9
F0.5237818031744366
sg10
F0.6676692687911524
ssI159
(dp169
g9
F0.4301555191069245
sg10
F0.4997423707749734
ssI160
(dp170
g9
F0.32178760050335997
sg10
F0.6312593137552195
ssI161
(dp171
g9
F0.64038655253357
sg10
F0.6174535743605135
ssI162
(dp172
g9
F0.24784204858410652
sg10
F0.2909674049048633
ssI163
(dp173
g9
F0.413627502812303
sg10
F0.2273944679964811
ssI164
(dp174
g9
F0.39822469604516375
sg10
F0.8741836159304759
ssI165
(dp175
g9
F0.4642927335660264
sg10
F0.31756621070339386
ssI166
(dp176
g9
F0.8498597458755848
sg10
F0.5928042653316874
ssI167
(dp177
g9
F0.9262452521873128
sg10
F0.9922077647683241
ssI168
(dp178
g9
F0.5418636825136034
sg10
F0.6355966102210452
ssI169
(dp179
g9
F0.9998515697201373
sg10
F0.5712542441099678
ssI170
(dp180
g9
F0.581479771927355
sg10
F0.14419735730765493
ssI171
(dp181
g9
F0.08917830606770993
sg10
F0.8739720543546775
ssI172
(dp182
g9
F0.024522212114513664
sg10
F0.24211808864042572
ssI173
(dp183
g9
F0.44453939851731605
sg10
F0.5795429948495817
ssI174
(dp184
g9
F0.4846976054701537
sg10
F0.615246850777517
ssI175
(dp185
g9
F0.1037820708182674
sg10
F0.48256247634363536
ssI176
(dp186
g9
F0.11520513275094457
sg10
F0.7999068661375717
ssI177
(dp187
g9
F0.4638609032614951
sg10
F0.21088613216610808
ssI178
(dp188
g9
F0.11855459186201656
sg10
F0.651684556937136
ssI179
(dp189
g9
F0.27628256619212477
sg10
F0.47700569233348067
ssI180
(dp190
g9
F0.9389146897215476
sg10
F0.3808291821896591
ssI181
(dp191
g9
F0.3761469578631429
sg10
F0.721129608599569
ssI182
(dp192
g9
F0.3681603341960068
sg10
F0.8568550512828599
ssI183
(dp193
g9
F0.18050714022909242
sg10
F0.04084441778110659
ssI184
(dp194
g9
F0.1911289667731898
sg10
F0.09336129563344975
ssI185
(dp195
g9
F0.5128651223080183
sg10
F0.007433701031152484
ssI186
(dp196
g9
F0.22718315722323246
sg10
F0.08879545468713235
ssI187
(dp197
g9
F0.2280977842818125
sg10
F0.6285786193756124
ssI188
(dp198
g9
F0.7019531689398074
sg10
F0.9518707808589019
ssI189
(dp199
g9
F0.16369008836593324
sg10
F0.8591713416264185
ssI190
(dp200
g9
F0.08218357628417838
sg10
F0.19896523097882168
ssI191
(dp201
g9
F0.6504055235761484
sg10
F0.15081882846671724
ssI192
(dp202
g9
F0.6860789201126216
sg10
F0.11267891789055551
ssI193
(dp203
g9
F0.8916863869019107
sg10
F0.582827568848061
ssI194
(dp204
g9
F0.25090671991052527
sg10
F0.11418865367987419
ssI195
(dp205
g9
F0.37599116816812217
sg10
F0.41121276827356346
ssI196
(dp206
g9
F0.07679918488893078
sg10
F0.21605538632134846
ssI197
(dp207
g9
F0.9669288256025483
sg10
F0.5227424462708326
ssI198
(dp208
g9
F0.19605302720463869
sg10
F0.6041886850383464
ssI199
(dp209
g9
F0.31994239342355757
sg10
F0.2352496349899077
ssI200
(dp210
g9
F0.8718919035185835
sg10
F0.444756735521296
ssI201
(dp211
g9
F0.6002797494030427
sg10
F0.19822033178351073
ssI202
(dp212
g9
F0.5366654725295367
sg10
F0.8929568168316219
ssI203
(dp213
g9
F0.29606267060663083
sg10
F0.9643590484514216
ssI204
(dp214
g9
F0.6259032347913338
sg10
F0.9549385471420369
ssI205
(dp215
g9
F0.6083526816807053
sg10
F0.3323434736811063
ssI206
(dp216
g9
F0.3559994404576309
sg10
F0.5645221970794264
ssI207
(dp217
g9
F0.2207768215503132
sg10
F0.7516153901190721
ssI208
(dp218
g9
F0.6184018545776049
sg10
F0.7284881780341448
ssI209
(dp219
g9
F0.3308164154430083
sg10
F0.18654739744501547
ssI210
(dp220
g9
F0.4654965064495167
sg10
F0.9852846247588636
ssI211
(dp221
g9
F0.9436260348730361
sg10
F0.6192221862164861
ssI212
(dp222
g9
F0.5849419730062628
sg10
F0.34324946032809467
ssI213
(dp223
g9
F0.20590278427516506
sg10
F0.7221573772568374
ssI214
(dp224
g9
F0.235818503763626
sg10
F0.34015709508074676
ssI215
(dp225
g9
F0.40019313078738294
sg10
F0.7552286251170133
ssI216
(dp226
g9
F0.3451513577940293
sg10
F0.33070478224392574
ssI217
(dp227
g9
F0.5855257464034557
sg10
F0.47869902830044697
ssI218
(dp228
g9
F0.8201868220745363
sg10
F0.08973548383616092
ssI219
(dp229
g9
F0.32167920558733254
sg10
F0.6667984151422119
ssI220
(dp230
g9
F0.20621321821879912
sg10
F0.8199971109273354
ssI221
(dp231
g9
F0.09151696450596858
sg10
F0.7732767066656114
ssI222
(dp232
g9
F0.31756032352671604
sg10
F0.5589803349174445
ssI223
(dp233
g9
F0.30692082115460695
sg10
F0.43567006759658633
ssI224
(dp234
g9
F0.05597403530792355
sg10
F0.8368391588909263
ssI225
(dp235
g9
F0.5538003353582881
sg10
F0.3590529152860439
ssI226
(dp236
g9
F0.37311567351304276
sg10
F0.1369564120673702
ssI227
(dp237
g9
F0.46331150623162376
sg10
F0.1571845244706227
ssI228
(dp238
g9
F0.4711682294466092
sg10
F0.1986484807289166
ssI229
(dp239
g9
F0.4273479755283486
sg10
F0.8701738011071161
ssI230
(dp240
g9
F0.734443981669313
sg10
F0.07537870507893552
ssI231
(dp241
g9
F0.24486931342580553
sg10
F0.3134465036905463
ssI232
(dp242
g9
F0.6899310362165015
sg10
F0.8853569015453723
ssI233
(dp243
g9
F0.9570783433737241
sg10
F0.37832199684751755
ssI234
(dp244
g9
F0.5798255368127561
sg10
F0.44440479856242454
ssI235
(dp245
g9
F0.26408178371282176
sg10
F0.38524185892398255
ssI236
(dp246
g9
F0.21237262215136732
sg10
F0.5194716116119513
ssI237
(dp247
g9
F0.789676918821703
sg10
F0.3046215078581498
ssI238
(dp248
g9
F0.38495520507018943
sg10
F0.734259593846135
ssI239
(dp249
g9
F0.8177671052368399
sg10
F0.5120327009448049
ssI240
(dp250
g9
F0.20646268139336799
sg10
F0.12489443526325916
ssI241
(dp251
g9
F0.09153423213905187
sg10
F0.8385921594910927
ssI242
(dp252
g9
F0.9481605536136186
sg10
F0.6972976713300912
ssI243
(dp253
g9
F0.13727169091097113
sg10
F0.8786168320145838
ssI244
(dp254
g9
F0.9678317211110006
sg10
F0.8599127009447832
ssI245
(dp255
g9
F0.3226706421937392
sg10
F0.5220906746917089
ssI246
(dp256
g9
F0.6316098185490032
sg10
F0.5961552523091901
ssI247
(dp257
g9
F0.38216346564824855
sg10
F0.07255160365806024
ssI248
(dp258
g9
F0.6372572755650301
sg10
F0.05311606055379048
ssI249
(dp259
g9
F0.9605547480518467
sg10
F0.5469865223137318
ssI250
(dp260
g9
F0.8980661692592722
sg10
F0.3014632608452499
ssI251
(dp261
g9
F0.6361159982779595
sg10
F0.6713917272626971
ssI252
(dp262
g9
F0.7724385641737295
sg10
F0.31390376871729575
ssI253
(dp263
g9
F0.007227518264512844
sg10
F0.7568912837463186
ssI254
(dp264
g9
F0.03449078405365846
sg10
F0.968933777896177
ssI255
(dp265
g9
F0.30691891541214855
sg10
F0.4109015982572387
ssI256
(dp266
g9
F0.3724929371417329
sg10
F0.07569070274129386
ssI257
(dp267
g9
F0.24896127639033827
sg10
F0.2791837462735264
ssI258
(dp268
g9
F0.21724057703062338
sg10
F0.0055035525557087794
ssI259
(dp269
g9
F0.3204946148741178
sg10
F0.11497816799731408
ssI260
(dp270
g9
F0.7704543166302976
sg10
F0.8902191781589462
ssI261
(dp271
g9
F0.60685933882894
sg10
F0.8701073250140362
ssI262
(dp272
g9
F0.6319050161769212
sg10
F0.41595968796721217
ssI263
(dp273
g9
F0.9981077041687102
sg10
F0.44098584711995004
ssI264
(dp274
g9
F0.24132127693134098
sg10
F0.4834359064946685
ssI265
(dp275
g9
F0.23796463189716888
sg10
F0.05563264201254403
ssI266
(dp276
g9
F0.8143196748211642
sg10
F0.8771206713630824
ssI267
(dp277
g9
F0.4062868085955035
sg10
F0.6412328160458196
ssI268
(dp278
g9
F0.650804209245467
sg10
F0.6392036052245965
ssI269
(dp279
g9
F0.13377096186099635
sg10
F0.2027750476760961
ssI270
(dp280
g9
F0.35664410907057964
sg10
F0.0728887065632684
ssI271
(dp281
g9
F0.06467389125424061
sg10
F0.8127150847228558
ssI272
(dp282
g9
F0.10389098161819899
sg10
F0.8238310773349793
ssI273
(dp283
g9
F0.10434380731537707
sg10
F0.17984991957056995
ssI274
(dp284
g9
F0.011015208021318945
sg10
F0.7209490729840122
ssI275
(dp285
g9
F0.6208166330461602
sg10
F0.6167881571660888
ssI276
(dp286
g9
F0.40266368793281837
sg10
F0.875526630895807
ssI277
(dp287
g9
F0.24967376368317573
sg10
F0.8572836778058742
ssI278
(dp288
g9
F0.9429108786499336
sg10
F0.9917769413718773
ssI279
(dp289
g9
F0.8396834803224873
sg10
F0.7734425816633815
ssI280
(dp290
g9
F0.15933503889295075
sg10
F0.07034706425488524
ssI281
(dp291
g9
F0.1163886247851007
sg10
F0.7140402159468803
ssI282
(dp292
g9
F0.7976676989403512
sg10
F0.9825379548939185
ssI283
(dp293
g9
F0.7913162322592391
sg10
F0.6419775168664549
ssI284
(dp294
g9
F0.12152989845745066
sg10
F0.1510428136854739
ssI285
(dp295
g9
F0.938122135754598
sg10
F0.8974294416614634
ssI286
(dp296
g9
F0.21113082257922478
sg10
F0.6354925547356397
ssI287
(dp297
g9
F0.023503873956377097
sg10
F0.1748455146604604
ssI288
(dp298
g9
F0.3752851463505651
sg10
F0.7623894218540894
ssI289
(dp299
g9
F0.8228415865159664
sg10
F0.5793637829360891
ssI290
(dp300
g9
F0.6585168376738535
sg10
F0.2502293733319304
ssI291
(dp301
g9
F0.5898185470903665
sg10
F0.854794145906539
ssI292
(dp302
g9
F0.6255272144576043
sg10
F0.6658927922094244
ssI293
(dp303
g9
F0.4956602001888887
sg10
F0.19342468850705308
ssI294
(dp304
g9
F0.631977609367336
sg10
F0.2054840517768194
ssI295
(dp305
g9
F0.8814501386115436
sg10
F0.39196102341089334
ssI296
(dp306
g9
F0.35470864637968014
sg10
F0.3950493599866236
ssI297
(dp307
g9
F0.15829961182344998
sg10
F0.1675036888201824
ssI298
(dp308
g9
F0.8514107237112475
sg10
F0.2886299476298253
ssI299
(dp309
g9
F0.2899000920436735
sg10
F0.061947612828297416
sssS'node_dict_factory'
p310
c__builtin__
dict
p311
sS'edge_attr_dict_factory'
p312
g311
sS'edge'
p313
(dp314
I0
(dp315
sI1
(dp316
sI2
(dp317
sI3
(dp318
sI4
(dp319
sI5
(dp320
sI6
(dp321
sI7
(dp322
sI8
(dp323
sI9
(dp324
sI10
(dp325
sI11
(dp326
sI12
(dp327
sI13
(dp328
sI14
(dp329
sI15
(dp330
sI16
(dp331
sI17
(dp332
sI18
(dp333
sI19
(dp334
sI20
(dp335
sI21
(dp336
sI22
(dp337
sI23
(dp338
sI24
(dp339
sI25
(dp340
sI26
(dp341
sI27
(dp342
sI28
(dp343
sI29
(dp344
sI30
(dp345
sI31
(dp346
sI32
(dp347
sI33
(dp348
sI34
(dp349
sI35
(dp350
sI36
(dp351
sI37
(dp352
sI38
(dp353
sI39
(dp354
sI40
(dp355
sI41
(dp356
sI42
(dp357
sI43
(dp358
sI44
(dp359
sI45
(dp360
sI46
(dp361
sI47
(dp362
sI48
(dp363
sI49
(dp364
sI50
(dp365
sI51
(dp366
sI52
(dp367
sI53
(dp368
sI54
(dp369
sI55
(dp370
sI56
(dp371
sI57
(dp372
sI58
(dp373
sI59
(dp374
sI60
(dp375
sI61
(dp376
sI62
(dp377
sI63
(dp378
sI64
(dp379
sI65
(dp380
sI66
(dp381
sI67
(dp382
sI68
(dp383
sI69
(dp384
sI70
(dp385
sI71
(dp386
sI72
(dp387
sI73
(dp388
sI74
(dp389
sI75
(dp390
sI76
(dp391
sI77
(dp392
sI78
(dp393
sI79
(dp394
sI80
(dp395
sI81
(dp396
sI82
(dp397
sI83
(dp398
sI84
(dp399
sI85
(dp400
sI86
(dp401
sI87
(dp402
sI88
(dp403
sI89
(dp404
sI90
(dp405
sI91
(dp406
sI92
(dp407
sI93
(dp408
sI94
(dp409
sI95
(dp410
sI96
(dp411
sI97
(dp412
sI98
(dp413
sI99
(dp414
sI100
(dp415
sI101
(dp416
sI102
(dp417
sI103
(dp418
sI104
(dp419
sI105
(dp420
sI106
(dp421
sI107
(dp422
sI108
(dp423
sI109
(dp424
sI110
(dp425
sI111
(dp426
sI112
(dp427
sI113
(dp428
sI114
(dp429
sI115
(dp430
sI116
(dp431
sI117
(dp432
sI118
(dp433
sI119
(dp434
sI120
(dp435
sI121
(dp436
sI122
(dp437
sI123
(dp438
sI124
(dp439
sI125
(dp440
sI126
(dp441
sI127
(dp442
sI128
(dp443
sI129
(dp444
sI130
(dp445
sI131
(dp446
sI132
(dp447
sI133
(dp448
sI134
(dp449
sI135
(dp450
sI136
(dp451
sI137
(dp452
sI138
(dp453
sI139
(dp454
sI140
(dp455
sI141
(dp456
sI142
(dp457
sI143
(dp458
sI144
(dp459
sI145
(dp460
sI146
(dp461
sI147
(dp462
sI148
(dp463
sI149
(dp464
sI150
(dp465
sI151
(dp466
sI152
(dp467
sI153
(dp468
sI154
(dp469
sI155
(dp470
sI156
(dp471
sI157
(dp472
sI158
(dp473
sI159
(dp474
sI160
(dp475
sI161
(dp476
sI162
(dp477
sI163
(dp478
sI164
(dp479
sI165
(dp480
sI166
(dp481
sI167
(dp482
sI168
(dp483
sI169
(dp484
sI170
(dp485
sI171
(dp486
sI172
(dp487
sI173
(dp488
sI174
(dp489
sI175
(dp490
sI176
(dp491
sI177
(dp492
sI178
(dp493
sI179
(dp494
sI180
(dp495
sI181
(dp496
sI182
(dp497
sI183
(dp498
sI184
(dp499
sI185
(dp500
sI186
(dp501
sI187
(dp502
sI188
(dp503
sI189
(dp504
sI190
(dp505
sI191
(dp506
sI192
(dp507
sI193
(dp508
sI194
(dp509
sI195
(dp510
sI196
(dp511
sI197
(dp512
sI198
(dp513
sI199
(dp514
sI200
(dp515
sI201
(dp516
sI202
(dp517
sI203
(dp518
sI204
(dp519
sI205
(dp520
sI206
(dp521
sI207
(dp522
sI208
(dp523
sI209
(dp524
sI210
(dp525
sI211
(dp526
sI212
(dp527
sI213
(dp528
sI214
(dp529
sI215
(dp530
sI216
(dp531
sI217
(dp532
sI218
(dp533
sI219
(dp534
sI220
(dp535
sI221
(dp536
sI222
(dp537
sI223
(dp538
sI224
(dp539
sI225
(dp540
sI226
(dp541
sI227
(dp542
sI228
(dp543
sI229
(dp544
sI230
(dp545
sI231
(dp546
sI232
(dp547
sI233
(dp548
sI234
(dp549
sI235
(dp550
sI236
(dp551
sI237
(dp552
sI238
(dp553
sI239
(dp554
sI240
(dp555
sI241
(dp556
sI242
(dp557
sI243
(dp558
sI244
(dp559
sI245
(dp560
sI246
(dp561
sI247
(dp562
sI248
(dp563
sI249
(dp564
sI250
(dp565
sI251
(dp566
sI252
(dp567
sI253
(dp568
sI254
(dp569
sI255
(dp570
sI256
(dp571
sI257
(dp572
sI258
(dp573
sI259
(dp574
sI260
(dp575
sI261
(dp576
sI262
(dp577
sI263
(dp578
sI264
(dp579
sI265
(dp580
sI266
(dp581
sI267
(dp582
sI268
(dp583
sI269
(dp584
sI270
(dp585
sI271
(dp586
sI272
(dp587
sI273
(dp588
sI274
(dp589
sI275
(dp590
sI276
(dp591
sI277
(dp592
sI278
(dp593
sI279
(dp594
sI280
(dp595
sI281
(dp596
sI282
(dp597
sI283
(dp598
sI284
(dp599
sI285
(dp600
sI286
(dp601
sI287
(dp602
sI288
(dp603
sI289
(dp604
sI290
(dp605
sI291
(dp606
sI292
(dp607
sI293
(dp608
sI294
(dp609
sI295
(dp610
sI296
(dp611
sI297
(dp612
sI298
(dp613
sI299
(dp614
ssS'graph'
p615
(dp616
sS'adjlist_dict_factory'
p617
g311
sS'adj'
p618
g314
sb.