ccopy_reg
_reconstructor
p0
(cnetworkx.classes.graph
Graph
p1
c__builtin__
object
p2
Ntp3
Rp4
(dp5
S'node'
p6
(dp7
I0
(dp8
S'pos_x'
p9
F0.8958836546413068
sS'pos_y'
p10
F0.9041379108214013
ssI1
(dp11
g9
F0.45410459318694285
sg10
F0.9636097941038518
ssI2
(dp12
g9
F0.7345552849258843
sg10
F0.5244268499523679
ssI3
(dp13
g9
F0.37652695437270056
sg10
F0.14184506682473952
ssI4
(dp14
g9
F0.5612566939565874
sg10
F0.9221361706683427
ssI5
(dp15
g9
F0.6721031133700339
sg10
F0.7912403217566766
ssI6
(dp16
g9
F0.4310209844526859
sg10
F0.4921700946538
ssI7
(dp17
g9
F0.04819882972742884
sg10
F0.153394706106318
ssI8
(dp18
g9
F0.4455377459474036
sg10
F0.035822424853059975
ssI9
(dp19
g9
F0.22139358921057029
sg10
F0.24060981279085636
ssI10
(dp20
g9
F0.32836065430227956
sg10
F0.11262764994388175
ssI11
(dp21
g9
F0.36492385473905053
sg10
F0.2786972306073352
ssI12
(dp22
g9
F0.608590682360453
sg10
F0.10741465827245611
ssI13
(dp23
g9
F0.8135172990976867
sg10
F0.17413753897114115
ssI14
(dp24
g9
F0.059964629635265165
sg10
F0.1196476935976809
ssI15
(dp25
g9
F0.13538212225888058
sg10
F0.16802395903955758
ssI16
(dp26
g9
F0.596953740451011
sg10
F0.3511244840496667
ssI17
(dp27
g9
F0.4296489202739724
sg10
F0.07152005214790813
ssI18
(dp28
g9
F0.05087608978728608
sg10
F0.018207364239862245
ssI19
(dp29
g9
F0.1876152366317433
sg10
F0.9533639321103254
ssI20
(dp30
g9
F0.9179715799975983
sg10
F0.2010658236142242
ssI21
(dp31
g9
F0.5082502096892362
sg10
F0.6209696679427655
ssI22
(dp32
g9
F0.21214408279969255
sg10
F0.6166370606765471
ssI23
(dp33
g9
F0.7905980422359483
sg10
F0.983261150706668
ssI24
(dp34
g9
F0.7262070799185872
sg10
F0.7408924310295985
ssI25
(dp35
g9
F0.7544544889011883
sg10
F0.06723054953851038
ssI26
(dp36
g9
F0.7078662555764711
sg10
F0.3279521143768682
ssI27
(dp37
g9
F0.5149341646588198
sg10
F0.4844338327915262
ssI28
(dp38
g9
F0.026474611390543523
sg10
F0.765715858118558
ssI29
(dp39
g9
F0.7047840965635619
sg10
F0.8140224419631737
ssI30
(dp40
g9
F0.47402465695643237
sg10
F0.1282857674557143
ssI31
(dp41
g9
F0.9149765551463229
sg10
F0.4447365658179433
ssI32
(dp42
g9
F0.4394851932631494
sg10
F0.9302430720737851
ssI33
(dp43
g9
F0.47297486337657946
sg10
F0.12711183006358595
ssI34
(dp44
g9
F0.2903753596980244
sg10
F0.9441575068082352
ssI35
(dp45
g9
F0.6388153626313796
sg10
F0.6285436960476086
ssI36
(dp46
g9
F0.9781104995068234
sg10
F0.4149005729427748
ssI37
(dp47
g9
F0.13706983326119948
sg10
F0.8808024398997738
ssI38
(dp48
g9
F0.754163275133863
sg10
F0.31830246278744934
ssI39
(dp49
g9
F0.7467240741649058
sg10
F0.48425970751522285
ssI40
(dp50
g9
F0.38674908671379227
sg10
F0.8378492206779568
ssI41
(dp51
g9
F0.5719439957066547
sg10
F0.10904083957992516
ssI42
(dp52
g9
F0.7954723885007078
sg10
F0.5248669562890839
ssI43
(dp53
g9
F0.5106352039357307
sg10
F0.48195593919596147
ssI44
(dp54
g9
F0.544475407574957
sg10
F0.37930618727388465
ssI45
(dp55
g9
F0.20708163889498943
sg10
F0.7080871858780167
ssI46
(dp56
g9
F0.278958697682651
sg10
F0.9189815224692006
ssI47
(dp57
g9
F0.21328355409683608
sg10
F0.8231342808170078
ssI48
(dp58
g9
F0.2744514074664465
sg10
F0.6631827217277614
ssI49
(dp59
g9
F0.5987664286120751
sg10
F0.06095270060938918
ssI50
(dp60
g9
F0.01146451707523688
sg10
F0.5708319670897148
ssI51
(dp61
g9
F0.8902495720430303
sg10
F0.8625470832070274
ssI52
(dp62
g9
F0.21523919498178068
sg10
F0.17286363418302797
ssI53
(dp63
g9
F0.1572971566500173
sg10
F0.49499828843414506
ssI54
(dp64
g9
F0.3791884392730568
sg10
F0.10912027888732512
ssI55
(dp65
g9
F0.39679648543043033
sg10
F0.485254096472162
ssI56
(dp66
g9
F0.3725869724875047
sg10
F0.5714277186430562
ssI57
(dp67
g9
F0.4883808144666988
sg10
F0.1747502221663041
ssI58
(dp68
g9
F0.788405313425984
sg10
F0.35720131721245285
ssI59
(dp69
g9
F0.9583482601947385
sg10
F0.5471527939765471
ssI60
(dp70
g9
F0.12595517778600207
sg10
F0.7795608808200374
ssI61
(dp71
g9
F0.9295292956325772
sg10
F0.3285256024308396
ssI62
(dp72
g9
F0.1578585373435606
sg10
F0.6100990026668521
ssI63
(dp73
g9
F0.7580705411928647
sg10
F0.1788020722072503
ssI64
(dp74
g9
F0.07828150351634755
sg10
F0.723471950417721
ssI65
(dp75
g9
F0.010056352918272116
sg10
F0.32817408050999675
ssI66
(dp76
g9
F0.19952334932277405
sg10
F0.543753078788705
ssI67
(dp77
g9
F0.6877273146613042
sg10
F0.08742172760516576
ssI68
(dp78
g9
F0.6546603514673799
sg10
F0.18345235341923127
ssI69
(dp79
g9
F0.6876484029009173
sg10
F0.8744363094467457
ssI70
(dp80
g9
F0.009259078731871373
sg10
F0.4009264565273143
ssI71
(dp81
g9
F0.6357720213038831
sg10
F0.05440061130077878
ssI72
(dp82
g9
F0.10127165216890066
sg10
F0.7672002379319834
ssI73
(dp83
g9
F0.4964979717429665
sg10
F0.22778912662265127
ssI74
(dp84
g9
F0.5439981465402395
sg10
F0.7170849311178153
ssI75
(dp85
g9
F0.5235215452389818
sg10
F0.4660232603716692
ssI76
(dp86
g9
F0.224632394138075
sg10
F0.22171994518382354
ssI77
(dp87
g9
F0.19460356155848035
sg10
F0.1801068159588639
ssI78
(dp88
g9
F0.7786397422297715
sg10
F0.9507629942532907
ssI79
(dp89
g9
F0.9435455459903572
sg10
F0.4786109898468548
ssI80
(dp90
g9
F0.7545246115534974
sg10
F0.5964266291945622
ssI81
(dp91
g9
F0.3287936583324078
sg10
F0.4094191937740559
ssI82
(dp92
g9
F0.4803051660818304
sg10
F0.936455050605265
ssI83
(dp93
g9
F0.848840123720478
sg10
F0.37923921228804613
ssI84
(dp94
g9
F0.159576222952446
sg10
F0.9952894848814233
ssI85
(dp95
g9
F0.4970428110356162
sg10
F0.41421946305144874
ssI86
(dp96
g9
F0.8294547184135886
sg10
F0.19464202247279927
ssI87
(dp97
g9
F0.7356621379943348
sg10
F0.2696342991305736
ssI88
(dp98
g9
F0.2962365368094849
sg10
F0.228552791865144
ssI89
(dp99
g9
F0.6060079112924022
sg10
F0.7851548578366896
ssI90
(dp100
g9
F0.5400831121349243
sg10
F0.7087549130336761
ssI91
(dp101
g9
F0.811341240410762
sg10
F0.178617429614916
ssI92
(dp102
g9
F0.9163088876651433
sg10
F0.4791511423997806
ssI93
(dp103
g9
F0.6375479198001517
sg10
F0.07268573050572869
ssI94
(dp104
g9
F0.4213756113049154
sg10
F0.8037210176368175
ssI95
(dp105
g9
F0.07531632689281775
sg10
F0.3471661052884001
ssI96
(dp106
g9
F0.049185356612786335
sg10
F0.6569139304525156
ssI97
(dp107
g9
F0.3183307965049095
sg10
F0.2641692299425632
ssI98
(dp108
g9
F0.22013135752522406
sg10
F0.5574166318966605
ssI99
(dp109
g9
F0.2200450151447697
sg10
F0.2255539511930036
ssI100
(dp110
g9
F0.5731201122585678
sg10
F0.9711525801441253
ssI101
(dp111
g9
F0.15572301556176782
sg10
F0.8807971883618574
ssI102
(dp112
g9
F0.7061131720845356
sg10
F0.6251071204060423
ssI103
(dp113
g9
F0.8203921913098352
sg10
F0.48552688566979274
ssI104
(dp114
g9
F0.6748237157953704
sg10
F0.21801645519666613
ssI105
(dp115
g9
F0.7920676945069332
sg10
F0.5127948468217196
ssI106
(dp116
g9
F0.748638548526696
sg10
F0.320752659269686
ssI107
(dp117
g9
F0.637959861246853
sg10
F0.6502213247800795
ssI108
(dp118
g9
F0.3613673533636088
sg10
F0.45212824693563536
ssI109
(dp119
g9
F0.20167926413320658
sg10
F0.5732501716014544
ssI110
(dp120
g9
F0.539104729237643
sg10
F0.050170834476612525
ssI111
(dp121
g9
F0.7183429114129997
sg10
F0.18677152474047776
ssI112
(dp122
g9
F0.08389002658964129
sg10
F0.7373720601241275
ssI113
(dp123
g9
F0.7730191093301965
sg10
F0.052154227429003774
ssI114
(dp124
g9
F0.09938999605590759
sg10
F0.22853735504323414
ssI115
(dp125
g9
F0.4976632785329982
sg10
F0.37581349251405693
ssI116
(dp126
g9
F0.6773675200479131
sg10
F0.11385867020389218
ssI117
(dp127
g9
F0.7731077283433847
sg10
F0.668633009609331
ssI118
(dp128
g9
F0.5510228107533767
sg10
F0.2875076478686496
ssI119
(dp129
g9
F0.8871711947581279
sg10
F0.20485687610326375
ssI120
(dp130
g9
F0.9404352084508368
sg10
F0.6251857060859826
ssI121
(dp131
g9
F0.9852406453102468
sg10
F0.5719543201801098
ssI122
(dp132
g9
F0.48941208443666795
sg10
F0.4036514497571878
ssI123
(dp133
g9
F0.6627465461675707
sg10
F0.9448582445559414
ssI124
(dp134
g9
F0.8540582143888447
sg10
F0.8954733934605777
ssI125
(dp135
g9
F0.6187193445285997
sg10
F0.07469258465348139
ssI126
(dp136
g9
F0.35597372376906034
sg10
F0.11490963097480456
ssI127
(dp137
g9
F0.9486180362747129
sg10
F0.04967243440360403
ssI128
(dp138
g9
F0.13518644996104456
sg10
F0.9378524954561871
ssI129
(dp139
g9
F0.7277755788051569
sg10
F0.7624906414318813
ssI130
(dp140
g9
F0.08248847596217501
sg10
F0.23613281946371178
ssI131
(dp141
g9
F0.7496962866726392
sg10
F0.31528192442810254
ssI132
(dp142
g9
F0.5166348852693652
sg10
F0.7769096118316785
ssI133
(dp143
g9
F0.7654128236043607
sg10
F0.9256219690323008
ssI134
(dp144
g9
F0.6234310113693037
sg10
F0.7167066394022349
ssI135
(dp145
g9
F0.8435288636164152
sg10
F0.4900251348625845
ssI136
(dp146
g9
F0.5599395945444727
sg10
F0.2543706017930415
ssI137
(dp147
g9
F0.5448058636495348
sg10
F0.9158853625397074
ssI138
(dp148
g9
F0.13388463982220367
sg10
F0.01726634607833044
ssI139
(dp149
g9
F0.5822651318164651
sg10
F0.0588139260099263
ssI140
(dp150
g9
F0.4587331088906368
sg10
F0.3257739510939349
ssI141
(dp151
g9
F0.7737413647920413
sg10
F0.8882247423267986
ssI142
(dp152
g9
F0.7138615227941825
sg10
F0.041435633901660274
ssI143
(dp153
g9
F0.8665839229579555
sg10
F0.5759777944553811
ssI144
(dp154
g9
F0.05847179279601866
sg10
F0.8696640287679681
ssI145
(dp155
g9
F0.8080635226895782
sg10
F0.47010893599479486
ssI146
(dp156
g9
F0.6406073866288804
sg10
F0.7857040484055081
ssI147
(dp157
g9
F0.010745464151090678
sg10
F0.45064949577963953
ssI148
(dp158
g9
F0.19825976958015978
sg10
F0.7848712387672545
ssI149
(dp159
g9
F0.46200881676296324
sg10
F0.7099495474188419
ssI150
(dp160
g9
F0.6875745302245134
sg10
F0.17758700808301964
ssI151
(dp161
g9
F0.02108880109344058
sg10
F0.464276085187071
ssI152
(dp162
g9
F0.5818072779152251
sg10
F0.8510537331763821
ssI153
(dp163
g9
F0.7457264122752997
sg10
F0.423823515163266
ssI154
(dp164
g9
F0.882814979143381
sg10
F0.16530774905951073
ssI155
(dp165
g9
F0.16566766012745782
sg10
F0.9253616684715487
ssI156
(dp166
g9
F0.46127142981290714
sg10
F0.14511353118717163
ssI157
(dp167
g9
F0.4228457602023473
sg10
F0.1624736798871811
ssI158
(dp168
g9
F0.9013954292818112
sg10
F0.6922853687645922
ssI159
(dp169
g9
F0.22527923284678963
sg10
F0.5750755777182844
ssI160
(dp170
g9
F0.6746604094340578
sg10
F0.3093567812369111
ssI161
(dp171
g9
F0.2601109982996195
sg10
F0.552335120857289
ssI162
(dp172
g9
F0.7457991135524044
sg10
F0.48823948091385583
ssI163
(dp173
g9
F0.9321935235687056
sg10
F0.8572552053505983
ssI164
(dp174
g9
F0.6788702927799231
sg10
F0.5754947544285071
ssI165
(dp175
g9
F0.7501196146096567
sg10
F0.46573942777738375
ssI166
(dp176
g9
F0.7645906631634373
sg10
F0.975212766833987
ssI167
(dp177
g9
F0.3279306405899268
sg10
F0.2646590353909358
ssI168
(dp178
g9
F0.025153797470973682
sg10
F0.2521044871673638
ssI169
(dp179
g9
F0.5747544114791101
sg10
F0.9118913110254083
ssI170
(dp180
g9
F0.7944285543918133
sg10
F0.3568623706464754
ssI171
(dp181
g9
F0.4203534291747988
sg10
F0.48579722234134626
ssI172
(dp182
g9
F0.6670288530984461
sg10
F0.9333768034622544
ssI173
(dp183
g9
F0.5146360839924049
sg10
F0.725874779671306
ssI174
(dp184
g9
F0.9174607368348217
sg10
F0.4932588096318459
ssI175
(dp185
g9
F0.2248667590639163
sg10
F0.6424751330330263
ssI176
(dp186
g9
F0.898519242308201
sg10
F0.34126347171655314
ssI177
(dp187
g9
F0.16957458801737602
sg10
F0.7726579169376498
ssI178
(dp188
g9
F0.16112156715048376
sg10
F0.7342937767370503
ssI179
(dp189
g9
F0.14061529304535447
sg10
F0.4634991768894082
ssI180
(dp190
g9
F0.007107407113032038
sg10
F0.4758334206843402
ssI181
(dp191
g9
F0.7178894023349935
sg10
F0.14245007787748865
ssI182
(dp192
g9
F0.885364975180206
sg10
F0.6939649555537502
ssI183
(dp193
g9
F0.6268406600815265
sg10
F0.9298612782249933
ssI184
(dp194
g9
F0.8074664896497815
sg10
F0.8896228657421491
ssI185
(dp195
g9
F0.7638762306096473
sg10
F0.36901461763265875
ssI186
(dp196
g9
F0.14062593757389596
sg10
F0.832406264133885
ssI187
(dp197
g9
F0.4825253813178626
sg10
F0.4971914960374265
ssI188
(dp198
g9
F0.5263550925154648
sg10
F0.6694028711764263
ssI189
(dp199
g9
F0.49003632851264056
sg10
F0.9855233293040033
ssI190
(dp200
g9
F0.3656673521832592
sg10
F0.07272118450723564
ssI191
(dp201
g9
F0.7282041599127634
sg10
F0.5223382439276356
ssI192
(dp202
g9
F0.36291820864730384
sg10
F0.7557437104230303
ssI193
(dp203
g9
F0.11616489908471095
sg10
F0.03941680681167725
ssI194
(dp204
g9
F0.4580411942888558
sg10
F0.9039563925734768
ssI195
(dp205
g9
F0.4639914252127538
sg10
F0.3956314044174324
ssI196
(dp206
g9
F0.39723195089072627
sg10
F0.19504305657464904
ssI197
(dp207
g9
F0.5174097596927523
sg10
F0.8153023500679127
ssI198
(dp208
g9
F0.45914825640809176
sg10
F0.4696606850089371
ssI199
(dp209
g9
F0.23160738661502078
sg10
F0.5252649514531265
ssI200
(dp210
g9
F0.19762662352195248
sg10
F0.5727448407829737
ssI201
(dp211
g9
F0.5851156640390991
sg10
F0.038134694919443435
ssI202
(dp212
g9
F0.3083876860822019
sg10
F0.9378072241741656
ssI203
(dp213
g9
F0.46776215986230774
sg10
F0.02865976609276988
ssI204
(dp214
g9
F0.04784080109078026
sg10
F0.15257136295667506
ssI205
(dp215
g9
F0.771707474111803
sg10
F0.6995073857963591
ssI206
(dp216
g9
F0.8483030887394885
sg10
F0.23470364553348577
ssI207
(dp217
g9
F0.8416753973390337
sg10
F0.6333776839891819
ssI208
(dp218
g9
F0.5581694238700383
sg10
F0.9831418408205972
ssI209
(dp219
g9
F0.7765554153942822
sg10
F0.2861951938093833
ssI210
(dp220
g9
F0.8646531238034401
sg10
F0.6228946526542526
ssI211
(dp221
g9
F0.28990656461395536
sg10
F0.15766574069295902
ssI212
(dp222
g9
F0.6783773775817913
sg10
F0.5625186090520582
ssI213
(dp223
g9
F0.5183048450824734
sg10
F0.7305006311479448
ssI214
(dp224
g9
F0.672665800697062
sg10
F0.12833317572300562
ssI215
(dp225
g9
F0.06880086854265921
sg10
F0.7026094361375577
ssI216
(dp226
g9
F0.48505670946537505
sg10
F0.49765681957805086
ssI217
(dp227
g9
F0.9297535416859173
sg10
F0.8703019117758842
ssI218
(dp228
g9
F0.3915048027860297
sg10
F0.4423978235983407
ssI219
(dp229
g9
F0.8300525986665042
sg10
F0.5777585346327122
ssI220
(dp230
g9
F0.8615898508547836
sg10
F0.3903563361182695
ssI221
(dp231
g9
F0.28268801606034677
sg10
F0.2589443796606664
ssI222
(dp232
g9
F0.6312716780291865
sg10
F0.8848772161289699
ssI223
(dp233
g9
F0.20769462249766757
sg10
F0.832992215472246
ssI224
(dp234
g9
F0.9783243071363973
sg10
F0.20975443999475718
ssI225
(dp235
g9
F0.17078387239305692
sg10
F0.6298193536275914
ssI226
(dp236
g9
F0.18781001184471113
sg10
F0.027350648466801686
ssI227
(dp237
g9
F0.21597301175876926
sg10
F0.6928856775647417
ssI228
(dp238
g9
F0.6365356526041648
sg10
F0.42092449008825117
ssI229
(dp239
g9
F0.38725954850602584
sg10
F0.08753059179985312
ssI230
(dp240
g9
F0.3670322255710674
sg10
F0.5283610237269023
ssI231
(dp241
g9
F0.77821652131092
sg10
F0.8344802117178282
ssI232
(dp242
g9
F0.639642240937914
sg10
F0.9638888528276042
ssI233
(dp243
g9
F0.966709502333521
sg10
F0.5886562715337866
ssI234
(dp244
g9
F0.6956073675642431
sg10
F0.008727780002790508
ssI235
(dp245
g9
F0.7034910944346542
sg10
F0.396673841104741
ssI236
(dp246
g9
F0.09299893007762539
sg10
F0.2055445563306043
ssI237
(dp247
g9
F0.651340185266892
sg10
F0.713086259802651
ssI238
(dp248
g9
F0.7246061596762418
sg10
F0.026533688613932238
ssI239
(dp249
g9
F0.34512364403152573
sg10
F0.25450667816298134
ssI240
(dp250
g9
F0.9810244405854676
sg10
F0.09011143202821803
ssI241
(dp251
g9
F0.20653483853105514
sg10
F0.9137223848474054
ssI242
(dp252
g9
F0.32228873997676977
sg10
F0.14030495823777878
ssI243
(dp253
g9
F0.08945943098781717
sg10
F0.015654681796941516
ssI244
(dp254
g9
F0.6227806070924581
sg10
F0.9336322603476436
ssI245
(dp255
g9
F0.8447632612643603
sg10
F0.14117233311471578
ssI246
(dp256
g9
F0.9160660932329321
sg10
F0.9762669851040126
ssI247
(dp257
g9
F0.64634499797681
sg10
F0.871567430754474
ssI248
(dp258
g9
F0.2330972114861114
sg10
F0.1036683866134922
ssI249
(dp259
g9
F0.36791826328196
sg10
F0.8096209073937473
ssI250
(dp260
g9
F0.5811900959480908
sg10
F0.5688563126887086
ssI251
(dp261
g9
F0.9515448765093479
sg10
F0.7473167803989711
ssI252
(dp262
g9
F0.4683635451005803
sg10
F0.8307606302250712
ssI253
(dp263
g9
F0.8889460132536263
sg10
F0.4855953204095085
ssI254
(dp264
g9
F0.999494845751297
sg10
F0.6172261871510266
ssI255
(dp265
g9
F0.3329185609120626
sg10
F0.4917086646599076
ssI256
(dp266
g9
F0.34484071298591157
sg10
F0.11636857868526318
ssI257
(dp267
g9
F0.5564007255788519
sg10
F0.12696222594568907
ssI258
(dp268
g9
F0.3038822695335798
sg10
F0.7232709539133396
ssI259
(dp269
g9
F0.7232158570977204
sg10
F0.3662660014025656
ssI260
(dp270
g9
F0.2908362487856777
sg10
F0.5093230334667807
ssI261
(dp271
g9
F0.21458345541963353
sg10
F0.8361307730069165
ssI262
(dp272
g9
F0.6362999848929143
sg10
F0.031335576057794357
ssI263
(dp273
g9
F0.6348857537689125
sg10
F0.6513621330333416
ssI264
(dp274
g9
F0.4768575310357809
sg10
F0.11734284126563133
ssI265
(dp275
g9
F0.8062655738101366
sg10
F0.7750585005875402
ssI266
(dp276
g9
F0.38046546821675764
sg10
F0.08230160962907285
ssI267
(dp277
g9
F0.059647262370009946
sg10
F0.48752072413905345
ssI268
(dp278
g9
F0.9833614853113836
sg10
F0.6663256448591888
ssI269
(dp279
g9
F0.5844146486843279
sg10
F0.6032496225875269
ssI270
(dp280
g9
F0.524268798634291
sg10
F0.8066187658267887
ssI271
(dp281
g9
F0.48293964584478943
sg10
F0.962408034476105
ssI272
(dp282
g9
F0.8921777583037499
sg10
F0.9612531375567313
ssI273
(dp283
g9
F0.2268878608651499
sg10
F0.6278246495965962
ssI274
(dp284
g9
F0.8032952960850728
sg10
F0.5734823593462908
ssI275
(dp285
g9
F0.7347638544044456
sg10
F0.7405896240145888
ssI276
(dp286
g9
F0.3552666936744293
sg10
F0.24987395935564183
ssI277
(dp287
g9
F0.9204898514760551
sg10
F0.09234726075185562
ssI278
(dp288
g9
F0.6419053346330843
sg10
F0.3405055709882535
ssI279
(dp289
g9
F0.23651245133879184
sg10
F0.7549449529158396
ssI280
(dp290
g9
F0.6389165585973822
sg10
F0.21246989247947157
ssI281
(dp291
g9
F0.5876594180927309
sg10
F0.3773947014874667
ssI282
(dp292
g9
F0.19089752366831403
sg10
F0.9494397640036608
ssI283
(dp293
g9
F0.1136394510117602
sg10
F0.6644683518201396
ssI284
(dp294
g9
F0.4136062524200991
sg10
F0.7549137973142981
ssI285
(dp295
g9
F0.5595958689322192
sg10
F0.7038544582968754
ssI286
(dp296
g9
F0.28794763529333567
sg10
F0.34471312879334204
ssI287
(dp297
g9
F0.5553684093295387
sg10
F0.6437420187378388
ssI288
(dp298
g9
F0.8862681159171217
sg10
F0.8023975878440204
ssI289
(dp299
g9
F0.24785487327976352
sg10
F0.1829838652751412
ssI290
(dp300
g9
F0.2474124902913264
sg10
F0.012184305258380212
ssI291
(dp301
g9
F0.5736723366835349
sg10
F0.1771156849695411
ssI292
(dp302
g9
F0.3831330688164474
sg10
F0.5412061719681959
ssI293
(dp303
g9
F0.7262733356399426
sg10
F0.7982830857879948
ssI294
(dp304
g9
F0.03365591634931164
sg10
F0.024459019494274536
ssI295
(dp305
g9
F0.30149093565115936
sg10
F0.6161856869173883
ssI296
(dp306
g9
F0.6949449384460569
sg10
F0.2404529972959476
ssI297
(dp307
g9
F0.9016234232816283
sg10
F0.422171721364505
ssI298
(dp308
g9
F0.48318462698120124
sg10
F0.2236022418657878
ssI299
(dp309
g9
F0.36395841481407654
sg10
F0.6102117098789618
sssS'node_dict_factory'
p310
c__builtin__
dict
p311
sS'edge_attr_dict_factory'
p312
g311
sS'edge'
p313
(dp314
I0
(dp315
sI1
(dp316
sI2
(dp317
sI3
(dp318
sI4
(dp319
sI5
(dp320
sI6
(dp321
sI7
(dp322
sI8
(dp323
sI9
(dp324
sI10
(dp325
sI11
(dp326
sI12
(dp327
sI13
(dp328
sI14
(dp329
sI15
(dp330
sI16
(dp331
sI17
(dp332
sI18
(dp333
sI19
(dp334
sI20
(dp335
sI21
(dp336
sI22
(dp337
sI23
(dp338
sI24
(dp339
sI25
(dp340
sI26
(dp341
sI27
(dp342
sI28
(dp343
sI29
(dp344
sI30
(dp345
sI31
(dp346
sI32
(dp347
sI33
(dp348
sI34
(dp349
sI35
(dp350
sI36
(dp351
sI37
(dp352
sI38
(dp353
sI39
(dp354
sI40
(dp355
sI41
(dp356
sI42
(dp357
sI43
(dp358
sI44
(dp359
sI45
(dp360
sI46
(dp361
sI47
(dp362
sI48
(dp363
sI49
(dp364
sI50
(dp365
sI51
(dp366
sI52
(dp367
sI53
(dp368
sI54
(dp369
sI55
(dp370
sI56
(dp371
sI57
(dp372
sI58
(dp373
sI59
(dp374
sI60
(dp375
sI61
(dp376
sI62
(dp377
sI63
(dp378
sI64
(dp379
sI65
(dp380
sI66
(dp381
sI67
(dp382
sI68
(dp383
sI69
(dp384
sI70
(dp385
sI71
(dp386
sI72
(dp387
sI73
(dp388
sI74
(dp389
sI75
(dp390
sI76
(dp391
sI77
(dp392
sI78
(dp393
sI79
(dp394
sI80
(dp395
sI81
(dp396
sI82
(dp397
sI83
(dp398
sI84
(dp399
sI85
(dp400
sI86
(dp401
sI87
(dp402
sI88
(dp403
sI89
(dp404
sI90
(dp405
sI91
(dp406
sI92
(dp407
sI93
(dp408
sI94
(dp409
sI95
(dp410
sI96
(dp411
sI97
(dp412
sI98
(dp413
sI99
(dp414
sI100
(dp415
sI101
(dp416
sI102
(dp417
sI103
(dp418
sI104
(dp419
sI105
(dp420
sI106
(dp421
sI107
(dp422
sI108
(dp423
sI109
(dp424
sI110
(dp425
sI111
(dp426
sI112
(dp427
sI113
(dp428
sI114
(dp429
sI115
(dp430
sI116
(dp431
sI117
(dp432
sI118
(dp433
sI119
(dp434
sI120
(dp435
sI121
(dp436
sI122
(dp437
sI123
(dp438
sI124
(dp439
sI125
(dp440
sI126
(dp441
sI127
(dp442
sI128
(dp443
sI129
(dp444
sI130
(dp445
sI131
(dp446
sI132
(dp447
sI133
(dp448
sI134
(dp449
sI135
(dp450
sI136
(dp451
sI137
(dp452
sI138
(dp453
sI139
(dp454
sI140
(dp455
sI141
(dp456
sI142
(dp457
sI143
(dp458
sI144
(dp459
sI145
(dp460
sI146
(dp461
sI147
(dp462
sI148
(dp463
sI149
(dp464
sI150
(dp465
sI151
(dp466
sI152
(dp467
sI153
(dp468
sI154
(dp469
sI155
(dp470
sI156
(dp471
sI157
(dp472
sI158
(dp473
sI159
(dp474
sI160
(dp475
sI161
(dp476
sI162
(dp477
sI163
(dp478
sI164
(dp479
sI165
(dp480
sI166
(dp481
sI167
(dp482
sI168
(dp483
sI169
(dp484
sI170
(dp485
sI171
(dp486
sI172
(dp487
sI173
(dp488
sI174
(dp489
sI175
(dp490
sI176
(dp491
sI177
(dp492
sI178
(dp493
sI179
(dp494
sI180
(dp495
sI181
(dp496
sI182
(dp497
sI183
(dp498
sI184
(dp499
sI185
(dp500
sI186
(dp501
sI187
(dp502
sI188
(dp503
sI189
(dp504
sI190
(dp505
sI191
(dp506
sI192
(dp507
sI193
(dp508
sI194
(dp509
sI195
(dp510
sI196
(dp511
sI197
(dp512
sI198
(dp513
sI199
(dp514
sI200
(dp515
sI201
(dp516
sI202
(dp517
sI203
(dp518
sI204
(dp519
sI205
(dp520
sI206
(dp521
sI207
(dp522
sI208
(dp523
sI209
(dp524
sI210
(dp525
sI211
(dp526
sI212
(dp527
sI213
(dp528
sI214
(dp529
sI215
(dp530
sI216
(dp531
sI217
(dp532
sI218
(dp533
sI219
(dp534
sI220
(dp535
sI221
(dp536
sI222
(dp537
sI223
(dp538
sI224
(dp539
sI225
(dp540
sI226
(dp541
sI227
(dp542
sI228
(dp543
sI229
(dp544
sI230
(dp545
sI231
(dp546
sI232
(dp547
sI233
(dp548
sI234
(dp549
sI235
(dp550
sI236
(dp551
sI237
(dp552
sI238
(dp553
sI239
(dp554
sI240
(dp555
sI241
(dp556
sI242
(dp557
sI243
(dp558
sI244
(dp559
sI245
(dp560
sI246
(dp561
sI247
(dp562
sI248
(dp563
sI249
(dp564
sI250
(dp565
sI251
(dp566
sI252
(dp567
sI253
(dp568
sI254
(dp569
sI255
(dp570
sI256
(dp571
sI257
(dp572
sI258
(dp573
sI259
(dp574
sI260
(dp575
sI261
(dp576
sI262
(dp577
sI263
(dp578
sI264
(dp579
sI265
(dp580
sI266
(dp581
sI267
(dp582
sI268
(dp583
sI269
(dp584
sI270
(dp585
sI271
(dp586
sI272
(dp587
sI273
(dp588
sI274
(dp589
sI275
(dp590
sI276
(dp591
sI277
(dp592
sI278
(dp593
sI279
(dp594
sI280
(dp595
sI281
(dp596
sI282
(dp597
sI283
(dp598
sI284
(dp599
sI285
(dp600
sI286
(dp601
sI287
(dp602
sI288
(dp603
sI289
(dp604
sI290
(dp605
sI291
(dp606
sI292
(dp607
sI293
(dp608
sI294
(dp609
sI295
(dp610
sI296
(dp611
sI297
(dp612
sI298
(dp613
sI299
(dp614
ssS'graph'
p615
(dp616
sS'adjlist_dict_factory'
p617
g311
sS'adj'
p618
g314
sb.