ccopy_reg
_reconstructor
p0
(cnetworkx.classes.graph
Graph
p1
c__builtin__
object
p2
Ntp3
Rp4
(dp5
S'node'
p6
(dp7
I0
(dp8
S'pos_x'
p9
F0.07405822716586408
sS'pos_y'
p10
F0.7496153945525512
ssI1
(dp11
g9
F0.6675528953122978
sg10
F0.45072303032838557
ssI2
(dp12
g9
F0.963550934971515
sg10
F0.8027106759545665
ssI3
(dp13
g9
F0.04571241985004215
sg10
F0.5002378188479469
ssI4
(dp14
g9
F0.8369352914388384
sg10
F0.7767204548824402
ssI5
(dp15
g9
F0.14257178273048055
sg10
F0.4214426339318189
ssI6
(dp16
g9
F0.21546442405365906
sg10
F0.8333418444401895
ssI7
(dp17
g9
F0.7406438287865216
sg10
F0.4163688777289988
ssI8
(dp18
g9
F0.5929931144576333
sg10
F0.17329603185694908
ssI9
(dp19
g9
F0.2529160584269682
sg10
F0.1636748219887929
ssI10
(dp20
g9
F0.761970703986577
sg10
F0.4760978631461664
ssI11
(dp21
g9
F0.5846807445244874
sg10
F0.881077232740463
ssI12
(dp22
g9
F0.8666904527554729
sg10
F0.283546658272403
ssI13
(dp23
g9
F0.6258287495750297
sg10
F0.18466733513627087
ssI14
(dp24
g9
F0.7508136278818532
sg10
F0.2193228641559879
ssI15
(dp25
g9
F0.26379950779949046
sg10
F0.9909775545761526
ssI16
(dp26
g9
F0.8173852824920744
sg10
F0.17863799844931127
ssI17
(dp27
g9
F0.21728960124109764
sg10
F0.7610173732595016
ssI18
(dp28
g9
F0.6777646961632894
sg10
F0.7622982485543939
ssI19
(dp29
g9
F0.3331320574972808
sg10
F0.3626561296582912
ssI20
(dp30
g9
F0.2897116275663032
sg10
F0.12369367749322413
ssI21
(dp31
g9
F0.5067598482626055
sg10
F0.57000626145549
ssI22
(dp32
g9
F0.981080323523136
sg10
F0.8843312667363511
ssI23
(dp33
g9
F0.484336584913152
sg10
F0.6403212583811304
ssI24
(dp34
g9
F0.39470143906283583
sg10
F0.3558275305144363
ssI25
(dp35
g9
F0.49115518288513804
sg10
F0.8974935834483775
ssI26
(dp36
g9
F0.5857378564551103
sg10
F0.05178057346657339
ssI27
(dp37
g9
F0.08795905387578928
sg10
F0.652304245989612
ssI28
(dp38
g9
F0.301407691568365
sg10
F0.6151253378138702
ssI29
(dp39
g9
F0.5235683239946933
sg10
F0.8004044847030402
ssI30
(dp40
g9
F0.10667247535927182
sg10
F0.27594838858557946
ssI31
(dp41
g9
F0.5525255710883055
sg10
F0.6207046885077637
ssI32
(dp42
g9
F0.9297638679920677
sg10
F0.2377139404330455
ssI33
(dp43
g9
F0.9525012067021108
sg10
F0.4201670603561116
ssI34
(dp44
g9
F0.12799874880847162
sg10
F0.7574959133942109
ssI35
(dp45
g9
F0.8662013638459861
sg10
F0.9872716898022994
ssI36
(dp46
g9
F0.9891203150134185
sg10
F0.3706762104921951
ssI37
(dp47
g9
F0.36257420513499483
sg10
F0.5543308568088495
ssI38
(dp48
g9
F0.8862648722972831
sg10
F0.22482963049694304
ssI39
(dp49
g9
F0.009359487584213455
sg10
F0.940073204845526
ssI40
(dp50
g9
F0.3450936445531636
sg10
F0.8090434008566919
ssI41
(dp51
g9
F0.8869521151407247
sg10
F0.6153112923514636
ssI42
(dp52
g9
F0.506845695691062
sg10
F0.13673190765158527
ssI43
(dp53
g9
F0.3012583186075313
sg10
F0.5869645230194538
ssI44
(dp54
g9
F0.7347979347225246
sg10
F0.7323440409230556
ssI45
(dp55
g9
F0.4055719630937621
sg10
F0.9413887067979886
ssI46
(dp56
g9
F0.639128861924228
sg10
F0.13485072822921185
ssI47
(dp57
g9
F0.5315508525630989
sg10
F0.5531961659720113
ssI48
(dp58
g9
F0.12914820746550637
sg10
F0.8930630819295486
ssI49
(dp59
g9
F0.08603327126226068
sg10
F0.6433044195228569
ssI50
(dp60
g9
F0.3435100823589695
sg10
F0.3128281992298184
ssI51
(dp61
g9
F0.9964981527284661
sg10
F0.2445303155421662
ssI52
(dp62
g9
F0.9492124647096819
sg10
F0.5421863293235683
ssI53
(dp63
g9
F0.6618694487695079
sg10
F0.002806682464017052
ssI54
(dp64
g9
F0.06603914930077659
sg10
F0.07863373199740153
ssI55
(dp65
g9
F0.019345268469729615
sg10
F0.710866317301063
ssI56
(dp66
g9
F0.13251264115032657
sg10
F0.7810817411544807
ssI57
(dp67
g9
F0.9073819181491352
sg10
F0.3346719628721896
ssI58
(dp68
g9
F0.032951660953358775
sg10
F0.12203581527650187
ssI59
(dp69
g9
F0.16913473976803017
sg10
F0.9185222113914624
ssI60
(dp70
g9
F0.7614679191793962
sg10
F0.7639136000163743
ssI61
(dp71
g9
F0.7367483569130402
sg10
F0.39211978031724226
ssI62
(dp72
g9
F0.28792811567322707
sg10
F0.10631529018236141
ssI63
(dp73
g9
F0.595969022002646
sg10
F0.8111700233121746
ssI64
(dp74
g9
F0.016405916985737456
sg10
F0.15335479902562787
ssI65
(dp75
g9
F0.9361505866431905
sg10
F0.3815095534116242
ssI66
(dp76
g9
F0.029678365512426086
sg10
F0.20968567253161663
ssI67
(dp77
g9
F0.20031448153793197
sg10
F0.2364354097934257
ssI68
(dp78
g9
F0.016968474443741277
sg10
F0.7062525714496595
ssI69
(dp79
g9
F0.08609829628592258
sg10
F0.5213577831068871
ssI70
(dp80
g9
F0.03756276558052041
sg10
F0.7953267166896274
ssI71
(dp81
g9
F0.287191499779773
sg10
F0.4754566690416955
ssI72
(dp82
g9
F0.5467275885644172
sg10
F0.030491653508069816
ssI73
(dp83
g9
F0.0826787807753584
sg10
F0.505841146635411
ssI74
(dp84
g9
F0.08696557862097709
sg10
F0.7136261009713042
ssI75
(dp85
g9
F0.10374584117679053
sg10
F0.774228533912825
ssI76
(dp86
g9
F0.1842515450580262
sg10
F0.5530114833266586
ssI77
(dp87
g9
F0.1600743818497058
sg10
F0.5514475669465955
ssI78
(dp88
g9
F0.6738180267140934
sg10
F0.24001617006924825
ssI79
(dp89
g9
F0.2575962969914469
sg10
F0.6628657667368033
ssI80
(dp90
g9
F0.42150466902245853
sg10
F0.6317204950518838
ssI81
(dp91
g9
F0.01970075292319229
sg10
F0.3047636475778849
ssI82
(dp92
g9
F0.4114396371690989
sg10
F0.5850627041408414
ssI83
(dp93
g9
F0.6598719397844991
sg10
F0.5993286316152125
ssI84
(dp94
g9
F0.3130868237594414
sg10
F0.30932520885345205
ssI85
(dp95
g9
F0.4777505433272561
sg10
F0.17704175139150913
ssI86
(dp96
g9
F0.9188164028180157
sg10
F0.2984963080304035
ssI87
(dp97
g9
F0.5582703879251649
sg10
F0.8808715436800238
ssI88
(dp98
g9
F0.6735334132049186
sg10
F0.7221407650401857
ssI89
(dp99
g9
F0.06809933373583466
sg10
F0.37068340317726134
ssI90
(dp100
g9
F0.7574944293005422
sg10
F0.8033790095444501
ssI91
(dp101
g9
F0.9134453611513546
sg10
F0.2407558980524267
ssI92
(dp102
g9
F0.7874575224082462
sg10
F0.9274695056889969
ssI93
(dp103
g9
F0.29591297779609993
sg10
F0.43166461534857004
ssI94
(dp104
g9
F0.089136860890217
sg10
F0.9368539850627329
ssI95
(dp105
g9
F0.5792199839375883
sg10
F0.09598621227574655
ssI96
(dp106
g9
F0.9438846840985456
sg10
F0.7924866837779884
ssI97
(dp107
g9
F0.016745774197352792
sg10
F0.5072666158062888
ssI98
(dp108
g9
F0.5214564812866338
sg10
F0.23055790214275473
ssI99
(dp109
g9
F0.7846146466420177
sg10
F0.8809890917015506
ssI100
(dp110
g9
F0.4317524399614131
sg10
F0.9932283398081152
ssI101
(dp111
g9
F0.005497158748783204
sg10
F0.8409631209614092
ssI102
(dp112
g9
F0.6951905680142733
sg10
F0.42085102138830655
ssI103
(dp113
g9
F0.6949621462916582
sg10
F0.221670209916488
ssI104
(dp114
g9
F0.12367653656867006
sg10
F0.4132135253999605
ssI105
(dp115
g9
F0.781161498207128
sg10
F0.24795185674732168
ssI106
(dp116
g9
F0.644072146365553
sg10
F0.8684583513088894
ssI107
(dp117
g9
F0.10689296947551807
sg10
F0.5216547423845435
ssI108
(dp118
g9
F0.6189828069221968
sg10
F0.5681800408941122
ssI109
(dp119
g9
F0.6569018264928391
sg10
F0.3770036566739591
ssI110
(dp120
g9
F0.2887497824904717
sg10
F0.14849868814660871
ssI111
(dp121
g9
F0.9201928366688403
sg10
F0.6836829127704861
ssI112
(dp122
g9
F0.43090907013392266
sg10
F0.07827653768156262
ssI113
(dp123
g9
F0.12672294474776002
sg10
F0.56780417150711
ssI114
(dp124
g9
F0.7735980759094832
sg10
F0.21148971493752533
ssI115
(dp125
g9
F0.0008991535824445229
sg10
F0.37085114506095895
ssI116
(dp126
g9
F0.590499058508216
sg10
F0.5414221075845459
ssI117
(dp127
g9
F0.16854505651442409
sg10
F0.9312229524317371
ssI118
(dp128
g9
F0.40158972492324296
sg10
F0.5223883003807596
ssI119
(dp129
g9
F0.57613424160644
sg10
F0.7187521838146721
ssI120
(dp130
g9
F0.9610499109786154
sg10
F0.012871703320253225
ssI121
(dp131
g9
F0.9912076386408685
sg10
F0.06869920642319816
ssI122
(dp132
g9
F0.7787765189064281
sg10
F0.7488878213891876
ssI123
(dp133
g9
F0.11267753034881967
sg10
F0.6367142261749985
ssI124
(dp134
g9
F0.33773336266369547
sg10
F0.29580634606433054
ssI125
(dp135
g9
F0.4198815273779275
sg10
F0.506926460803179
ssI126
(dp136
g9
F0.7257126885305445
sg10
F0.5840693700501445
ssI127
(dp137
g9
F0.6515570509974604
sg10
F0.38085893847831087
ssI128
(dp138
g9
F0.41601550973727064
sg10
F0.7392358724169141
ssI129
(dp139
g9
F0.10320391174187138
sg10
F0.41070685799171935
ssI130
(dp140
g9
F0.06548925021110674
sg10
F0.6401425541988186
ssI131
(dp141
g9
F0.3500953421822208
sg10
F0.8740220083185309
ssI132
(dp142
g9
F0.672009624582921
sg10
F0.7805593901706808
ssI133
(dp143
g9
F0.8888106550998626
sg10
F0.7246761992556647
ssI134
(dp144
g9
F0.6765886774546451
sg10
F0.13447054119873303
ssI135
(dp145
g9
F0.1419017735074466
sg10
F0.9950955444261975
ssI136
(dp146
g9
F0.3459663239075371
sg10
F0.4569905838908149
ssI137
(dp147
g9
F0.5996642044194109
sg10
F0.37257642300008864
ssI138
(dp148
g9
F0.07426101261080909
sg10
F0.38082175306637633
ssI139
(dp149
g9
F0.625862801744093
sg10
F0.619147346743449
ssI140
(dp150
g9
F0.28606034882962783
sg10
F0.6635536905517458
ssI141
(dp151
g9
F0.8898619144566501
sg10
F0.8951320403655121
ssI142
(dp152
g9
F0.3074757269298073
sg10
F0.09044715323973307
ssI143
(dp153
g9
F0.23834365145509384
sg10
F0.24454934668854655
ssI144
(dp154
g9
F0.22450606048810584
sg10
F0.33909777666194085
ssI145
(dp155
g9
F0.30329792627107865
sg10
F0.9420945345105911
ssI146
(dp156
g9
F0.309433516853712
sg10
F0.6934554334202873
ssI147
(dp157
g9
F0.4805137959522219
sg10
F0.635511829202922
ssI148
(dp158
g9
F0.921595396081988
sg10
F0.00023395964152017612
ssI149
(dp159
g9
F0.5935869558614226
sg10
F0.28451471088016955
ssI150
(dp160
g9
F0.0590993335338853
sg10
F0.6326537617331628
ssI151
(dp161
g9
F0.9522318905252659
sg10
F0.08518020125041548
ssI152
(dp162
g9
F0.7898394964188735
sg10
F0.3830045783074678
ssI153
(dp163
g9
F0.2723969925075135
sg10
F0.0489146325059191
ssI154
(dp164
g9
F0.37422435123076936
sg10
F0.797757681618916
ssI155
(dp165
g9
F0.3009378409018013
sg10
F0.13060898728783665
ssI156
(dp166
g9
F0.7928911901968938
sg10
F0.485047330298893
ssI157
(dp167
g9
F0.05667472051824274
sg10
F0.35312567969429465
ssI158
(dp168
g9
F0.5758964368790446
sg10
F0.8816408023537103
ssI159
(dp169
g9
F0.7552277621929783
sg10
F0.8981335449027634
ssI160
(dp170
g9
F0.44684797800613074
sg10
F0.9659664466191475
ssI161
(dp171
g9
F0.8478960703122712
sg10
F0.5833066028396303
ssI162
(dp172
g9
F0.19455136914603355
sg10
F0.6169905131905155
ssI163
(dp173
g9
F0.40621554182146635
sg10
F0.8332942269905196
ssI164
(dp174
g9
F0.5348817161725415
sg10
F0.5974719716966003
ssI165
(dp175
g9
F0.40658126659580585
sg10
F0.13783663871192187
ssI166
(dp176
g9
F0.9307472542912616
sg10
F0.333343919064495
ssI167
(dp177
g9
F0.08056960552554726
sg10
F0.8863459512440193
ssI168
(dp178
g9
F0.10257863807962875
sg10
F0.3144376845539062
ssI169
(dp179
g9
F0.9780816641705129
sg10
F0.9134113317988486
ssI170
(dp180
g9
F0.3263767758876236
sg10
F0.24772026556854687
ssI171
(dp181
g9
F0.415524310862014
sg10
F0.36914553020616725
ssI172
(dp182
g9
F0.5027818613864583
sg10
F0.03748707246069405
ssI173
(dp183
g9
F0.5146746599342958
sg10
F0.48794007731309186
ssI174
(dp184
g9
F0.12773283422409432
sg10
F0.6494695019050316
ssI175
(dp185
g9
F0.016925579973317784
sg10
F0.5196312606821927
ssI176
(dp186
g9
F0.7048857053613234
sg10
F0.5468694947884046
ssI177
(dp187
g9
F0.9171744193748316
sg10
F0.6103466824626845
ssI178
(dp188
g9
F0.8672392722974628
sg10
F0.30834416411026944
ssI179
(dp189
g9
F0.6995799386127342
sg10
F0.22553972637285613
ssI180
(dp190
g9
F0.1713780555205745
sg10
F0.18176865594737956
ssI181
(dp191
g9
F0.5792921387750118
sg10
F0.8019551216808152
ssI182
(dp192
g9
F0.1939645514305095
sg10
F0.36807272486123677
ssI183
(dp193
g9
F0.7745063664576741
sg10
F0.13063201432396698
ssI184
(dp194
g9
F0.6813861124136388
sg10
F0.49808092746661725
ssI185
(dp195
g9
F0.8930147221099956
sg10
F0.7835341829498204
ssI186
(dp196
g9
F0.2560477873853928
sg10
F0.6914260400116871
ssI187
(dp197
g9
F0.6475326572949021
sg10
F0.3474970232900062
ssI188
(dp198
g9
F0.1439054021955093
sg10
F0.6851946401970389
ssI189
(dp199
g9
F0.9375822160002117
sg10
F0.3488404549247571
ssI190
(dp200
g9
F0.5995395141761892
sg10
F0.4777878623905596
ssI191
(dp201
g9
F0.2781111908280065
sg10
F0.2830393573307447
ssI192
(dp202
g9
F0.28775257336319016
sg10
F0.47335575752186376
ssI193
(dp203
g9
F0.03778894349256201
sg10
F0.36112697297414653
ssI194
(dp204
g9
F0.48783345913268283
sg10
F0.30665964672077195
ssI195
(dp205
g9
F0.023316735476823225
sg10
F0.9927709919566495
ssI196
(dp206
g9
F0.988163351403587
sg10
F0.7901402088618186
ssI197
(dp207
g9
F0.3444346819824856
sg10
F0.7310996283618992
ssI198
(dp208
g9
F0.13513776709770364
sg10
F0.8572060956002867
ssI199
(dp209
g9
F0.3726587255905979
sg10
F0.2635627857262215
ssI200
(dp210
g9
F0.3769840338343807
sg10
F0.8558029426159687
ssI201
(dp211
g9
F0.3689441109959307
sg10
F0.6769280251551312
ssI202
(dp212
g9
F0.2900777331403219
sg10
F0.8390147545451873
ssI203
(dp213
g9
F0.13339336989153305
sg10
F0.26220413382455665
ssI204
(dp214
g9
F0.723853376331209
sg10
F0.3767224241017644
ssI205
(dp215
g9
F0.1381774965687248
sg10
F0.6823038391968581
ssI206
(dp216
g9
F0.5325667629352904
sg10
F0.03214311119734847
ssI207
(dp217
g9
F0.808978384691687
sg10
F0.04458897871739376
ssI208
(dp218
g9
F0.2632650065172182
sg10
F0.11462700966441974
ssI209
(dp219
g9
F0.41272531798113576
sg10
F0.00047637973143777046
ssI210
(dp220
g9
F0.3021776297917763
sg10
F0.3840865608985936
ssI211
(dp221
g9
F0.7828025964474354
sg10
F0.6722399590063547
ssI212
(dp222
g9
F0.5529218716842523
sg10
F0.5533320281833515
ssI213
(dp223
g9
F0.7160978932966636
sg10
F0.23216384650770305
ssI214
(dp224
g9
F0.6344637778136887
sg10
F0.5348426415127009
ssI215
(dp225
g9
F0.06559280212622143
sg10
F0.033272291970408596
ssI216
(dp226
g9
F0.8648652010949144
sg10
F0.6260831277262445
ssI217
(dp227
g9
F0.38482067258995956
sg10
F0.7018105799549791
ssI218
(dp228
g9
F0.904488185122861
sg10
F0.6792632338482548
ssI219
(dp229
g9
F0.3541790764886459
sg10
F0.2588052228921812
ssI220
(dp230
g9
F0.18306874991340927
sg10
F0.6612049590483599
ssI221
(dp231
g9
F0.15996848901108685
sg10
F0.081892377484716
ssI222
(dp232
g9
F0.7325482240798321
sg10
F0.5677932444279121
ssI223
(dp233
g9
F0.05390984499279172
sg10
F0.7334714558872062
ssI224
(dp234
g9
F0.2361038300982714
sg10
F0.7513201453611157
ssI225
(dp235
g9
F0.697627779765589
sg10
F0.2856819932753232
ssI226
(dp236
g9
F0.05263709201980982
sg10
F0.4467140484175992
ssI227
(dp237
g9
F0.8522719100949632
sg10
F0.24101275310770098
ssI228
(dp238
g9
F0.635738400824415
sg10
F0.5767982823311637
ssI229
(dp239
g9
F0.677439837159525
sg10
F0.7897422685056675
ssI230
(dp240
g9
F0.9485683792011876
sg10
F0.6472139846249967
ssI231
(dp241
g9
F0.39650247601144994
sg10
F0.8624127699092256
ssI232
(dp242
g9
F0.5718976373342112
sg10
F0.30419271110893586
ssI233
(dp243
g9
F0.9263817107339719
sg10
F0.7371474002433303
ssI234
(dp244
g9
F0.6366880978210386
sg10
F0.9648457325962965
ssI235
(dp245
g9
F0.35583471589113314
sg10
F0.17740582392756477
ssI236
(dp246
g9
F0.9951918651701723
sg10
F0.39018536374115065
ssI237
(dp247
g9
F0.6833814835672728
sg10
F0.7936482599719985
ssI238
(dp248
g9
F0.4926350270485036
sg10
F0.8462700372789523
ssI239
(dp249
g9
F0.6058863420695844
sg10
F0.45579872730791937
ssI240
(dp250
g9
F0.3748223213276388
sg10
F0.27439291402795374
ssI241
(dp251
g9
F0.30604420889611517
sg10
F0.3503873751850667
ssI242
(dp252
g9
F0.7225350612682663
sg10
F0.40414287788799785
ssI243
(dp253
g9
F0.532716726191988
sg10
F0.7244394667836925
ssI244
(dp254
g9
F0.5544488385046259
sg10
F0.4116053427941597
ssI245
(dp255
g9
F0.2529256114747227
sg10
F0.8016371316345757
ssI246
(dp256
g9
F0.5752932536709813
sg10
F0.42598238939964816
ssI247
(dp257
g9
F0.2190900262120895
sg10
F0.9190676552734638
ssI248
(dp258
g9
F0.9435448516783634
sg10
F0.28435360845187363
ssI249
(dp259
g9
F0.16281328381553017
sg10
F0.7509264100747447
ssI250
(dp260
g9
F0.491740400362217
sg10
F0.1703079397710643
ssI251
(dp261
g9
F0.9989390230255041
sg10
F0.9455037398649172
ssI252
(dp262
g9
F0.3084946423750776
sg10
F0.9357527161212355
ssI253
(dp263
g9
F0.24378929216788747
sg10
F0.9986217906064608
ssI254
(dp264
g9
F0.5919783200155395
sg10
F0.36831308563723486
ssI255
(dp265
g9
F0.9727494613909233
sg10
F0.2739354486526364
ssI256
(dp266
g9
F0.7090870074009179
sg10
F0.6586571015852304
ssI257
(dp267
g9
F0.9991380535477389
sg10
F0.7562783352131958
ssI258
(dp268
g9
F0.5306491875847152
sg10
F0.22718546544310858
ssI259
(dp269
g9
F0.3715378402407816
sg10
F0.9437409006465522
ssI260
(dp270
g9
F0.2657687714840832
sg10
F0.4833823186349161
ssI261
(dp271
g9
F0.8125674685856018
sg10
F0.8176245737534441
ssI262
(dp272
g9
F0.7165770543126694
sg10
F0.33966758523795126
ssI263
(dp273
g9
F0.2528474894547481
sg10
F0.6916750824569132
ssI264
(dp274
g9
F0.9765061545643322
sg10
F0.08086362360083366
ssI265
(dp275
g9
F0.2614156433958327
sg10
F0.661726562434431
ssI266
(dp276
g9
F0.7619739718143983
sg10
F0.3730092755935047
ssI267
(dp277
g9
F0.01468053714749118
sg10
F0.32134134667494896
ssI268
(dp278
g9
F0.19690685970094202
sg10
F0.17981083201688708
ssI269
(dp279
g9
F0.6651724294329731
sg10
F0.22796073130656502
ssI270
(dp280
g9
F0.9618244678534155
sg10
F0.8872426481199183
ssI271
(dp281
g9
F0.5510374160392906
sg10
F0.8151256403232878
ssI272
(dp282
g9
F0.5220318580805596
sg10
F0.5742461931838715
ssI273
(dp283
g9
F0.7364444722135335
sg10
F0.39437829140038216
ssI274
(dp284
g9
F0.15412285203292964
sg10
F0.2604885846625996
ssI275
(dp285
g9
F0.9735837031573871
sg10
F0.6760368492170955
ssI276
(dp286
g9
F0.5184541613748832
sg10
F0.016083540688307196
ssI277
(dp287
g9
F0.5633512517119854
sg10
F0.8715340566994585
ssI278
(dp288
g9
F0.5746480045612523
sg10
F0.6012334651821235
ssI279
(dp289
g9
F0.5803605149677497
sg10
F0.7739262133121384
ssI280
(dp290
g9
F0.22342747819311615
sg10
F0.6827525053277438
ssI281
(dp291
g9
F0.9159772964537298
sg10
F0.652386246113985
ssI282
(dp292
g9
F0.9072626708993219
sg10
F0.12680164153225315
ssI283
(dp293
g9
F0.9154585259575349
sg10
F0.12278035306683455
ssI284
(dp294
g9
F0.779356501957002
sg10
F0.10481972902461922
ssI285
(dp295
g9
F0.5860190493409928
sg10
F0.2109986767719736
ssI286
(dp296
g9
F0.7323886994207479
sg10
F0.5877508793197309
ssI287
(dp297
g9
F0.04084428132037643
sg10
F0.3405867284828825
ssI288
(dp298
g9
F0.10639727506073837
sg10
F0.5298841222409457
ssI289
(dp299
g9
F0.9664200258874682
sg10
F0.7555276691867547
ssI290
(dp300
g9
F0.4170904063885683
sg10
F0.7187136680372856
ssI291
(dp301
g9
F0.8351682617258033
sg10
F0.47488182194273065
ssI292
(dp302
g9
F0.5587948970914992
sg10
F0.06497784377283966
ssI293
(dp303
g9
F0.6308357990549723
sg10
F0.7215334775880864
ssI294
(dp304
g9
F0.9217712805054421
sg10
F0.7202716474168092
ssI295
(dp305
g9
F0.7960695859711024
sg10
F0.7014294141208884
ssI296
(dp306
g9
F0.9015478402292312
sg10
F0.35844046246895944
ssI297
(dp307
g9
F0.32503909663817543
sg10
F0.11033615675726827
ssI298
(dp308
g9
F0.36437503995625975
sg10
F0.9893878059087552
ssI299
(dp309
g9
F0.11450589817486034
sg10
F0.4624809889034768
sssS'node_dict_factory'
p310
c__builtin__
dict
p311
sS'edge_attr_dict_factory'
p312
g311
sS'edge'
p313
(dp314
I0
(dp315
sI1
(dp316
sI2
(dp317
sI3
(dp318
sI4
(dp319
sI5
(dp320
sI6
(dp321
sI7
(dp322
sI8
(dp323
sI9
(dp324
sI10
(dp325
sI11
(dp326
sI12
(dp327
sI13
(dp328
sI14
(dp329
sI15
(dp330
sI16
(dp331
sI17
(dp332
sI18
(dp333
sI19
(dp334
sI20
(dp335
sI21
(dp336
sI22
(dp337
sI23
(dp338
sI24
(dp339
sI25
(dp340
sI26
(dp341
sI27
(dp342
sI28
(dp343
sI29
(dp344
sI30
(dp345
sI31
(dp346
sI32
(dp347
sI33
(dp348
sI34
(dp349
sI35
(dp350
sI36
(dp351
sI37
(dp352
sI38
(dp353
sI39
(dp354
sI40
(dp355
sI41
(dp356
sI42
(dp357
sI43
(dp358
sI44
(dp359
sI45
(dp360
sI46
(dp361
sI47
(dp362
sI48
(dp363
sI49
(dp364
sI50
(dp365
sI51
(dp366
sI52
(dp367
sI53
(dp368
sI54
(dp369
sI55
(dp370
sI56
(dp371
sI57
(dp372
sI58
(dp373
sI59
(dp374
sI60
(dp375
sI61
(dp376
sI62
(dp377
sI63
(dp378
sI64
(dp379
sI65
(dp380
sI66
(dp381
sI67
(dp382
sI68
(dp383
sI69
(dp384
sI70
(dp385
sI71
(dp386
sI72
(dp387
sI73
(dp388
sI74
(dp389
sI75
(dp390
sI76
(dp391
sI77
(dp392
sI78
(dp393
sI79
(dp394
sI80
(dp395
sI81
(dp396
sI82
(dp397
sI83
(dp398
sI84
(dp399
sI85
(dp400
sI86
(dp401
sI87
(dp402
sI88
(dp403
sI89
(dp404
sI90
(dp405
sI91
(dp406
sI92
(dp407
sI93
(dp408
sI94
(dp409
sI95
(dp410
sI96
(dp411
sI97
(dp412
sI98
(dp413
sI99
(dp414
sI100
(dp415
sI101
(dp416
sI102
(dp417
sI103
(dp418
sI104
(dp419
sI105
(dp420
sI106
(dp421
sI107
(dp422
sI108
(dp423
sI109
(dp424
sI110
(dp425
sI111
(dp426
sI112
(dp427
sI113
(dp428
sI114
(dp429
sI115
(dp430
sI116
(dp431
sI117
(dp432
sI118
(dp433
sI119
(dp434
sI120
(dp435
sI121
(dp436
sI122
(dp437
sI123
(dp438
sI124
(dp439
sI125
(dp440
sI126
(dp441
sI127
(dp442
sI128
(dp443
sI129
(dp444
sI130
(dp445
sI131
(dp446
sI132
(dp447
sI133
(dp448
sI134
(dp449
sI135
(dp450
sI136
(dp451
sI137
(dp452
sI138
(dp453
sI139
(dp454
sI140
(dp455
sI141
(dp456
sI142
(dp457
sI143
(dp458
sI144
(dp459
sI145
(dp460
sI146
(dp461
sI147
(dp462
sI148
(dp463
sI149
(dp464
sI150
(dp465
sI151
(dp466
sI152
(dp467
sI153
(dp468
sI154
(dp469
sI155
(dp470
sI156
(dp471
sI157
(dp472
sI158
(dp473
sI159
(dp474
sI160
(dp475
sI161
(dp476
sI162
(dp477
sI163
(dp478
sI164
(dp479
sI165
(dp480
sI166
(dp481
sI167
(dp482
sI168
(dp483
sI169
(dp484
sI170
(dp485
sI171
(dp486
sI172
(dp487
sI173
(dp488
sI174
(dp489
sI175
(dp490
sI176
(dp491
sI177
(dp492
sI178
(dp493
sI179
(dp494
sI180
(dp495
sI181
(dp496
sI182
(dp497
sI183
(dp498
sI184
(dp499
sI185
(dp500
sI186
(dp501
sI187
(dp502
sI188
(dp503
sI189
(dp504
sI190
(dp505
sI191
(dp506
sI192
(dp507
sI193
(dp508
sI194
(dp509
sI195
(dp510
sI196
(dp511
sI197
(dp512
sI198
(dp513
sI199
(dp514
sI200
(dp515
sI201
(dp516
sI202
(dp517
sI203
(dp518
sI204
(dp519
sI205
(dp520
sI206
(dp521
sI207
(dp522
sI208
(dp523
sI209
(dp524
sI210
(dp525
sI211
(dp526
sI212
(dp527
sI213
(dp528
sI214
(dp529
sI215
(dp530
sI216
(dp531
sI217
(dp532
sI218
(dp533
sI219
(dp534
sI220
(dp535
sI221
(dp536
sI222
(dp537
sI223
(dp538
sI224
(dp539
sI225
(dp540
sI226
(dp541
sI227
(dp542
sI228
(dp543
sI229
(dp544
sI230
(dp545
sI231
(dp546
sI232
(dp547
sI233
(dp548
sI234
(dp549
sI235
(dp550
sI236
(dp551
sI237
(dp552
sI238
(dp553
sI239
(dp554
sI240
(dp555
sI241
(dp556
sI242
(dp557
sI243
(dp558
sI244
(dp559
sI245
(dp560
sI246
(dp561
sI247
(dp562
sI248
(dp563
sI249
(dp564
sI250
(dp565
sI251
(dp566
sI252
(dp567
sI253
(dp568
sI254
(dp569
sI255
(dp570
sI256
(dp571
sI257
(dp572
sI258
(dp573
sI259
(dp574
sI260
(dp575
sI261
(dp576
sI262
(dp577
sI263
(dp578
sI264
(dp579
sI265
(dp580
sI266
(dp581
sI267
(dp582
sI268
(dp583
sI269
(dp584
sI270
(dp585
sI271
(dp586
sI272
(dp587
sI273
(dp588
sI274
(dp589
sI275
(dp590
sI276
(dp591
sI277
(dp592
sI278
(dp593
sI279
(dp594
sI280
(dp595
sI281
(dp596
sI282
(dp597
sI283
(dp598
sI284
(dp599
sI285
(dp600
sI286
(dp601
sI287
(dp602
sI288
(dp603
sI289
(dp604
sI290
(dp605
sI291
(dp606
sI292
(dp607
sI293
(dp608
sI294
(dp609
sI295
(dp610
sI296
(dp611
sI297
(dp612
sI298
(dp613
sI299
(dp614
ssS'graph'
p615
(dp616
sS'adjlist_dict_factory'
p617
g311
sS'adj'
p618
g314
sb.