ccopy_reg
_reconstructor
p0
(cnetworkx.classes.graph
Graph
p1
c__builtin__
object
p2
Ntp3
Rp4
(dp5
S'node'
p6
(dp7
I0
(dp8
S'pos_x'
p9
F0.29970174272903427
sS'pos_y'
p10
F0.9693581883461236
ssI1
(dp11
g9
F0.7547538983083938
sg10
F0.8762796079604256
ssI2
(dp12
g9
F0.10968944048031326
sg10
F0.8116574893786938
ssI3
(dp13
g9
F0.7910986071636597
sg10
F0.4513633589457652
ssI4
(dp14
g9
F0.6115419712664836
sg10
F0.8170955394824808
ssI5
(dp15
g9
F0.9236402566826203
sg10
F0.3614587474420259
ssI6
(dp16
g9
F0.3137663133115288
sg10
F0.5901191891195761
ssI7
(dp17
g9
F0.6307449702265221
sg10
F0.4052370425836932
ssI8
(dp18
g9
F0.19790528800762708
sg10
F0.1221610159826726
ssI9
(dp19
g9
F0.7013613951945014
sg10
F0.12189327328704858
ssI10
(dp20
g9
F0.29107848776291156
sg10
F0.7756707329876407
ssI11
(dp21
g9
F0.37583809986683603
sg10
F0.17731283593836278
ssI12
(dp22
g9
F0.3748574543552591
sg10
F0.6682125964029377
ssI13
(dp23
g9
F0.25845311686164163
sg10
F0.3917425986513492
ssI14
(dp24
g9
F0.8642887807500591
sg10
F0.9933955582357862
ssI15
(dp25
g9
F0.9272850195151493
sg10
F0.61583913168953
ssI16
(dp26
g9
F0.46626643062514983
sg10
F0.6643515434525769
ssI17
(dp27
g9
F0.09044225217609592
sg10
F0.9556086560188973
ssI18
(dp28
g9
F0.3771642119899532
sg10
F0.5027509150607158
ssI19
(dp29
g9
F0.5726419484162824
sg10
F0.37579644464930884
ssI20
(dp30
g9
F0.03526975750955519
sg10
F0.2221382802410964
ssI21
(dp31
g9
F0.27244564360294654
sg10
F0.3843024538473523
ssI22
(dp32
g9
F0.9282131690490818
sg10
F0.16461247745614316
ssI23
(dp33
g9
F0.0929419830045437
sg10
F0.7248604705902777
ssI24
(dp34
g9
F0.107693644296325
sg10
F0.8749716124334534
ssI25
(dp35
g9
F0.21372889737242085
sg10
F0.19281932516578815
ssI26
(dp36
g9
F0.5041455342094884
sg10
F0.44394378303004367
ssI27
(dp37
g9
F0.5798291709406281
sg10
F0.4819431919934065
ssI28
(dp38
g9
F0.41187377315633067
sg10
F0.2738105188623129
ssI29
(dp39
g9
F0.25867429844176626
sg10
F0.23993102524260868
ssI30
(dp40
g9
F0.10310482274015642
sg10
F0.9281322465660266
ssI31
(dp41
g9
F0.6683875781258921
sg10
F0.9131947775878488
ssI32
(dp42
g9
F0.23332667357551928
sg10
F0.6734210168699979
ssI33
(dp43
g9
F0.7543931956985326
sg10
F0.33706275006333686
ssI34
(dp44
g9
F0.28040398755745366
sg10
F0.6769448800656046
ssI35
(dp45
g9
F0.464310059655334
sg10
F0.7364361746260706
ssI36
(dp46
g9
F0.9969156547958218
sg10
F0.784981216487331
ssI37
(dp47
g9
F0.6157020664087841
sg10
F0.8852897604868328
ssI38
(dp48
g9
F0.38748752271217846
sg10
F0.11874824100648451
ssI39
(dp49
g9
F0.9971086196306738
sg10
F0.8393500330450597
ssI40
(dp50
g9
F0.9014766483456539
sg10
F0.5129378411048383
ssI41
(dp51
g9
F0.645391445652202
sg10
F0.041107917247143355
ssI42
(dp52
g9
F0.2355022695768293
sg10
F0.706596023321186
ssI43
(dp53
g9
F0.1786459090584691
sg10
F0.3110394379205357
ssI44
(dp54
g9
F0.24824870719345327
sg10
F0.6743918753002994
ssI45
(dp55
g9
F0.3390297672626901
sg10
F0.7827843576337951
ssI46
(dp56
g9
F0.3246231921811371
sg10
F0.12861923695323896
ssI47
(dp57
g9
F0.6874259441749987
sg10
F0.5731837742086657
ssI48
(dp58
g9
F0.016584737050268417
sg10
F0.8090581874670255
ssI49
(dp59
g9
F0.16474537220307595
sg10
F0.8292662956833137
ssI50
(dp60
g9
F0.7982590789016023
sg10
F0.871987924817027
ssI51
(dp61
g9
F0.41753098508805153
sg10
F0.19961499043410624
ssI52
(dp62
g9
F0.9280242748531975
sg10
F0.7352221547416709
ssI53
(dp63
g9
F0.1484841047305704
sg10
F0.7697364352705023
ssI54
(dp64
g9
F0.18726278496850535
sg10
F0.7922788887257055
ssI55
(dp65
g9
F0.9478037913460671
sg10
F0.6472941713237822
ssI56
(dp66
g9
F0.32010504497001757
sg10
F0.16074415061057
ssI57
(dp67
g9
F0.20809004672763332
sg10
F0.11537048037845898
ssI58
(dp68
g9
F0.014843243054810884
sg10
F0.9326019002736143
ssI59
(dp69
g9
F0.8094066836267072
sg10
F0.37410034754031674
ssI60
(dp70
g9
F0.23335331142246174
sg10
F0.0475330987262359
ssI61
(dp71
g9
F0.4058828267452945
sg10
F0.2240493392506816
ssI62
(dp72
g9
F0.4491538143258593
sg10
F0.265519586693607
ssI63
(dp73
g9
F0.49609694340209165
sg10
F0.7980497454800769
ssI64
(dp74
g9
F0.1060091948697105
sg10
F0.8005175215925673
ssI65
(dp75
g9
F0.7879087709376048
sg10
F0.2935423993032227
ssI66
(dp76
g9
F0.81925619855297
sg10
F0.8112506179089468
ssI67
(dp77
g9
F0.5292392111357024
sg10
F0.347940539070025
ssI68
(dp78
g9
F0.40106232682492804
sg10
F0.5718149757825959
ssI69
(dp79
g9
F0.7313322294949919
sg10
F0.7776178354588238
ssI70
(dp80
g9
F0.5666831707711332
sg10
F0.020024271877996824
ssI71
(dp81
g9
F0.011214381794927841
sg10
F0.4165421973943706
ssI72
(dp82
g9
F0.6691811620643202
sg10
F0.8871271888338961
ssI73
(dp83
g9
F0.5191352431831573
sg10
F0.6730505236669357
ssI74
(dp84
g9
F0.5967958531336716
sg10
F0.49473732405007387
ssI75
(dp85
g9
F0.8538975157071459
sg10
F0.13766639665492753
ssI76
(dp86
g9
F0.14541028235264397
sg10
F0.9242115441925475
ssI77
(dp87
g9
F0.36694782610528465
sg10
F0.9307887501075607
ssI78
(dp88
g9
F0.6863204892766097
sg10
F0.8982959099591281
ssI79
(dp89
g9
F0.7545448339848254
sg10
F0.3640533228317758
ssI80
(dp90
g9
F0.7882254854232361
sg10
F0.06514522103517983
ssI81
(dp91
g9
F0.9786745115756817
sg10
F0.7818427705657649
ssI82
(dp92
g9
F0.2514167479031898
sg10
F0.9660439849662433
ssI83
(dp93
g9
F0.6341386133731504
sg10
F0.820232763007317
ssI84
(dp94
g9
F0.2616765192323738
sg10
F0.4174662040457363
ssI85
(dp95
g9
F0.92413070748677
sg10
F0.702107420176073
ssI86
(dp96
g9
F0.7387710870360118
sg10
F0.7649955593671941
ssI87
(dp97
g9
F0.5878537352229443
sg10
F0.6727419252908547
ssI88
(dp98
g9
F0.3886984054649626
sg10
F0.22299199362153854
ssI89
(dp99
g9
F0.22426861324112357
sg10
F0.5609897108586877
ssI90
(dp100
g9
F0.44779583154597025
sg10
F0.26426722499412425
ssI91
(dp101
g9
F0.6832259798523831
sg10
F0.42398195904692104
ssI92
(dp102
g9
F0.01039474224647241
sg10
F0.5493659962206768
ssI93
(dp103
g9
F0.4999327159504827
sg10
F0.8131568878797077
ssI94
(dp104
g9
F0.7944440164795795
sg10
F0.026997281783634364
ssI95
(dp105
g9
F0.057983691231783485
sg10
F0.7280037651738669
ssI96
(dp106
g9
F0.5027441489488582
sg10
F0.04266177680522154
ssI97
(dp107
g9
F0.22228705415926986
sg10
F0.7622248648727132
ssI98
(dp108
g9
F0.5186354159757193
sg10
F0.06365204726766349
ssI99
(dp109
g9
F0.3473533802109683
sg10
F0.3668930125742974
ssI100
(dp110
g9
F0.2929388528551311
sg10
F0.4844638251662756
ssI101
(dp111
g9
F0.6348496393376971
sg10
F0.13574800580805402
ssI102
(dp112
g9
F0.3231870451581631
sg10
F0.2698732692428111
ssI103
(dp113
g9
F0.5045072035327548
sg10
F0.9827343396179961
ssI104
(dp114
g9
F0.2249602374490467
sg10
F0.04905822531341153
ssI105
(dp115
g9
F0.15981487554957463
sg10
F0.08655834842340593
ssI106
(dp116
g9
F0.21227698451325527
sg10
F0.5497412425926248
ssI107
(dp117
g9
F0.6601178078988253
sg10
F0.2085802051712513
ssI108
(dp118
g9
F0.5765297526462576
sg10
F0.9601338961140683
ssI109
(dp119
g9
F0.6186904282714466
sg10
F0.5572803501139256
ssI110
(dp120
g9
F0.5617781993061567
sg10
F0.3251870893471296
ssI111
(dp121
g9
F0.328503774912805
sg10
F0.019195765219277572
ssI112
(dp122
g9
F0.9874438348088334
sg10
F0.42397160112780696
ssI113
(dp123
g9
F0.9440916665908984
sg10
F0.6399301965484964
ssI114
(dp124
g9
F0.09948164715454333
sg10
F0.28624344332072493
ssI115
(dp125
g9
F0.08085947146432326
sg10
F0.9326170021576973
ssI116
(dp126
g9
F0.06232771813371196
sg10
F0.30413097053073523
ssI117
(dp127
g9
F0.8667990006413181
sg10
F0.8197123902797535
ssI118
(dp128
g9
F0.34918128615214106
sg10
F0.46438293335148395
ssI119
(dp129
g9
F0.37948409352241097
sg10
F0.9541633458792841
ssI120
(dp130
g9
F0.930314031340414
sg10
F0.960388474918055
ssI121
(dp131
g9
F0.17956642696951064
sg10
F0.49862916331536633
ssI122
(dp132
g9
F0.04099080748543693
sg10
F0.242191220840955
ssI123
(dp133
g9
F0.017569031598180462
sg10
F0.0654336865449826
ssI124
(dp134
g9
F0.3597536429105642
sg10
F0.3473636599022153
ssI125
(dp135
g9
F0.8198823286574488
sg10
F0.9276803220010177
ssI126
(dp136
g9
F0.8845320120638082
sg10
F0.8482298929394821
ssI127
(dp137
g9
F0.9657230239371944
sg10
F0.4225496591968054
ssI128
(dp138
g9
F0.912872688703883
sg10
F0.1112749458943183
ssI129
(dp139
g9
F0.20514393893247473
sg10
F0.18360394368596378
ssI130
(dp140
g9
F0.39977526611560665
sg10
F0.9900416518566919
ssI131
(dp141
g9
F0.6330229418108202
sg10
F0.46396778728199317
ssI132
(dp142
g9
F0.4695958497335254
sg10
F0.7368597759810183
ssI133
(dp143
g9
F0.6703871847233139
sg10
F0.8044888891973375
ssI134
(dp144
g9
F0.9541860642542048
sg10
F0.24426585149646807
ssI135
(dp145
g9
F0.9621229546413199
sg10
F0.13068570330698948
ssI136
(dp146
g9
F0.43708952774090326
sg10
F0.46298732334388804
ssI137
(dp147
g9
F0.8438035885228709
sg10
F0.2507713685824373
ssI138
(dp148
g9
F0.2708261849313569
sg10
F0.915448459928788
ssI139
(dp149
g9
F0.6639843533414542
sg10
F0.8308455663413002
ssI140
(dp150
g9
F0.11010093090340001
sg10
F0.4198113487790449
ssI141
(dp151
g9
F0.7483740137940293
sg10
F0.9598971788904033
ssI142
(dp152
g9
F0.7254623587704607
sg10
F0.22031978324942658
ssI143
(dp153
g9
F0.5330145955484293
sg10
F0.9869223875382599
ssI144
(dp154
g9
F0.5073560610646373
sg10
F0.7954033115456408
ssI145
(dp155
g9
F0.5803214339187288
sg10
F0.9187160184013237
ssI146
(dp156
g9
F0.08514861040197874
sg10
F0.262495583867976
ssI147
(dp157
g9
F0.6499492667011751
sg10
F0.7440729056511374
ssI148
(dp158
g9
F0.8759480333865127
sg10
F0.5216085855572603
ssI149
(dp159
g9
F0.5128348682743058
sg10
F0.8810410158462354
ssI150
(dp160
g9
F0.1306504736252323
sg10
F0.23964853616138326
ssI151
(dp161
g9
F0.6633163980802934
sg10
F0.11360237090571246
ssI152
(dp162
g9
F0.16969775595746917
sg10
F0.898255268304692
ssI153
(dp163
g9
F0.5188713389183748
sg10
F0.4465638047446956
ssI154
(dp164
g9
F0.9451473238701442
sg10
F0.14181203573340462
ssI155
(dp165
g9
F0.8598589799677363
sg10
F0.12339526357425767
ssI156
(dp166
g9
F0.7499106950673172
sg10
F0.9770585711765553
ssI157
(dp167
g9
F0.3038646899658598
sg10
F0.031452371636771725
ssI158
(dp168
g9
F0.8151168109532029
sg10
F0.766011635249607
ssI159
(dp169
g9
F0.030482826374285454
sg10
F0.28441145704078474
ssI160
(dp170
g9
F0.6663377521789571
sg10
F0.5496735667259791
ssI161
(dp171
g9
F0.11529801275077523
sg10
F0.20550255168067
ssI162
(dp172
g9
F0.3923881626861089
sg10
F0.15868481318869587
ssI163
(dp173
g9
F0.24465613314337387
sg10
F0.8630405905230426
ssI164
(dp174
g9
F0.8839634195656544
sg10
F0.3232698016448453
ssI165
(dp175
g9
F0.7248326327536818
sg10
F0.30718961924785027
ssI166
(dp176
g9
F0.8437211836723195
sg10
F0.24793273227487922
ssI167
(dp177
g9
F0.5916423175489942
sg10
F0.026726881607463282
ssI168
(dp178
g9
F0.4838694184423409
sg10
F0.6829987664744459
ssI169
(dp179
g9
F0.8605974831150143
sg10
F0.4568485215927227
ssI170
(dp180
g9
F0.30395677112063835
sg10
F0.894607176785017
ssI171
(dp181
g9
F0.5454878856978576
sg10
F0.15671796447056274
ssI172
(dp182
g9
F0.2794550029631159
sg10
F0.7821450406800073
ssI173
(dp183
g9
F0.08981643308751541
sg10
F0.40787753155780804
ssI174
(dp184
g9
F0.4665958126389267
sg10
F0.3058221708371285
ssI175
(dp185
g9
F0.9613359044422141
sg10
F0.07088967582870287
ssI176
(dp186
g9
F0.47511054000116737
sg10
F0.42074456316521114
ssI177
(dp187
g9
F0.20991345573989417
sg10
F0.6214156242450408
ssI178
(dp188
g9
F0.5746758420596338
sg10
F0.42087620209598675
ssI179
(dp189
g9
F0.07098398606203637
sg10
F0.9560716621738391
ssI180
(dp190
g9
F0.011290776437888783
sg10
F0.7492374791528807
ssI181
(dp191
g9
F0.5928998965447458
sg10
F0.048106606597900003
ssI182
(dp192
g9
F0.5371097968120842
sg10
F0.09789120012071151
ssI183
(dp193
g9
F0.3942107911959163
sg10
F0.37129227472114
ssI184
(dp194
g9
F0.5866251037476252
sg10
F0.08388199794431128
ssI185
(dp195
g9
F0.967313537941218
sg10
F0.8881833217501783
ssI186
(dp196
g9
F0.19793357813119705
sg10
F0.7687927082756586
ssI187
(dp197
g9
F0.12663403581607646
sg10
F0.5827371723402985
ssI188
(dp198
g9
F0.3144288458657647
sg10
F0.4657190698339876
ssI189
(dp199
g9
F0.8562448746135105
sg10
F0.4302334306624437
ssI190
(dp200
g9
F0.3704814430239354
sg10
F0.765733969063906
ssI191
(dp201
g9
F0.4183715084360311
sg10
F0.3020874112636095
ssI192
(dp202
g9
F0.6313626452961776
sg10
F0.9361769379954951
ssI193
(dp203
g9
F0.024528644928300092
sg10
F0.0935424281223155
ssI194
(dp204
g9
F0.0810158559493247
sg10
F0.37752913355142403
ssI195
(dp205
g9
F0.5617992004057131
sg10
F0.9057179778293671
ssI196
(dp206
g9
F0.9720100549883807
sg10
F0.4151838239858492
ssI197
(dp207
g9
F0.8647866307673174
sg10
F0.16902744945412684
ssI198
(dp208
g9
F0.9320360307985709
sg10
F0.8797373795252872
ssI199
(dp209
g9
F0.5180278249355388
sg10
F0.20241092432346797
ssI200
(dp210
g9
F0.6225479701128921
sg10
F0.47784323468575396
ssI201
(dp211
g9
F0.4124745748209814
sg10
F0.23127793108235717
ssI202
(dp212
g9
F0.4959397981920578
sg10
F0.7139493924904361
ssI203
(dp213
g9
F0.7224838223035622
sg10
F0.23652733737691511
ssI204
(dp214
g9
F0.9762465150557044
sg10
F0.4877184322480649
ssI205
(dp215
g9
F0.05403558160370747
sg10
F0.4735231273436008
ssI206
(dp216
g9
F0.563846580637276
sg10
F0.913412785514228
ssI207
(dp217
g9
F0.47705567555951434
sg10
F0.49000931846531715
ssI208
(dp218
g9
F0.7139356922451096
sg10
F0.8787862288362656
ssI209
(dp219
g9
F0.5550604776485469
sg10
F0.5173837009893173
ssI210
(dp220
g9
F0.3321026950561152
sg10
F0.4351891570236528
ssI211
(dp221
g9
F0.10158072273817476
sg10
F0.24087694388210013
ssI212
(dp222
g9
F0.7285075777020654
sg10
F0.8036334032928433
ssI213
(dp223
g9
F0.7466785659716784
sg10
F0.659665820265626
ssI214
(dp224
g9
F0.4698739885256066
sg10
F0.017888525090973273
ssI215
(dp225
g9
F0.6804780788401659
sg10
F0.17262415683510013
ssI216
(dp226
g9
F0.8377395533714881
sg10
F0.2776496291639954
ssI217
(dp227
g9
F0.4001661585745121
sg10
F0.12803913815899426
ssI218
(dp228
g9
F0.032601656111092114
sg10
F0.5594153690814787
ssI219
(dp229
g9
F0.5434461333252641
sg10
F0.6235115738111564
ssI220
(dp230
g9
F0.8557281654050807
sg10
F0.6708315114131876
ssI221
(dp231
g9
F0.416148100595815
sg10
F0.7730667981792424
ssI222
(dp232
g9
F0.8645805528046221
sg10
F0.9252224105818763
ssI223
(dp233
g9
F0.9899967565285823
sg10
F0.6324886902109442
ssI224
(dp234
g9
F0.5476474144384026
sg10
F0.24106462250989769
ssI225
(dp235
g9
F0.39155134494668953
sg10
F0.7541523400996415
ssI226
(dp236
g9
F0.054690618229057075
sg10
F0.6373930784532638
ssI227
(dp237
g9
F0.4975444585301765
sg10
F0.2759809780929645
ssI228
(dp238
g9
F0.9222167587173505
sg10
F0.5397364591760792
ssI229
(dp239
g9
F0.22960005438656905
sg10
F0.08097110761707171
ssI230
(dp240
g9
F0.029726248175902636
sg10
F0.9519049982008125
ssI231
(dp241
g9
F0.22978108864829438
sg10
F0.33236769421684975
ssI232
(dp242
g9
F0.9100495247210015
sg10
F0.8289277896301988
ssI233
(dp243
g9
F0.5421289114394704
sg10
F0.6842685546128777
ssI234
(dp244
g9
F0.8543638791522707
sg10
F0.9127785867179169
ssI235
(dp245
g9
F0.6509208850577547
sg10
F0.3439888641183627
ssI236
(dp246
g9
F0.20752307407665938
sg10
F0.5570590052652299
ssI237
(dp247
g9
F0.6419753346700637
sg10
F0.17133344016079954
ssI238
(dp248
g9
F0.8812154775963104
sg10
F0.39697094438139713
ssI239
(dp249
g9
F0.2234106991199042
sg10
F0.6932860959420897
ssI240
(dp250
g9
F0.5815452953213983
sg10
F0.9967633416758533
ssI241
(dp251
g9
F0.4736917536283206
sg10
F0.9666202773150028
ssI242
(dp252
g9
F0.946207443450954
sg10
F0.3990909471986279
ssI243
(dp253
g9
F0.7499838324540941
sg10
F0.8072683299810262
ssI244
(dp254
g9
F0.2874516092289866
sg10
F0.1041183171942407
ssI245
(dp255
g9
F0.6410801518058908
sg10
F0.12140214190426435
ssI246
(dp256
g9
F0.07863692470997241
sg10
F0.5203348213788204
ssI247
(dp257
g9
F0.23351286574978058
sg10
F0.3706594712160911
ssI248
(dp258
g9
F0.674475270715092
sg10
F0.9901848615078191
ssI249
(dp259
g9
F0.7747001955445101
sg10
F0.16517652919285752
ssI250
(dp260
g9
F0.9595659616014958
sg10
F0.8674601664465829
ssI251
(dp261
g9
F0.5218664973789663
sg10
F0.9351491066693817
ssI252
(dp262
g9
F0.7930913938260286
sg10
F0.9273048199299933
ssI253
(dp263
g9
F0.16343446040669773
sg10
F0.05718453412139901
ssI254
(dp264
g9
F0.6874930202280372
sg10
F0.009437089381800767
ssI255
(dp265
g9
F0.06858245782358174
sg10
F0.1460537159369416
ssI256
(dp266
g9
F0.46798781103844067
sg10
F0.17555333563132836
ssI257
(dp267
g9
F0.6459339427436207
sg10
F0.533084419966377
ssI258
(dp268
g9
F0.8132125729885575
sg10
F0.9818957676308913
ssI259
(dp269
g9
F0.08772313567734225
sg10
F0.2887121418183147
ssI260
(dp270
g9
F0.3353236546189299
sg10
F0.595713204685967
ssI261
(dp271
g9
F0.18160735483277723
sg10
F0.6709343159327558
ssI262
(dp272
g9
F0.8248853742392033
sg10
F0.1875925612381747
ssI263
(dp273
g9
F0.07006528462891481
sg10
F0.8624286539297754
ssI264
(dp274
g9
F0.18241005870098015
sg10
F0.9027411235773578
ssI265
(dp275
g9
F0.8125137302716572
sg10
F0.16250388773684554
ssI266
(dp276
g9
F0.03260131621551532
sg10
F0.9788799832196684
ssI267
(dp277
g9
F0.6848091778462732
sg10
F0.5579646468344452
ssI268
(dp278
g9
F0.30751881986743823
sg10
F0.7192454254167409
ssI269
(dp279
g9
F0.477806436608179
sg10
F0.10768108631986262
ssI270
(dp280
g9
F0.4208865145482963
sg10
F0.5833723882306386
ssI271
(dp281
g9
F0.4559921153110328
sg10
F0.2420584766513525
ssI272
(dp282
g9
F0.2005122315905189
sg10
F0.5593732759849489
ssI273
(dp283
g9
F0.7129411514027025
sg10
F0.08368514819504158
ssI274
(dp284
g9
F0.0381197925489154
sg10
F0.968657219479088
ssI275
(dp285
g9
F0.2392629672881057
sg10
F0.8008331948189865
ssI276
(dp286
g9
F0.1952033728832645
sg10
F0.21376944962840705
ssI277
(dp287
g9
F0.32741324427588014
sg10
F0.1050479986773829
ssI278
(dp288
g9
F0.5132748154364979
sg10
F0.666036239698164
ssI279
(dp289
g9
F0.3321979996901665
sg10
F0.870969583931736
ssI280
(dp290
g9
F0.8072769070920495
sg10
F0.2621680593533289
ssI281
(dp291
g9
F0.2545388358004915
sg10
F0.8025537280091345
ssI282
(dp292
g9
F0.4403768771078094
sg10
F0.8248765618030887
ssI283
(dp293
g9
F0.5813554256538319
sg10
F0.7753523571624379
ssI284
(dp294
g9
F0.015262100671320056
sg10
F0.14825914406048857
ssI285
(dp295
g9
F0.3190234559995867
sg10
F0.2663516279527499
ssI286
(dp296
g9
F0.31277802139500643
sg10
F0.28552247990989743
ssI287
(dp297
g9
F0.20091598599430927
sg10
F0.03968847937719633
ssI288
(dp298
g9
F0.2842348890494919
sg10
F0.8903131235546345
ssI289
(dp299
g9
F0.7944910404281853
sg10
F0.3321219460768622
ssI290
(dp300
g9
F0.6032040560309824
sg10
F0.31389641627118925
ssI291
(dp301
g9
F0.054504206889566253
sg10
F0.27903264893787993
ssI292
(dp302
g9
F0.8806093766729481
sg10
F0.21287212378347597
ssI293
(dp303
g9
F0.015449235426039265
sg10
F0.5612721202352345
ssI294
(dp304
g9
F0.47521845487823566
sg10
F0.445109824816892
ssI295
(dp305
g9
F0.3087280968583398
sg10
F0.7748996983804712
ssI296
(dp306
g9
F0.00869786976497755
sg10
F0.8755562701411644
ssI297
(dp307
g9
F0.6484501398251008
sg10
F0.3876985970369835
ssI298
(dp308
g9
F0.9718335547241912
sg10
F0.8966248425564075
ssI299
(dp309
g9
F0.47194177418338246
sg10
F0.8499663552825041
sssS'node_dict_factory'
p310
c__builtin__
dict
p311
sS'edge_attr_dict_factory'
p312
g311
sS'edge'
p313
(dp314
I0
(dp315
sI1
(dp316
sI2
(dp317
sI3
(dp318
sI4
(dp319
sI5
(dp320
sI6
(dp321
sI7
(dp322
sI8
(dp323
sI9
(dp324
sI10
(dp325
sI11
(dp326
sI12
(dp327
sI13
(dp328
sI14
(dp329
sI15
(dp330
sI16
(dp331
sI17
(dp332
sI18
(dp333
sI19
(dp334
sI20
(dp335
sI21
(dp336
sI22
(dp337
sI23
(dp338
sI24
(dp339
sI25
(dp340
sI26
(dp341
sI27
(dp342
sI28
(dp343
sI29
(dp344
sI30
(dp345
sI31
(dp346
sI32
(dp347
sI33
(dp348
sI34
(dp349
sI35
(dp350
sI36
(dp351
sI37
(dp352
sI38
(dp353
sI39
(dp354
sI40
(dp355
sI41
(dp356
sI42
(dp357
sI43
(dp358
sI44
(dp359
sI45
(dp360
sI46
(dp361
sI47
(dp362
sI48
(dp363
sI49
(dp364
sI50
(dp365
sI51
(dp366
sI52
(dp367
sI53
(dp368
sI54
(dp369
sI55
(dp370
sI56
(dp371
sI57
(dp372
sI58
(dp373
sI59
(dp374
sI60
(dp375
sI61
(dp376
sI62
(dp377
sI63
(dp378
sI64
(dp379
sI65
(dp380
sI66
(dp381
sI67
(dp382
sI68
(dp383
sI69
(dp384
sI70
(dp385
sI71
(dp386
sI72
(dp387
sI73
(dp388
sI74
(dp389
sI75
(dp390
sI76
(dp391
sI77
(dp392
sI78
(dp393
sI79
(dp394
sI80
(dp395
sI81
(dp396
sI82
(dp397
sI83
(dp398
sI84
(dp399
sI85
(dp400
sI86
(dp401
sI87
(dp402
sI88
(dp403
sI89
(dp404
sI90
(dp405
sI91
(dp406
sI92
(dp407
sI93
(dp408
sI94
(dp409
sI95
(dp410
sI96
(dp411
sI97
(dp412
sI98
(dp413
sI99
(dp414
sI100
(dp415
sI101
(dp416
sI102
(dp417
sI103
(dp418
sI104
(dp419
sI105
(dp420
sI106
(dp421
sI107
(dp422
sI108
(dp423
sI109
(dp424
sI110
(dp425
sI111
(dp426
sI112
(dp427
sI113
(dp428
sI114
(dp429
sI115
(dp430
sI116
(dp431
sI117
(dp432
sI118
(dp433
sI119
(dp434
sI120
(dp435
sI121
(dp436
sI122
(dp437
sI123
(dp438
sI124
(dp439
sI125
(dp440
sI126
(dp441
sI127
(dp442
sI128
(dp443
sI129
(dp444
sI130
(dp445
sI131
(dp446
sI132
(dp447
sI133
(dp448
sI134
(dp449
sI135
(dp450
sI136
(dp451
sI137
(dp452
sI138
(dp453
sI139
(dp454
sI140
(dp455
sI141
(dp456
sI142
(dp457
sI143
(dp458
sI144
(dp459
sI145
(dp460
sI146
(dp461
sI147
(dp462
sI148
(dp463
sI149
(dp464
sI150
(dp465
sI151
(dp466
sI152
(dp467
sI153
(dp468
sI154
(dp469
sI155
(dp470
sI156
(dp471
sI157
(dp472
sI158
(dp473
sI159
(dp474
sI160
(dp475
sI161
(dp476
sI162
(dp477
sI163
(dp478
sI164
(dp479
sI165
(dp480
sI166
(dp481
sI167
(dp482
sI168
(dp483
sI169
(dp484
sI170
(dp485
sI171
(dp486
sI172
(dp487
sI173
(dp488
sI174
(dp489
sI175
(dp490
sI176
(dp491
sI177
(dp492
sI178
(dp493
sI179
(dp494
sI180
(dp495
sI181
(dp496
sI182
(dp497
sI183
(dp498
sI184
(dp499
sI185
(dp500
sI186
(dp501
sI187
(dp502
sI188
(dp503
sI189
(dp504
sI190
(dp505
sI191
(dp506
sI192
(dp507
sI193
(dp508
sI194
(dp509
sI195
(dp510
sI196
(dp511
sI197
(dp512
sI198
(dp513
sI199
(dp514
sI200
(dp515
sI201
(dp516
sI202
(dp517
sI203
(dp518
sI204
(dp519
sI205
(dp520
sI206
(dp521
sI207
(dp522
sI208
(dp523
sI209
(dp524
sI210
(dp525
sI211
(dp526
sI212
(dp527
sI213
(dp528
sI214
(dp529
sI215
(dp530
sI216
(dp531
sI217
(dp532
sI218
(dp533
sI219
(dp534
sI220
(dp535
sI221
(dp536
sI222
(dp537
sI223
(dp538
sI224
(dp539
sI225
(dp540
sI226
(dp541
sI227
(dp542
sI228
(dp543
sI229
(dp544
sI230
(dp545
sI231
(dp546
sI232
(dp547
sI233
(dp548
sI234
(dp549
sI235
(dp550
sI236
(dp551
sI237
(dp552
sI238
(dp553
sI239
(dp554
sI240
(dp555
sI241
(dp556
sI242
(dp557
sI243
(dp558
sI244
(dp559
sI245
(dp560
sI246
(dp561
sI247
(dp562
sI248
(dp563
sI249
(dp564
sI250
(dp565
sI251
(dp566
sI252
(dp567
sI253
(dp568
sI254
(dp569
sI255
(dp570
sI256
(dp571
sI257
(dp572
sI258
(dp573
sI259
(dp574
sI260
(dp575
sI261
(dp576
sI262
(dp577
sI263
(dp578
sI264
(dp579
sI265
(dp580
sI266
(dp581
sI267
(dp582
sI268
(dp583
sI269
(dp584
sI270
(dp585
sI271
(dp586
sI272
(dp587
sI273
(dp588
sI274
(dp589
sI275
(dp590
sI276
(dp591
sI277
(dp592
sI278
(dp593
sI279
(dp594
sI280
(dp595
sI281
(dp596
sI282
(dp597
sI283
(dp598
sI284
(dp599
sI285
(dp600
sI286
(dp601
sI287
(dp602
sI288
(dp603
sI289
(dp604
sI290
(dp605
sI291
(dp606
sI292
(dp607
sI293
(dp608
sI294
(dp609
sI295
(dp610
sI296
(dp611
sI297
(dp612
sI298
(dp613
sI299
(dp614
ssS'graph'
p615
(dp616
sS'adjlist_dict_factory'
p617
g311
sS'adj'
p618
g314
sb.