ccopy_reg
_reconstructor
p0
(cnetworkx.classes.graph
Graph
p1
c__builtin__
object
p2
Ntp3
Rp4
(dp5
S'node'
p6
(dp7
I0
(dp8
S'pos_x'
p9
F0.8322711284025986
sS'pos_y'
p10
F0.8784076983939705
ssI1
(dp11
g9
F0.14400880765016544
sg10
F0.23878632297720137
ssI2
(dp12
g9
F0.078452735825706
sg10
F0.27586246026543493
ssI3
(dp13
g9
F0.234327410027533
sg10
F0.09876390234954147
ssI4
(dp14
g9
F0.01778903845289681
sg10
F0.1681289710548226
ssI5
(dp15
g9
F0.6915921932955728
sg10
F0.8906841309769489
ssI6
(dp16
g9
F0.6919278278993855
sg10
F0.9527658697310126
ssI7
(dp17
g9
F0.1396465681712611
sg10
F0.31544637898428596
ssI8
(dp18
g9
F0.13249602641211378
sg10
F0.07051536194579133
ssI9
(dp19
g9
F0.3508655860387795
sg10
F0.427680886201238
ssI10
(dp20
g9
F0.17911689792987995
sg10
F0.49567479195869757
ssI11
(dp21
g9
F0.1969085719918514
sg10
F0.0701198273520186
ssI12
(dp22
g9
F0.20190059589651932
sg10
F0.5131739771507536
ssI13
(dp23
g9
F0.7478294267170811
sg10
F0.4254800048261541
ssI14
(dp24
g9
F0.7433989708068296
sg10
F0.11423131692077648
ssI15
(dp25
g9
F0.7020056589763263
sg10
F0.0620235853876282
ssI16
(dp26
g9
F0.6339981133220114
sg10
F0.794417305648674
ssI17
(dp27
g9
F0.25648946975677056
sg10
F0.6393446822971378
ssI18
(dp28
g9
F0.9067801218886836
sg10
F0.5263508779398466
ssI19
(dp29
g9
F0.7529548698379295
sg10
F0.9069106738089009
ssI20
(dp30
g9
F0.5908487538215402
sg10
F0.32891474573966883
ssI21
(dp31
g9
F0.18636671494971546
sg10
F0.28146573410032016
ssI22
(dp32
g9
F0.026916423073745088
sg10
F0.5625339655812869
ssI23
(dp33
g9
F0.6233478085278479
sg10
F0.3733218529550263
ssI24
(dp34
g9
F0.2812076974218777
sg10
F0.3262750632435162
ssI25
(dp35
g9
F0.4776754210596803
sg10
F0.8495103661387685
ssI26
(dp36
g9
F0.5776384807985112
sg10
F0.18821574148445153
ssI27
(dp37
g9
F0.8215880502513336
sg10
F0.6680744666231805
ssI28
(dp38
g9
F0.5526039050024965
sg10
F0.17305668658347084
ssI29
(dp39
g9
F0.6747676434901198
sg10
F0.8184855956753686
ssI30
(dp40
g9
F0.5001065113186027
sg10
F0.2080822726598277
ssI31
(dp41
g9
F0.5999006570421451
sg10
F0.7177622992221067
ssI32
(dp42
g9
F0.635214606182422
sg10
F0.7428140191655108
ssI33
(dp43
g9
F0.03153576911487854
sg10
F0.323314914593146
ssI34
(dp44
g9
F0.6712906961590167
sg10
F0.07456590695269283
ssI35
(dp45
g9
F0.22795243420253763
sg10
F0.5130212384675045
ssI36
(dp46
g9
F0.6160702334383222
sg10
F0.6275746123157603
ssI37
(dp47
g9
F0.08232332986182211
sg10
F0.21333064837395976
ssI38
(dp48
g9
F0.046199879424259294
sg10
F0.9148989230757631
ssI39
(dp49
g9
F0.0050516756853465905
sg10
F0.32683343462343084
ssI40
(dp50
g9
F0.16030393354701433
sg10
F0.8915585583618826
ssI41
(dp51
g9
F0.856287752223872
sg10
F0.9637417322191058
ssI42
(dp52
g9
F0.6378062997246393
sg10
F0.6764004535588507
ssI43
(dp53
g9
F0.6449483698814769
sg10
F0.6958666045393883
ssI44
(dp54
g9
F0.5343497168767238
sg10
F0.7274316607971621
ssI45
(dp55
g9
F0.6800507370444078
sg10
F0.9227265351763423
ssI46
(dp56
g9
F0.3139593001017249
sg10
F0.0296825151536102
ssI47
(dp57
g9
F0.3707463615901555
sg10
F0.09320544075203796
ssI48
(dp58
g9
F0.9517927166127168
sg10
F0.3177372191387918
ssI49
(dp59
g9
F0.07062912554666811
sg10
F0.7591902105313613
ssI50
(dp60
g9
F0.8805248848872467
sg10
F0.06040651495323923
ssI51
(dp61
g9
F0.015438735538428783
sg10
F0.0575725229443762
ssI52
(dp62
g9
F0.6940031523934072
sg10
F0.38945720672373074
ssI53
(dp63
g9
F0.19064849672005157
sg10
F0.048852993904151765
ssI54
(dp64
g9
F0.36758302024204315
sg10
F0.4365289167799321
ssI55
(dp65
g9
F0.6478118434096312
sg10
F0.16248543527240478
ssI56
(dp66
g9
F0.870288954030527
sg10
F0.2842576105561073
ssI57
(dp67
g9
F0.18485801543906444
sg10
F0.2058955420782077
ssI58
(dp68
g9
F0.17566197765008562
sg10
F0.8274559852967106
ssI59
(dp69
g9
F0.2034024334700134
sg10
F0.8546982230242028
ssI60
(dp70
g9
F0.011712669875047155
sg10
F0.5138963028245426
ssI61
(dp71
g9
F0.11751899959803658
sg10
F0.4694565143780053
ssI62
(dp72
g9
F0.16923771013853817
sg10
F0.8122563446611575
ssI63
(dp73
g9
F0.06935073469430264
sg10
F0.464561857796295
ssI64
(dp74
g9
F0.007889202179239607
sg10
F0.823515368356112
ssI65
(dp75
g9
F0.6736869455989294
sg10
F0.7967279531929423
ssI66
(dp76
g9
F0.025750677784665
sg10
F0.40622706963741684
ssI67
(dp77
g9
F0.3912203893962224
sg10
F0.5996648470520921
ssI68
(dp78
g9
F0.9013061852322013
sg10
F0.12293388045470033
ssI69
(dp79
g9
F0.67656133124351
sg10
F0.4563531538339797
ssI70
(dp80
g9
F0.3384541364129159
sg10
F0.7680694497833954
ssI71
(dp81
g9
F0.5704142498592205
sg10
F0.07581707756377598
ssI72
(dp82
g9
F0.4442952309663464
sg10
F0.3232827319569166
ssI73
(dp83
g9
F0.6194340835804927
sg10
F0.9930757641778827
ssI74
(dp84
g9
F0.5733370891615198
sg10
F0.6691894344745789
ssI75
(dp85
g9
F0.299658099197331
sg10
F0.002734398161868601
ssI76
(dp86
g9
F0.5605973250784458
sg10
F0.3054192452877017
ssI77
(dp87
g9
F0.9848030806666257
sg10
F0.1685395215119585
ssI78
(dp88
g9
F0.5421548000492119
sg10
F0.9463607608384907
ssI79
(dp89
g9
F0.5537075734104829
sg10
F0.9654537993817038
ssI80
(dp90
g9
F0.16474743265096936
sg10
F0.7351223837337619
ssI81
(dp91
g9
F0.9862630643196743
sg10
F0.294064497430536
ssI82
(dp92
g9
F0.13783203900224839
sg10
F0.7271193830719386
ssI83
(dp93
g9
F0.6567151177180945
sg10
F0.15902407391766749
ssI84
(dp94
g9
F0.7697379244603757
sg10
F0.017137628543439587
ssI85
(dp95
g9
F0.028412457328202634
sg10
F0.3013859812601162
ssI86
(dp96
g9
F0.7771976658891785
sg10
F0.8301630397461719
ssI87
(dp97
g9
F0.6473664186008516
sg10
F0.6553245007258992
ssI88
(dp98
g9
F0.16651828364860066
sg10
F0.3064876868765406
ssI89
(dp99
g9
F0.7160889211941376
sg10
F0.05099007318053439
ssI90
(dp100
g9
F0.08735111816579666
sg10
F0.5066404719136166
ssI91
(dp101
g9
F0.5464353453190852
sg10
F0.3259868548518856
ssI92
(dp102
g9
F0.34936823605929157
sg10
F0.04350666063187836
ssI93
(dp103
g9
F0.6253693730312544
sg10
F0.9483280106044296
ssI94
(dp104
g9
F0.35782557261669357
sg10
F0.03340884849694259
ssI95
(dp105
g9
F0.7055435756462058
sg10
F0.8117364662183701
ssI96
(dp106
g9
F0.5899639090381731
sg10
F0.6809356843756699
ssI97
(dp107
g9
F0.803888089506682
sg10
F0.9557500099646657
ssI98
(dp108
g9
F0.627342284181398
sg10
F0.5577549102208148
ssI99
(dp109
g9
F0.6466007943463277
sg10
F0.43877935328666784
ssI100
(dp110
g9
F0.5565219130821282
sg10
F0.37357934905542955
ssI101
(dp111
g9
F0.024333720116539115
sg10
F0.6960782738032879
ssI102
(dp112
g9
F0.762068664448591
sg10
F0.11716703756112568
ssI103
(dp113
g9
F0.07544762722222986
sg10
F0.7943612930112909
ssI104
(dp114
g9
F0.8473319695873249
sg10
F0.32935768153328004
ssI105
(dp115
g9
F0.7647749439968548
sg10
F0.8018532340243032
ssI106
(dp116
g9
F0.06953157865185611
sg10
F0.8682242905667695
ssI107
(dp117
g9
F0.7416643138814545
sg10
F0.7137747028150084
ssI108
(dp118
g9
F0.13344664303673226
sg10
F0.649009775370972
ssI109
(dp119
g9
F0.12314974377943289
sg10
F0.2664825747020567
ssI110
(dp120
g9
F0.14793786603705184
sg10
F0.5695545623202365
ssI111
(dp121
g9
F0.7539907059009081
sg10
F0.6803468289084581
ssI112
(dp122
g9
F0.394802837813365
sg10
F0.9081254083066241
ssI113
(dp123
g9
F0.33755851818418947
sg10
F0.25446584352192025
ssI114
(dp124
g9
F0.6762353672739269
sg10
F0.20397412413726612
ssI115
(dp125
g9
F0.34165264206962775
sg10
F0.7258027410421151
ssI116
(dp126
g9
F0.4923391682528484
sg10
F0.8240121114730599
ssI117
(dp127
g9
F0.4101089945444727
sg10
F0.9339751899599359
ssI118
(dp128
g9
F0.42635941420926726
sg10
F0.6807555044405627
ssI119
(dp129
g9
F0.5792896550537158
sg10
F0.959063697300044
ssI120
(dp130
g9
F0.8095567688765516
sg10
F0.7859431262935728
ssI121
(dp131
g9
F0.33047699000926056
sg10
F0.6685271753290202
ssI122
(dp132
g9
F0.9640073281380369
sg10
F0.6127110726474061
ssI123
(dp133
g9
F0.7738881553166288
sg10
F0.08823559543763615
ssI124
(dp134
g9
F0.08366151770602337
sg10
F0.4121994027288848
ssI125
(dp135
g9
F0.06200226923717134
sg10
F0.2639937302022237
ssI126
(dp136
g9
F0.51372811990751
sg10
F0.22174492542127922
ssI127
(dp137
g9
F0.8883903796492892
sg10
F0.33703466542231386
ssI128
(dp138
g9
F0.9255372706071703
sg10
F0.8297965845304276
ssI129
(dp139
g9
F0.38691053004567466
sg10
F0.5900931352100077
ssI130
(dp140
g9
F0.9307735019303905
sg10
F0.7470929169184088
ssI131
(dp141
g9
F0.9901758564428527
sg10
F0.6635049824728463
ssI132
(dp142
g9
F0.17193463738271408
sg10
F0.5808868607696571
ssI133
(dp143
g9
F0.2308874037914348
sg10
F0.4060868509304423
ssI134
(dp144
g9
F0.12676218842578268
sg10
F0.8163313969607829
ssI135
(dp145
g9
F0.419134173484518
sg10
F0.41577228349021766
ssI136
(dp146
g9
F0.7931389569412073
sg10
F0.8844505015324807
ssI137
(dp147
g9
F0.6178233824268755
sg10
F0.9925466506589531
ssI138
(dp148
g9
F0.8104313407683936
sg10
F0.41024813723237175
ssI139
(dp149
g9
F0.3095549798427648
sg10
F0.4365949196836745
ssI140
(dp150
g9
F0.6368264308460605
sg10
F0.7395591311777892
ssI141
(dp151
g9
F0.6252125049817132
sg10
F0.1776391973082042
ssI142
(dp152
g9
F0.9797622175808545
sg10
F0.2553074355427354
ssI143
(dp153
g9
F0.38083457057633185
sg10
F0.7390977417898397
ssI144
(dp154
g9
F0.7333204370919985
sg10
F0.010197857573079339
ssI145
(dp155
g9
F0.8240734714139064
sg10
F0.9511520754664604
ssI146
(dp156
g9
F0.6585843814049481
sg10
F0.44736734720743876
ssI147
(dp157
g9
F0.37733133094592997
sg10
F0.9357067731066759
ssI148
(dp158
g9
F0.06651086572880527
sg10
F0.8748816952089928
ssI149
(dp159
g9
F0.43415545565350666
sg10
F0.03756228709802756
ssI150
(dp160
g9
F0.13316585428748517
sg10
F0.6774890327087831
ssI151
(dp161
g9
F0.5528889849427343
sg10
F0.12010175815778412
ssI152
(dp162
g9
F0.7334241536688573
sg10
F0.6144336706682609
ssI153
(dp163
g9
F0.5649984496114001
sg10
F0.6850822037907813
ssI154
(dp164
g9
F0.7370778568490056
sg10
F0.8659667656950751
ssI155
(dp165
g9
F0.35639366140055706
sg10
F0.7024975748717248
ssI156
(dp166
g9
F0.5121337772304526
sg10
F0.1022556881072968
ssI157
(dp167
g9
F0.9279651725400285
sg10
F0.3790937496224538
ssI158
(dp168
g9
F0.14912097538635471
sg10
F0.5905721523263476
ssI159
(dp169
g9
F0.8232252569991578
sg10
F0.0050553749914649115
ssI160
(dp170
g9
F0.14369533028414105
sg10
F0.6361619979878882
ssI161
(dp171
g9
F0.24813397109294066
sg10
F0.1831042895354038
ssI162
(dp172
g9
F0.33801874732065873
sg10
F0.34619243932579613
ssI163
(dp173
g9
F0.6981986882861294
sg10
F0.8708387589066513
ssI164
(dp174
g9
F0.9141423324581166
sg10
F0.46867903908867814
ssI165
(dp175
g9
F0.8254199893690651
sg10
F0.8082160304325551
ssI166
(dp176
g9
F0.7670214436760001
sg10
F0.8796108070413774
ssI167
(dp177
g9
F0.9025381094222116
sg10
F0.5687307058101614
ssI168
(dp178
g9
F0.20635836327250834
sg10
F0.5252842051290725
ssI169
(dp179
g9
F0.6308123171315999
sg10
F0.32533392589443866
ssI170
(dp180
g9
F0.7074502065567551
sg10
F0.016069143871012548
ssI171
(dp181
g9
F0.6520794040417301
sg10
F0.7953870283041358
ssI172
(dp182
g9
F0.7351077186720391
sg10
F0.41694636547856057
ssI173
(dp183
g9
F0.7427069949766469
sg10
F0.41527178790884767
ssI174
(dp184
g9
F0.8931022921616429
sg10
F0.502102032927725
ssI175
(dp185
g9
F0.927212309521606
sg10
F0.962599322511615
ssI176
(dp186
g9
F0.03678007903479141
sg10
F0.7257316373878056
ssI177
(dp187
g9
F0.9057612526874051
sg10
F0.3711051586456634
ssI178
(dp188
g9
F0.35936876873359647
sg10
F0.635984624829274
ssI179
(dp189
g9
F0.8014585125196927
sg10
F0.12438540205828186
ssI180
(dp190
g9
F0.5294510075051093
sg10
F0.8626222050194402
ssI181
(dp191
g9
F0.18874381814190477
sg10
F0.9359918288065565
ssI182
(dp192
g9
F0.3935342950496432
sg10
F0.73754583572494
ssI183
(dp193
g9
F0.007402501308404252
sg10
F0.22856049546251156
ssI184
(dp194
g9
F0.32084553518488845
sg10
F0.154889380426805
ssI185
(dp195
g9
F0.9066187262535511
sg10
F0.15496204557143356
ssI186
(dp196
g9
F0.024059018513658548
sg10
F0.7489543444874673
ssI187
(dp197
g9
F0.6015362374295292
sg10
F0.435202438359245
ssI188
(dp198
g9
F0.7377165363841266
sg10
F0.3357063172940725
ssI189
(dp199
g9
F0.9775189807076317
sg10
F0.2559992428416731
ssI190
(dp200
g9
F0.9651313007892856
sg10
F0.06845196075294169
ssI191
(dp201
g9
F0.21658658785978924
sg10
F0.34930763587646385
ssI192
(dp202
g9
F0.8059017573813776
sg10
F0.20198722054249352
ssI193
(dp203
g9
F0.7496141573978385
sg10
F0.7516458301264313
ssI194
(dp204
g9
F0.34622999377200525
sg10
F0.6013512571605283
ssI195
(dp205
g9
F0.229487307893376
sg10
F0.32687712413307557
ssI196
(dp206
g9
F0.9628843547242669
sg10
F0.8339041900152229
ssI197
(dp207
g9
F0.2656798572141359
sg10
F0.801332968493682
ssI198
(dp208
g9
F0.30180984022341484
sg10
F0.9064379789510043
ssI199
(dp209
g9
F0.417490846278155
sg10
F0.6601225181985039
ssI200
(dp210
g9
F0.02525266178814134
sg10
F0.24151880461926167
ssI201
(dp211
g9
F0.6384120395724842
sg10
F0.3768494036270825
ssI202
(dp212
g9
F0.9268678679258308
sg10
F0.7096248312125779
ssI203
(dp213
g9
F0.061467321792122
sg10
F0.09895022960417466
ssI204
(dp214
g9
F0.5430535269044064
sg10
F0.42824673942440294
ssI205
(dp215
g9
F0.2625056924200557
sg10
F0.23114955016549332
ssI206
(dp216
g9
F0.5019941230850751
sg10
F0.07865181098083629
ssI207
(dp217
g9
F0.4054658335720396
sg10
F0.7341602891228739
ssI208
(dp218
g9
F0.21561792406827862
sg10
F0.3265369014826409
ssI209
(dp219
g9
F0.8339799805144754
sg10
F0.24347290503786556
ssI210
(dp220
g9
F0.2638489223043524
sg10
F0.17503133682449856
ssI211
(dp221
g9
F0.8668814177757486
sg10
F0.8031416314801144
ssI212
(dp222
g9
F0.6299539593964151
sg10
F0.161813797715466
ssI213
(dp223
g9
F0.8774439386233285
sg10
F0.19044068361180233
ssI214
(dp224
g9
F0.3632562571275336
sg10
F0.8298117368548634
ssI215
(dp225
g9
F0.011344547374678382
sg10
F0.44711544499048805
ssI216
(dp226
g9
F0.0842018085606161
sg10
F0.2103214030851246
ssI217
(dp227
g9
F0.6052171297444744
sg10
F0.039107375711903924
ssI218
(dp228
g9
F0.42537518707202304
sg10
F0.47825717601041884
ssI219
(dp229
g9
F0.5831273296191294
sg10
F0.05323018897575049
ssI220
(dp230
g9
F0.9171434492327498
sg10
F0.4391656526724437
ssI221
(dp231
g9
F0.47691330788264497
sg10
F0.23928986718110112
ssI222
(dp232
g9
F0.34359026050334673
sg10
F0.9377540757261255
ssI223
(dp233
g9
F0.5138051544034685
sg10
F0.6110933514438556
ssI224
(dp234
g9
F0.6838007308296458
sg10
F0.43875691448675125
ssI225
(dp235
g9
F0.0405981998379531
sg10
F0.7060728583795833
ssI226
(dp236
g9
F0.6664754138276736
sg10
F0.16412920916756768
ssI227
(dp237
g9
F0.8095613430684824
sg10
F0.7168223792749965
ssI228
(dp238
g9
F0.8375460517260209
sg10
F0.8083545012418957
ssI229
(dp239
g9
F0.05735801198141688
sg10
F0.31621420416625623
ssI230
(dp240
g9
F0.19086005476197254
sg10
F0.7639506333665609
ssI231
(dp241
g9
F0.1772716176928908
sg10
F0.8944265601011334
ssI232
(dp242
g9
F0.38868843828977584
sg10
F0.8751127261531347
ssI233
(dp243
g9
F0.7044749011870011
sg10
F0.9080878653321027
ssI234
(dp244
g9
F0.5268554835431343
sg10
F0.13822057560051748
ssI235
(dp245
g9
F0.38060312585544664
sg10
F0.5943604076155119
ssI236
(dp246
g9
F0.17013381109290493
sg10
F0.7653719335658358
ssI237
(dp247
g9
F0.25745780261119333
sg10
F0.7271637993621592
ssI238
(dp248
g9
F0.6046082420890508
sg10
F0.2325982149817547
ssI239
(dp249
g9
F0.954014632134621
sg10
F0.11806907573454106
ssI240
(dp250
g9
F0.8411930375369412
sg10
F0.40079074176296414
ssI241
(dp251
g9
F0.21979300554780368
sg10
F0.5054496126566529
ssI242
(dp252
g9
F0.7058836504338377
sg10
F0.2506360792049156
ssI243
(dp253
g9
F0.5438187528740704
sg10
F0.026386383124234025
ssI244
(dp254
g9
F0.11999231430797919
sg10
F0.250910093469501
ssI245
(dp255
g9
F0.7697016419051654
sg10
F0.3769269787280195
ssI246
(dp256
g9
F0.859690525561023
sg10
F0.5744414086706183
ssI247
(dp257
g9
F0.9511291004972054
sg10
F0.9618357757456306
ssI248
(dp258
g9
F0.19553412848875806
sg10
F0.6282016152647563
ssI249
(dp259
g9
F0.11739512164571153
sg10
F0.480272462844778
ssI250
(dp260
g9
F0.8825268295012294
sg10
F0.6940042690111715
ssI251
(dp261
g9
F0.6051545329774795
sg10
F0.7021746511268887
ssI252
(dp262
g9
F0.945749233514572
sg10
F0.5546850350061912
ssI253
(dp263
g9
F0.61681579207359
sg10
F0.05096532212975524
ssI254
(dp264
g9
F0.2157454320432406
sg10
F0.4969249398838421
ssI255
(dp265
g9
F0.34901741833879507
sg10
F0.36225879575645215
ssI256
(dp266
g9
F0.7797528695001289
sg10
F0.5049724394115297
ssI257
(dp267
g9
F0.11079761770955254
sg10
F0.7190192909632375
ssI258
(dp268
g9
F0.349421153114718
sg10
F0.18457394691735562
ssI259
(dp269
g9
F0.2999227467888219
sg10
F0.43809612196909253
ssI260
(dp270
g9
F0.4730107856053325
sg10
F0.9930647906897636
ssI261
(dp271
g9
F0.9465937785904796
sg10
F0.8851504229604771
ssI262
(dp272
g9
F0.23338790373282026
sg10
F0.4342259069683422
ssI263
(dp273
g9
F0.015441582696907097
sg10
F0.4769103842880834
ssI264
(dp274
g9
F0.2898872697178462
sg10
F0.1322446014463582
ssI265
(dp275
g9
F0.918774883515196
sg10
F0.18713809293352635
ssI266
(dp276
g9
F0.7459130116859239
sg10
F0.5448178686370592
ssI267
(dp277
g9
F0.6961427385182742
sg10
F0.2699667113152735
ssI268
(dp278
g9
F0.20519619225648422
sg10
F0.17986818125336235
ssI269
(dp279
g9
F0.7618476115904937
sg10
F0.9573261245586118
ssI270
(dp280
g9
F0.3014631455598965
sg10
F0.1629101476369883
ssI271
(dp281
g9
F0.44862716261739943
sg10
F0.6585511380340894
ssI272
(dp282
g9
F0.48814573008402184
sg10
F0.18524517081150382
ssI273
(dp283
g9
F0.8136414799713338
sg10
F0.9448939140925849
ssI274
(dp284
g9
F0.5003997604123135
sg10
F0.08948936868264923
ssI275
(dp285
g9
F0.7929390654341248
sg10
F0.005975670341491601
ssI276
(dp286
g9
F0.7019625127711457
sg10
F0.7049651792810944
ssI277
(dp287
g9
F0.5504520139610668
sg10
F0.6004649045864544
ssI278
(dp288
g9
F0.5641040392026553
sg10
F0.2404715523301496
ssI279
(dp289
g9
F0.3787677380867073
sg10
F0.9435373001645133
ssI280
(dp290
g9
F0.858724277819385
sg10
F0.39058511921777916
ssI281
(dp291
g9
F0.923377807938844
sg10
F0.9499101851504113
ssI282
(dp292
g9
F0.1141616421182613
sg10
F0.6138795264113628
ssI283
(dp293
g9
F0.7784462484972485
sg10
F0.9236547804725896
ssI284
(dp294
g9
F0.8726926329750346
sg10
F0.9445672635803732
ssI285
(dp295
g9
F0.07993921521499514
sg10
F0.6790786729307893
ssI286
(dp296
g9
F0.5198743032959623
sg10
F0.13137451587610072
ssI287
(dp297
g9
F0.3323418896157827
sg10
F0.7590838676757229
ssI288
(dp298
g9
F0.572910659267543
sg10
F0.893148209698447
ssI289
(dp299
g9
F0.8482681684384368
sg10
F0.9982400351517623
ssI290
(dp300
g9
F0.49388982634993683
sg10
F0.08448122040363937
ssI291
(dp301
g9
F0.5497782474172876
sg10
F0.028205298494982323
ssI292
(dp302
g9
F0.6644500908935057
sg10
F0.3921744721389474
ssI293
(dp303
g9
F0.226333539467373
sg10
F0.15534214735135687
ssI294
(dp304
g9
F0.7156610242198082
sg10
F0.5372823176791572
ssI295
(dp305
g9
F0.7302086837936286
sg10
F0.05552527208717606
ssI296
(dp306
g9
F0.05175268706456959
sg10
F0.1803397502486782
ssI297
(dp307
g9
F0.5119192638920883
sg10
F0.33599429180826557
ssI298
(dp308
g9
F0.6492062075342877
sg10
F0.985421714864918
ssI299
(dp309
g9
F0.18980261286970945
sg10
F0.46777548488573284
sssS'node_dict_factory'
p310
c__builtin__
dict
p311
sS'edge_attr_dict_factory'
p312
g311
sS'edge'
p313
(dp314
I0
(dp315
sI1
(dp316
sI2
(dp317
sI3
(dp318
sI4
(dp319
sI5
(dp320
sI6
(dp321
sI7
(dp322
sI8
(dp323
sI9
(dp324
sI10
(dp325
sI11
(dp326
sI12
(dp327
sI13
(dp328
sI14
(dp329
sI15
(dp330
sI16
(dp331
sI17
(dp332
sI18
(dp333
sI19
(dp334
sI20
(dp335
sI21
(dp336
sI22
(dp337
sI23
(dp338
sI24
(dp339
sI25
(dp340
sI26
(dp341
sI27
(dp342
sI28
(dp343
sI29
(dp344
sI30
(dp345
sI31
(dp346
sI32
(dp347
sI33
(dp348
sI34
(dp349
sI35
(dp350
sI36
(dp351
sI37
(dp352
sI38
(dp353
sI39
(dp354
sI40
(dp355
sI41
(dp356
sI42
(dp357
sI43
(dp358
sI44
(dp359
sI45
(dp360
sI46
(dp361
sI47
(dp362
sI48
(dp363
sI49
(dp364
sI50
(dp365
sI51
(dp366
sI52
(dp367
sI53
(dp368
sI54
(dp369
sI55
(dp370
sI56
(dp371
sI57
(dp372
sI58
(dp373
sI59
(dp374
sI60
(dp375
sI61
(dp376
sI62
(dp377
sI63
(dp378
sI64
(dp379
sI65
(dp380
sI66
(dp381
sI67
(dp382
sI68
(dp383
sI69
(dp384
sI70
(dp385
sI71
(dp386
sI72
(dp387
sI73
(dp388
sI74
(dp389
sI75
(dp390
sI76
(dp391
sI77
(dp392
sI78
(dp393
sI79
(dp394
sI80
(dp395
sI81
(dp396
sI82
(dp397
sI83
(dp398
sI84
(dp399
sI85
(dp400
sI86
(dp401
sI87
(dp402
sI88
(dp403
sI89
(dp404
sI90
(dp405
sI91
(dp406
sI92
(dp407
sI93
(dp408
sI94
(dp409
sI95
(dp410
sI96
(dp411
sI97
(dp412
sI98
(dp413
sI99
(dp414
sI100
(dp415
sI101
(dp416
sI102
(dp417
sI103
(dp418
sI104
(dp419
sI105
(dp420
sI106
(dp421
sI107
(dp422
sI108
(dp423
sI109
(dp424
sI110
(dp425
sI111
(dp426
sI112
(dp427
sI113
(dp428
sI114
(dp429
sI115
(dp430
sI116
(dp431
sI117
(dp432
sI118
(dp433
sI119
(dp434
sI120
(dp435
sI121
(dp436
sI122
(dp437
sI123
(dp438
sI124
(dp439
sI125
(dp440
sI126
(dp441
sI127
(dp442
sI128
(dp443
sI129
(dp444
sI130
(dp445
sI131
(dp446
sI132
(dp447
sI133
(dp448
sI134
(dp449
sI135
(dp450
sI136
(dp451
sI137
(dp452
sI138
(dp453
sI139
(dp454
sI140
(dp455
sI141
(dp456
sI142
(dp457
sI143
(dp458
sI144
(dp459
sI145
(dp460
sI146
(dp461
sI147
(dp462
sI148
(dp463
sI149
(dp464
sI150
(dp465
sI151
(dp466
sI152
(dp467
sI153
(dp468
sI154
(dp469
sI155
(dp470
sI156
(dp471
sI157
(dp472
sI158
(dp473
sI159
(dp474
sI160
(dp475
sI161
(dp476
sI162
(dp477
sI163
(dp478
sI164
(dp479
sI165
(dp480
sI166
(dp481
sI167
(dp482
sI168
(dp483
sI169
(dp484
sI170
(dp485
sI171
(dp486
sI172
(dp487
sI173
(dp488
sI174
(dp489
sI175
(dp490
sI176
(dp491
sI177
(dp492
sI178
(dp493
sI179
(dp494
sI180
(dp495
sI181
(dp496
sI182
(dp497
sI183
(dp498
sI184
(dp499
sI185
(dp500
sI186
(dp501
sI187
(dp502
sI188
(dp503
sI189
(dp504
sI190
(dp505
sI191
(dp506
sI192
(dp507
sI193
(dp508
sI194
(dp509
sI195
(dp510
sI196
(dp511
sI197
(dp512
sI198
(dp513
sI199
(dp514
sI200
(dp515
sI201
(dp516
sI202
(dp517
sI203
(dp518
sI204
(dp519
sI205
(dp520
sI206
(dp521
sI207
(dp522
sI208
(dp523
sI209
(dp524
sI210
(dp525
sI211
(dp526
sI212
(dp527
sI213
(dp528
sI214
(dp529
sI215
(dp530
sI216
(dp531
sI217
(dp532
sI218
(dp533
sI219
(dp534
sI220
(dp535
sI221
(dp536
sI222
(dp537
sI223
(dp538
sI224
(dp539
sI225
(dp540
sI226
(dp541
sI227
(dp542
sI228
(dp543
sI229
(dp544
sI230
(dp545
sI231
(dp546
sI232
(dp547
sI233
(dp548
sI234
(dp549
sI235
(dp550
sI236
(dp551
sI237
(dp552
sI238
(dp553
sI239
(dp554
sI240
(dp555
sI241
(dp556
sI242
(dp557
sI243
(dp558
sI244
(dp559
sI245
(dp560
sI246
(dp561
sI247
(dp562
sI248
(dp563
sI249
(dp564
sI250
(dp565
sI251
(dp566
sI252
(dp567
sI253
(dp568
sI254
(dp569
sI255
(dp570
sI256
(dp571
sI257
(dp572
sI258
(dp573
sI259
(dp574
sI260
(dp575
sI261
(dp576
sI262
(dp577
sI263
(dp578
sI264
(dp579
sI265
(dp580
sI266
(dp581
sI267
(dp582
sI268
(dp583
sI269
(dp584
sI270
(dp585
sI271
(dp586
sI272
(dp587
sI273
(dp588
sI274
(dp589
sI275
(dp590
sI276
(dp591
sI277
(dp592
sI278
(dp593
sI279
(dp594
sI280
(dp595
sI281
(dp596
sI282
(dp597
sI283
(dp598
sI284
(dp599
sI285
(dp600
sI286
(dp601
sI287
(dp602
sI288
(dp603
sI289
(dp604
sI290
(dp605
sI291
(dp606
sI292
(dp607
sI293
(dp608
sI294
(dp609
sI295
(dp610
sI296
(dp611
sI297
(dp612
sI298
(dp613
sI299
(dp614
ssS'graph'
p615
(dp616
sS'adjlist_dict_factory'
p617
g311
sS'adj'
p618
g314
sb.