ccopy_reg
_reconstructor
p0
(cnetworkx.classes.graph
Graph
p1
c__builtin__
object
p2
Ntp3
Rp4
(dp5
S'node'
p6
(dp7
I0
(dp8
S'pos_x'
p9
F0.7858583462246119
sS'pos_y'
p10
F0.8668387851993736
ssI1
(dp11
g9
F0.49348192365964894
sg10
F0.08862363125200323
ssI2
(dp12
g9
F0.9250497500246265
sg10
F0.9019489476592457
ssI3
(dp13
g9
F0.8095395623430831
sg10
F0.5919898330507929
ssI4
(dp14
g9
F0.29384560773819257
sg10
F0.3991873976455663
ssI5
(dp15
g9
F0.4611046770186701
sg10
F0.5402139571062103
ssI6
(dp16
g9
F0.9415388483971391
sg10
F0.5019345180402188
ssI7
(dp17
g9
F0.24010310100200005
sg10
F0.9886142940350082
ssI8
(dp18
g9
F0.4445116022022195
sg10
F0.999765863490688
ssI9
(dp19
g9
F0.08325596605089003
sg10
F0.2808980739573804
ssI10
(dp20
g9
F0.08327110809990845
sg10
F0.6881687710022575
ssI11
(dp21
g9
F0.4814613396023004
sg10
F0.43959713022055724
ssI12
(dp22
g9
F0.7083363655556485
sg10
F0.5181852692452579
ssI13
(dp23
g9
F0.3067473623159911
sg10
F0.04352744688876087
ssI14
(dp24
g9
F0.6095405884568779
sg10
F0.47343494986663204
ssI15
(dp25
g9
F0.942401802197919
sg10
F0.9712315200186241
ssI16
(dp26
g9
F0.6739713157738471
sg10
F0.5329335177039216
ssI17
(dp27
g9
F0.6895699870832471
sg10
F0.22302896455970278
ssI18
(dp28
g9
F0.030777042912811026
sg10
F0.6073889944823644
ssI19
(dp29
g9
F0.9301537720389764
sg10
F0.32395109023123203
ssI20
(dp30
g9
F0.1366896933039693
sg10
F0.28939937346421774
ssI21
(dp31
g9
F0.5294025172189747
sg10
F0.365729769790499
ssI22
(dp32
g9
F0.19623943945285582
sg10
F0.17829557734737156
ssI23
(dp33
g9
F0.14641703721862553
sg10
F0.47139502430788394
ssI24
(dp34
g9
F0.1667134676368388
sg10
F0.25751072746962356
ssI25
(dp35
g9
F0.9198118671688391
sg10
F0.09630356179250865
ssI26
(dp36
g9
F0.03896174147180598
sg10
F0.7291481366730431
ssI27
(dp37
g9
F0.7367107801389331
sg10
F0.22352876261631804
ssI28
(dp38
g9
F0.8668940816764795
sg10
F0.5409703567964895
ssI29
(dp39
g9
F0.8170408890177027
sg10
F0.2151897925337728
ssI30
(dp40
g9
F0.8585005987609233
sg10
F0.4185761120383772
ssI31
(dp41
g9
F0.016115180375156135
sg10
F0.6645218461824123
ssI32
(dp42
g9
F0.5008287572124811
sg10
F0.8741588883278297
ssI33
(dp43
g9
F0.1974359146516541
sg10
F0.6684041138846233
ssI34
(dp44
g9
F0.6346259110631831
sg10
F0.08931997577258566
ssI35
(dp45
g9
F0.6868522795932973
sg10
F0.8538456799463291
ssI36
(dp46
g9
F0.30758602058609075
sg10
F0.9781708580019133
ssI37
(dp47
g9
F0.23648359537118846
sg10
F0.04838654173215562
ssI38
(dp48
g9
F0.5650292959512733
sg10
F0.10798888021724085
ssI39
(dp49
g9
F0.9946378082084445
sg10
F0.8274580706768018
ssI40
(dp50
g9
F0.09520029935669727
sg10
F0.0005963079239544866
ssI41
(dp51
g9
F0.3660442952926296
sg10
F0.7416498143581989
ssI42
(dp52
g9
F0.1258936641411521
sg10
F0.08169385927382888
ssI43
(dp53
g9
F0.5967616097103338
sg10
F0.8722030082513098
ssI44
(dp54
g9
F0.5550341752719895
sg10
F0.2605061637191801
ssI45
(dp55
g9
F0.8253341145509595
sg10
F0.3706267593095879
ssI46
(dp56
g9
F0.28212735047154125
sg10
F0.792536900099834
ssI47
(dp57
g9
F0.5312770747281963
sg10
F0.37465782813905923
ssI48
(dp58
g9
F0.31047634944346236
sg10
F0.5658335510422303
ssI49
(dp59
g9
F0.9922529099139696
sg10
F0.2255322565389506
ssI50
(dp60
g9
F0.5841425583911631
sg10
F0.10778785301847216
ssI51
(dp61
g9
F0.050660237490707916
sg10
F0.3927845055429683
ssI52
(dp62
g9
F0.733933067940555
sg10
F0.31244357557376434
ssI53
(dp63
g9
F0.4978468358512639
sg10
F0.27104792012387946
ssI54
(dp64
g9
F0.720474768236273
sg10
F0.5098218359002122
ssI55
(dp65
g9
F0.43704259495616327
sg10
F0.08692039394902218
ssI56
(dp66
g9
F0.6054540356090596
sg10
F0.1959893699788149
ssI57
(dp67
g9
F0.33370437470086234
sg10
F0.23620017451902653
ssI58
(dp68
g9
F0.3917988421764915
sg10
F0.980830852030349
ssI59
(dp69
g9
F0.9288004485357729
sg10
F0.5238956726587602
ssI60
(dp70
g9
F0.28571898093188997
sg10
F0.19080132376388104
ssI61
(dp71
g9
F0.4880941791559561
sg10
F0.8533743366620437
ssI62
(dp72
g9
F0.5506366593843626
sg10
F0.49867322249197765
ssI63
(dp73
g9
F0.920588091741649
sg10
F0.3441002117607632
ssI64
(dp74
g9
F0.7080459764141681
sg10
F0.4031310303391704
ssI65
(dp75
g9
F0.8757451102178588
sg10
F0.6248316878576992
ssI66
(dp76
g9
F0.7563431568298895
sg10
F0.7198547910105162
ssI67
(dp77
g9
F0.5818788208524965
sg10
F0.3052726520451312
ssI68
(dp78
g9
F0.317586267261212
sg10
F0.5503307288750287
ssI69
(dp79
g9
F0.8588876594735005
sg10
F0.10897002282251544
ssI70
(dp80
g9
F0.6471716267803761
sg10
F0.5294067181038545
ssI71
(dp81
g9
F0.9678094826409873
sg10
F0.48056152071229785
ssI72
(dp82
g9
F0.6925642150449095
sg10
F0.1647310384496744
ssI73
(dp83
g9
F0.6362975816813263
sg10
F0.5624904137309525
ssI74
(dp84
g9
F0.9447664102836862
sg10
F0.22235488205045162
ssI75
(dp85
g9
F0.3208118770203433
sg10
F0.09599202975364463
ssI76
(dp86
g9
F0.5232867795786466
sg10
F0.12294621062140576
ssI77
(dp87
g9
F0.9833629976523794
sg10
F0.4594467864521967
ssI78
(dp88
g9
F0.5272366845817729
sg10
F0.13676596759021076
ssI79
(dp89
g9
F0.29424897141977346
sg10
F0.06462591920034122
ssI80
(dp90
g9
F0.2272221179506282
sg10
F0.3349284460176004
ssI81
(dp91
g9
F0.2869412571621761
sg10
F0.2959801195446108
ssI82
(dp92
g9
F0.7830058242118778
sg10
F0.23669515105819716
ssI83
(dp93
g9
F0.17412953819002375
sg10
F0.2566421293093232
ssI84
(dp94
g9
F0.44140650375632284
sg10
F0.35441646105915503
ssI85
(dp95
g9
F0.3803761999896307
sg10
F0.31292867745835884
ssI86
(dp96
g9
F0.20800454604838936
sg10
F0.41148479868834564
ssI87
(dp97
g9
F0.7012614375711912
sg10
F0.263351542400615
ssI88
(dp98
g9
F0.355621316144181
sg10
F0.3973770673769277
ssI89
(dp99
g9
F0.010591556986474515
sg10
F0.1206143152686967
ssI90
(dp100
g9
F0.9536152366790972
sg10
F0.037207593677070494
ssI91
(dp101
g9
F0.9852785697164334
sg10
F0.3154124167692952
ssI92
(dp102
g9
F0.8196616116307076
sg10
F0.8449593173117281
ssI93
(dp103
g9
F0.340361255068621
sg10
F0.8577644278684913
ssI94
(dp104
g9
F0.35036567499087534
sg10
F0.1647459529701586
ssI95
(dp105
g9
F0.17623034994682474
sg10
F0.8711053389011604
ssI96
(dp106
g9
F0.07991000465462172
sg10
F0.941845335160486
ssI97
(dp107
g9
F0.535532154521214
sg10
F0.36131798650607505
ssI98
(dp108
g9
F0.7056532024352113
sg10
F0.5459655838916005
ssI99
(dp109
g9
F0.8469538022221361
sg10
F0.1802520926630714
ssI100
(dp110
g9
F0.1522262602396418
sg10
F0.935974249056833
ssI101
(dp111
g9
F0.5548174279577279
sg10
F0.48907005277082904
ssI102
(dp112
g9
F0.8566844537446521
sg10
F0.19332574503687083
ssI103
(dp113
g9
F0.8297621120703026
sg10
F0.8475804536024714
ssI104
(dp114
g9
F0.05806831050806005
sg10
F0.45391064320704333
ssI105
(dp115
g9
F0.14297010222565554
sg10
F0.9119081264572189
ssI106
(dp116
g9
F0.22479576017258018
sg10
F0.8735241324403904
ssI107
(dp117
g9
F0.2591415666036343
sg10
F0.3455336933630814
ssI108
(dp118
g9
F0.04692230725822444
sg10
F0.7222503249314649
ssI109
(dp119
g9
F0.1488434908284818
sg10
F0.5968867581997035
ssI110
(dp120
g9
F0.0419826485516448
sg10
F0.1304811512461731
ssI111
(dp121
g9
F0.7268273081693359
sg10
F0.26189233130135336
ssI112
(dp122
g9
F0.3437450479601296
sg10
F0.7787619598107098
ssI113
(dp123
g9
F0.47929256229886397
sg10
F0.5370439858141637
ssI114
(dp124
g9
F0.15063328224568295
sg10
F0.5309795004458757
ssI115
(dp125
g9
F0.6340746840497381
sg10
F0.0839016960547675
ssI116
(dp126
g9
F0.3307459908102477
sg10
F0.17517084211187794
ssI117
(dp127
g9
F0.8198399491340124
sg10
F0.7126084626661149
ssI118
(dp128
g9
F0.33395069218392137
sg10
F0.7843644007202504
ssI119
(dp129
g9
F0.6283711983000047
sg10
F0.8408620274709597
ssI120
(dp130
g9
F0.5204924946621963
sg10
F0.1651721344364544
ssI121
(dp131
g9
F0.004600606938098939
sg10
F0.660280333266638
ssI122
(dp132
g9
F0.8213954057135096
sg10
F0.5656986189804453
ssI123
(dp133
g9
F0.33469115475212285
sg10
F0.8399163432180315
ssI124
(dp134
g9
F0.5420847762637703
sg10
F0.4384403827891734
ssI125
(dp135
g9
F0.5766187998970521
sg10
F0.06159113550852713
ssI126
(dp136
g9
F0.2905464299579089
sg10
F0.22924843035422582
ssI127
(dp137
g9
F0.7530612165780168
sg10
F0.3144484847595598
ssI128
(dp138
g9
F0.5750770745341338
sg10
F0.8931553087266164
ssI129
(dp139
g9
F0.9662937262813058
sg10
F0.04323022059860715
ssI130
(dp140
g9
F0.22723385663958096
sg10
F0.9721326706864867
ssI131
(dp141
g9
F0.9402507244647637
sg10
F0.5994407563962123
ssI132
(dp142
g9
F0.8420087891696193
sg10
F0.06294256494857187
ssI133
(dp143
g9
F0.4161570620507178
sg10
F0.1799163023478496
ssI134
(dp144
g9
F0.6293181252005486
sg10
F0.7591106669318387
ssI135
(dp145
g9
F0.10730892727676467
sg10
F0.9463095402373319
ssI136
(dp146
g9
F0.9417837720863176
sg10
F0.573695969953027
ssI137
(dp147
g9
F0.8503486386327048
sg10
F0.2185960767691002
ssI138
(dp148
g9
F0.2663494778771035
sg10
F0.35125085956307944
ssI139
(dp149
g9
F0.224982806511135
sg10
F0.06020260907386332
ssI140
(dp150
g9
F0.22139800340954596
sg10
F0.44452368371809026
ssI141
(dp151
g9
F0.39855300589279674
sg10
F0.34031597321595886
ssI142
(dp152
g9
F0.9118914657445456
sg10
F0.09872175835788621
ssI143
(dp153
g9
F0.8308061189433713
sg10
F0.09873426144615283
ssI144
(dp154
g9
F0.3798734544112027
sg10
F0.2187565773839263
ssI145
(dp155
g9
F0.7201814788542027
sg10
F0.7028161060825713
ssI146
(dp156
g9
F0.7838968342298163
sg10
F0.0400363763360323
ssI147
(dp157
g9
F0.32700555690840405
sg10
F0.8595634560791051
ssI148
(dp158
g9
F0.5267453359958338
sg10
F0.6314174732688944
ssI149
(dp159
g9
F0.41675584341969363
sg10
F0.694889139468885
ssI150
(dp160
g9
F0.6084068128031007
sg10
F0.33936795615650495
ssI151
(dp161
g9
F0.19999893996351692
sg10
F0.14366363214332056
ssI152
(dp162
g9
F0.7738947848168667
sg10
F0.5864535020051534
ssI153
(dp163
g9
F0.24584241969103027
sg10
F0.506910584618982
ssI154
(dp164
g9
F0.2806586841164015
sg10
F0.28195455013273174
ssI155
(dp165
g9
F0.961953010309031
sg10
F0.8130312664434797
ssI156
(dp166
g9
F0.7016409173275563
sg10
F0.4953234639147335
ssI157
(dp167
g9
F0.2578598359061631
sg10
F0.5975217030350654
ssI158
(dp168
g9
F0.5655635269178191
sg10
F0.961382670876813
ssI159
(dp169
g9
F0.7271842577888161
sg10
F0.6903442398843795
ssI160
(dp170
g9
F0.3646572750764897
sg10
F0.2670974677442387
ssI161
(dp171
g9
F0.15670497987514465
sg10
F0.5605291835031678
ssI162
(dp172
g9
F0.3116643324835666
sg10
F0.8640689723254669
ssI163
(dp173
g9
F0.14672701141003774
sg10
F0.2142154276247491
ssI164
(dp174
g9
F0.9083623939339535
sg10
F0.3398569131433963
ssI165
(dp175
g9
F0.799896356458592
sg10
F0.42458780056610645
ssI166
(dp176
g9
F0.44996250153027506
sg10
F0.5096144366763433
ssI167
(dp177
g9
F0.033184114717902835
sg10
F0.6157178345532561
ssI168
(dp178
g9
F0.4362884684736462
sg10
F0.43773131635254137
ssI169
(dp179
g9
F0.5165635742622523
sg10
F0.15620223270762468
ssI170
(dp180
g9
F0.2405104820626387
sg10
F0.1392853031525857
ssI171
(dp181
g9
F0.5925305810127351
sg10
F0.1520040050554312
ssI172
(dp182
g9
F0.7475191239326966
sg10
F0.18225067004518236
ssI173
(dp183
g9
F0.7073757201069788
sg10
F0.6317147323099501
ssI174
(dp184
g9
F0.44675365933794253
sg10
F0.2616915475550764
ssI175
(dp185
g9
F0.38584675580496375
sg10
F0.9009656842525738
ssI176
(dp186
g9
F0.34058957450200866
sg10
F0.2110869244060899
ssI177
(dp187
g9
F0.30093049913731196
sg10
F0.8167207403019523
ssI178
(dp188
g9
F0.40324252341027456
sg10
F0.771762586841473
ssI179
(dp189
g9
F0.7231789158647545
sg10
F0.7720819253397649
ssI180
(dp190
g9
F0.7025655077440278
sg10
F0.057432786407004555
ssI181
(dp191
g9
F0.6129353578438167
sg10
F0.2576087444692484
ssI182
(dp192
g9
F0.7800947981180151
sg10
F0.3966854548148233
ssI183
(dp193
g9
F0.7981072167133869
sg10
F0.4732872612979415
ssI184
(dp194
g9
F0.21314672031520376
sg10
F0.09180893241977228
ssI185
(dp195
g9
F0.23866904153097945
sg10
F0.8959887598186034
ssI186
(dp196
g9
F0.7590343370667894
sg10
F0.7871043393036212
ssI187
(dp197
g9
F0.9369570304366213
sg10
F0.8977687475840652
ssI188
(dp198
g9
F0.8222045080208151
sg10
F0.2845396899664989
ssI189
(dp199
g9
F0.20612708611141828
sg10
F0.8601908859579249
ssI190
(dp200
g9
F0.165931611431534
sg10
F0.5897202382369569
ssI191
(dp201
g9
F0.07799711587192681
sg10
F0.2806588146916609
ssI192
(dp202
g9
F0.6325852338891665
sg10
F0.9506859905101498
ssI193
(dp203
g9
F0.24621373932687607
sg10
F0.1534799514770756
ssI194
(dp204
g9
F0.4986121538733259
sg10
F0.8840341852528306
ssI195
(dp205
g9
F0.9970164316796104
sg10
F0.6912708405241621
ssI196
(dp206
g9
F0.2599125279358737
sg10
F0.3277961143824646
ssI197
(dp207
g9
F0.1642042552298062
sg10
F0.7130592713271812
ssI198
(dp208
g9
F0.6313197312966788
sg10
F0.9888084987108918
ssI199
(dp209
g9
F0.03321690348023976
sg10
F0.250676597649515
ssI200
(dp210
g9
F0.041660274133296205
sg10
F0.3458997096785237
ssI201
(dp211
g9
F0.09936422505607623
sg10
F0.9804499807297539
ssI202
(dp212
g9
F0.2551337514862525
sg10
F0.4139352651205337
ssI203
(dp213
g9
F0.7521935747459916
sg10
F0.23158763643113223
ssI204
(dp214
g9
F0.8265773253742799
sg10
F0.710055021748765
ssI205
(dp215
g9
F0.13455813193058241
sg10
F0.45979382351201725
ssI206
(dp216
g9
F0.2623398639162472
sg10
F0.45731037404850905
ssI207
(dp217
g9
F0.7684552964668337
sg10
F0.11277330215229775
ssI208
(dp218
g9
F0.4749739417828909
sg10
F0.9234593059831624
ssI209
(dp219
g9
F0.7790048130836508
sg10
F0.9657266352776251
ssI210
(dp220
g9
F0.6078708466118696
sg10
F0.19822916472315844
ssI211
(dp221
g9
F0.2362220490896807
sg10
F0.8495922659090792
ssI212
(dp222
g9
F0.568428314761227
sg10
F0.7160538909838342
ssI213
(dp223
g9
F0.8858375753641555
sg10
F0.3564451402682477
ssI214
(dp224
g9
F0.1969766719988073
sg10
F0.5209500544991733
ssI215
(dp225
g9
F0.0310651468554084
sg10
F0.2293219187352531
ssI216
(dp226
g9
F0.3171499741472158
sg10
F0.8078434612721028
ssI217
(dp227
g9
F0.32803479293764914
sg10
F0.6659314620151066
ssI218
(dp228
g9
F0.5691704901048756
sg10
F0.6572585352651851
ssI219
(dp229
g9
F0.556232542670115
sg10
F0.8191892897158279
ssI220
(dp230
g9
F0.1462395317724331
sg10
F0.4236972174653375
ssI221
(dp231
g9
F0.7532005507061801
sg10
F0.8262216490419685
ssI222
(dp232
g9
F0.6155788984403187
sg10
F0.26562818638149743
ssI223
(dp233
g9
F0.02378947959539479
sg10
F0.45950403819961827
ssI224
(dp234
g9
F0.09723705644382985
sg10
F0.6211142539699396
ssI225
(dp235
g9
F0.2864818357248806
sg10
F0.7361641510035071
ssI226
(dp236
g9
F0.40043518867581873
sg10
F0.8963758060989856
ssI227
(dp237
g9
F0.6642348184272935
sg10
F0.7064727346701696
ssI228
(dp238
g9
F0.060494411313632535
sg10
F0.21147161173441098
ssI229
(dp239
g9
F0.20110584606100657
sg10
F0.6017102790563678
ssI230
(dp240
g9
F0.6626619257148475
sg10
F0.8273440824145911
ssI231
(dp241
g9
F0.565956186098462
sg10
F0.9908517505886034
ssI232
(dp242
g9
F0.9230976381868676
sg10
F0.9440854126195835
ssI233
(dp243
g9
F0.3676966518684225
sg10
F0.3253169968229771
ssI234
(dp244
g9
F0.8349172889790131
sg10
F0.17511170003752607
ssI235
(dp245
g9
F0.2687729297331135
sg10
F0.5021884503135186
ssI236
(dp246
g9
F0.9716190375894771
sg10
F0.3011795149680314
ssI237
(dp247
g9
F0.8378595094667826
sg10
F0.31682373321146884
ssI238
(dp248
g9
F0.08077747515520539
sg10
F0.6515391694248451
ssI239
(dp249
g9
F0.9818681900234646
sg10
F0.9353113363108642
ssI240
(dp250
g9
F0.5622989091900004
sg10
F0.21520948982111787
ssI241
(dp251
g9
F0.11876167934157988
sg10
F0.4014449787850528
ssI242
(dp252
g9
F0.22215781460391248
sg10
F0.24033330788050555
ssI243
(dp253
g9
F0.16813352082972077
sg10
F0.0984792799416514
ssI244
(dp254
g9
F0.2650518313267789
sg10
F0.5843500600366471
ssI245
(dp255
g9
F0.6879121518427705
sg10
F0.5112034793833252
ssI246
(dp256
g9
F0.6269199871048785
sg10
F0.5505792897007351
ssI247
(dp257
g9
F0.6603621324111887
sg10
F0.3591543118439594
ssI248
(dp258
g9
F0.700686123057811
sg10
F0.7628693219274538
ssI249
(dp259
g9
F0.29150468816423436
sg10
F0.23556798103765686
ssI250
(dp260
g9
F0.6546639354351043
sg10
F0.5585304242003812
ssI251
(dp261
g9
F0.26176857655159247
sg10
F0.32643791432157876
ssI252
(dp262
g9
F0.8098224387053369
sg10
F0.11190304419164676
ssI253
(dp263
g9
F0.48816012684097265
sg10
F0.19378570774711157
ssI254
(dp264
g9
F0.18265799803113258
sg10
F0.4941894592917859
ssI255
(dp265
g9
F0.16717621544460848
sg10
F0.0012072067897193062
ssI256
(dp266
g9
F0.6621255520900879
sg10
F0.6529468779642191
ssI257
(dp267
g9
F0.9917118700188886
sg10
F0.91890676138541
ssI258
(dp268
g9
F0.5670813781487737
sg10
F0.581348501006729
ssI259
(dp269
g9
F0.29739144139706053
sg10
F0.6302309554253513
ssI260
(dp270
g9
F0.1391926642874911
sg10
F0.44325614994612483
ssI261
(dp271
g9
F0.5990079992256074
sg10
F0.6277957790487168
ssI262
(dp272
g9
F0.12404895309844177
sg10
F0.5956199885230208
ssI263
(dp273
g9
F0.9014959243294896
sg10
F0.6269890566919915
ssI264
(dp274
g9
F0.5969660708091721
sg10
F0.7501114024801896
ssI265
(dp275
g9
F0.12563936590562275
sg10
F0.31943602688886197
ssI266
(dp276
g9
F0.06786937830642004
sg10
F0.8678937899025119
ssI267
(dp277
g9
F0.18421057101779925
sg10
F0.5645535631596555
ssI268
(dp278
g9
F0.764331111443944
sg10
F0.5163201803122854
ssI269
(dp279
g9
F0.9421295118423059
sg10
F0.8344140666094607
ssI270
(dp280
g9
F0.8647631381393432
sg10
F0.1191494901616148
ssI271
(dp281
g9
F0.9979227283910295
sg10
F0.4382686151496309
ssI272
(dp282
g9
F0.3185985024391593
sg10
F0.6896682202261052
ssI273
(dp283
g9
F0.3418335559753676
sg10
F0.5863974222334571
ssI274
(dp284
g9
F0.22844567678800232
sg10
F0.9269048987244745
ssI275
(dp285
g9
F0.2560987895061182
sg10
F0.2593940093461369
ssI276
(dp286
g9
F0.9145059668492377
sg10
F0.8961255310228188
ssI277
(dp287
g9
F0.875906909286301
sg10
F0.5982331951275333
ssI278
(dp288
g9
F0.8846252543852698
sg10
F0.5900757112379418
ssI279
(dp289
g9
F0.1056708492174826
sg10
F0.3022056583799586
ssI280
(dp290
g9
F0.7548008344898963
sg10
F0.10840746136988977
ssI281
(dp291
g9
F0.5670415821074921
sg10
F0.28198660346370996
ssI282
(dp292
g9
F0.7252046780880981
sg10
F0.2690056417393015
ssI283
(dp293
g9
F0.19531969290083118
sg10
F0.8949025565715838
ssI284
(dp294
g9
F0.40365624089550933
sg10
F0.5039224398963773
ssI285
(dp295
g9
F0.4122286069655783
sg10
F0.8305389792580185
ssI286
(dp296
g9
F0.11768394123473125
sg10
F0.93391923702272
ssI287
(dp297
g9
F0.9332356803379088
sg10
F0.7862259129029109
ssI288
(dp298
g9
F0.06694904104875254
sg10
F0.6641210706908943
ssI289
(dp299
g9
F0.771131717368986
sg10
F0.052378033000091584
ssI290
(dp300
g9
F0.4818122316342043
sg10
F0.39785350644696404
ssI291
(dp301
g9
F0.037219876515453
sg10
F0.45416552165269053
ssI292
(dp302
g9
F0.11274183101748503
sg10
F0.3609983524829411
ssI293
(dp303
g9
F0.9422695606415203
sg10
F0.9082387863967318
ssI294
(dp304
g9
F0.4097265297297371
sg10
F0.5547448097551655
ssI295
(dp305
g9
F0.5167261535279662
sg10
F0.4033357526841056
ssI296
(dp306
g9
F0.6700505194372739
sg10
F0.5834446441306042
ssI297
(dp307
g9
F0.5368488381694986
sg10
F0.9366276073464821
ssI298
(dp308
g9
F0.7640581621890418
sg10
F0.33183487672106293
ssI299
(dp309
g9
F0.5103381247640503
sg10
F0.5463922557533643
sssS'node_dict_factory'
p310
c__builtin__
dict
p311
sS'edge_attr_dict_factory'
p312
g311
sS'edge'
p313
(dp314
I0
(dp315
sI1
(dp316
sI2
(dp317
sI3
(dp318
sI4
(dp319
sI5
(dp320
sI6
(dp321
sI7
(dp322
sI8
(dp323
sI9
(dp324
sI10
(dp325
sI11
(dp326
sI12
(dp327
sI13
(dp328
sI14
(dp329
sI15
(dp330
sI16
(dp331
sI17
(dp332
sI18
(dp333
sI19
(dp334
sI20
(dp335
sI21
(dp336
sI22
(dp337
sI23
(dp338
sI24
(dp339
sI25
(dp340
sI26
(dp341
sI27
(dp342
sI28
(dp343
sI29
(dp344
sI30
(dp345
sI31
(dp346
sI32
(dp347
sI33
(dp348
sI34
(dp349
sI35
(dp350
sI36
(dp351
sI37
(dp352
sI38
(dp353
sI39
(dp354
sI40
(dp355
sI41
(dp356
sI42
(dp357
sI43
(dp358
sI44
(dp359
sI45
(dp360
sI46
(dp361
sI47
(dp362
sI48
(dp363
sI49
(dp364
sI50
(dp365
sI51
(dp366
sI52
(dp367
sI53
(dp368
sI54
(dp369
sI55
(dp370
sI56
(dp371
sI57
(dp372
sI58
(dp373
sI59
(dp374
sI60
(dp375
sI61
(dp376
sI62
(dp377
sI63
(dp378
sI64
(dp379
sI65
(dp380
sI66
(dp381
sI67
(dp382
sI68
(dp383
sI69
(dp384
sI70
(dp385
sI71
(dp386
sI72
(dp387
sI73
(dp388
sI74
(dp389
sI75
(dp390
sI76
(dp391
sI77
(dp392
sI78
(dp393
sI79
(dp394
sI80
(dp395
sI81
(dp396
sI82
(dp397
sI83
(dp398
sI84
(dp399
sI85
(dp400
sI86
(dp401
sI87
(dp402
sI88
(dp403
sI89
(dp404
sI90
(dp405
sI91
(dp406
sI92
(dp407
sI93
(dp408
sI94
(dp409
sI95
(dp410
sI96
(dp411
sI97
(dp412
sI98
(dp413
sI99
(dp414
sI100
(dp415
sI101
(dp416
sI102
(dp417
sI103
(dp418
sI104
(dp419
sI105
(dp420
sI106
(dp421
sI107
(dp422
sI108
(dp423
sI109
(dp424
sI110
(dp425
sI111
(dp426
sI112
(dp427
sI113
(dp428
sI114
(dp429
sI115
(dp430
sI116
(dp431
sI117
(dp432
sI118
(dp433
sI119
(dp434
sI120
(dp435
sI121
(dp436
sI122
(dp437
sI123
(dp438
sI124
(dp439
sI125
(dp440
sI126
(dp441
sI127
(dp442
sI128
(dp443
sI129
(dp444
sI130
(dp445
sI131
(dp446
sI132
(dp447
sI133
(dp448
sI134
(dp449
sI135
(dp450
sI136
(dp451
sI137
(dp452
sI138
(dp453
sI139
(dp454
sI140
(dp455
sI141
(dp456
sI142
(dp457
sI143
(dp458
sI144
(dp459
sI145
(dp460
sI146
(dp461
sI147
(dp462
sI148
(dp463
sI149
(dp464
sI150
(dp465
sI151
(dp466
sI152
(dp467
sI153
(dp468
sI154
(dp469
sI155
(dp470
sI156
(dp471
sI157
(dp472
sI158
(dp473
sI159
(dp474
sI160
(dp475
sI161
(dp476
sI162
(dp477
sI163
(dp478
sI164
(dp479
sI165
(dp480
sI166
(dp481
sI167
(dp482
sI168
(dp483
sI169
(dp484
sI170
(dp485
sI171
(dp486
sI172
(dp487
sI173
(dp488
sI174
(dp489
sI175
(dp490
sI176
(dp491
sI177
(dp492
sI178
(dp493
sI179
(dp494
sI180
(dp495
sI181
(dp496
sI182
(dp497
sI183
(dp498
sI184
(dp499
sI185
(dp500
sI186
(dp501
sI187
(dp502
sI188
(dp503
sI189
(dp504
sI190
(dp505
sI191
(dp506
sI192
(dp507
sI193
(dp508
sI194
(dp509
sI195
(dp510
sI196
(dp511
sI197
(dp512
sI198
(dp513
sI199
(dp514
sI200
(dp515
sI201
(dp516
sI202
(dp517
sI203
(dp518
sI204
(dp519
sI205
(dp520
sI206
(dp521
sI207
(dp522
sI208
(dp523
sI209
(dp524
sI210
(dp525
sI211
(dp526
sI212
(dp527
sI213
(dp528
sI214
(dp529
sI215
(dp530
sI216
(dp531
sI217
(dp532
sI218
(dp533
sI219
(dp534
sI220
(dp535
sI221
(dp536
sI222
(dp537
sI223
(dp538
sI224
(dp539
sI225
(dp540
sI226
(dp541
sI227
(dp542
sI228
(dp543
sI229
(dp544
sI230
(dp545
sI231
(dp546
sI232
(dp547
sI233
(dp548
sI234
(dp549
sI235
(dp550
sI236
(dp551
sI237
(dp552
sI238
(dp553
sI239
(dp554
sI240
(dp555
sI241
(dp556
sI242
(dp557
sI243
(dp558
sI244
(dp559
sI245
(dp560
sI246
(dp561
sI247
(dp562
sI248
(dp563
sI249
(dp564
sI250
(dp565
sI251
(dp566
sI252
(dp567
sI253
(dp568
sI254
(dp569
sI255
(dp570
sI256
(dp571
sI257
(dp572
sI258
(dp573
sI259
(dp574
sI260
(dp575
sI261
(dp576
sI262
(dp577
sI263
(dp578
sI264
(dp579
sI265
(dp580
sI266
(dp581
sI267
(dp582
sI268
(dp583
sI269
(dp584
sI270
(dp585
sI271
(dp586
sI272
(dp587
sI273
(dp588
sI274
(dp589
sI275
(dp590
sI276
(dp591
sI277
(dp592
sI278
(dp593
sI279
(dp594
sI280
(dp595
sI281
(dp596
sI282
(dp597
sI283
(dp598
sI284
(dp599
sI285
(dp600
sI286
(dp601
sI287
(dp602
sI288
(dp603
sI289
(dp604
sI290
(dp605
sI291
(dp606
sI292
(dp607
sI293
(dp608
sI294
(dp609
sI295
(dp610
sI296
(dp611
sI297
(dp612
sI298
(dp613
sI299
(dp614
ssS'graph'
p615
(dp616
sS'adjlist_dict_factory'
p617
g311
sS'adj'
p618
g314
sb.