ccopy_reg
_reconstructor
p0
(cnetworkx.classes.graph
Graph
p1
c__builtin__
object
p2
Ntp3
Rp4
(dp5
S'node'
p6
(dp7
I0
(dp8
S'pos_x'
p9
F0.7026093008058643
sS'pos_y'
p10
F0.6800423655949626
ssI1
(dp11
g9
F0.6538772007430872
sg10
F0.3505768703460257
ssI2
(dp12
g9
F0.894124275353478
sg10
F0.11861043530881688
ssI3
(dp13
g9
F0.3742601533263169
sg10
F0.012720594987616574
ssI4
(dp14
g9
F0.3860568796082553
sg10
F0.27020330428196815
ssI5
(dp15
g9
F0.8199951225669473
sg10
F0.08084172611934937
ssI6
(dp16
g9
F0.5182822452126202
sg10
F0.5509839748257216
ssI7
(dp17
g9
F0.4594512662856387
sg10
F0.5255621965322851
ssI8
(dp18
g9
F0.1975403661847026
sg10
F0.7473340667492248
ssI9
(dp19
g9
F0.7221923979278534
sg10
F0.6806814624803532
ssI10
(dp20
g9
F0.3726885910771017
sg10
F0.9936799628540811
ssI11
(dp21
g9
F0.7313312778123628
sg10
F0.3025238918072809
ssI12
(dp22
g9
F0.18874790181486134
sg10
F0.42940141952522914
ssI13
(dp23
g9
F0.7056644630597738
sg10
F0.26804134028473103
ssI14
(dp24
g9
F0.5131629065559005
sg10
F0.43516810917048687
ssI15
(dp25
g9
F0.09844948963984834
sg10
F0.5507371927236638
ssI16
(dp26
g9
F0.682655824303448
sg10
F0.26257716411654675
ssI17
(dp27
g9
F0.259548328631811
sg10
F0.4037268161783063
ssI18
(dp28
g9
F0.8810897382213737
sg10
F0.6115032661407841
ssI19
(dp29
g9
F0.9890672276189959
sg10
F0.2718296146676371
ssI20
(dp30
g9
F0.8292058896837444
sg10
F0.9498631392725443
ssI21
(dp31
g9
F0.8225288242466952
sg10
F0.16462923619045178
ssI22
(dp32
g9
F0.7648186280637664
sg10
F0.11775435931290457
ssI23
(dp33
g9
F0.051159088791606466
sg10
F0.22821758902731581
ssI24
(dp34
g9
F0.9373124463036595
sg10
F0.41765919943968677
ssI25
(dp35
g9
F0.020890548899019534
sg10
F0.608883295052948
ssI26
(dp36
g9
F0.9951711357859647
sg10
F0.4603388103474455
ssI27
(dp37
g9
F0.16490587861948425
sg10
F0.17472939470646298
ssI28
(dp38
g9
F0.7612643773866504
sg10
F0.26051677400212414
ssI29
(dp39
g9
F0.06533764181676693
sg10
F0.9650387533619779
ssI30
(dp40
g9
F0.24574001435298942
sg10
F0.8238093746995372
ssI31
(dp41
g9
F0.4696347121458858
sg10
F0.32576750328203685
ssI32
(dp42
g9
F0.9863426504593228
sg10
F0.7888194754420401
ssI33
(dp43
g9
F0.1748454525679275
sg10
F0.9992498109905934
ssI34
(dp44
g9
F0.7933551439422494
sg10
F0.5737449061375018
ssI35
(dp45
g9
F0.5687101657568067
sg10
F0.4952235786634459
ssI36
(dp46
g9
F0.23535191092667296
sg10
F0.3479747182103591
ssI37
(dp47
g9
F0.15404290198741988
sg10
F0.9428668799681125
ssI38
(dp48
g9
F0.777461450104952
sg10
F0.7527016884218107
ssI39
(dp49
g9
F0.03055378788243579
sg10
F0.3594228619087737
ssI40
(dp50
g9
F0.5030448921618924
sg10
F0.7534656904551909
ssI41
(dp51
g9
F0.5445903084846048
sg10
F0.25259366143343787
ssI42
(dp52
g9
F0.30676217694346697
sg10
F0.27708931687924165
ssI43
(dp53
g9
F0.6168617584180084
sg10
F0.8273280076244884
ssI44
(dp54
g9
F0.22855100831412978
sg10
F0.5159786566579307
ssI45
(dp55
g9
F0.47702279055284635
sg10
F0.004664102835610695
ssI46
(dp56
g9
F0.8033338572470113
sg10
F0.8723241180444793
ssI47
(dp57
g9
F0.5959726421016868
sg10
F0.18252116938288077
ssI48
(dp58
g9
F0.08649192480658452
sg10
F0.701608544327819
ssI49
(dp59
g9
F0.43475819730060716
sg10
F0.4663559256276437
ssI50
(dp60
g9
F0.22968107758910505
sg10
F0.15319202767943985
ssI51
(dp61
g9
F0.21819586154425685
sg10
F0.7122853506463258
ssI52
(dp62
g9
F0.1665854696758362
sg10
F0.3639681061912876
ssI53
(dp63
g9
F0.8834706441412621
sg10
F0.8457700638612596
ssI54
(dp64
g9
F0.43068228507634054
sg10
F0.5537331659107131
ssI55
(dp65
g9
F0.7943636842102847
sg10
F0.19320614008046488
ssI56
(dp66
g9
F0.04515582236399296
sg10
F0.4597043905221089
ssI57
(dp67
g9
F0.6392346719655774
sg10
F0.3380991280328738
ssI58
(dp68
g9
F0.25046118631772907
sg10
F0.5935208687041152
ssI59
(dp69
g9
F0.9084341377146273
sg10
F0.6926113966647789
ssI60
(dp70
g9
F0.18466827018911436
sg10
F0.1447152925650116
ssI61
(dp71
g9
F0.33232444907881464
sg10
F0.9313736543020764
ssI62
(dp72
g9
F0.533520518328766
sg10
F0.982043258625032
ssI63
(dp73
g9
F0.605821925533715
sg10
F0.586378247306778
ssI64
(dp74
g9
F0.8376372716895565
sg10
F0.8988091997754425
ssI65
(dp75
g9
F0.09660220122316909
sg10
F0.9436081280339278
ssI66
(dp76
g9
F0.7576486435788511
sg10
F0.30153066193817735
ssI67
(dp77
g9
F0.8703682851777299
sg10
F0.31743543967527177
ssI68
(dp78
g9
F0.39426881752663046
sg10
F0.7897039535107432
ssI69
(dp79
g9
F0.5662672157267891
sg10
F0.33613592990624375
ssI70
(dp80
g9
F0.6129062943611515
sg10
F0.8381012544696663
ssI71
(dp81
g9
F0.047566718031116784
sg10
F0.1357828743828926
ssI72
(dp82
g9
F0.8438573398355488
sg10
F0.24859906682827104
ssI73
(dp83
g9
F0.4746740033467761
sg10
F0.08544267658340365
ssI74
(dp84
g9
F0.7520630253138894
sg10
F0.7300690758475665
ssI75
(dp85
g9
F0.3776612022616431
sg10
F0.36404075143601733
ssI76
(dp86
g9
F0.8738572649246876
sg10
F0.6383618807241939
ssI77
(dp87
g9
F0.29497097388794646
sg10
F0.2092449279213342
ssI78
(dp88
g9
F0.8806599592197194
sg10
F0.15137639361726218
ssI79
(dp89
g9
F0.8696011271898779
sg10
F0.9018402078511564
ssI80
(dp90
g9
F0.6208185106874742
sg10
F0.11985466275152834
ssI81
(dp91
g9
F0.9834904606931172
sg10
F0.5810442214883703
ssI82
(dp92
g9
F0.3360203446474894
sg10
F0.834324641176755
ssI83
(dp93
g9
F0.9573815796392158
sg10
F0.9428776455208632
ssI84
(dp94
g9
F0.45410911470711746
sg10
F0.5428680372648583
ssI85
(dp95
g9
F0.4359480232594066
sg10
F0.23347974797473514
ssI86
(dp96
g9
F0.07997502253403388
sg10
F0.21788802144711572
ssI87
(dp97
g9
F0.3984286760417002
sg10
F0.5716357169639326
ssI88
(dp98
g9
F0.6714152598362835
sg10
F0.5545004173953765
ssI89
(dp99
g9
F0.8301364210715577
sg10
F0.14342047043874961
ssI90
(dp100
g9
F0.4860799068174635
sg10
F0.18165279143769542
ssI91
(dp101
g9
F0.7903404431989973
sg10
F0.19915299055211533
ssI92
(dp102
g9
F0.4812691947208746
sg10
F0.4865263452958032
ssI93
(dp103
g9
F0.5462682075259269
sg10
F0.9205998274172917
ssI94
(dp104
g9
F0.13438683141181296
sg10
F0.28927913821131246
ssI95
(dp105
g9
F0.14679451841306357
sg10
F0.9146611700586201
ssI96
(dp106
g9
F0.4274337066009687
sg10
F0.9891552000291762
ssI97
(dp107
g9
F0.1008816219159564
sg10
F0.8573801385576748
ssI98
(dp108
g9
F0.37432854905907165
sg10
F0.28045963623610637
ssI99
(dp109
g9
F0.3236891073432443
sg10
F0.8055467261896746
ssI100
(dp110
g9
F0.21667083845193613
sg10
F0.593664082229079
ssI101
(dp111
g9
F0.04123934611597102
sg10
F0.37919503952899136
ssI102
(dp112
g9
F0.044211876356405444
sg10
F0.7737055308707603
ssI103
(dp113
g9
F0.7078147764172689
sg10
F0.3714711133495755
ssI104
(dp114
g9
F0.7631628096552437
sg10
F0.35759088358172264
ssI105
(dp115
g9
F0.06896260616326144
sg10
F0.8311283730711736
ssI106
(dp116
g9
F0.4048414062058229
sg10
F0.9635263511091509
ssI107
(dp117
g9
F0.38740602524553536
sg10
F0.5351986441621663
ssI108
(dp118
g9
F0.3805651858911653
sg10
F0.7624361542966371
ssI109
(dp119
g9
F0.8447173000479412
sg10
F0.0914973147071334
ssI110
(dp120
g9
F0.7585437218572393
sg10
F0.49948992404123993
ssI111
(dp121
g9
F0.6453941886303162
sg10
F0.8846662331466146
ssI112
(dp122
g9
F0.928181752905351
sg10
F0.846535886098707
ssI113
(dp123
g9
F0.012520648623816188
sg10
F0.10392680930237352
ssI114
(dp124
g9
F0.5381359975325638
sg10
F0.48187062147916293
ssI115
(dp125
g9
F0.9999165263077643
sg10
F0.6819195302047668
ssI116
(dp126
g9
F0.2635182763614081
sg10
F0.9317430028390242
ssI117
(dp127
g9
F0.4388238132596469
sg10
F0.4746198865578488
ssI118
(dp128
g9
F0.3924405280497647
sg10
F0.9319269123330864
ssI119
(dp129
g9
F0.8740073599119318
sg10
F0.46461270229191065
ssI120
(dp130
g9
F0.21060972193075422
sg10
F0.3304122496708909
ssI121
(dp131
g9
F0.8851745514219379
sg10
F0.8362041332663053
ssI122
(dp132
g9
F0.8553711301213969
sg10
F0.458805658183172
ssI123
(dp133
g9
F0.9003707133992487
sg10
F0.016445905941593675
ssI124
(dp134
g9
F0.5774506039490055
sg10
F0.7788211128225365
ssI125
(dp135
g9
F0.726388556725338
sg10
F0.857209897745845
ssI126
(dp136
g9
F0.10422356823244505
sg10
F0.8426359311861923
ssI127
(dp137
g9
F0.0960474349492505
sg10
F0.2844906944503651
ssI128
(dp138
g9
F0.8871861106720113
sg10
F0.41630832341073876
ssI129
(dp139
g9
F0.1852507307026
sg10
F0.050151128354179786
ssI130
(dp140
g9
F0.8882937225571176
sg10
F0.8975524775041943
ssI131
(dp141
g9
F0.881473719686911
sg10
F0.35349607460871246
ssI132
(dp142
g9
F0.7213001713605144
sg10
F0.6957458772268589
ssI133
(dp143
g9
F0.9359095057296999
sg10
F0.8034786918436689
ssI134
(dp144
g9
F0.735128108062366
sg10
F0.3281240586262907
ssI135
(dp145
g9
F0.14337022171387703
sg10
F0.811389299227903
ssI136
(dp146
g9
F0.5537705099340704
sg10
F0.3661304449460435
ssI137
(dp147
g9
F0.371114963511349
sg10
F0.5267922929719224
ssI138
(dp148
g9
F0.41717864191154985
sg10
F0.7862352513991475
ssI139
(dp149
g9
F0.5828309225906785
sg10
F0.9893543107093757
ssI140
(dp150
g9
F0.7798294638663733
sg10
F0.8314579125590136
ssI141
(dp151
g9
F0.3511734785543621
sg10
F0.6105057492936866
ssI142
(dp152
g9
F0.08597315064050992
sg10
F0.3185211393327677
ssI143
(dp153
g9
F0.3368336622050542
sg10
F0.8440689360275643
ssI144
(dp154
g9
F0.8072207050442519
sg10
F0.04060626480737428
ssI145
(dp155
g9
F0.25815474261164795
sg10
F0.6399920264075193
ssI146
(dp156
g9
F0.7811929085779151
sg10
F0.7183583078372264
ssI147
(dp157
g9
F0.8356159645212082
sg10
F0.8389799978627898
ssI148
(dp158
g9
F0.6765572146838941
sg10
F0.9381252985977985
ssI149
(dp159
g9
F0.09286209563470416
sg10
F0.7254308301212329
ssI150
(dp160
g9
F0.7553380094520565
sg10
F0.2966186573841806
ssI151
(dp161
g9
F0.8906000573604177
sg10
F0.44320221639220225
ssI152
(dp162
g9
F0.5970551329248527
sg10
F0.1980498674927439
ssI153
(dp163
g9
F0.9963389480186197
sg10
F0.6003182340989475
ssI154
(dp164
g9
F0.26279267998374856
sg10
F0.7844661319924537
ssI155
(dp165
g9
F0.24018988394226837
sg10
F0.07306646744386303
ssI156
(dp166
g9
F0.2924486324687784
sg10
F0.3732709492506393
ssI157
(dp167
g9
F0.798440795997594
sg10
F0.5961007463522938
ssI158
(dp168
g9
F0.6060289254513426
sg10
F0.31503028329192684
ssI159
(dp169
g9
F0.5216547566589691
sg10
F0.5093913969810082
ssI160
(dp170
g9
F0.3488884509593593
sg10
F0.23676693704901886
ssI161
(dp171
g9
F0.4825897763367094
sg10
F0.7295496867734954
ssI162
(dp172
g9
F0.4138706421446713
sg10
F0.2003685037062678
ssI163
(dp173
g9
F0.28542028580232826
sg10
F0.3975254388380588
ssI164
(dp174
g9
F0.13302906238212409
sg10
F0.5013180552214086
ssI165
(dp175
g9
F0.6635960939249435
sg10
F0.5379995463506794
ssI166
(dp176
g9
F0.19936120343008068
sg10
F0.2669736042021852
ssI167
(dp177
g9
F0.9362911935923125
sg10
F0.05085879404074456
ssI168
(dp178
g9
F0.901637800477866
sg10
F0.4399609966815625
ssI169
(dp179
g9
F0.2376975349817798
sg10
F0.5522730680713781
ssI170
(dp180
g9
F0.6388528730554144
sg10
F0.08459503095145482
ssI171
(dp181
g9
F0.8695302519785406
sg10
F0.06816857319910663
ssI172
(dp182
g9
F0.41878176118528176
sg10
F0.8163851053617265
ssI173
(dp183
g9
F0.6282575967104025
sg10
F0.429664191869915
ssI174
(dp184
g9
F0.15576531154665108
sg10
F0.2558079951036766
ssI175
(dp185
g9
F0.023891053453190758
sg10
F0.5654842364596298
ssI176
(dp186
g9
F0.21877894771915463
sg10
F0.030512405201118975
ssI177
(dp187
g9
F0.3660874595222282
sg10
F0.4694537173579584
ssI178
(dp188
g9
F0.5076425175263272
sg10
F0.48119206166463024
ssI179
(dp189
g9
F0.11564798990273384
sg10
F0.8350284998975056
ssI180
(dp190
g9
F0.5371008650446174
sg10
F0.8427366690633873
ssI181
(dp191
g9
F0.5091857404528173
sg10
F0.524281330014507
ssI182
(dp192
g9
F0.7804517185586842
sg10
F0.7413635851399152
ssI183
(dp193
g9
F0.48297590564790105
sg10
F0.4462794353860602
ssI184
(dp194
g9
F0.32768834796116453
sg10
F0.13808216347697388
ssI185
(dp195
g9
F0.6504096631031652
sg10
F0.5242898103395984
ssI186
(dp196
g9
F0.3851964313552505
sg10
F0.9196602653684471
ssI187
(dp197
g9
F0.36004848116587795
sg10
F0.37730893576170355
ssI188
(dp198
g9
F0.9386036525460972
sg10
F0.488724718419296
ssI189
(dp199
g9
F0.08524754997857009
sg10
F0.5464711681204881
ssI190
(dp200
g9
F0.4800632900953282
sg10
F0.26661294326474005
ssI191
(dp201
g9
F0.6422665085184186
sg10
F0.31112058691213507
ssI192
(dp202
g9
F0.7677748956796296
sg10
F0.20837860365628647
ssI193
(dp203
g9
F0.9019467749866155
sg10
F0.5635840252704158
ssI194
(dp204
g9
F0.2882755494565272
sg10
F0.4603501727711916
ssI195
(dp205
g9
F0.04251318107519475
sg10
F0.7148974320976469
ssI196
(dp206
g9
F0.9712233199394605
sg10
F0.3797969217615266
ssI197
(dp207
g9
F0.2545879717124061
sg10
F0.5150847361276798
ssI198
(dp208
g9
F0.22533004253935762
sg10
F0.15467246788130873
ssI199
(dp209
g9
F0.32333433615013907
sg10
F0.8411348275241148
ssI200
(dp210
g9
F0.8258726255233515
sg10
F0.9887570597279322
ssI201
(dp211
g9
F0.12780539424922022
sg10
F0.40289630274902366
ssI202
(dp212
g9
F0.4213141082272531
sg10
F0.7944769356380285
ssI203
(dp213
g9
F0.7287739777291743
sg10
F0.6613930944711307
ssI204
(dp214
g9
F0.8730554442304208
sg10
F0.028562273006011774
ssI205
(dp215
g9
F0.03045682124955429
sg10
F0.1265162996163942
ssI206
(dp216
g9
F0.7011648350843396
sg10
F0.15684194750477287
ssI207
(dp217
g9
F0.5610468782756485
sg10
F0.8358882275382598
ssI208
(dp218
g9
F0.3457826415109455
sg10
F0.7340624777954805
ssI209
(dp219
g9
F0.2967049920299806
sg10
F0.6797452545130713
ssI210
(dp220
g9
F0.33033543885954053
sg10
F0.08674595586825895
ssI211
(dp221
g9
F0.21220199721147248
sg10
F0.30653890348000257
ssI212
(dp222
g9
F0.9796263441911491
sg10
F0.7355504283346741
ssI213
(dp223
g9
F0.035351429538327483
sg10
F0.4896505293144052
ssI214
(dp224
g9
F0.9205342200617036
sg10
F0.8407405553761698
ssI215
(dp225
g9
F0.23509762152082858
sg10
F0.5045427174281849
ssI216
(dp226
g9
F0.45482594298785195
sg10
F0.5551247946374928
ssI217
(dp227
g9
F0.7805371282530548
sg10
F0.7833903505974603
ssI218
(dp228
g9
F0.6802005670588394
sg10
F0.17866023885615645
ssI219
(dp229
g9
F0.7765498566654535
sg10
F0.6223248319884336
ssI220
(dp230
g9
F0.44781791812414684
sg10
F0.6977857839256234
ssI221
(dp231
g9
F0.4809088872877708
sg10
F0.7118533993690439
ssI222
(dp232
g9
F0.6531565107131879
sg10
F0.009150039489190687
ssI223
(dp233
g9
F0.9798532355806754
sg10
F0.7047912097161141
ssI224
(dp234
g9
F0.6856160887707159
sg10
F0.9328685606533647
ssI225
(dp235
g9
F0.5513780186893305
sg10
F0.1652297804380568
ssI226
(dp236
g9
F0.1369223468009011
sg10
F0.23947363749295303
ssI227
(dp237
g9
F0.7966108369290216
sg10
F0.49403051762467787
ssI228
(dp238
g9
F0.2534546480198835
sg10
F0.3477407703237191
ssI229
(dp239
g9
F0.1027088267550148
sg10
F0.8475677613956148
ssI230
(dp240
g9
F0.8819844947769651
sg10
F0.8209249953602352
ssI231
(dp241
g9
F0.7815388747790301
sg10
F0.6768895193953017
ssI232
(dp242
g9
F0.7956216831425028
sg10
F0.19613127426462718
ssI233
(dp243
g9
F0.615361963597459
sg10
F0.39733288754117335
ssI234
(dp244
g9
F0.9899068008122525
sg10
F0.3774254276105291
ssI235
(dp245
g9
F0.35468026972908717
sg10
F0.2819336434816353
ssI236
(dp246
g9
F0.9961779542789833
sg10
F0.910528546609184
ssI237
(dp247
g9
F0.6441619948367732
sg10
F0.4357130770981402
ssI238
(dp248
g9
F0.7523726276874628
sg10
F0.2701139149366947
ssI239
(dp249
g9
F0.8522200227625263
sg10
F0.2346131989734026
ssI240
(dp250
g9
F0.5001643976690004
sg10
F0.3067007732481416
ssI241
(dp251
g9
F0.1178293105347219
sg10
F0.09546613638497625
ssI242
(dp252
g9
F0.40717510303084803
sg10
F0.5841183229640909
ssI243
(dp253
g9
F0.5833540083538039
sg10
F0.5693109257989769
ssI244
(dp254
g9
F0.7131998312986182
sg10
F0.8397357546630411
ssI245
(dp255
g9
F0.3118155093795919
sg10
F0.7067401848744352
ssI246
(dp256
g9
F0.9461679960652036
sg10
F0.007674488866353135
ssI247
(dp257
g9
F0.8802015220881688
sg10
F0.8319474216946442
ssI248
(dp258
g9
F0.3246360719202569
sg10
F0.40460297673830925
ssI249
(dp259
g9
F0.6374317087304048
sg10
F0.328969212969759
ssI250
(dp260
g9
F0.7655369212161364
sg10
F0.17592320007844708
ssI251
(dp261
g9
F0.5946502661655334
sg10
F0.560866252424465
ssI252
(dp262
g9
F0.9320520798305174
sg10
F0.252274029514442
ssI253
(dp263
g9
F0.4944046445896696
sg10
F0.9972805158021214
ssI254
(dp264
g9
F0.8801519368039844
sg10
F0.39089946798656827
ssI255
(dp265
g9
F0.2450930756135281
sg10
F0.3144357407407138
ssI256
(dp266
g9
F0.10972824331760322
sg10
F0.015176263753956754
ssI257
(dp267
g9
F0.0985284763204608
sg10
F0.6577825393884824
ssI258
(dp268
g9
F0.994476574284736
sg10
F0.17203817025670742
ssI259
(dp269
g9
F0.6416471709000695
sg10
F0.27913489183672735
ssI260
(dp270
g9
F0.6463392392675951
sg10
F0.49647434571802496
ssI261
(dp271
g9
F0.07459446966995609
sg10
F0.8332150073170805
ssI262
(dp272
g9
F0.18476830165539826
sg10
F0.08496889503763261
ssI263
(dp273
g9
F0.6190200452792811
sg10
F0.6091927839044569
ssI264
(dp274
g9
F0.8302581057733587
sg10
F0.47958875100907306
ssI265
(dp275
g9
F0.8599589786358348
sg10
F0.24024986344743204
ssI266
(dp276
g9
F0.8459429445479286
sg10
F0.1804455010796424
ssI267
(dp277
g9
F0.6922979131087861
sg10
F0.11862500344985272
ssI268
(dp278
g9
F0.04976528904834043
sg10
F0.4240576172867372
ssI269
(dp279
g9
F0.6843558785317735
sg10
F0.25835038944978317
ssI270
(dp280
g9
F0.7930356816891803
sg10
F0.8455772270388371
ssI271
(dp281
g9
F0.8237557727355814
sg10
F0.15877523961657625
ssI272
(dp282
g9
F0.07295229868978215
sg10
F0.06754158221514162
ssI273
(dp283
g9
F0.9930925199496253
sg10
F0.6897417592897345
ssI274
(dp284
g9
F0.1759857996451234
sg10
F0.6775863811177815
ssI275
(dp285
g9
F0.8932690421898943
sg10
F0.8544971252260816
ssI276
(dp286
g9
F0.3192469944044164
sg10
F0.4789284569951924
ssI277
(dp287
g9
F0.011938630211785872
sg10
F0.5382892033569361
ssI278
(dp288
g9
F0.2634781611314768
sg10
F0.5494788087063566
ssI279
(dp289
g9
F0.005857632277735614
sg10
F0.4934044914489326
ssI280
(dp290
g9
F0.3536966246056149
sg10
F0.5684283611745362
ssI281
(dp291
g9
F0.8933412919628638
sg10
F0.7850205516588665
ssI282
(dp292
g9
F0.4617322436700918
sg10
F0.5525293425890723
ssI283
(dp293
g9
F0.06559121929700018
sg10
F0.41416477792377204
ssI284
(dp294
g9
F0.4499939550583285
sg10
F0.4861969703049408
ssI285
(dp295
g9
F0.38233495934598904
sg10
F0.007398205474137942
ssI286
(dp296
g9
F0.2482657638282766
sg10
F0.8112958137716851
ssI287
(dp297
g9
F0.6566112130277334
sg10
F0.4448756014008449
ssI288
(dp298
g9
F0.18014549031210214
sg10
F0.4018679101721937
ssI289
(dp299
g9
F0.07212077762904212
sg10
F0.6006783684791835
ssI290
(dp300
g9
F0.4253847475789967
sg10
F0.5532907859464208
ssI291
(dp301
g9
F0.5497361629319653
sg10
F0.2111786891633407
ssI292
(dp302
g9
F0.8365378662907076
sg10
F0.43106092285913966
ssI293
(dp303
g9
F0.8891567711953267
sg10
F0.9318354343400755
ssI294
(dp304
g9
F0.8961501176293448
sg10
F0.49290639153493854
ssI295
(dp305
g9
F0.3791445734093194
sg10
F0.17604442134832554
ssI296
(dp306
g9
F0.6395205533068237
sg10
F0.5467506004645398
ssI297
(dp307
g9
F0.9400702052374038
sg10
F0.34547652150929875
ssI298
(dp308
g9
F0.5438807010546726
sg10
F0.05985554780512181
ssI299
(dp309
g9
F0.695783231112672
sg10
F0.8242291804092506
sssS'node_dict_factory'
p310
c__builtin__
dict
p311
sS'edge_attr_dict_factory'
p312
g311
sS'edge'
p313
(dp314
I0
(dp315
sI1
(dp316
sI2
(dp317
sI3
(dp318
sI4
(dp319
sI5
(dp320
sI6
(dp321
sI7
(dp322
sI8
(dp323
sI9
(dp324
sI10
(dp325
sI11
(dp326
sI12
(dp327
sI13
(dp328
sI14
(dp329
sI15
(dp330
sI16
(dp331
sI17
(dp332
sI18
(dp333
sI19
(dp334
sI20
(dp335
sI21
(dp336
sI22
(dp337
sI23
(dp338
sI24
(dp339
sI25
(dp340
sI26
(dp341
sI27
(dp342
sI28
(dp343
sI29
(dp344
sI30
(dp345
sI31
(dp346
sI32
(dp347
sI33
(dp348
sI34
(dp349
sI35
(dp350
sI36
(dp351
sI37
(dp352
sI38
(dp353
sI39
(dp354
sI40
(dp355
sI41
(dp356
sI42
(dp357
sI43
(dp358
sI44
(dp359
sI45
(dp360
sI46
(dp361
sI47
(dp362
sI48
(dp363
sI49
(dp364
sI50
(dp365
sI51
(dp366
sI52
(dp367
sI53
(dp368
sI54
(dp369
sI55
(dp370
sI56
(dp371
sI57
(dp372
sI58
(dp373
sI59
(dp374
sI60
(dp375
sI61
(dp376
sI62
(dp377
sI63
(dp378
sI64
(dp379
sI65
(dp380
sI66
(dp381
sI67
(dp382
sI68
(dp383
sI69
(dp384
sI70
(dp385
sI71
(dp386
sI72
(dp387
sI73
(dp388
sI74
(dp389
sI75
(dp390
sI76
(dp391
sI77
(dp392
sI78
(dp393
sI79
(dp394
sI80
(dp395
sI81
(dp396
sI82
(dp397
sI83
(dp398
sI84
(dp399
sI85
(dp400
sI86
(dp401
sI87
(dp402
sI88
(dp403
sI89
(dp404
sI90
(dp405
sI91
(dp406
sI92
(dp407
sI93
(dp408
sI94
(dp409
sI95
(dp410
sI96
(dp411
sI97
(dp412
sI98
(dp413
sI99
(dp414
sI100
(dp415
sI101
(dp416
sI102
(dp417
sI103
(dp418
sI104
(dp419
sI105
(dp420
sI106
(dp421
sI107
(dp422
sI108
(dp423
sI109
(dp424
sI110
(dp425
sI111
(dp426
sI112
(dp427
sI113
(dp428
sI114
(dp429
sI115
(dp430
sI116
(dp431
sI117
(dp432
sI118
(dp433
sI119
(dp434
sI120
(dp435
sI121
(dp436
sI122
(dp437
sI123
(dp438
sI124
(dp439
sI125
(dp440
sI126
(dp441
sI127
(dp442
sI128
(dp443
sI129
(dp444
sI130
(dp445
sI131
(dp446
sI132
(dp447
sI133
(dp448
sI134
(dp449
sI135
(dp450
sI136
(dp451
sI137
(dp452
sI138
(dp453
sI139
(dp454
sI140
(dp455
sI141
(dp456
sI142
(dp457
sI143
(dp458
sI144
(dp459
sI145
(dp460
sI146
(dp461
sI147
(dp462
sI148
(dp463
sI149
(dp464
sI150
(dp465
sI151
(dp466
sI152
(dp467
sI153
(dp468
sI154
(dp469
sI155
(dp470
sI156
(dp471
sI157
(dp472
sI158
(dp473
sI159
(dp474
sI160
(dp475
sI161
(dp476
sI162
(dp477
sI163
(dp478
sI164
(dp479
sI165
(dp480
sI166
(dp481
sI167
(dp482
sI168
(dp483
sI169
(dp484
sI170
(dp485
sI171
(dp486
sI172
(dp487
sI173
(dp488
sI174
(dp489
sI175
(dp490
sI176
(dp491
sI177
(dp492
sI178
(dp493
sI179
(dp494
sI180
(dp495
sI181
(dp496
sI182
(dp497
sI183
(dp498
sI184
(dp499
sI185
(dp500
sI186
(dp501
sI187
(dp502
sI188
(dp503
sI189
(dp504
sI190
(dp505
sI191
(dp506
sI192
(dp507
sI193
(dp508
sI194
(dp509
sI195
(dp510
sI196
(dp511
sI197
(dp512
sI198
(dp513
sI199
(dp514
sI200
(dp515
sI201
(dp516
sI202
(dp517
sI203
(dp518
sI204
(dp519
sI205
(dp520
sI206
(dp521
sI207
(dp522
sI208
(dp523
sI209
(dp524
sI210
(dp525
sI211
(dp526
sI212
(dp527
sI213
(dp528
sI214
(dp529
sI215
(dp530
sI216
(dp531
sI217
(dp532
sI218
(dp533
sI219
(dp534
sI220
(dp535
sI221
(dp536
sI222
(dp537
sI223
(dp538
sI224
(dp539
sI225
(dp540
sI226
(dp541
sI227
(dp542
sI228
(dp543
sI229
(dp544
sI230
(dp545
sI231
(dp546
sI232
(dp547
sI233
(dp548
sI234
(dp549
sI235
(dp550
sI236
(dp551
sI237
(dp552
sI238
(dp553
sI239
(dp554
sI240
(dp555
sI241
(dp556
sI242
(dp557
sI243
(dp558
sI244
(dp559
sI245
(dp560
sI246
(dp561
sI247
(dp562
sI248
(dp563
sI249
(dp564
sI250
(dp565
sI251
(dp566
sI252
(dp567
sI253
(dp568
sI254
(dp569
sI255
(dp570
sI256
(dp571
sI257
(dp572
sI258
(dp573
sI259
(dp574
sI260
(dp575
sI261
(dp576
sI262
(dp577
sI263
(dp578
sI264
(dp579
sI265
(dp580
sI266
(dp581
sI267
(dp582
sI268
(dp583
sI269
(dp584
sI270
(dp585
sI271
(dp586
sI272
(dp587
sI273
(dp588
sI274
(dp589
sI275
(dp590
sI276
(dp591
sI277
(dp592
sI278
(dp593
sI279
(dp594
sI280
(dp595
sI281
(dp596
sI282
(dp597
sI283
(dp598
sI284
(dp599
sI285
(dp600
sI286
(dp601
sI287
(dp602
sI288
(dp603
sI289
(dp604
sI290
(dp605
sI291
(dp606
sI292
(dp607
sI293
(dp608
sI294
(dp609
sI295
(dp610
sI296
(dp611
sI297
(dp612
sI298
(dp613
sI299
(dp614
ssS'graph'
p615
(dp616
sS'adjlist_dict_factory'
p617
g311
sS'adj'
p618
g314
sb.