ccopy_reg
_reconstructor
p0
(cnetworkx.classes.graph
Graph
p1
c__builtin__
object
p2
Ntp3
Rp4
(dp5
S'node'
p6
(dp7
I0
(dp8
S'pos_x'
p9
F0.25174643274461317
sS'pos_y'
p10
F0.03866502950917883
ssI1
(dp11
g9
F0.9847691624863093
sg10
F0.467522261012962
ssI2
(dp12
g9
F0.048267509835054345
sg10
F0.6947495246050299
ssI3
(dp13
g9
F0.4764457934066014
sg10
F0.051310044133967114
ssI4
(dp14
g9
F0.08120540071437221
sg10
F0.4592643017885505
ssI5
(dp15
g9
F0.25502186271314886
sg10
F0.503192644523154
ssI6
(dp16
g9
F0.03897814905717567
sg10
F0.31529715722611407
ssI7
(dp17
g9
F0.8009105769143449
sg10
F0.06233080780189726
ssI8
(dp18
g9
F0.07105055110852965
sg10
F0.7982868783319084
ssI9
(dp19
g9
F0.5082843018924649
sg10
F0.38671077319179425
ssI10
(dp20
g9
F0.5361528961611174
sg10
F0.4638561555602009
ssI11
(dp21
g9
F0.726930094497916
sg10
F0.20760866351202756
ssI12
(dp22
g9
F0.08920932635166745
sg10
F0.7894829925769485
ssI13
(dp23
g9
F0.25707909855082933
sg10
F0.16991226864387132
ssI14
(dp24
g9
F0.25409227716974303
sg10
F0.43838424876977833
ssI15
(dp25
g9
F0.6846386388612545
sg10
F0.8993727967990242
ssI16
(dp26
g9
F0.22111657649840077
sg10
F0.6423463322934951
ssI17
(dp27
g9
F0.8322677483857718
sg10
F0.15874725735441042
ssI18
(dp28
g9
F0.4414763948582662
sg10
F0.38022065024221396
ssI19
(dp29
g9
F0.9916173198437291
sg10
F0.16899811450393343
ssI20
(dp30
g9
F0.007921407675889891
sg10
F0.9164960216500094
ssI21
(dp31
g9
F0.8778493812840783
sg10
F0.5979591077558889
ssI22
(dp32
g9
F0.17597732925591902
sg10
F0.9388937821970552
ssI23
(dp33
g9
F0.9912386155049155
sg10
F0.38824537099963563
ssI24
(dp34
g9
F0.958900411863861
sg10
F0.47766154563849017
ssI25
(dp35
g9
F0.163800779270306
sg10
F0.9430578618892111
ssI26
(dp36
g9
F0.6501193071734812
sg10
F0.6555055520434658
ssI27
(dp37
g9
F0.225858244556297
sg10
F0.05884949253489369
ssI28
(dp38
g9
F0.2066372481333737
sg10
F0.6346936851054426
ssI29
(dp39
g9
F0.04276170355947673
sg10
F0.7711167544159216
ssI30
(dp40
g9
F0.7626136363842138
sg10
F0.5558975911843317
ssI31
(dp41
g9
F0.14764487523056535
sg10
F0.4519438147866197
ssI32
(dp42
g9
F0.060898952032091724
sg10
F0.29508120808960303
ssI33
(dp43
g9
F0.5161513213132192
sg10
F0.911305822493285
ssI34
(dp44
g9
F0.9739447751325192
sg10
F0.3072356784686914
ssI35
(dp45
g9
F0.4082076356932681
sg10
F0.27109681360402915
ssI36
(dp46
g9
F0.9473252420743807
sg10
F0.42301975425525673
ssI37
(dp47
g9
F0.7903181540282055
sg10
F0.2923967698803652
ssI38
(dp48
g9
F0.6369018179062628
sg10
F0.9419782409969271
ssI39
(dp49
g9
F0.8449722317663352
sg10
F0.8953256271183485
ssI40
(dp50
g9
F0.22157341890066018
sg10
F0.06253459884335755
ssI41
(dp51
g9
F0.6532820302887296
sg10
F0.15512503395315524
ssI42
(dp52
g9
F0.7938909833902353
sg10
F0.2088112436297319
ssI43
(dp53
g9
F0.4705897601473906
sg10
F0.3909226048491966
ssI44
(dp54
g9
F0.4392582265114
sg10
F0.2734596361585886
ssI45
(dp55
g9
F0.1923341858886295
sg10
F0.5523062952141001
ssI46
(dp56
g9
F0.9762119706711951
sg10
F0.4058158317302333
ssI47
(dp57
g9
F0.5925481870916969
sg10
F0.3149327119958012
ssI48
(dp58
g9
F0.3915552882092753
sg10
F0.36527242932533577
ssI49
(dp59
g9
F0.9916885200020216
sg10
F0.4666151231684472
ssI50
(dp60
g9
F0.6133362106082476
sg10
F0.3016256050208257
ssI51
(dp61
g9
F0.4633593096399081
sg10
F0.021097979093010033
ssI52
(dp62
g9
F0.7711068540957422
sg10
F0.6487277930271432
ssI53
(dp63
g9
F0.7674871059036007
sg10
F0.2682011555674797
ssI54
(dp64
g9
F0.8349364683975561
sg10
F0.6726379541891551
ssI55
(dp65
g9
F0.14460672619066328
sg10
F0.8164188050802996
ssI56
(dp66
g9
F0.8486775379397051
sg10
F0.9274021441542001
ssI57
(dp67
g9
F0.22218000551183215
sg10
F0.28299359977330496
ssI58
(dp68
g9
F0.584399688003955
sg10
F0.670584133723962
ssI59
(dp69
g9
F0.047281669972423
sg10
F0.9212788803272177
ssI60
(dp70
g9
F0.10498340278064777
sg10
F0.9281990526937328
ssI61
(dp71
g9
F0.38194336747904034
sg10
F0.05973329490866519
ssI62
(dp72
g9
F0.672933500525311
sg10
F0.5252935050902763
ssI63
(dp73
g9
F0.8665920111860869
sg10
F0.013495456577901521
ssI64
(dp74
g9
F0.11880910368383091
sg10
F0.20496976225563834
ssI65
(dp75
g9
F0.2709699638486954
sg10
F0.3399717219438837
ssI66
(dp76
g9
F0.09416425531071204
sg10
F0.3256332790330905
ssI67
(dp77
g9
F0.25333824597948285
sg10
F0.7498961384841212
ssI68
(dp78
g9
F0.6507783778137037
sg10
F0.8021179895312116
ssI69
(dp79
g9
F0.9505766678849271
sg10
F0.4853945387005385
ssI70
(dp80
g9
F0.4241704150866854
sg10
F0.8968988397005762
ssI71
(dp81
g9
F0.31061879190943265
sg10
F0.5628896818140192
ssI72
(dp82
g9
F0.9185094016133427
sg10
F0.4652580018847249
ssI73
(dp83
g9
F0.74962416490901
sg10
F0.7718712239665503
ssI74
(dp84
g9
F0.657630538562031
sg10
F0.16711192472562442
ssI75
(dp85
g9
F0.04114758981335631
sg10
F0.8211268208801905
ssI76
(dp86
g9
F0.09685074337703814
sg10
F0.2607977276317105
ssI77
(dp87
g9
F0.7754155485841794
sg10
F0.8318371807781789
ssI78
(dp88
g9
F0.018128703143935554
sg10
F0.9540146364990446
ssI79
(dp89
g9
F0.361500747122694
sg10
F0.12493922260639823
ssI80
(dp90
g9
F0.44809402231909734
sg10
F0.396906484605713
ssI81
(dp91
g9
F0.9351806532560107
sg10
F0.23488613211285647
ssI82
(dp92
g9
F0.5062365284515417
sg10
F0.4673186722955883
ssI83
(dp93
g9
F0.020949355279657134
sg10
F0.8500366090553793
ssI84
(dp94
g9
F0.7316741113822333
sg10
F0.32412894046406504
ssI85
(dp95
g9
F0.360565686716362
sg10
F0.8731244871272299
ssI86
(dp96
g9
F0.7714632955091639
sg10
F0.4438911402328066
ssI87
(dp97
g9
F0.8121468567210088
sg10
F0.8219519509457835
ssI88
(dp98
g9
F0.8013815237958567
sg10
F0.5090158197489381
ssI89
(dp99
g9
F0.5469985090374913
sg10
F0.4954655924869058
ssI90
(dp100
g9
F0.43102927569272875
sg10
F0.7511758579849345
ssI91
(dp101
g9
F0.36478543089239424
sg10
F0.7275029440405583
ssI92
(dp102
g9
F0.5057688505318028
sg10
F0.6974283205044317
ssI93
(dp103
g9
F0.4883573028760425
sg10
F0.2113749272736276
ssI94
(dp104
g9
F0.9314629284020146
sg10
F0.8441521450926968
ssI95
(dp105
g9
F0.7126192062028069
sg10
F0.8313029800657026
ssI96
(dp106
g9
F0.4242260175036793
sg10
F0.14324979114657754
ssI97
(dp107
g9
F0.4287614156287264
sg10
F0.3792984583652844
ssI98
(dp108
g9
F0.8157747577132243
sg10
F0.47233179012851334
ssI99
(dp109
g9
F0.1830771765628274
sg10
F0.6937551565207548
ssI100
(dp110
g9
F0.7765866444704433
sg10
F0.6239997593148191
ssI101
(dp111
g9
F0.05798055640026034
sg10
F0.8326386922382795
ssI102
(dp112
g9
F0.39755996618344824
sg10
F0.7946203664398306
ssI103
(dp113
g9
F0.40850839877048706
sg10
F0.714447747398392
ssI104
(dp114
g9
F0.002840866554424837
sg10
F0.009676124776088035
ssI105
(dp115
g9
F0.587509342835737
sg10
F0.513553235287987
ssI106
(dp116
g9
F0.30844692945813557
sg10
F0.1343659487649811
ssI107
(dp117
g9
F0.12255056496310002
sg10
F0.7878693401863858
ssI108
(dp118
g9
F0.8327824719252652
sg10
F0.01643659941853648
ssI109
(dp119
g9
F0.4571527334259984
sg10
F0.7485330741244571
ssI110
(dp120
g9
F0.4318370694720661
sg10
F0.23137433148622788
ssI111
(dp121
g9
F0.8000740498132012
sg10
F0.041671358428477245
ssI112
(dp122
g9
F0.04247625303797242
sg10
F0.7676268464310563
ssI113
(dp123
g9
F0.3885425766247945
sg10
F0.7549600180207899
ssI114
(dp124
g9
F0.5558199299193843
sg10
F0.8149981737157375
ssI115
(dp125
g9
F0.4313056713879896
sg10
F0.6482787481163611
ssI116
(dp126
g9
F0.5257506444303196
sg10
F0.731095435135249
ssI117
(dp127
g9
F0.9116573983853824
sg10
F0.08249415562792473
ssI118
(dp128
g9
F0.9625090399283821
sg10
F0.9246815614089319
ssI119
(dp129
g9
F0.8917530298748848
sg10
F0.20732054600667238
ssI120
(dp130
g9
F0.22052958560944302
sg10
F0.6620967908015261
ssI121
(dp131
g9
F0.15909776995661817
sg10
F0.9344439536918171
ssI122
(dp132
g9
F0.5519740231917117
sg10
F0.5699133243164569
ssI123
(dp133
g9
F0.7602968462330699
sg10
F0.5951003719255178
ssI124
(dp134
g9
F0.7400915886168522
sg10
F0.7206428357143378
ssI125
(dp135
g9
F0.9601466752900873
sg10
F0.7890795590303598
ssI126
(dp136
g9
F0.37261711178752666
sg10
F0.7548217494012605
ssI127
(dp137
g9
F0.09471183890269075
sg10
F0.772363152560539
ssI128
(dp138
g9
F0.03448912723544373
sg10
F0.14473215255220107
ssI129
(dp139
g9
F0.8436754890429949
sg10
F0.9136202576614488
ssI130
(dp140
g9
F0.8526484401127122
sg10
F0.09919576132855867
ssI131
(dp141
g9
F0.10679986865715929
sg10
F0.4869480961885183
ssI132
(dp142
g9
F0.9581503586844129
sg10
F0.6786837697469729
ssI133
(dp143
g9
F0.30699063587034414
sg10
F0.3969809530716546
ssI134
(dp144
g9
F0.41758170022290964
sg10
F0.9760921025737658
ssI135
(dp145
g9
F0.4288696251835582
sg10
F0.39885922051884126
ssI136
(dp146
g9
F0.5771453403427599
sg10
F0.2545687369271866
ssI137
(dp147
g9
F0.9439410398667202
sg10
F0.2103947683685562
ssI138
(dp148
g9
F0.564791288471465
sg10
F0.1490605366232285
ssI139
(dp149
g9
F0.3860486202350135
sg10
F0.5070089288581772
ssI140
(dp150
g9
F0.1464604753665394
sg10
F0.17012423420613265
ssI141
(dp151
g9
F0.3933824269040135
sg10
F0.009968588042053028
ssI142
(dp152
g9
F0.8841193292781113
sg10
F0.02392136447088644
ssI143
(dp153
g9
F0.08532622523830324
sg10
F0.9232690997570175
ssI144
(dp154
g9
F0.9985069112272148
sg10
F0.6237535441405502
ssI145
(dp155
g9
F0.07579576794579934
sg10
F0.39177749630785896
ssI146
(dp156
g9
F0.23302032447400034
sg10
F0.7986431234336285
ssI147
(dp157
g9
F0.05135308945311101
sg10
F0.0646833514076206
ssI148
(dp158
g9
F0.283412487648261
sg10
F0.06394964308259132
ssI149
(dp159
g9
F0.49196388352377163
sg10
F0.2824672783394878
ssI150
(dp160
g9
F0.5660609503866093
sg10
F0.16256780035530816
ssI151
(dp161
g9
F0.4217420800256869
sg10
F0.7217700457504891
ssI152
(dp162
g9
F0.11774455690673336
sg10
F0.6009402379664465
ssI153
(dp163
g9
F0.13366817728726266
sg10
F0.654070606340169
ssI154
(dp164
g9
F0.8070697400147766
sg10
F0.9438128883709073
ssI155
(dp165
g9
F0.7019464969713878
sg10
F0.564918565074464
ssI156
(dp166
g9
F0.616688063459993
sg10
F0.18893409814372808
ssI157
(dp167
g9
F0.0821072991759122
sg10
F0.3544364525063284
ssI158
(dp168
g9
F0.5942168349422909
sg10
F0.010886951105121945
ssI159
(dp169
g9
F0.42435654146418655
sg10
F0.12475493636856227
ssI160
(dp170
g9
F0.5003410465431405
sg10
F0.8065941007719672
ssI161
(dp171
g9
F0.9978794555856935
sg10
F0.26758757080610207
ssI162
(dp172
g9
F0.6841786583632096
sg10
F0.8405009052968737
ssI163
(dp173
g9
F0.6167159156555345
sg10
F0.7438944958672007
ssI164
(dp174
g9
F0.08497677188068942
sg10
F0.8656833495801843
ssI165
(dp175
g9
F0.6391688479758885
sg10
F0.6123954995492413
ssI166
(dp176
g9
F0.8418489096818669
sg10
F0.5730419192547459
ssI167
(dp177
g9
F0.8738608755303906
sg10
F0.8192702086397595
ssI168
(dp178
g9
F0.11427497578186518
sg10
F0.10755818443168408
ssI169
(dp179
g9
F0.4320953680427998
sg10
F0.18242225499739717
ssI170
(dp180
g9
F0.30320674944137493
sg10
F0.44492845665121594
ssI171
(dp181
g9
F0.6198780816012106
sg10
F0.5305031306209753
ssI172
(dp182
g9
F0.3878935800861565
sg10
F0.8559645177217579
ssI173
(dp183
g9
F0.975941424988773
sg10
F0.7614702900436933
ssI174
(dp184
g9
F0.8013840035306407
sg10
F0.6182299140935351
ssI175
(dp185
g9
F0.8455764739572735
sg10
F0.36400405028486826
ssI176
(dp186
g9
F0.8269388456628712
sg10
F0.2809185915077609
ssI177
(dp187
g9
F0.4953589712343205
sg10
F0.2976165094121327
ssI178
(dp188
g9
F0.5626625987548887
sg10
F0.5324760758040509
ssI179
(dp189
g9
F0.6307601658236534
sg10
F0.45797751099065453
ssI180
(dp190
g9
F0.32096755310924463
sg10
F0.7797372153694886
ssI181
(dp191
g9
F0.3394193962111859
sg10
F0.8087171969545236
ssI182
(dp192
g9
F0.6307793375098218
sg10
F0.5909132576209516
ssI183
(dp193
g9
F0.5794367958457175
sg10
F0.7115662791399215
ssI184
(dp194
g9
F0.6095375339041657
sg10
F0.6674158636036907
ssI185
(dp195
g9
F0.10837933883185091
sg10
F0.5197370060416483
ssI186
(dp196
g9
F0.43560155236852416
sg10
F0.5194409233399839
ssI187
(dp197
g9
F0.2506212993736444
sg10
F0.36316242232316576
ssI188
(dp198
g9
F0.8378563912872118
sg10
F0.6931866613983965
ssI189
(dp199
g9
F0.4341805462075078
sg10
F0.12085346152975018
ssI190
(dp200
g9
F0.39495431622925414
sg10
F0.18862919882906304
ssI191
(dp201
g9
F0.5479028102077184
sg10
F0.9447824669073733
ssI192
(dp202
g9
F0.5390715423673087
sg10
F0.7056331830509492
ssI193
(dp203
g9
F0.7465105067295459
sg10
F0.12375195157787189
ssI194
(dp204
g9
F0.1734065833394507
sg10
F0.6039364382046939
ssI195
(dp205
g9
F0.1531259481561147
sg10
F0.8545234716441493
ssI196
(dp206
g9
F0.9463686824488635
sg10
F0.5911496660321667
ssI197
(dp207
g9
F0.8224517261825354
sg10
F0.18212974163038864
ssI198
(dp208
g9
F0.045666486028164366
sg10
F0.5508068058124831
ssI199
(dp209
g9
F0.9755530205805812
sg10
F0.4850836846945552
ssI200
(dp210
g9
F0.26102282080364936
sg10
F0.8480465354334973
ssI201
(dp211
g9
F0.5216499980733884
sg10
F0.4880207972621806
ssI202
(dp212
g9
F0.6745415514888653
sg10
F0.39421180567695513
ssI203
(dp213
g9
F0.33971698961813745
sg10
F0.6440911949598445
ssI204
(dp214
g9
F0.8235348034449681
sg10
F0.42001073606714856
ssI205
(dp215
g9
F0.23327736608716343
sg10
F0.2636187816766724
ssI206
(dp216
g9
F0.32456023675827994
sg10
F0.2216937444604966
ssI207
(dp217
g9
F0.9454911745576406
sg10
F0.983214509863119
ssI208
(dp218
g9
F0.8815265719229021
sg10
F0.28494350513209854
ssI209
(dp219
g9
F0.5321607001414171
sg10
F0.6963677360323404
ssI210
(dp220
g9
F0.8522610299040126
sg10
F0.16364913160897454
ssI211
(dp221
g9
F0.8256099307111437
sg10
F0.2796366186417628
ssI212
(dp222
g9
F0.9122762428008796
sg10
F0.7083423286791802
ssI213
(dp223
g9
F0.4514358376416141
sg10
F0.23889288702518607
ssI214
(dp224
g9
F0.3590493750210546
sg10
F0.898018329036573
ssI215
(dp225
g9
F0.42910374001119034
sg10
F0.08722973841654935
ssI216
(dp226
g9
F0.4115097007890006
sg10
F0.42357874373215165
ssI217
(dp227
g9
F0.4446456217512105
sg10
F0.4091384528277099
ssI218
(dp228
g9
F0.28361373977701554
sg10
F0.047463972266222565
ssI219
(dp229
g9
F0.3815882244657587
sg10
F0.3704079397172255
ssI220
(dp230
g9
F0.8961396754385268
sg10
F0.6557155170762646
ssI221
(dp231
g9
F0.5771582663983835
sg10
F0.9926218866936766
ssI222
(dp232
g9
F0.3003817706589683
sg10
F0.6020439638898822
ssI223
(dp233
g9
F0.05561528142090655
sg10
F0.6474049387627546
ssI224
(dp234
g9
F0.6480651431663855
sg10
F0.462217673700563
ssI225
(dp235
g9
F0.09628994684620873
sg10
F0.9337101674719053
ssI226
(dp236
g9
F0.19220992355546362
sg10
F0.8849436272126849
ssI227
(dp237
g9
F0.09498743372208762
sg10
F0.3029820673897248
ssI228
(dp238
g9
F0.8296979103353715
sg10
F0.8190135330730756
ssI229
(dp239
g9
F0.7756221670910614
sg10
F0.2628346822345934
ssI230
(dp240
g9
F0.20007230973446788
sg10
F0.848352674930514
ssI231
(dp241
g9
F0.27298560939312067
sg10
F0.7770445313414822
ssI232
(dp242
g9
F0.049484776586607326
sg10
F0.3431563752159261
ssI233
(dp243
g9
F0.8696243669781415
sg10
F0.3459703717267941
ssI234
(dp244
g9
F0.47334662439569386
sg10
F0.2938614874165716
ssI235
(dp245
g9
F0.23569888172847264
sg10
F0.2221647752554149
ssI236
(dp246
g9
F0.9150066885990746
sg10
F0.06228001155217111
ssI237
(dp247
g9
F0.8880125505191425
sg10
F0.3284052373973011
ssI238
(dp248
g9
F0.27691070212123337
sg10
F0.44632829710595245
ssI239
(dp249
g9
F0.5117615805730331
sg10
F0.8761457279710517
ssI240
(dp250
g9
F0.9754540362988057
sg10
F0.9461429450143706
ssI241
(dp251
g9
F0.012892534613917483
sg10
F0.7795473319395824
ssI242
(dp252
g9
F0.21740036028626675
sg10
F0.947918397451667
ssI243
(dp253
g9
F0.33060963137982025
sg10
F0.09555782224270104
ssI244
(dp254
g9
F0.725896722149795
sg10
F0.5373962020649264
ssI245
(dp255
g9
F0.8858955881011048
sg10
F0.8277085111055372
ssI246
(dp256
g9
F0.2033529461036172
sg10
F0.03513171190524034
ssI247
(dp257
g9
F0.8280448055669403
sg10
F0.8033390234524904
ssI248
(dp258
g9
F0.6973633203813978
sg10
F0.975225999859499
ssI249
(dp259
g9
F0.028682149576130245
sg10
F0.6990292751479307
ssI250
(dp260
g9
F0.8553474579022268
sg10
F0.2988879484097542
ssI251
(dp261
g9
F0.9029718774356109
sg10
F0.8115209640397323
ssI252
(dp262
g9
F0.1996612697748087
sg10
F0.41640621094280417
ssI253
(dp263
g9
F0.7252724163311539
sg10
F0.5401439967682845
ssI254
(dp264
g9
F0.09477628212112643
sg10
F0.6996991958354599
ssI255
(dp265
g9
F0.6520175668449261
sg10
F0.8857017506839139
ssI256
(dp266
g9
F0.010201668808025754
sg10
F0.502106837912478
ssI257
(dp267
g9
F0.09509136043635746
sg10
F0.706729287293234
ssI258
(dp268
g9
F0.33341838316452954
sg10
F0.38583634371384656
ssI259
(dp269
g9
F0.9343045665207823
sg10
F0.0657824848051275
ssI260
(dp270
g9
F0.18726983029581912
sg10
F0.746714342918668
ssI261
(dp271
g9
F0.3090039869851545
sg10
F0.35872811059498155
ssI262
(dp272
g9
F0.8818694433264592
sg10
F0.9105296507490034
ssI263
(dp273
g9
F0.5121022924133589
sg10
F0.701077015169159
ssI264
(dp274
g9
F0.08463629249033044
sg10
F0.15459442573158488
ssI265
(dp275
g9
F0.22533713518781873
sg10
F0.43635659198640375
ssI266
(dp276
g9
F0.7164679635949284
sg10
F0.176779271546032
ssI267
(dp277
g9
F0.6474221065869972
sg10
F0.2901474763413512
ssI268
(dp278
g9
F0.2842955751501429
sg10
F0.9101005626969497
ssI269
(dp279
g9
F0.7735547857649712
sg10
F0.6931130759639467
ssI270
(dp280
g9
F0.7278540476839672
sg10
F0.5800073797551106
ssI271
(dp281
g9
F0.48593485602885456
sg10
F0.33753171139812554
ssI272
(dp282
g9
F0.4849401626778622
sg10
F0.49558751053609595
ssI273
(dp283
g9
F0.7795528446933989
sg10
F0.5657399464664303
ssI274
(dp284
g9
F0.09016719740099788
sg10
F0.5610862057612936
ssI275
(dp285
g9
F0.2002733485471595
sg10
F0.05774310722287501
ssI276
(dp286
g9
F0.5288474481298465
sg10
F0.12403448459164346
ssI277
(dp287
g9
F0.6424202849535402
sg10
F0.24790145626087234
ssI278
(dp288
g9
F0.5754733315313157
sg10
F0.2046890326352696
ssI279
(dp289
g9
F0.6593598312511808
sg10
F0.941549233100318
ssI280
(dp290
g9
F0.09213551851853985
sg10
F0.8618205815242657
ssI281
(dp291
g9
F0.20664410074489314
sg10
F0.20896351551179237
ssI282
(dp292
g9
F0.8690957363024858
sg10
F0.4811724226478865
ssI283
(dp293
g9
F0.8713071200030844
sg10
F0.7369635695458124
ssI284
(dp294
g9
F0.5515805208410772
sg10
F0.4742592100324826
ssI285
(dp295
g9
F0.7630546280742722
sg10
F0.6137138267377199
ssI286
(dp296
g9
F0.9153816262325463
sg10
F0.47590733475162506
ssI287
(dp297
g9
F0.9459121945268213
sg10
F0.15375873936022677
ssI288
(dp298
g9
F0.9856232238013041
sg10
F0.5325268247821802
ssI289
(dp299
g9
F0.9890151885609296
sg10
F0.6013641159189728
ssI290
(dp300
g9
F0.10256320618633985
sg10
F0.07662847007649787
ssI291
(dp301
g9
F0.4488150565272758
sg10
F0.32795070438477436
ssI292
(dp302
g9
F0.20050952130073685
sg10
F0.10406961872103238
ssI293
(dp303
g9
F0.3030304146182089
sg10
F0.903665766070764
ssI294
(dp304
g9
F0.12111739241440156
sg10
F0.6460730128783373
ssI295
(dp305
g9
F0.622219253416095
sg10
F0.7547489602869975
ssI296
(dp306
g9
F0.2928689934606432
sg10
F0.8973893047066376
ssI297
(dp307
g9
F0.5169597168451556
sg10
F0.875309274257098
ssI298
(dp308
g9
F0.767798584165431
sg10
F0.2224717943687654
ssI299
(dp309
g9
F0.10311947531700849
sg10
F0.5005486687254843
sssS'node_dict_factory'
p310
c__builtin__
dict
p311
sS'edge_attr_dict_factory'
p312
g311
sS'edge'
p313
(dp314
I0
(dp315
sI1
(dp316
sI2
(dp317
sI3
(dp318
sI4
(dp319
sI5
(dp320
sI6
(dp321
sI7
(dp322
sI8
(dp323
sI9
(dp324
sI10
(dp325
sI11
(dp326
sI12
(dp327
sI13
(dp328
sI14
(dp329
sI15
(dp330
sI16
(dp331
sI17
(dp332
sI18
(dp333
sI19
(dp334
sI20
(dp335
sI21
(dp336
sI22
(dp337
sI23
(dp338
sI24
(dp339
sI25
(dp340
sI26
(dp341
sI27
(dp342
sI28
(dp343
sI29
(dp344
sI30
(dp345
sI31
(dp346
sI32
(dp347
sI33
(dp348
sI34
(dp349
sI35
(dp350
sI36
(dp351
sI37
(dp352
sI38
(dp353
sI39
(dp354
sI40
(dp355
sI41
(dp356
sI42
(dp357
sI43
(dp358
sI44
(dp359
sI45
(dp360
sI46
(dp361
sI47
(dp362
sI48
(dp363
sI49
(dp364
sI50
(dp365
sI51
(dp366
sI52
(dp367
sI53
(dp368
sI54
(dp369
sI55
(dp370
sI56
(dp371
sI57
(dp372
sI58
(dp373
sI59
(dp374
sI60
(dp375
sI61
(dp376
sI62
(dp377
sI63
(dp378
sI64
(dp379
sI65
(dp380
sI66
(dp381
sI67
(dp382
sI68
(dp383
sI69
(dp384
sI70
(dp385
sI71
(dp386
sI72
(dp387
sI73
(dp388
sI74
(dp389
sI75
(dp390
sI76
(dp391
sI77
(dp392
sI78
(dp393
sI79
(dp394
sI80
(dp395
sI81
(dp396
sI82
(dp397
sI83
(dp398
sI84
(dp399
sI85
(dp400
sI86
(dp401
sI87
(dp402
sI88
(dp403
sI89
(dp404
sI90
(dp405
sI91
(dp406
sI92
(dp407
sI93
(dp408
sI94
(dp409
sI95
(dp410
sI96
(dp411
sI97
(dp412
sI98
(dp413
sI99
(dp414
sI100
(dp415
sI101
(dp416
sI102
(dp417
sI103
(dp418
sI104
(dp419
sI105
(dp420
sI106
(dp421
sI107
(dp422
sI108
(dp423
sI109
(dp424
sI110
(dp425
sI111
(dp426
sI112
(dp427
sI113
(dp428
sI114
(dp429
sI115
(dp430
sI116
(dp431
sI117
(dp432
sI118
(dp433
sI119
(dp434
sI120
(dp435
sI121
(dp436
sI122
(dp437
sI123
(dp438
sI124
(dp439
sI125
(dp440
sI126
(dp441
sI127
(dp442
sI128
(dp443
sI129
(dp444
sI130
(dp445
sI131
(dp446
sI132
(dp447
sI133
(dp448
sI134
(dp449
sI135
(dp450
sI136
(dp451
sI137
(dp452
sI138
(dp453
sI139
(dp454
sI140
(dp455
sI141
(dp456
sI142
(dp457
sI143
(dp458
sI144
(dp459
sI145
(dp460
sI146
(dp461
sI147
(dp462
sI148
(dp463
sI149
(dp464
sI150
(dp465
sI151
(dp466
sI152
(dp467
sI153
(dp468
sI154
(dp469
sI155
(dp470
sI156
(dp471
sI157
(dp472
sI158
(dp473
sI159
(dp474
sI160
(dp475
sI161
(dp476
sI162
(dp477
sI163
(dp478
sI164
(dp479
sI165
(dp480
sI166
(dp481
sI167
(dp482
sI168
(dp483
sI169
(dp484
sI170
(dp485
sI171
(dp486
sI172
(dp487
sI173
(dp488
sI174
(dp489
sI175
(dp490
sI176
(dp491
sI177
(dp492
sI178
(dp493
sI179
(dp494
sI180
(dp495
sI181
(dp496
sI182
(dp497
sI183
(dp498
sI184
(dp499
sI185
(dp500
sI186
(dp501
sI187
(dp502
sI188
(dp503
sI189
(dp504
sI190
(dp505
sI191
(dp506
sI192
(dp507
sI193
(dp508
sI194
(dp509
sI195
(dp510
sI196
(dp511
sI197
(dp512
sI198
(dp513
sI199
(dp514
sI200
(dp515
sI201
(dp516
sI202
(dp517
sI203
(dp518
sI204
(dp519
sI205
(dp520
sI206
(dp521
sI207
(dp522
sI208
(dp523
sI209
(dp524
sI210
(dp525
sI211
(dp526
sI212
(dp527
sI213
(dp528
sI214
(dp529
sI215
(dp530
sI216
(dp531
sI217
(dp532
sI218
(dp533
sI219
(dp534
sI220
(dp535
sI221
(dp536
sI222
(dp537
sI223
(dp538
sI224
(dp539
sI225
(dp540
sI226
(dp541
sI227
(dp542
sI228
(dp543
sI229
(dp544
sI230
(dp545
sI231
(dp546
sI232
(dp547
sI233
(dp548
sI234
(dp549
sI235
(dp550
sI236
(dp551
sI237
(dp552
sI238
(dp553
sI239
(dp554
sI240
(dp555
sI241
(dp556
sI242
(dp557
sI243
(dp558
sI244
(dp559
sI245
(dp560
sI246
(dp561
sI247
(dp562
sI248
(dp563
sI249
(dp564
sI250
(dp565
sI251
(dp566
sI252
(dp567
sI253
(dp568
sI254
(dp569
sI255
(dp570
sI256
(dp571
sI257
(dp572
sI258
(dp573
sI259
(dp574
sI260
(dp575
sI261
(dp576
sI262
(dp577
sI263
(dp578
sI264
(dp579
sI265
(dp580
sI266
(dp581
sI267
(dp582
sI268
(dp583
sI269
(dp584
sI270
(dp585
sI271
(dp586
sI272
(dp587
sI273
(dp588
sI274
(dp589
sI275
(dp590
sI276
(dp591
sI277
(dp592
sI278
(dp593
sI279
(dp594
sI280
(dp595
sI281
(dp596
sI282
(dp597
sI283
(dp598
sI284
(dp599
sI285
(dp600
sI286
(dp601
sI287
(dp602
sI288
(dp603
sI289
(dp604
sI290
(dp605
sI291
(dp606
sI292
(dp607
sI293
(dp608
sI294
(dp609
sI295
(dp610
sI296
(dp611
sI297
(dp612
sI298
(dp613
sI299
(dp614
ssS'graph'
p615
(dp616
sS'adjlist_dict_factory'
p617
g311
sS'adj'
p618
g314
sb.