ccopy_reg
_reconstructor
p0
(cnetworkx.classes.graph
Graph
p1
c__builtin__
object
p2
Ntp3
Rp4
(dp5
S'node'
p6
(dp7
I0
(dp8
S'pos_x'
p9
F0.653527148054513
sS'pos_y'
p10
F0.5430261525140475
ssI1
(dp11
g9
F0.08729792448677898
sg10
F0.8793075871499089
ssI2
(dp12
g9
F0.3654207801067558
sg10
F0.6579058018419118
ssI3
(dp13
g9
F0.432697486962609
sg10
F0.5660504005684754
ssI4
(dp14
g9
F0.8607877816038361
sg10
F0.35113117294382235
ssI5
(dp15
g9
F0.18765060483485152
sg10
F0.3702245749373255
ssI6
(dp16
g9
F0.9386881332823174
sg10
F0.34831191368053127
ssI7
(dp17
g9
F0.16818886556483015
sg10
F0.6185290912381967
ssI8
(dp18
g9
F0.415821603326054
sg10
F0.7998281837104687
ssI9
(dp19
g9
F0.27418805300604976
sg10
F0.04340890514097606
ssI10
(dp20
g9
F0.78765020892549
sg10
F0.26981353999984214
ssI11
(dp21
g9
F0.6698102250821283
sg10
F0.46891995285394594
ssI12
(dp22
g9
F0.73126416392692
sg10
F0.696696157566956
ssI13
(dp23
g9
F0.5476480039820412
sg10
F0.5700792208281856
ssI14
(dp24
g9
F0.38490651177117496
sg10
F0.9317823071915492
ssI15
(dp25
g9
F0.975053591720878
sg10
F0.9001637177711453
ssI16
(dp26
g9
F0.28526783956983126
sg10
F0.20212278394818595
ssI17
(dp27
g9
F0.4874945570778938
sg10
F0.8531590265188845
ssI18
(dp28
g9
F0.5137629345211406
sg10
F0.8963470615220314
ssI19
(dp29
g9
F0.5579113336634985
sg10
F0.958507879413461
ssI20
(dp30
g9
F0.5575412854321079
sg10
F0.26991996864788304
ssI21
(dp31
g9
F0.32967693980826596
sg10
F0.7290034523780217
ssI22
(dp32
g9
F0.0849901995913972
sg10
F0.4312025148358878
ssI23
(dp33
g9
F0.013700087825385565
sg10
F0.47493491665074294
ssI24
(dp34
g9
F0.23203817712587338
sg10
F0.25057554977185725
ssI25
(dp35
g9
F0.6242471840577515
sg10
F0.42136652284786713
ssI26
(dp36
g9
F0.38469657774891874
sg10
F0.0420173577717492
ssI27
(dp37
g9
F0.30754635871954816
sg10
F0.573253891447735
ssI28
(dp38
g9
F0.8108240383931696
sg10
F0.67580206315722
ssI29
(dp39
g9
F0.23550153726179546
sg10
F0.6519105689907239
ssI30
(dp40
g9
F0.17558887844859705
sg10
F0.6398927639474996
ssI31
(dp41
g9
F0.3966776054108393
sg10
F0.5316327195594654
ssI32
(dp42
g9
F0.3864918333769959
sg10
F0.797787052196737
ssI33
(dp43
g9
F0.9118438006196188
sg10
F0.9816676929167913
ssI34
(dp44
g9
F0.6177450130186459
sg10
F0.07360891117833568
ssI35
(dp45
g9
F0.13191311432557518
sg10
F0.9277915676988775
ssI36
(dp46
g9
F0.7654565456190993
sg10
F0.7943788214907762
ssI37
(dp47
g9
F0.09933276449906137
sg10
F0.9712650787425292
ssI38
(dp48
g9
F0.4249051221475777
sg10
F0.09077003668238848
ssI39
(dp49
g9
F0.8936696757675081
sg10
F0.6354906598135814
ssI40
(dp50
g9
F0.4294633174297977
sg10
F0.2404270908666123
ssI41
(dp51
g9
F0.1031427142973792
sg10
F0.7084467130382726
ssI42
(dp52
g9
F0.31137745362414804
sg10
F0.9390863339026638
ssI43
(dp53
g9
F0.010085278794544794
sg10
F0.8122712586148012
ssI44
(dp54
g9
F0.9051710291494619
sg10
F0.6525959361606483
ssI45
(dp55
g9
F0.3494023697525449
sg10
F0.8614210428560285
ssI46
(dp56
g9
F0.9805214362603454
sg10
F0.9204571596081315
ssI47
(dp57
g9
F0.6375783474193757
sg10
F0.5630814842735065
ssI48
(dp58
g9
F0.3444286386250086
sg10
F0.6621631098319404
ssI49
(dp59
g9
F0.01102334534624716
sg10
F0.6505362781553718
ssI50
(dp60
g9
F0.0065496554379040894
sg10
F0.2092584559208711
ssI51
(dp61
g9
F0.25116905828819824
sg10
F0.7037279573803978
ssI52
(dp62
g9
F0.08613744922568001
sg10
F0.9296719991587233
ssI53
(dp63
g9
F0.7217898000562216
sg10
F0.6994548125087254
ssI54
(dp64
g9
F0.7151007654775174
sg10
F0.7616418281979181
ssI55
(dp65
g9
F0.4203369388474799
sg10
F0.08734751213234293
ssI56
(dp66
g9
F0.08555668761983937
sg10
F0.02808328581826436
ssI57
(dp67
g9
F0.4064010434118248
sg10
F0.36748686373514383
ssI58
(dp68
g9
F0.19437787838904774
sg10
F0.7815175178690403
ssI59
(dp69
g9
F0.03849365343139566
sg10
F0.5322869057357514
ssI60
(dp70
g9
F0.39909618246624745
sg10
F0.8100265942996336
ssI61
(dp71
g9
F0.8710794524684156
sg10
F0.7969087343012431
ssI62
(dp72
g9
F0.7138542269941599
sg10
F0.01944407393322023
ssI63
(dp73
g9
F0.5624209662748674
sg10
F0.8042919333272308
ssI64
(dp74
g9
F0.36717042080330153
sg10
F0.2790898344056456
ssI65
(dp75
g9
F0.08819487227532452
sg10
F0.8653411152312717
ssI66
(dp76
g9
F0.3524684713114976
sg10
F0.5396466510011029
ssI67
(dp77
g9
F0.8504071901085608
sg10
F0.047559637819039824
ssI68
(dp78
g9
F0.8966107755648146
sg10
F0.8656207759759954
ssI69
(dp79
g9
F0.06093869355697146
sg10
F0.05917800902775183
ssI70
(dp80
g9
F0.5420820392412483
sg10
F0.17969593413267315
ssI71
(dp81
g9
F0.7367041651563575
sg10
F0.18063122377032292
ssI72
(dp82
g9
F0.40943011573924726
sg10
F0.2682313839428264
ssI73
(dp83
g9
F0.600752722315336
sg10
F0.7193150705438015
ssI74
(dp84
g9
F0.25592223042652074
sg10
F0.5190054458598333
ssI75
(dp85
g9
F0.05382619315686865
sg10
F0.6874357954915042
ssI76
(dp86
g9
F0.9502454744626759
sg10
F0.8722658371353048
ssI77
(dp87
g9
F0.7996311877271554
sg10
F0.2173137623066126
ssI78
(dp88
g9
F0.8700843102542206
sg10
F0.9591732366087925
ssI79
(dp89
g9
F0.3335846176197569
sg10
F0.4155469857377214
ssI80
(dp90
g9
F0.9446647713140349
sg10
F0.030398193628057957
ssI81
(dp91
g9
F0.6469159192534892
sg10
F0.025142039638409552
ssI82
(dp92
g9
F0.9336305981875382
sg10
F0.04151672662048855
ssI83
(dp93
g9
F0.4323031400659956
sg10
F0.6320365529136027
ssI84
(dp94
g9
F0.6322228872130129
sg10
F0.6032854296616849
ssI85
(dp95
g9
F0.6541174020896091
sg10
F0.944139222066098
ssI86
(dp96
g9
F0.28913652563829306
sg10
F0.9085439336099086
ssI87
(dp97
g9
F0.7842235969605353
sg10
F0.6853080570604462
ssI88
(dp98
g9
F0.6645541723993451
sg10
F0.2224385876524455
ssI89
(dp99
g9
F0.14485423617286863
sg10
F0.8157636912814273
ssI90
(dp100
g9
F0.9672533712869545
sg10
F0.3483195812706191
ssI91
(dp101
g9
F0.7513544634911354
sg10
F0.15731990615886737
ssI92
(dp102
g9
F0.34178808299443064
sg10
F0.5879633357607299
ssI93
(dp103
g9
F0.32717931488371
sg10
F0.6688894802576201
ssI94
(dp104
g9
F0.1331418840978308
sg10
F0.8839764214600027
ssI95
(dp105
g9
F0.4819747754994459
sg10
F0.5402778686827303
ssI96
(dp106
g9
F0.21927836157019165
sg10
F0.6624127434110385
ssI97
(dp107
g9
F0.9907070870320306
sg10
F0.9528594696182362
ssI98
(dp108
g9
F0.9409240159594087
sg10
F0.4064578884226734
ssI99
(dp109
g9
F0.7099293674876278
sg10
F0.21723474598783954
ssI100
(dp110
g9
F0.6361097803651234
sg10
F0.1427652442969244
ssI101
(dp111
g9
F0.9372870828686791
sg10
F0.5366116214896341
ssI102
(dp112
g9
F0.09947028219092724
sg10
F0.744960223057006
ssI103
(dp113
g9
F0.4884773479241201
sg10
F0.12467312508307138
ssI104
(dp114
g9
F0.7738194461683535
sg10
F0.6359148807017113
ssI105
(dp115
g9
F0.9705748655746721
sg10
F0.25260113771216397
ssI106
(dp116
g9
F0.4025031229014866
sg10
F0.9746286744683801
ssI107
(dp117
g9
F0.08830496344687921
sg10
F0.11843467682212128
ssI108
(dp118
g9
F0.399634233275026
sg10
F0.7318203959693491
ssI109
(dp119
g9
F0.03628829760063279
sg10
F0.9014966542462747
ssI110
(dp120
g9
F0.15377239923910602
sg10
F0.5138124202374782
ssI111
(dp121
g9
F0.540986459537788
sg10
F0.6308299403104393
ssI112
(dp122
g9
F0.7300611032457214
sg10
F0.07960461293758958
ssI113
(dp123
g9
F0.4687497587885937
sg10
F0.41085750294301226
ssI114
(dp124
g9
F0.2844136082840478
sg10
F0.0687656427583816
ssI115
(dp125
g9
F0.7211837330117966
sg10
F0.09563694288831792
ssI116
(dp126
g9
F0.14291836361492238
sg10
F0.8120934587742943
ssI117
(dp127
g9
F0.5210374882150115
sg10
F0.7305941735604332
ssI118
(dp128
g9
F0.6791791164439346
sg10
F0.7125256159093973
ssI119
(dp129
g9
F0.12076636721379863
sg10
F0.2560960698998337
ssI120
(dp130
g9
F0.03556652653806858
sg10
F0.8470690413173116
ssI121
(dp131
g9
F0.036403657450172267
sg10
F0.6896060950099021
ssI122
(dp132
g9
F0.17891037165410428
sg10
F0.5110209924366427
ssI123
(dp133
g9
F0.7634593684321479
sg10
F0.057897077763767846
ssI124
(dp134
g9
F0.8282412854493422
sg10
F0.8946766753085448
ssI125
(dp135
g9
F0.9937079432306007
sg10
F0.4609980263485368
ssI126
(dp136
g9
F0.9755971723311224
sg10
F0.247007081177952
ssI127
(dp137
g9
F0.5286724550955043
sg10
F0.7906269728389601
ssI128
(dp138
g9
F0.19977788851168743
sg10
F0.14836996324922624
ssI129
(dp139
g9
F0.9720523458010606
sg10
F0.9136748040290235
ssI130
(dp140
g9
F0.718625905249633
sg10
F0.33778453689758026
ssI131
(dp141
g9
F0.139735604972405
sg10
F0.7159154963906434
ssI132
(dp142
g9
F0.6029633724234885
sg10
F0.43501788795236507
ssI133
(dp143
g9
F0.8385230129123817
sg10
F0.23466414375931566
ssI134
(dp144
g9
F0.1475559543919377
sg10
F0.16117375581640703
ssI135
(dp145
g9
F0.4770520457822115
sg10
F0.12429754421542594
ssI136
(dp146
g9
F0.6556159322836022
sg10
F0.10675934530942244
ssI137
(dp147
g9
F0.8099528263926058
sg10
F0.28672761046291584
ssI138
(dp148
g9
F0.545249513859729
sg10
F0.5941724427442081
ssI139
(dp149
g9
F0.06087096212277365
sg10
F0.986371623006871
ssI140
(dp150
g9
F0.6282847453816367
sg10
F0.5040806401869878
ssI141
(dp151
g9
F0.20329851958723866
sg10
F0.9054480373057143
ssI142
(dp152
g9
F0.7805392668882742
sg10
F0.4623110403429669
ssI143
(dp153
g9
F0.646272126341761
sg10
F0.8477582616945248
ssI144
(dp154
g9
F0.5152969695938158
sg10
F0.7191098211106076
ssI145
(dp155
g9
F0.6047223289081781
sg10
F0.5548365803141603
ssI146
(dp156
g9
F0.8602911202083338
sg10
F0.49355989495504293
ssI147
(dp157
g9
F0.15673564952557462
sg10
F0.6113839206540777
ssI148
(dp158
g9
F0.49442222986525697
sg10
F0.07948291280003328
ssI149
(dp159
g9
F0.4308914668648902
sg10
F0.3183507660279161
ssI150
(dp160
g9
F0.387620021408562
sg10
F0.18672398684974512
ssI151
(dp161
g9
F0.2132159303233181
sg10
F0.6725399109618759
ssI152
(dp162
g9
F0.713568785805
sg10
F0.7619856914063037
ssI153
(dp163
g9
F0.8988824415261799
sg10
F0.5082297473367408
ssI154
(dp164
g9
F0.4708348841340596
sg10
F0.69522322400287
ssI155
(dp165
g9
F0.2841668962322641
sg10
F0.769774658511977
ssI156
(dp166
g9
F0.8938049650540473
sg10
F0.08127777841841854
ssI157
(dp167
g9
F0.0720764887622517
sg10
F0.2992368803161104
ssI158
(dp168
g9
F0.09558254627044527
sg10
F0.9234163631014851
ssI159
(dp169
g9
F0.31357488858367444
sg10
F0.6695301143255632
ssI160
(dp170
g9
F0.2344541853691593
sg10
F0.7298107958198566
ssI161
(dp171
g9
F0.13292449419211794
sg10
F0.6285611351809366
ssI162
(dp172
g9
F0.08236671049508115
sg10
F0.9788162869254348
ssI163
(dp173
g9
F0.038787590441389797
sg10
F0.9602965197373471
ssI164
(dp174
g9
F0.8604273440671304
sg10
F0.220433604058199
ssI165
(dp175
g9
F0.9979357077605752
sg10
F0.41568086305491936
ssI166
(dp176
g9
F0.008393458430009493
sg10
F0.6596842884566537
ssI167
(dp177
g9
F0.9330217510317709
sg10
F0.8971467955195993
ssI168
(dp178
g9
F0.7110516408908832
sg10
F0.9779570048679345
ssI169
(dp179
g9
F0.7817875220252126
sg10
F0.7351466950706522
ssI170
(dp180
g9
F0.5890300707857739
sg10
F0.832499165979478
ssI171
(dp181
g9
F0.210121807614424
sg10
F0.3488516174777263
ssI172
(dp182
g9
F0.09418286360355099
sg10
F0.989527732939607
ssI173
(dp183
g9
F0.4501057095275818
sg10
F0.517216403251381
ssI174
(dp184
g9
F0.4307127181229857
sg10
F0.7922256034569725
ssI175
(dp185
g9
F0.8930047479160869
sg10
F0.4686064575490293
ssI176
(dp186
g9
F0.22648216126025067
sg10
F0.29275470017742145
ssI177
(dp187
g9
F0.10308973455556725
sg10
F0.887838209256254
ssI178
(dp188
g9
F0.15418979537829314
sg10
F0.9874821302811758
ssI179
(dp189
g9
F0.24702087651422755
sg10
F0.9201163412190341
ssI180
(dp190
g9
F0.6754182399369538
sg10
F0.7392243876251817
ssI181
(dp191
g9
F0.6200481220797217
sg10
F0.1824851307854244
ssI182
(dp192
g9
F0.1298170905636452
sg10
F0.5093271430984935
ssI183
(dp193
g9
F0.6895237740200723
sg10
F0.14077255787362386
ssI184
(dp194
g9
F0.7202546126561393
sg10
F0.6098934954559476
ssI185
(dp195
g9
F0.11283304855417886
sg10
F0.04978930449791785
ssI186
(dp196
g9
F0.659577070753946
sg10
F0.5775755298151005
ssI187
(dp197
g9
F0.07427848148934313
sg10
F0.2659631522181142
ssI188
(dp198
g9
F0.3824592372334149
sg10
F0.1645330895362953
ssI189
(dp199
g9
F0.3865510202761925
sg10
F0.4357131229279343
ssI190
(dp200
g9
F0.904567747478019
sg10
F0.659034291677414
ssI191
(dp201
g9
F0.43975169196491026
sg10
F0.5784675441093574
ssI192
(dp202
g9
F0.6531641799240857
sg10
F0.5498015136786233
ssI193
(dp203
g9
F0.14131728387827258
sg10
F0.08807436813580372
ssI194
(dp204
g9
F0.6178903476996098
sg10
F0.09237170872206912
ssI195
(dp205
g9
F0.8194397625143837
sg10
F0.03404649199521925
ssI196
(dp206
g9
F0.9857480663546623
sg10
F0.03478625120746892
ssI197
(dp207
g9
F0.37177416284177556
sg10
F0.8485859123560497
ssI198
(dp208
g9
F0.2828707987075022
sg10
F0.2856414827367678
ssI199
(dp209
g9
F0.30761256270682646
sg10
F0.9544494670250584
ssI200
(dp210
g9
F0.017582514250456427
sg10
F0.25250235908038343
ssI201
(dp211
g9
F0.30213362247583275
sg10
F0.587453127569573
ssI202
(dp212
g9
F0.8591183480313624
sg10
F0.10606256490875521
ssI203
(dp213
g9
F0.12435217975014645
sg10
F0.5807193970722944
ssI204
(dp214
g9
F0.019308518613939007
sg10
F0.9888909441662168
ssI205
(dp215
g9
F0.9651441366222382
sg10
F0.4738438821338655
ssI206
(dp216
g9
F0.7774156838516044
sg10
F0.8617702787334793
ssI207
(dp217
g9
F0.22844326206576082
sg10
F0.22485707813931466
ssI208
(dp218
g9
F0.5037997939388269
sg10
F0.6544567520401853
ssI209
(dp219
g9
F0.4166534012662333
sg10
F0.954591122325509
ssI210
(dp220
g9
F0.5838263434396241
sg10
F0.576627992561685
ssI211
(dp221
g9
F0.6184891405029622
sg10
F0.9954988294501435
ssI212
(dp222
g9
F0.37777013183037866
sg10
F0.7107196296989627
ssI213
(dp223
g9
F0.9729104229504661
sg10
F0.177912763052116
ssI214
(dp224
g9
F0.8692397913220118
sg10
F0.9700365831434246
ssI215
(dp225
g9
F0.39700304053793767
sg10
F0.3618923295761899
ssI216
(dp226
g9
F0.8621179598704451
sg10
F0.9806456042136856
ssI217
(dp227
g9
F0.7649011517054369
sg10
F0.8793228928342955
ssI218
(dp228
g9
F0.3031404365619139
sg10
F0.9989822348196904
ssI219
(dp229
g9
F0.47128464857741414
sg10
F0.7782239415751361
ssI220
(dp230
g9
F0.9884902858566795
sg10
F0.6229286234918983
ssI221
(dp231
g9
F0.3636017426812933
sg10
F0.2710039884083898
ssI222
(dp232
g9
F0.822499462652908
sg10
F0.3391869802351708
ssI223
(dp233
g9
F0.5120284265377837
sg10
F0.6636079308482384
ssI224
(dp234
g9
F0.1213292957504194
sg10
F0.753619488006807
ssI225
(dp235
g9
F0.20805293755690013
sg10
F0.05788646790478935
ssI226
(dp236
g9
F0.925712310944612
sg10
F0.9929186594479729
ssI227
(dp237
g9
F0.03399686870018426
sg10
F0.6745379575040966
ssI228
(dp238
g9
F0.059248948771703946
sg10
F0.19535830518851838
ssI229
(dp239
g9
F0.15545263066521653
sg10
F0.5416144192143053
ssI230
(dp240
g9
F0.5031560339390079
sg10
F0.0626903333941351
ssI231
(dp241
g9
F0.6025665759539296
sg10
F0.8322630822791494
ssI232
(dp242
g9
F0.15152482201193396
sg10
F0.6071909562321987
ssI233
(dp243
g9
F0.527440529523248
sg10
F0.2123823506546726
ssI234
(dp244
g9
F0.2950894966528447
sg10
F0.7009808608560364
ssI235
(dp245
g9
F0.3912297406634966
sg10
F0.7426944042534943
ssI236
(dp246
g9
F0.6005299470431825
sg10
F0.13956147832440313
ssI237
(dp247
g9
F0.14325019170984077
sg10
F0.819201750842026
ssI238
(dp248
g9
F0.13289244873821393
sg10
F0.40129684945951716
ssI239
(dp249
g9
F0.03399954018474971
sg10
F0.631806374360774
ssI240
(dp250
g9
F0.9324014427476626
sg10
F0.5088299744095156
ssI241
(dp251
g9
F0.025865672712391152
sg10
F0.5460265295484142
ssI242
(dp252
g9
F0.6134269338903815
sg10
F0.5171186394569127
ssI243
(dp253
g9
F0.031692591475223075
sg10
F0.7102391623435721
ssI244
(dp254
g9
F0.11642667850115096
sg10
F0.9820484647000054
ssI245
(dp255
g9
F0.0011242165345013433
sg10
F0.7780294874552642
ssI246
(dp256
g9
F0.09532736080886406
sg10
F0.7431639212538447
ssI247
(dp257
g9
F0.4963142450013277
sg10
F0.962584818547908
ssI248
(dp258
g9
F0.07284748521158113
sg10
F0.9589173162581789
ssI249
(dp259
g9
F0.32245419509293727
sg10
F0.3500324981637959
ssI250
(dp260
g9
F0.687640239895214
sg10
F0.09478281430213897
ssI251
(dp261
g9
F0.30754376966061825
sg10
F0.7705631129538801
ssI252
(dp262
g9
F0.508871264375661
sg10
F0.9111545747744931
ssI253
(dp263
g9
F0.18356798531183194
sg10
F0.9719131007886991
ssI254
(dp264
g9
F0.4220883915824646
sg10
F0.6963187279408977
ssI255
(dp265
g9
F0.5955535763504072
sg10
F0.9388812802275321
ssI256
(dp266
g9
F0.16531940560083902
sg10
F0.7702483914085352
ssI257
(dp267
g9
F0.5280798351018443
sg10
F0.7699819744381179
ssI258
(dp268
g9
F0.25797535903348057
sg10
F0.097869041288002
ssI259
(dp269
g9
F0.00718310271274103
sg10
F0.8262411801497578
ssI260
(dp270
g9
F0.8591535374215504
sg10
F0.4466952392172552
ssI261
(dp271
g9
F0.37447844066670577
sg10
F0.05322273924315357
ssI262
(dp272
g9
F0.22162834974526358
sg10
F0.607761622440078
ssI263
(dp273
g9
F0.9894559773959287
sg10
F0.3157445885764587
ssI264
(dp274
g9
F0.6176766270615103
sg10
F0.6555823759017623
ssI265
(dp275
g9
F0.9220764647337862
sg10
F0.8542931582173424
ssI266
(dp276
g9
F0.8297563206987318
sg10
F0.019741149250002032
ssI267
(dp277
g9
F0.322978120869026
sg10
F0.5253634059824034
ssI268
(dp278
g9
F0.6627157321760572
sg10
F0.3182608069730196
ssI269
(dp279
g9
F0.6401539262013506
sg10
F0.5907345876718044
ssI270
(dp280
g9
F0.9342209407595883
sg10
F0.9414465131070856
ssI271
(dp281
g9
F0.03926872542512583
sg10
F0.9305900631003782
ssI272
(dp282
g9
F0.5030945883380036
sg10
F0.46312934583648113
ssI273
(dp283
g9
F0.06545435495779439
sg10
F0.3160088135236606
ssI274
(dp284
g9
F0.14336762455060026
sg10
F0.7003504638015413
ssI275
(dp285
g9
F0.7363047931816026
sg10
F0.19625258993959405
ssI276
(dp286
g9
F0.8788650128818128
sg10
F0.134091576998299
ssI277
(dp287
g9
F0.6191389223501657
sg10
F0.5350603631474711
ssI278
(dp288
g9
F0.3396314314816473
sg10
F0.6441127257683547
ssI279
(dp289
g9
F0.5254836202436576
sg10
F0.2480627585761047
ssI280
(dp290
g9
F0.7203624529413252
sg10
F0.9029933651788454
ssI281
(dp291
g9
F0.20612924554384726
sg10
F0.9997109556671127
ssI282
(dp292
g9
F0.03372536313969077
sg10
F0.6499813855419004
ssI283
(dp293
g9
F0.8061433248154696
sg10
F0.4634088249099856
ssI284
(dp294
g9
F0.5836123703943253
sg10
F0.8817502537003563
ssI285
(dp295
g9
F0.5322563041397367
sg10
F0.2043057012702082
ssI286
(dp296
g9
F0.41791944009196524
sg10
F0.8542445981710411
ssI287
(dp297
g9
F0.5896537231371806
sg10
F0.0637723476272859
ssI288
(dp298
g9
F0.03703785855245045
sg10
F0.2383808075405901
ssI289
(dp299
g9
F0.7480320956923036
sg10
F0.7994570537258645
ssI290
(dp300
g9
F0.9296144887239381
sg10
F0.7338100989561084
ssI291
(dp301
g9
F0.3590646135689921
sg10
F0.713691361639893
ssI292
(dp302
g9
F0.7098958256093129
sg10
F0.8313998909444289
ssI293
(dp303
g9
F0.19394425560182194
sg10
F0.14923705189442604
ssI294
(dp304
g9
F0.016333270419254475
sg10
F0.47527956766824353
ssI295
(dp305
g9
F0.20534045700824333
sg10
F0.9291943923062043
ssI296
(dp306
g9
F0.7027310693685958
sg10
F0.08319755932875172
ssI297
(dp307
g9
F0.9364691685787171
sg10
F0.12732168562597723
ssI298
(dp308
g9
F0.64263899299239
sg10
F0.9834767031052802
ssI299
(dp309
g9
F0.8850106108241155
sg10
F0.5487997876648134
sssS'node_dict_factory'
p310
c__builtin__
dict
p311
sS'edge_attr_dict_factory'
p312
g311
sS'edge'
p313
(dp314
I0
(dp315
sI1
(dp316
sI2
(dp317
sI3
(dp318
sI4
(dp319
sI5
(dp320
sI6
(dp321
sI7
(dp322
sI8
(dp323
sI9
(dp324
sI10
(dp325
sI11
(dp326
sI12
(dp327
sI13
(dp328
sI14
(dp329
sI15
(dp330
sI16
(dp331
sI17
(dp332
sI18
(dp333
sI19
(dp334
sI20
(dp335
sI21
(dp336
sI22
(dp337
sI23
(dp338
sI24
(dp339
sI25
(dp340
sI26
(dp341
sI27
(dp342
sI28
(dp343
sI29
(dp344
sI30
(dp345
sI31
(dp346
sI32
(dp347
sI33
(dp348
sI34
(dp349
sI35
(dp350
sI36
(dp351
sI37
(dp352
sI38
(dp353
sI39
(dp354
sI40
(dp355
sI41
(dp356
sI42
(dp357
sI43
(dp358
sI44
(dp359
sI45
(dp360
sI46
(dp361
sI47
(dp362
sI48
(dp363
sI49
(dp364
sI50
(dp365
sI51
(dp366
sI52
(dp367
sI53
(dp368
sI54
(dp369
sI55
(dp370
sI56
(dp371
sI57
(dp372
sI58
(dp373
sI59
(dp374
sI60
(dp375
sI61
(dp376
sI62
(dp377
sI63
(dp378
sI64
(dp379
sI65
(dp380
sI66
(dp381
sI67
(dp382
sI68
(dp383
sI69
(dp384
sI70
(dp385
sI71
(dp386
sI72
(dp387
sI73
(dp388
sI74
(dp389
sI75
(dp390
sI76
(dp391
sI77
(dp392
sI78
(dp393
sI79
(dp394
sI80
(dp395
sI81
(dp396
sI82
(dp397
sI83
(dp398
sI84
(dp399
sI85
(dp400
sI86
(dp401
sI87
(dp402
sI88
(dp403
sI89
(dp404
sI90
(dp405
sI91
(dp406
sI92
(dp407
sI93
(dp408
sI94
(dp409
sI95
(dp410
sI96
(dp411
sI97
(dp412
sI98
(dp413
sI99
(dp414
sI100
(dp415
sI101
(dp416
sI102
(dp417
sI103
(dp418
sI104
(dp419
sI105
(dp420
sI106
(dp421
sI107
(dp422
sI108
(dp423
sI109
(dp424
sI110
(dp425
sI111
(dp426
sI112
(dp427
sI113
(dp428
sI114
(dp429
sI115
(dp430
sI116
(dp431
sI117
(dp432
sI118
(dp433
sI119
(dp434
sI120
(dp435
sI121
(dp436
sI122
(dp437
sI123
(dp438
sI124
(dp439
sI125
(dp440
sI126
(dp441
sI127
(dp442
sI128
(dp443
sI129
(dp444
sI130
(dp445
sI131
(dp446
sI132
(dp447
sI133
(dp448
sI134
(dp449
sI135
(dp450
sI136
(dp451
sI137
(dp452
sI138
(dp453
sI139
(dp454
sI140
(dp455
sI141
(dp456
sI142
(dp457
sI143
(dp458
sI144
(dp459
sI145
(dp460
sI146
(dp461
sI147
(dp462
sI148
(dp463
sI149
(dp464
sI150
(dp465
sI151
(dp466
sI152
(dp467
sI153
(dp468
sI154
(dp469
sI155
(dp470
sI156
(dp471
sI157
(dp472
sI158
(dp473
sI159
(dp474
sI160
(dp475
sI161
(dp476
sI162
(dp477
sI163
(dp478
sI164
(dp479
sI165
(dp480
sI166
(dp481
sI167
(dp482
sI168
(dp483
sI169
(dp484
sI170
(dp485
sI171
(dp486
sI172
(dp487
sI173
(dp488
sI174
(dp489
sI175
(dp490
sI176
(dp491
sI177
(dp492
sI178
(dp493
sI179
(dp494
sI180
(dp495
sI181
(dp496
sI182
(dp497
sI183
(dp498
sI184
(dp499
sI185
(dp500
sI186
(dp501
sI187
(dp502
sI188
(dp503
sI189
(dp504
sI190
(dp505
sI191
(dp506
sI192
(dp507
sI193
(dp508
sI194
(dp509
sI195
(dp510
sI196
(dp511
sI197
(dp512
sI198
(dp513
sI199
(dp514
sI200
(dp515
sI201
(dp516
sI202
(dp517
sI203
(dp518
sI204
(dp519
sI205
(dp520
sI206
(dp521
sI207
(dp522
sI208
(dp523
sI209
(dp524
sI210
(dp525
sI211
(dp526
sI212
(dp527
sI213
(dp528
sI214
(dp529
sI215
(dp530
sI216
(dp531
sI217
(dp532
sI218
(dp533
sI219
(dp534
sI220
(dp535
sI221
(dp536
sI222
(dp537
sI223
(dp538
sI224
(dp539
sI225
(dp540
sI226
(dp541
sI227
(dp542
sI228
(dp543
sI229
(dp544
sI230
(dp545
sI231
(dp546
sI232
(dp547
sI233
(dp548
sI234
(dp549
sI235
(dp550
sI236
(dp551
sI237
(dp552
sI238
(dp553
sI239
(dp554
sI240
(dp555
sI241
(dp556
sI242
(dp557
sI243
(dp558
sI244
(dp559
sI245
(dp560
sI246
(dp561
sI247
(dp562
sI248
(dp563
sI249
(dp564
sI250
(dp565
sI251
(dp566
sI252
(dp567
sI253
(dp568
sI254
(dp569
sI255
(dp570
sI256
(dp571
sI257
(dp572
sI258
(dp573
sI259
(dp574
sI260
(dp575
sI261
(dp576
sI262
(dp577
sI263
(dp578
sI264
(dp579
sI265
(dp580
sI266
(dp581
sI267
(dp582
sI268
(dp583
sI269
(dp584
sI270
(dp585
sI271
(dp586
sI272
(dp587
sI273
(dp588
sI274
(dp589
sI275
(dp590
sI276
(dp591
sI277
(dp592
sI278
(dp593
sI279
(dp594
sI280
(dp595
sI281
(dp596
sI282
(dp597
sI283
(dp598
sI284
(dp599
sI285
(dp600
sI286
(dp601
sI287
(dp602
sI288
(dp603
sI289
(dp604
sI290
(dp605
sI291
(dp606
sI292
(dp607
sI293
(dp608
sI294
(dp609
sI295
(dp610
sI296
(dp611
sI297
(dp612
sI298
(dp613
sI299
(dp614
ssS'graph'
p615
(dp616
sS'adjlist_dict_factory'
p617
g311
sS'adj'
p618
g314
sb.