ccopy_reg
_reconstructor
p0
(cnetworkx.classes.graph
Graph
p1
c__builtin__
object
p2
Ntp3
Rp4
(dp5
S'node'
p6
(dp7
I0
(dp8
S'pos_x'
p9
F0.5379978801175948
sS'pos_y'
p10
F0.33188439272238746
ssI1
(dp11
g9
F0.05468729356125723
sg10
F0.9423229906330202
ssI2
(dp12
g9
F0.8316108590484788
sg10
F0.3926753641746513
ssI3
(dp13
g9
F0.2703132496339742
sg10
F0.955676854845369
ssI4
(dp14
g9
F0.15579451517089882
sg10
F0.2593129857759344
ssI5
(dp15
g9
F0.6934007171082239
sg10
F0.12276187277934436
ssI6
(dp16
g9
F0.41622827132135254
sg10
F0.3465756657251029
ssI7
(dp17
g9
F0.721717602910523
sg10
F0.6648016268326687
ssI8
(dp18
g9
F0.7184807475907597
sg10
F0.9584767489878656
ssI9
(dp19
g9
F0.7873954101001905
sg10
F0.7628841958351154
ssI10
(dp20
g9
F0.13950017952105664
sg10
F0.2526548613027566
ssI11
(dp21
g9
F0.6516851995844031
sg10
F0.6386811343668395
ssI12
(dp22
g9
F0.4597017772586346
sg10
F0.10471423006362712
ssI13
(dp23
g9
F0.43035392356540636
sg10
F0.6400932673976144
ssI14
(dp24
g9
F0.2545363266843823
sg10
F0.8381553180269267
ssI15
(dp25
g9
F0.8277459547754965
sg10
F0.08928800470771825
ssI16
(dp26
g9
F0.6196521450941114
sg10
F0.1111957702562606
ssI17
(dp27
g9
F0.39314527876580685
sg10
F0.1867280638452632
ssI18
(dp28
g9
F0.7459866340546446
sg10
F0.8512201397583342
ssI19
(dp29
g9
F0.28551888149238136
sg10
F0.20431050837946074
ssI20
(dp30
g9
F0.4973918203865587
sg10
F0.435357925932528
ssI21
(dp31
g9
F0.7002199255635719
sg10
F0.4694106916557964
ssI22
(dp32
g9
F0.6659460947121485
sg10
F0.07415991104733288
ssI23
(dp33
g9
F0.6652772288390013
sg10
F0.2765532407591761
ssI24
(dp34
g9
F0.10836234981246673
sg10
F0.314949051995175
ssI25
(dp35
g9
F0.949907607296567
sg10
F0.14144549277365448
ssI26
(dp36
g9
F0.8990678937979382
sg10
F0.7241759393347178
ssI27
(dp37
g9
F0.8494506158676671
sg10
F0.32873764511178705
ssI28
(dp38
g9
F0.5611654572840432
sg10
F0.874630695856595
ssI29
(dp39
g9
F0.23251663794792488
sg10
F0.43669470767655494
ssI30
(dp40
g9
F0.8272535821523759
sg10
F0.5336408055550921
ssI31
(dp41
g9
F0.829452109345311
sg10
F0.4255042677667574
ssI32
(dp42
g9
F0.3435858888663351
sg10
F0.5585821287251486
ssI33
(dp43
g9
F0.40616321519368626
sg10
F0.4871403611411901
ssI34
(dp44
g9
F0.1586324491507275
sg10
F0.16501461111715798
ssI35
(dp45
g9
F0.9979441611929512
sg10
F0.2661903972266174
ssI36
(dp46
g9
F0.6880984007825433
sg10
F0.9380634998874802
ssI37
(dp47
g9
F0.7579896106253584
sg10
F0.8150884866951027
ssI38
(dp48
g9
F0.31529446298643515
sg10
F0.6799741824316622
ssI39
(dp49
g9
F0.6910825165928164
sg10
F0.9301679315356102
ssI40
(dp50
g9
F0.6970877212746893
sg10
F0.6700516083753447
ssI41
(dp51
g9
F0.2887372784224038
sg10
F0.9327731376803416
ssI42
(dp52
g9
F0.8825895768664245
sg10
F0.7207029100208869
ssI43
(dp53
g9
F0.18000183138359094
sg10
F0.07792197650671706
ssI44
(dp54
g9
F0.41243090933737914
sg10
F0.6556247201925938
ssI45
(dp55
g9
F0.8558023201685362
sg10
F0.8773589879871602
ssI46
(dp56
g9
F0.07162597141392013
sg10
F0.5677488168764996
ssI47
(dp57
g9
F0.3883725365281694
sg10
F0.28255334463084825
ssI48
(dp58
g9
F0.059140035098322774
sg10
F0.03661148116162394
ssI49
(dp59
g9
F0.0011817972362681006
sg10
F0.8339138880296032
ssI50
(dp60
g9
F0.1354065898574085
sg10
F0.7859848499152575
ssI51
(dp61
g9
F0.9796881767854677
sg10
F0.1253116223526728
ssI52
(dp62
g9
F0.24932059166076825
sg10
F0.8037877970517399
ssI53
(dp63
g9
F0.21416765597323295
sg10
F0.8756166487458859
ssI54
(dp64
g9
F0.06338843814586581
sg10
F0.33771776499892636
ssI55
(dp65
g9
F0.1082857481555638
sg10
F0.861897361210868
ssI56
(dp66
g9
F0.44533761111634396
sg10
F0.8969951134334943
ssI57
(dp67
g9
F0.3111243666825365
sg10
F0.5134523416928524
ssI58
(dp68
g9
F0.22373812912153035
sg10
F0.17951649432464045
ssI59
(dp69
g9
F0.829551752601666
sg10
F0.03126077624696322
ssI60
(dp70
g9
F0.5141735271336296
sg10
F0.18062609715919886
ssI61
(dp71
g9
F0.9877519980979533
sg10
F0.11404859763649355
ssI62
(dp72
g9
F0.8459758290999079
sg10
F0.45194934012863053
ssI63
(dp73
g9
F0.7515487579481327
sg10
F0.6645123503114986
ssI64
(dp74
g9
F0.07202192128712703
sg10
F0.7960759977331033
ssI65
(dp75
g9
F0.27940543133181783
sg10
F0.634058069887725
ssI66
(dp76
g9
F0.38994235049143233
sg10
F0.378910687525422
ssI67
(dp77
g9
F0.011769512463330023
sg10
F0.21329887506218814
ssI68
(dp78
g9
F0.8685040831327835
sg10
F0.7659942640430645
ssI69
(dp79
g9
F0.48442433033712107
sg10
F0.6062822197857449
ssI70
(dp80
g9
F0.6762357509575734
sg10
F0.29073529774302065
ssI71
(dp81
g9
F0.051622913412218696
sg10
F0.9176764459296425
ssI72
(dp82
g9
F0.576852050031606
sg10
F0.4624063470267693
ssI73
(dp83
g9
F0.9406033417884354
sg10
F0.5381934954964384
ssI74
(dp84
g9
F0.9884961095075405
sg10
F0.32838212525913446
ssI75
(dp85
g9
F0.6771767994218454
sg10
F0.8812800454212903
ssI76
(dp86
g9
F0.9122913653632718
sg10
F0.34554336800719665
ssI77
(dp87
g9
F0.8801815972424296
sg10
F0.6756327581350522
ssI78
(dp88
g9
F0.9570218589221152
sg10
F0.35374041075703133
ssI79
(dp89
g9
F0.3363960983991827
sg10
F0.034521906383155
ssI80
(dp90
g9
F0.07666225417175476
sg10
F0.9366274494373406
ssI81
(dp91
g9
F0.6484492136372396
sg10
F0.28311538197576436
ssI82
(dp92
g9
F0.9031350252261553
sg10
F0.5758766769661079
ssI83
(dp93
g9
F0.4889055293083767
sg10
F0.06619028073440647
ssI84
(dp94
g9
F0.9767247703018828
sg10
F0.11010047258526101
ssI85
(dp95
g9
F0.05442233716955536
sg10
F0.0583933880078481
ssI86
(dp96
g9
F0.1743373529060842
sg10
F0.8134088241061443
ssI87
(dp97
g9
F0.5228969727959385
sg10
F0.8304411539545726
ssI88
(dp98
g9
F0.6235497050691009
sg10
F0.3239171320693395
ssI89
(dp99
g9
F0.37008643067860547
sg10
F0.19591936593491244
ssI90
(dp100
g9
F0.8502015186951631
sg10
F0.3853525015836615
ssI91
(dp101
g9
F0.7559089096729921
sg10
F0.4422557474843015
ssI92
(dp102
g9
F0.3072775503864208
sg10
F0.7869651236785926
ssI93
(dp103
g9
F0.8667596043860661
sg10
F0.1837123747471835
ssI94
(dp104
g9
F0.33154915825850173
sg10
F0.25935908368469585
ssI95
(dp105
g9
F0.1459497985412581
sg10
F0.1228455857593076
ssI96
(dp106
g9
F0.024527387775343024
sg10
F0.12783172954285393
ssI97
(dp107
g9
F0.1864163640367308
sg10
F0.6778363221501688
ssI98
(dp108
g9
F0.22972128899566324
sg10
F0.5391318004016612
ssI99
(dp109
g9
F0.6914638138732928
sg10
F0.1141769953557853
ssI100
(dp110
g9
F0.2770433925054766
sg10
F0.6994532725165178
ssI101
(dp111
g9
F0.35206242052331826
sg10
F0.6414648563605972
ssI102
(dp112
g9
F0.06434242764646336
sg10
F0.5337919186434918
ssI103
(dp113
g9
F0.5015206556048029
sg10
F0.450867730485092
ssI104
(dp114
g9
F0.3724208005767514
sg10
F0.4838137248659624
ssI105
(dp115
g9
F0.0667920362682366
sg10
F0.07217362796206994
ssI106
(dp116
g9
F0.740022906597586
sg10
F0.4701375792710406
ssI107
(dp117
g9
F0.024596356538666764
sg10
F0.26795439818699196
ssI108
(dp118
g9
F0.03254416963141249
sg10
F0.8180800738204976
ssI109
(dp119
g9
F0.24786246624235198
sg10
F0.7910689936202119
ssI110
(dp120
g9
F0.2624355364019856
sg10
F0.8011307470760309
ssI111
(dp121
g9
F0.9775242094393478
sg10
F0.4311729710227049
ssI112
(dp122
g9
F0.501466076662416
sg10
F0.5775287936539243
ssI113
(dp123
g9
F0.8003210594173544
sg10
F0.21784775875338802
ssI114
(dp124
g9
F0.9028127973251865
sg10
F0.9918757690911242
ssI115
(dp125
g9
F0.6394537429119731
sg10
F0.7415825653346996
ssI116
(dp126
g9
F0.9931140261913848
sg10
F0.07457381038953981
ssI117
(dp127
g9
F0.2774909142210419
sg10
F0.7292088238706351
ssI118
(dp128
g9
F0.5217941153170992
sg10
F0.20100819970772987
ssI119
(dp129
g9
F0.3488461163146839
sg10
F0.3188862138305728
ssI120
(dp130
g9
F0.5015914531545069
sg10
F0.867194988134632
ssI121
(dp131
g9
F0.7435474824806149
sg10
F0.11512486554446466
ssI122
(dp132
g9
F0.988132691673353
sg10
F0.1433239640025611
ssI123
(dp133
g9
F0.4031837912283883
sg10
F0.6533380700015937
ssI124
(dp134
g9
F0.89417251285692
sg10
F0.35765492295478885
ssI125
(dp135
g9
F0.65199494599055
sg10
F0.8384961172943366
ssI126
(dp136
g9
F0.9542018630828571
sg10
F0.397614717958064
ssI127
(dp137
g9
F0.424087727680449
sg10
F0.7114341233257598
ssI128
(dp138
g9
F0.07430693741999939
sg10
F0.20247958377617248
ssI129
(dp139
g9
F0.6988946668961705
sg10
F0.32824452167266627
ssI130
(dp140
g9
F0.1967764840428634
sg10
F0.7885309177504849
ssI131
(dp141
g9
F0.5133956560738481
sg10
F0.6336458082132607
ssI132
(dp142
g9
F0.22077333404640764
sg10
F0.46758563973068923
ssI133
(dp143
g9
F0.8083933599067589
sg10
F0.7094730241468594
ssI134
(dp144
g9
F0.7949704798131396
sg10
F0.4543579952818727
ssI135
(dp145
g9
F0.1613372647726391
sg10
F0.9425601313777462
ssI136
(dp146
g9
F0.9732501083838795
sg10
F0.3424617961357008
ssI137
(dp147
g9
F0.693432415019033
sg10
F0.08559374768093153
ssI138
(dp148
g9
F0.3316572848913111
sg10
F0.14209716560158936
ssI139
(dp149
g9
F0.3111165035318588
sg10
F0.6797209609302585
ssI140
(dp150
g9
F0.1835540889790802
sg10
F0.5421325144303394
ssI141
(dp151
g9
F0.908668423258098
sg10
F0.18737606728541856
ssI142
(dp152
g9
F0.030308751579649074
sg10
F0.12499060653528526
ssI143
(dp153
g9
F0.03429832029382318
sg10
F0.9996052505606906
ssI144
(dp154
g9
F0.2601288652174152
sg10
F0.7987573003816877
ssI145
(dp155
g9
F0.6821495918596581
sg10
F0.6411754944391596
ssI146
(dp156
g9
F0.47551315708997
sg10
F0.9634442275511866
ssI147
(dp157
g9
F0.3504592688178586
sg10
F0.4896824283047224
ssI148
(dp158
g9
F0.6967956844293736
sg10
F0.46737218161083494
ssI149
(dp159
g9
F0.9072203107639836
sg10
F0.3721851732846846
ssI150
(dp160
g9
F0.44834832459628793
sg10
F0.7899110532164876
ssI151
(dp161
g9
F0.7311169497092024
sg10
F0.07309394008302184
ssI152
(dp162
g9
F0.971989233723216
sg10
F0.3539360833002866
ssI153
(dp163
g9
F0.3839473495348671
sg10
F0.29466468591619754
ssI154
(dp164
g9
F0.11677955909363247
sg10
F0.7797582942511001
ssI155
(dp165
g9
F0.402632540979203
sg10
F0.10644598625831259
ssI156
(dp166
g9
F0.49880014632185443
sg10
F0.40803661914934
ssI157
(dp167
g9
F0.3665623850625561
sg10
F0.6047584605066789
ssI158
(dp168
g9
F0.5570116357175632
sg10
F0.3186000783569096
ssI159
(dp169
g9
F0.526685371658914
sg10
F0.5384980622758151
ssI160
(dp170
g9
F0.16500737327731774
sg10
F0.28000403948842223
ssI161
(dp171
g9
F0.5973912274355345
sg10
F0.8251465885451889
ssI162
(dp172
g9
F0.9788848110644875
sg10
F0.33773275953241744
ssI163
(dp173
g9
F0.9872221714286822
sg10
F0.1519731487047229
ssI164
(dp174
g9
F0.04066454870249081
sg10
F0.6137293725631149
ssI165
(dp175
g9
F0.373275614918695
sg10
F0.2870204985807572
ssI166
(dp176
g9
F0.08923078211807034
sg10
F0.5211876740391265
ssI167
(dp177
g9
F0.13821062928308558
sg10
F0.34816454781606565
ssI168
(dp178
g9
F0.5936999436968897
sg10
F0.7765014293275359
ssI169
(dp179
g9
F0.8802762304581206
sg10
F0.9513659137044762
ssI170
(dp180
g9
F0.6234209401748185
sg10
F0.8501730126424579
ssI171
(dp181
g9
F0.2872308300163615
sg10
F0.11387273919595009
ssI172
(dp182
g9
F0.439765391708964
sg10
F0.8774762132057795
ssI173
(dp183
g9
F0.44109523236227566
sg10
F0.42441999387975604
ssI174
(dp184
g9
F0.8581147843981966
sg10
F0.29630260335547964
ssI175
(dp185
g9
F0.5494826127204913
sg10
F0.4263876754704644
ssI176
(dp186
g9
F0.4274633318967127
sg10
F0.4855512323108998
ssI177
(dp187
g9
F0.05217745437062127
sg10
F0.6944459837710616
ssI178
(dp188
g9
F0.6526900959532664
sg10
F0.35854337639156897
ssI179
(dp189
g9
F0.2418382019863885
sg10
F0.17956846703702445
ssI180
(dp190
g9
F0.12410101303809407
sg10
F0.8953828841054735
ssI181
(dp191
g9
F0.8314324733396118
sg10
F0.7873329013195591
ssI182
(dp192
g9
F0.9451484262942318
sg10
F0.15567488796151208
ssI183
(dp193
g9
F0.22652251589515127
sg10
F0.990330708412094
ssI184
(dp194
g9
F0.9927971320366964
sg10
F0.18020907895160376
ssI185
(dp195
g9
F0.4489313963131336
sg10
F0.7718775869739973
ssI186
(dp196
g9
F0.3921500466526635
sg10
F0.18251012361729824
ssI187
(dp197
g9
F0.20604778646532762
sg10
F0.38011342761670497
ssI188
(dp198
g9
F0.29076354285300254
sg10
F0.8390861112405266
ssI189
(dp199
g9
F0.7515806706474221
sg10
F0.6154710515767441
ssI190
(dp200
g9
F0.2335373728488186
sg10
F0.6851930587778113
ssI191
(dp201
g9
F0.460993963963065
sg10
F0.03539009091818435
ssI192
(dp202
g9
F0.857166183000489
sg10
F0.2901942482196008
ssI193
(dp203
g9
F0.09808729179177633
sg10
F0.7770147846855296
ssI194
(dp204
g9
F0.27953333292148286
sg10
F0.5444996983747877
ssI195
(dp205
g9
F0.6281967831564251
sg10
F0.9859060805070085
ssI196
(dp206
g9
F0.5307408980948377
sg10
F0.21787554645625729
ssI197
(dp207
g9
F0.8343278181814208
sg10
F0.3764699040140902
ssI198
(dp208
g9
F0.37246282602107517
sg10
F0.7325918718670709
ssI199
(dp209
g9
F0.7353802709171018
sg10
F0.2598087433977414
ssI200
(dp210
g9
F0.36668347185463335
sg10
F0.28623606736291374
ssI201
(dp211
g9
F0.7704722836888949
sg10
F0.3021409722783239
ssI202
(dp212
g9
F0.6342805955894019
sg10
F0.26057110065001243
ssI203
(dp213
g9
F0.6640282732650059
sg10
F0.7980384794828247
ssI204
(dp214
g9
F0.22238415927150335
sg10
F0.6714684764159272
ssI205
(dp215
g9
F0.3056944728838329
sg10
F0.4394061984924178
ssI206
(dp216
g9
F0.2108896812273916
sg10
F0.527201692243657
ssI207
(dp217
g9
F0.22535171542897803
sg10
F0.6932489631835849
ssI208
(dp218
g9
F0.9371408769689206
sg10
F0.2907537059714279
ssI209
(dp219
g9
F0.984337711967773
sg10
F0.08249512364014044
ssI210
(dp220
g9
F0.49209847276441465
sg10
F0.9489331554548696
ssI211
(dp221
g9
F0.15677935125219966
sg10
F0.8811329616084234
ssI212
(dp222
g9
F0.687524210404494
sg10
F0.9116656099948933
ssI213
(dp223
g9
F0.23654506329136582
sg10
F0.46271591374951726
ssI214
(dp224
g9
F0.871558206120534
sg10
F0.7657929398314941
ssI215
(dp225
g9
F0.7854248303352056
sg10
F0.6129453369682893
ssI216
(dp226
g9
F0.8896440605420711
sg10
F0.4242368819373108
ssI217
(dp227
g9
F0.8988186209557788
sg10
F0.012638734959298126
ssI218
(dp228
g9
F0.31113233148109243
sg10
F0.40263266754701
ssI219
(dp229
g9
F0.41362396534571155
sg10
F0.8799432933442397
ssI220
(dp230
g9
F0.6045759642641159
sg10
F0.4310013799205801
ssI221
(dp231
g9
F0.414985682217768
sg10
F0.518773025471565
ssI222
(dp232
g9
F0.27405032003764296
sg10
F0.009155560867150081
ssI223
(dp233
g9
F0.619636104142039
sg10
F0.9372350115757462
ssI224
(dp234
g9
F0.5209337620222452
sg10
F0.0021449697184411365
ssI225
(dp235
g9
F0.07684973295181363
sg10
F0.28613558529901195
ssI226
(dp236
g9
F0.19369094465392955
sg10
F0.6664138950496211
ssI227
(dp237
g9
F0.846165609041323
sg10
F0.5928060115724126
ssI228
(dp238
g9
F0.6405092474717384
sg10
F0.03339494687437217
ssI229
(dp239
g9
F0.05936737658008806
sg10
F0.9826050232985338
ssI230
(dp240
g9
F0.8572100050411781
sg10
F0.3195017262140488
ssI231
(dp241
g9
F0.02273113325654741
sg10
F0.3483911159149088
ssI232
(dp242
g9
F0.8169440820509888
sg10
F0.6494695949298963
ssI233
(dp243
g9
F0.40024329223529376
sg10
F0.8319099069835113
ssI234
(dp244
g9
F0.28517393517894407
sg10
F0.32509977175275795
ssI235
(dp245
g9
F0.047062454976617873
sg10
F0.12881961651433782
ssI236
(dp246
g9
F0.8227998460936988
sg10
F0.9304115999300353
ssI237
(dp247
g9
F0.9331503331894123
sg10
F0.47422122890125207
ssI238
(dp248
g9
F0.9817338891055323
sg10
F0.1844583342745253
ssI239
(dp249
g9
F0.10117559508063001
sg10
F0.45026354011986947
ssI240
(dp250
g9
F0.02542401277362616
sg10
F0.5855772407649406
ssI241
(dp251
g9
F0.6934703575617714
sg10
F0.5949603432790538
ssI242
(dp252
g9
F0.32792564542959324
sg10
F0.3976602385224327
ssI243
(dp253
g9
F0.6696597183531992
sg10
F0.4805612105264482
ssI244
(dp254
g9
F0.16080361080022243
sg10
F0.4095931670632674
ssI245
(dp255
g9
F0.43350365396295565
sg10
F0.684376771152987
ssI246
(dp256
g9
F0.3188706758441666
sg10
F0.1171107736481446
ssI247
(dp257
g9
F0.8079937105175237
sg10
F0.9577268355622598
ssI248
(dp258
g9
F0.6973608674813586
sg10
F0.6663085931496675
ssI249
(dp259
g9
F0.29931664125632074
sg10
F0.7707821419836617
ssI250
(dp260
g9
F0.4910812925562196
sg10
F0.6024560992404021
ssI251
(dp261
g9
F0.6177673292669081
sg10
F0.8574018948651115
ssI252
(dp262
g9
F0.998034810723915
sg10
F0.7833776435209135
ssI253
(dp263
g9
F0.852084161768935
sg10
F0.0698170923561322
ssI254
(dp264
g9
F0.44124424709614574
sg10
F0.013277109132916798
ssI255
(dp265
g9
F0.49214480327578625
sg10
F0.7782009650322333
ssI256
(dp266
g9
F0.10090729565339018
sg10
F0.7402495246454671
ssI257
(dp267
g9
F0.7735066340572909
sg10
F0.9696761665260417
ssI258
(dp268
g9
F0.8186029684338132
sg10
F0.7794667334661933
ssI259
(dp269
g9
F0.6615053403986234
sg10
F0.16200124880732414
ssI260
(dp270
g9
F0.3889495421985777
sg10
F0.8899410583076802
ssI261
(dp271
g9
F0.3985918382440661
sg10
F0.7066140924795554
ssI262
(dp272
g9
F0.9548777159683596
sg10
F0.1421553900763377
ssI263
(dp273
g9
F0.5311141939936712
sg10
F0.11670357494947559
ssI264
(dp274
g9
F0.44396863302846246
sg10
F0.7821907957876619
ssI265
(dp275
g9
F0.6034662072420364
sg10
F0.2895524476640017
ssI266
(dp276
g9
F0.6977402568604619
sg10
F0.5372840128831566
ssI267
(dp277
g9
F0.6089891433932433
sg10
F0.4613207476839588
ssI268
(dp278
g9
F0.7170680604436027
sg10
F0.9972801791828109
ssI269
(dp279
g9
F0.4980139383661484
sg10
F0.3176435893261994
ssI270
(dp280
g9
F0.7422880271811656
sg10
F0.4456236278714023
ssI271
(dp281
g9
F0.7643731506046535
sg10
F0.28432024590122795
ssI272
(dp282
g9
F0.9408810513554557
sg10
F0.0027559003489848743
ssI273
(dp283
g9
F0.4306315987441942
sg10
F0.39873965846215165
ssI274
(dp284
g9
F0.860337381996548
sg10
F0.7261795628825589
ssI275
(dp285
g9
F0.45927389997863466
sg10
F0.47340215448772427
ssI276
(dp286
g9
F0.11715679319659955
sg10
F0.40438771406918605
ssI277
(dp287
g9
F0.32007078195987515
sg10
F0.5008148536708862
ssI278
(dp288
g9
F0.7989994309238168
sg10
F0.8423897663225773
ssI279
(dp289
g9
F0.9265257269332394
sg10
F0.8605105776756997
ssI280
(dp290
g9
F0.7518781848404343
sg10
F0.4889137294173025
ssI281
(dp291
g9
F0.6198714760111936
sg10
F0.7486335892980955
ssI282
(dp292
g9
F0.3420109897757213
sg10
F0.8889577094972826
ssI283
(dp293
g9
F0.2863467787148626
sg10
F0.6150140701248321
ssI284
(dp294
g9
F0.3362710534070519
sg10
F0.43163991556467984
ssI285
(dp295
g9
F0.5505920001288153
sg10
F0.3248884790857409
ssI286
(dp296
g9
F0.4772710592458097
sg10
F0.540133617996999
ssI287
(dp297
g9
F0.6149389237905803
sg10
F0.39350195138372046
ssI288
(dp298
g9
F0.16904264330435836
sg10
F0.8003491960775946
ssI289
(dp299
g9
F0.9117445508102363
sg10
F0.855222525468696
ssI290
(dp300
g9
F0.4732280320228238
sg10
F0.12912740264365696
ssI291
(dp301
g9
F0.9092842965343705
sg10
F0.18313109688241935
ssI292
(dp302
g9
F0.07906785990140064
sg10
F0.0011567663712893639
ssI293
(dp303
g9
F0.05741118754340868
sg10
F0.36858866044784744
ssI294
(dp304
g9
F0.32597917030852774
sg10
F0.26147599937745836
ssI295
(dp305
g9
F0.03359142397087744
sg10
F0.5585449999643265
ssI296
(dp306
g9
F0.12510849885641107
sg10
F0.6719882705683901
ssI297
(dp307
g9
F0.4957090125500233
sg10
F0.4758394993552648
ssI298
(dp308
g9
F0.972768691035918
sg10
F0.9535750420323
ssI299
(dp309
g9
F0.8573626582689314
sg10
F0.17578474466827132
sssS'node_dict_factory'
p310
c__builtin__
dict
p311
sS'edge_attr_dict_factory'
p312
g311
sS'edge'
p313
(dp314
I0
(dp315
sI1
(dp316
sI2
(dp317
sI3
(dp318
sI4
(dp319
sI5
(dp320
sI6
(dp321
sI7
(dp322
sI8
(dp323
sI9
(dp324
sI10
(dp325
sI11
(dp326
sI12
(dp327
sI13
(dp328
sI14
(dp329
sI15
(dp330
sI16
(dp331
sI17
(dp332
sI18
(dp333
sI19
(dp334
sI20
(dp335
sI21
(dp336
sI22
(dp337
sI23
(dp338
sI24
(dp339
sI25
(dp340
sI26
(dp341
sI27
(dp342
sI28
(dp343
sI29
(dp344
sI30
(dp345
sI31
(dp346
sI32
(dp347
sI33
(dp348
sI34
(dp349
sI35
(dp350
sI36
(dp351
sI37
(dp352
sI38
(dp353
sI39
(dp354
sI40
(dp355
sI41
(dp356
sI42
(dp357
sI43
(dp358
sI44
(dp359
sI45
(dp360
sI46
(dp361
sI47
(dp362
sI48
(dp363
sI49
(dp364
sI50
(dp365
sI51
(dp366
sI52
(dp367
sI53
(dp368
sI54
(dp369
sI55
(dp370
sI56
(dp371
sI57
(dp372
sI58
(dp373
sI59
(dp374
sI60
(dp375
sI61
(dp376
sI62
(dp377
sI63
(dp378
sI64
(dp379
sI65
(dp380
sI66
(dp381
sI67
(dp382
sI68
(dp383
sI69
(dp384
sI70
(dp385
sI71
(dp386
sI72
(dp387
sI73
(dp388
sI74
(dp389
sI75
(dp390
sI76
(dp391
sI77
(dp392
sI78
(dp393
sI79
(dp394
sI80
(dp395
sI81
(dp396
sI82
(dp397
sI83
(dp398
sI84
(dp399
sI85
(dp400
sI86
(dp401
sI87
(dp402
sI88
(dp403
sI89
(dp404
sI90
(dp405
sI91
(dp406
sI92
(dp407
sI93
(dp408
sI94
(dp409
sI95
(dp410
sI96
(dp411
sI97
(dp412
sI98
(dp413
sI99
(dp414
sI100
(dp415
sI101
(dp416
sI102
(dp417
sI103
(dp418
sI104
(dp419
sI105
(dp420
sI106
(dp421
sI107
(dp422
sI108
(dp423
sI109
(dp424
sI110
(dp425
sI111
(dp426
sI112
(dp427
sI113
(dp428
sI114
(dp429
sI115
(dp430
sI116
(dp431
sI117
(dp432
sI118
(dp433
sI119
(dp434
sI120
(dp435
sI121
(dp436
sI122
(dp437
sI123
(dp438
sI124
(dp439
sI125
(dp440
sI126
(dp441
sI127
(dp442
sI128
(dp443
sI129
(dp444
sI130
(dp445
sI131
(dp446
sI132
(dp447
sI133
(dp448
sI134
(dp449
sI135
(dp450
sI136
(dp451
sI137
(dp452
sI138
(dp453
sI139
(dp454
sI140
(dp455
sI141
(dp456
sI142
(dp457
sI143
(dp458
sI144
(dp459
sI145
(dp460
sI146
(dp461
sI147
(dp462
sI148
(dp463
sI149
(dp464
sI150
(dp465
sI151
(dp466
sI152
(dp467
sI153
(dp468
sI154
(dp469
sI155
(dp470
sI156
(dp471
sI157
(dp472
sI158
(dp473
sI159
(dp474
sI160
(dp475
sI161
(dp476
sI162
(dp477
sI163
(dp478
sI164
(dp479
sI165
(dp480
sI166
(dp481
sI167
(dp482
sI168
(dp483
sI169
(dp484
sI170
(dp485
sI171
(dp486
sI172
(dp487
sI173
(dp488
sI174
(dp489
sI175
(dp490
sI176
(dp491
sI177
(dp492
sI178
(dp493
sI179
(dp494
sI180
(dp495
sI181
(dp496
sI182
(dp497
sI183
(dp498
sI184
(dp499
sI185
(dp500
sI186
(dp501
sI187
(dp502
sI188
(dp503
sI189
(dp504
sI190
(dp505
sI191
(dp506
sI192
(dp507
sI193
(dp508
sI194
(dp509
sI195
(dp510
sI196
(dp511
sI197
(dp512
sI198
(dp513
sI199
(dp514
sI200
(dp515
sI201
(dp516
sI202
(dp517
sI203
(dp518
sI204
(dp519
sI205
(dp520
sI206
(dp521
sI207
(dp522
sI208
(dp523
sI209
(dp524
sI210
(dp525
sI211
(dp526
sI212
(dp527
sI213
(dp528
sI214
(dp529
sI215
(dp530
sI216
(dp531
sI217
(dp532
sI218
(dp533
sI219
(dp534
sI220
(dp535
sI221
(dp536
sI222
(dp537
sI223
(dp538
sI224
(dp539
sI225
(dp540
sI226
(dp541
sI227
(dp542
sI228
(dp543
sI229
(dp544
sI230
(dp545
sI231
(dp546
sI232
(dp547
sI233
(dp548
sI234
(dp549
sI235
(dp550
sI236
(dp551
sI237
(dp552
sI238
(dp553
sI239
(dp554
sI240
(dp555
sI241
(dp556
sI242
(dp557
sI243
(dp558
sI244
(dp559
sI245
(dp560
sI246
(dp561
sI247
(dp562
sI248
(dp563
sI249
(dp564
sI250
(dp565
sI251
(dp566
sI252
(dp567
sI253
(dp568
sI254
(dp569
sI255
(dp570
sI256
(dp571
sI257
(dp572
sI258
(dp573
sI259
(dp574
sI260
(dp575
sI261
(dp576
sI262
(dp577
sI263
(dp578
sI264
(dp579
sI265
(dp580
sI266
(dp581
sI267
(dp582
sI268
(dp583
sI269
(dp584
sI270
(dp585
sI271
(dp586
sI272
(dp587
sI273
(dp588
sI274
(dp589
sI275
(dp590
sI276
(dp591
sI277
(dp592
sI278
(dp593
sI279
(dp594
sI280
(dp595
sI281
(dp596
sI282
(dp597
sI283
(dp598
sI284
(dp599
sI285
(dp600
sI286
(dp601
sI287
(dp602
sI288
(dp603
sI289
(dp604
sI290
(dp605
sI291
(dp606
sI292
(dp607
sI293
(dp608
sI294
(dp609
sI295
(dp610
sI296
(dp611
sI297
(dp612
sI298
(dp613
sI299
(dp614
ssS'graph'
p615
(dp616
sS'adjlist_dict_factory'
p617
g311
sS'adj'
p618
g314
sb.