ccopy_reg
_reconstructor
p0
(cnetworkx.classes.graph
Graph
p1
c__builtin__
object
p2
Ntp3
Rp4
(dp5
S'node'
p6
(dp7
I0
(dp8
S'pos_x'
p9
F0.7009431159086706
sS'pos_y'
p10
F0.6962566000558581
ssI1
(dp11
g9
F0.7884431635159141
sg10
F0.2739136448008601
ssI2
(dp12
g9
F0.30738373358912896
sg10
F0.8644368552984556
ssI3
(dp13
g9
F0.42655365199976314
sg10
F0.6708955368360131
ssI4
(dp14
g9
F0.647344060454996
sg10
F0.7739086398165672
ssI5
(dp15
g9
F0.34073524876964323
sg10
F0.9175864681982283
ssI6
(dp16
g9
F0.050831496853206204
sg10
F0.0048675174461588755
ssI7
(dp17
g9
F0.4303256795531899
sg10
F0.2497867686525247
ssI8
(dp18
g9
F0.38948573753800253
sg10
F0.05527821242100217
ssI9
(dp19
g9
F0.49733124345788027
sg10
F0.20044457540838367
ssI10
(dp20
g9
F0.6782745404226337
sg10
F0.9432607237047799
ssI11
(dp21
g9
F0.909371635386978
sg10
F0.9317187332425629
ssI12
(dp22
g9
F0.5400115869428574
sg10
F0.13320588811549294
ssI13
(dp23
g9
F0.7752564168631834
sg10
F0.039897195118177686
ssI14
(dp24
g9
F0.30255038590992456
sg10
F0.024738729097652512
ssI15
(dp25
g9
F0.2819089943850801
sg10
F0.9389234741791791
ssI16
(dp26
g9
F0.7202858345033255
sg10
F0.4421245234517778
ssI17
(dp27
g9
F0.13740657541118617
sg10
F0.42341335459942264
ssI18
(dp28
g9
F0.10638007179263664
sg10
F0.48421626225476855
ssI19
(dp29
g9
F0.45292213669815384
sg10
F0.9136093378606438
ssI20
(dp30
g9
F0.7800347039536493
sg10
F0.8382831768598102
ssI21
(dp31
g9
F0.22852968588923028
sg10
F0.11469187791629532
ssI22
(dp32
g9
F0.3022564445267243
sg10
F0.20344480219084027
ssI23
(dp33
g9
F0.9667721150787668
sg10
F0.1992501164247611
ssI24
(dp34
g9
F0.9685396673575015
sg10
F0.2421364030419424
ssI25
(dp35
g9
F0.3765729962935388
sg10
F0.5774926778339151
ssI26
(dp36
g9
F0.9591701373379697
sg10
F0.11463134692098498
ssI27
(dp37
g9
F0.5035460949678917
sg10
F0.077372109897341
ssI28
(dp38
g9
F0.08343530533757082
sg10
F0.030354317894521143
ssI29
(dp39
g9
F0.2591970035036262
sg10
F0.6865683350201315
ssI30
(dp40
g9
F0.2888892720531846
sg10
F0.928837782030507
ssI31
(dp41
g9
F0.05108641110475176
sg10
F0.06538800180092141
ssI32
(dp42
g9
F0.38344460619302345
sg10
F0.13147907015682292
ssI33
(dp43
g9
F0.09654308827345359
sg10
F0.9858807676155944
ssI34
(dp44
g9
F0.3203442143828631
sg10
F0.8105506569856866
ssI35
(dp45
g9
F0.0018896752228776403
sg10
F0.7715392798551207
ssI36
(dp46
g9
F0.9823913182220243
sg10
F0.3250830385633786
ssI37
(dp47
g9
F0.2505599304232832
sg10
F0.8405578007241701
ssI38
(dp48
g9
F0.7982304647059407
sg10
F0.6302088817936433
ssI39
(dp49
g9
F0.41301217001644264
sg10
F0.4770090398327066
ssI40
(dp50
g9
F0.03123751791214935
sg10
F0.258618938866201
ssI41
(dp51
g9
F0.32817537623128257
sg10
F0.5987085025337795
ssI42
(dp52
g9
F0.8845850992264562
sg10
F0.8596388581403787
ssI43
(dp53
g9
F0.7480408245450284
sg10
F0.3506026234242693
ssI44
(dp54
g9
F0.7045367007370771
sg10
F0.8407540258195655
ssI45
(dp55
g9
F0.9697861193038497
sg10
F0.9533102963121947
ssI46
(dp56
g9
F0.154166338331572
sg10
F0.9577665149225979
ssI47
(dp57
g9
F0.45815584596473646
sg10
F0.9556454841743045
ssI48
(dp58
g9
F0.26849160273420336
sg10
F0.04113768820504371
ssI49
(dp59
g9
F0.12176946831077173
sg10
F0.6395546079587741
ssI50
(dp60
g9
F0.18452302379501617
sg10
F0.4139143092770876
ssI51
(dp61
g9
F0.9132993121923183
sg10
F0.8489733658002544
ssI52
(dp62
g9
F0.31814927352507183
sg10
F0.9610987569412763
ssI53
(dp63
g9
F0.3662432219333085
sg10
F0.36001154571483407
ssI54
(dp64
g9
F0.5812197435778736
sg10
F0.35763543665881037
ssI55
(dp65
g9
F0.5229513966490442
sg10
F0.26344754692851924
ssI56
(dp66
g9
F0.29031296450030797
sg10
F0.8880046459920138
ssI57
(dp67
g9
F0.8772679336861098
sg10
F0.3318814202964878
ssI58
(dp68
g9
F0.49462807295601474
sg10
F0.7221798812135065
ssI59
(dp69
g9
F0.9843247655811038
sg10
F0.004331351549412443
ssI60
(dp70
g9
F0.8442792218488901
sg10
F0.4249338117573821
ssI61
(dp71
g9
F0.7566975624378601
sg10
F0.9496142116646286
ssI62
(dp72
g9
F0.14755450354898392
sg10
F0.5007932639888243
ssI63
(dp73
g9
F0.205266712531592
sg10
F0.8834428143040075
ssI64
(dp74
g9
F0.747788017381952
sg10
F0.1585360168710619
ssI65
(dp75
g9
F0.0038735859529969163
sg10
F0.11943513199031985
ssI66
(dp76
g9
F0.12244529978506402
sg10
F0.19641106461787472
ssI67
(dp77
g9
F0.10592774651255132
sg10
F0.7609463274864959
ssI68
(dp78
g9
F0.2865499023610045
sg10
F0.7859588221001567
ssI69
(dp79
g9
F0.3292961099346362
sg10
F0.03487505888343001
ssI70
(dp80
g9
F0.37113486013050556
sg10
F0.4145221998787293
ssI71
(dp81
g9
F0.8685526144170083
sg10
F0.8647915686233177
ssI72
(dp82
g9
F0.7118304573387171
sg10
F0.017433464469970406
ssI73
(dp83
g9
F0.8223182340503756
sg10
F0.92810804516858
ssI74
(dp84
g9
F0.41411786099893944
sg10
F0.9228091169293128
ssI75
(dp85
g9
F0.9803561527980388
sg10
F0.05285105362127218
ssI76
(dp86
g9
F0.7666319817750767
sg10
F0.48489201666217296
ssI77
(dp87
g9
F0.8772896367396524
sg10
F0.7419743349336012
ssI78
(dp88
g9
F0.0964232256222094
sg10
F0.5797854619627771
ssI79
(dp89
g9
F0.44110988514797056
sg10
F0.8678011911547178
ssI80
(dp90
g9
F0.7328670114175487
sg10
F0.14587876697930535
ssI81
(dp91
g9
F0.2616353958296359
sg10
F0.1911848755026455
ssI82
(dp92
g9
F0.2687302977726779
sg10
F0.25665977219773195
ssI83
(dp93
g9
F0.525853907210654
sg10
F0.2732713554582823
ssI84
(dp94
g9
F0.16116676676114872
sg10
F0.4006934364558674
ssI85
(dp95
g9
F0.14458266817733478
sg10
F0.10321184868256128
ssI86
(dp96
g9
F0.19365295031254393
sg10
F0.6442559826134231
ssI87
(dp97
g9
F0.925560181948333
sg10
F0.8652719111442225
ssI88
(dp98
g9
F0.7911826592080393
sg10
F0.6967949005728523
ssI89
(dp99
g9
F0.3120446724986321
sg10
F0.45229252245640705
ssI90
(dp100
g9
F0.6313792939759084
sg10
F0.18148695111575242
ssI91
(dp101
g9
F0.02843508309609699
sg10
F0.8975829452787424
ssI92
(dp102
g9
F0.2826594433217662
sg10
F0.7364691941632713
ssI93
(dp103
g9
F0.08813548354576917
sg10
F0.0289565131943732
ssI94
(dp104
g9
F0.7255754630255423
sg10
F0.24804378522029225
ssI95
(dp105
g9
F0.8493823454106539
sg10
F0.687233915487363
ssI96
(dp106
g9
F0.9285221572359601
sg10
F0.5317561989727572
ssI97
(dp107
g9
F0.635748361302365
sg10
F0.3544178642868695
ssI98
(dp108
g9
F0.6723134168498215
sg10
F0.16918019931934591
ssI99
(dp109
g9
F0.1557542983967768
sg10
F0.2854215756285885
ssI100
(dp110
g9
F0.23254264085225784
sg10
F0.7131612955635371
ssI101
(dp111
g9
F0.7587534204354682
sg10
F0.7612259201929615
ssI102
(dp112
g9
F0.6022433240629457
sg10
F0.6697592148120921
ssI103
(dp113
g9
F0.4812297552227188
sg10
F0.8684499745023646
ssI104
(dp114
g9
F0.9397713656874659
sg10
F0.4170839478780648
ssI105
(dp115
g9
F0.3216637467925111
sg10
F0.25581135273760247
ssI106
(dp116
g9
F0.7272558269139261
sg10
F0.2545961535449025
ssI107
(dp117
g9
F0.9380944343443306
sg10
F0.28724792411959055
ssI108
(dp118
g9
F0.7642988449728018
sg10
F0.3608207827836214
ssI109
(dp119
g9
F0.9789104876716154
sg10
F0.542926051892701
ssI110
(dp120
g9
F0.2655174935939637
sg10
F0.16960952916543404
ssI111
(dp121
g9
F0.7159463280547596
sg10
F0.2152390887984279
ssI112
(dp122
g9
F0.2637325445472182
sg10
F0.5812030964884128
ssI113
(dp123
g9
F0.9200817498961011
sg10
F0.97155465968022
ssI114
(dp124
g9
F0.1356246916846604
sg10
F0.4427603432009185
ssI115
(dp125
g9
F0.493323656054356
sg10
F0.41048626583452175
ssI116
(dp126
g9
F0.9850574639398911
sg10
F0.423288889334276
ssI117
(dp127
g9
F0.40335895628378593
sg10
F0.5323483560163871
ssI118
(dp128
g9
F0.6969477890915178
sg10
F0.08167585430744329
ssI119
(dp129
g9
F0.09140435635612276
sg10
F0.7363937153176132
ssI120
(dp130
g9
F0.4823367027910217
sg10
F0.26742292447270555
ssI121
(dp131
g9
F0.2165325734477488
sg10
F0.6360723282695445
ssI122
(dp132
g9
F0.2917659522587278
sg10
F0.24709331997469242
ssI123
(dp133
g9
F0.11544121408322938
sg10
F0.9115214373765922
ssI124
(dp134
g9
F0.5768625842734666
sg10
F0.6927565937792822
ssI125
(dp135
g9
F0.9030234253042368
sg10
F0.4104568695556504
ssI126
(dp136
g9
F0.9581805809099506
sg10
F0.5261518757641227
ssI127
(dp137
g9
F0.5026621620271973
sg10
F0.5774423061103805
ssI128
(dp138
g9
F0.7212919509026481
sg10
F0.03244311332783134
ssI129
(dp139
g9
F0.5069735807524325
sg10
F0.5622876136869522
ssI130
(dp140
g9
F0.46891542145562215
sg10
F0.9481489792662439
ssI131
(dp141
g9
F0.24906174358057243
sg10
F0.6214254580587675
ssI132
(dp142
g9
F0.2561840115483266
sg10
F0.4995275280389465
ssI133
(dp143
g9
F0.8242230865703043
sg10
F0.7568446458285226
ssI134
(dp144
g9
F0.9164072455424035
sg10
F0.1577912099194576
ssI135
(dp145
g9
F0.8035482531426441
sg10
F0.8472808742625808
ssI136
(dp146
g9
F0.7621135789547305
sg10
F0.36881473008055554
ssI137
(dp147
g9
F0.4026497574247615
sg10
F0.2343016996953634
ssI138
(dp148
g9
F0.5591189114644056
sg10
F0.8749040286017449
ssI139
(dp149
g9
F0.06801721807330519
sg10
F0.8708895552446891
ssI140
(dp150
g9
F0.4143229021635917
sg10
F0.2113642379318741
ssI141
(dp151
g9
F0.7201484477972003
sg10
F0.9024846589255321
ssI142
(dp152
g9
F0.8299142214384384
sg10
F0.9752304014063655
ssI143
(dp153
g9
F0.061658774106644776
sg10
F0.5281850122998577
ssI144
(dp154
g9
F0.20760006653135166
sg10
F0.47882159943932845
ssI145
(dp155
g9
F0.6385632804848624
sg10
F0.8106758416691898
ssI146
(dp156
g9
F0.41190785025713716
sg10
F0.056605144282113495
ssI147
(dp157
g9
F0.8037040279841843
sg10
F0.854740055962459
ssI148
(dp158
g9
F0.22648278166141145
sg10
F0.9542215674969184
ssI149
(dp159
g9
F0.4855946981334859
sg10
F0.0678525410604317
ssI150
(dp160
g9
F0.4193083606314266
sg10
F0.652190411372551
ssI151
(dp161
g9
F0.03789761732900221
sg10
F0.5724159298186787
ssI152
(dp162
g9
F0.31094542250463986
sg10
F0.9320252143466923
ssI153
(dp163
g9
F0.5670714520380665
sg10
F0.7715404954190115
ssI154
(dp164
g9
F0.0999022417704748
sg10
F0.9487844517248967
ssI155
(dp165
g9
F0.7220591083692234
sg10
F0.6020339598053313
ssI156
(dp166
g9
F0.20184589879771597
sg10
F0.2495750170915877
ssI157
(dp167
g9
F0.9604200955503006
sg10
F0.3707302718432951
ssI158
(dp168
g9
F0.2028024526295391
sg10
F0.4051401643653578
ssI159
(dp169
g9
F0.27512431212321187
sg10
F0.5690054074630362
ssI160
(dp170
g9
F0.33370591083192613
sg10
F0.9087212856407344
ssI161
(dp171
g9
F0.8935960457142085
sg10
F0.9513093123699915
ssI162
(dp172
g9
F0.23801832635364295
sg10
F0.746901765032248
ssI163
(dp173
g9
F0.656312138900654
sg10
F0.6131725011319479
ssI164
(dp174
g9
F0.1847428745088725
sg10
F0.6258841260965375
ssI165
(dp175
g9
F0.8023213045201345
sg10
F0.3441694034135072
ssI166
(dp176
g9
F0.12480276642169574
sg10
F0.03443386104418922
ssI167
(dp177
g9
F0.2985414588992723
sg10
F0.8631806654733589
ssI168
(dp178
g9
F0.2930211342168948
sg10
F0.5372439563666268
ssI169
(dp179
g9
F0.16858692685326193
sg10
F0.5952416978788754
ssI170
(dp180
g9
F0.03908014903432777
sg10
F0.05908707198636254
ssI171
(dp181
g9
F0.9540886433262122
sg10
F0.25207879088921936
ssI172
(dp182
g9
F0.44432058040424627
sg10
F0.31319780616873405
ssI173
(dp183
g9
F0.037241139074099316
sg10
F0.6381471424034557
ssI174
(dp184
g9
F0.5115618251003365
sg10
F0.5622845880191685
ssI175
(dp185
g9
F0.5379052719034766
sg10
F0.751276850931505
ssI176
(dp186
g9
F0.7833312665969344
sg10
F0.7491567625842721
ssI177
(dp187
g9
F0.23722179881193928
sg10
F0.23670147230869165
ssI178
(dp188
g9
F0.9925163364589342
sg10
F0.6818284308192745
ssI179
(dp189
g9
F0.8607733289144621
sg10
F0.7062581374299594
ssI180
(dp190
g9
F0.10687341672459483
sg10
F0.4105658809818138
ssI181
(dp191
g9
F0.0030327482160599217
sg10
F0.6890855142638748
ssI182
(dp192
g9
F0.04190777528199796
sg10
F0.6155019497768067
ssI183
(dp193
g9
F0.5291591110716735
sg10
F0.7507841658175595
ssI184
(dp194
g9
F0.33013279698658626
sg10
F0.846116233079443
ssI185
(dp195
g9
F0.6848471763507081
sg10
F0.5451967661250725
ssI186
(dp196
g9
F0.7756338929548761
sg10
F0.15702807685104647
ssI187
(dp197
g9
F0.28919825126177645
sg10
F0.30667666815201766
ssI188
(dp198
g9
F0.6950737470340139
sg10
F0.48753549193838175
ssI189
(dp199
g9
F0.7525187273721475
sg10
F0.08478087626686637
ssI190
(dp200
g9
F0.8152643960914614
sg10
F0.8727225123148189
ssI191
(dp201
g9
F0.17393800285467453
sg10
F0.05535938398091378
ssI192
(dp202
g9
F0.8081604701059188
sg10
F0.8186424015273768
ssI193
(dp203
g9
F0.6297749759208898
sg10
F0.23449056073832153
ssI194
(dp204
g9
F0.32609681021057646
sg10
F0.26409767164975406
ssI195
(dp205
g9
F0.9738811435307388
sg10
F0.7026091653563756
ssI196
(dp206
g9
F0.3271529954444681
sg10
F0.6245996425086869
ssI197
(dp207
g9
F0.40262146996818104
sg10
F0.08042613124713971
ssI198
(dp208
g9
F0.06657557424900573
sg10
F0.8517778209957201
ssI199
(dp209
g9
F0.43755469253576973
sg10
F0.8501391885595462
ssI200
(dp210
g9
F0.3786267111503293
sg10
F0.07188346355541142
ssI201
(dp211
g9
F0.38278790005762864
sg10
F0.4054142402915726
ssI202
(dp212
g9
F0.5867029695862701
sg10
F0.6264453499120688
ssI203
(dp213
g9
F0.7861820755216147
sg10
F0.3351789129716847
ssI204
(dp214
g9
F0.9738843055013449
sg10
F0.016046072847586412
ssI205
(dp215
g9
F0.13849491889814936
sg10
F0.3372012794701331
ssI206
(dp216
g9
F0.82102281656268
sg10
F0.17654774030081033
ssI207
(dp217
g9
F0.05502215379823472
sg10
F0.7424130818263742
ssI208
(dp218
g9
F0.9482056144427808
sg10
F0.5516311402055847
ssI209
(dp219
g9
F0.9619580508920966
sg10
F0.432009375419378
ssI210
(dp220
g9
F0.9047751412045449
sg10
F0.23173385903973354
ssI211
(dp221
g9
F0.733377303744302
sg10
F0.46384640283788336
ssI212
(dp222
g9
F0.47399761513593885
sg10
F0.7454058357603977
ssI213
(dp223
g9
F0.5808325789583473
sg10
F0.7888017697577718
ssI214
(dp224
g9
F0.900766690750428
sg10
F0.8860655846182143
ssI215
(dp225
g9
F0.2687152437170649
sg10
F0.3258791233933169
ssI216
(dp226
g9
F0.9806034470420584
sg10
F0.8051576867019921
ssI217
(dp227
g9
F0.22052505280920787
sg10
F0.13837655273621874
ssI218
(dp228
g9
F0.15135862698174274
sg10
F0.6571741730974661
ssI219
(dp229
g9
F0.7562667736553381
sg10
F0.306226093714973
ssI220
(dp230
g9
F0.7436977551170847
sg10
F0.2330751208838846
ssI221
(dp231
g9
F0.7457641183082733
sg10
F0.5491968526276446
ssI222
(dp232
g9
F0.4158634992664515
sg10
F0.1686766452826316
ssI223
(dp233
g9
F0.26501192799889184
sg10
F0.12631177461822707
ssI224
(dp234
g9
F0.8727634558877281
sg10
F0.6133265895157182
ssI225
(dp235
g9
F0.8546597273605412
sg10
F0.08505839308200347
ssI226
(dp236
g9
F0.24559944483438212
sg10
F0.5913185679204547
ssI227
(dp237
g9
F0.019329848983669518
sg10
F0.34201415243176114
ssI228
(dp238
g9
F0.5082245053034777
sg10
F0.1378459443199832
ssI229
(dp239
g9
F0.8302686120643673
sg10
F0.7195536663850444
ssI230
(dp240
g9
F0.16669967173947342
sg10
F0.1307148081671281
ssI231
(dp241
g9
F0.031088366172553283
sg10
F0.7943524623530474
ssI232
(dp242
g9
F0.03346533526667683
sg10
F0.42387846861470635
ssI233
(dp243
g9
F0.36026562076055835
sg10
F0.38865009813567186
ssI234
(dp244
g9
F0.11764045145239344
sg10
F0.16369365477040854
ssI235
(dp245
g9
F0.6738032273767536
sg10
F0.2827462525447263
ssI236
(dp246
g9
F0.6604394072869868
sg10
F0.5942186523177376
ssI237
(dp247
g9
F0.520809551694791
sg10
F0.8482332315721293
ssI238
(dp248
g9
F0.08444107665571965
sg10
F0.5037726968787287
ssI239
(dp249
g9
F0.07671213091165852
sg10
F0.133527667790043
ssI240
(dp250
g9
F0.9437621466536164
sg10
F0.6700601918125396
ssI241
(dp251
g9
F0.5608243888454706
sg10
F0.269833314461406
ssI242
(dp252
g9
F0.15594574072006706
sg10
F0.3552295392902617
ssI243
(dp253
g9
F0.19773431887902615
sg10
F0.651240651549487
ssI244
(dp254
g9
F0.5139270610014961
sg10
F0.35259373063334176
ssI245
(dp255
g9
F0.3465300834898093
sg10
F0.48054701419607326
ssI246
(dp256
g9
F0.37825728019801874
sg10
F0.27125824641232077
ssI247
(dp257
g9
F0.1921574408419191
sg10
F0.3252184438785847
ssI248
(dp258
g9
F0.7994664208907885
sg10
F0.7697895823610006
ssI249
(dp259
g9
F0.7616265080815423
sg10
F0.7234348364257397
ssI250
(dp260
g9
F0.8914097834550831
sg10
F0.9454410714034678
ssI251
(dp261
g9
F0.05270832178524132
sg10
F0.5887989943977615
ssI252
(dp262
g9
F0.2687954988719753
sg10
F0.25156232980098536
ssI253
(dp263
g9
F0.007245533614444355
sg10
F0.9467251020678807
ssI254
(dp264
g9
F0.6478128918578535
sg10
F0.8540268100708505
ssI255
(dp265
g9
F0.3789388630716314
sg10
F0.5822430916992251
ssI256
(dp266
g9
F0.4858856903197908
sg10
F0.6867066205353114
ssI257
(dp267
g9
F0.636329911422151
sg10
F0.047310549800474666
ssI258
(dp268
g9
F0.7990526595182142
sg10
F0.6854288888662574
ssI259
(dp269
g9
F0.7937762033283573
sg10
F0.7351454436352219
ssI260
(dp270
g9
F0.20467381699619025
sg10
F0.21195535037112778
ssI261
(dp271
g9
F0.8958594438035969
sg10
F0.7482088393090854
ssI262
(dp272
g9
F0.806606954950489
sg10
F0.7307792183193019
ssI263
(dp273
g9
F0.10416030476896554
sg10
F0.5439761213501149
ssI264
(dp274
g9
F0.41331780843176247
sg10
F0.9650573309516491
ssI265
(dp275
g9
F0.7948928531789896
sg10
F0.6235573232258356
ssI266
(dp276
g9
F0.7533229719562585
sg10
F0.8085159272319755
ssI267
(dp277
g9
F0.24962994015057272
sg10
F0.49081027214788153
ssI268
(dp278
g9
F0.9197994325758813
sg10
F0.4026928138755431
ssI269
(dp279
g9
F0.8131124959745758
sg10
F0.43720644276602516
ssI270
(dp280
g9
F0.040977819955533734
sg10
F0.3133810113193637
ssI271
(dp281
g9
F0.39881908688530676
sg10
F0.382935230484018
ssI272
(dp282
g9
F0.43500061320032035
sg10
F0.763177854371624
ssI273
(dp283
g9
F0.7919082183871762
sg10
F0.26715802148457934
ssI274
(dp284
g9
F0.3971593920921498
sg10
F0.6319711675110044
ssI275
(dp285
g9
F0.26398319015968996
sg10
F0.5886651652844871
ssI276
(dp286
g9
F0.4480851762113337
sg10
F0.49733754264551877
ssI277
(dp287
g9
F0.9331174869564526
sg10
F0.9830802794750495
ssI278
(dp288
g9
F0.5052316374917049
sg10
F0.9496615300965203
ssI279
(dp289
g9
F0.742184239760271
sg10
F0.966968093429529
ssI280
(dp290
g9
F0.9689802551872292
sg10
F0.23116241753439637
ssI281
(dp291
g9
F0.5743705175871943
sg10
F0.8351361198757604
ssI282
(dp292
g9
F0.8253123780572851
sg10
F0.3373971067327357
ssI283
(dp293
g9
F0.09973075976845858
sg10
F0.5891805686477193
ssI284
(dp294
g9
F0.39602950098055545
sg10
F0.49011163953888903
ssI285
(dp295
g9
F0.5662959485030815
sg10
F0.08693596285976235
ssI286
(dp296
g9
F0.7921370304807891
sg10
F0.19451270667695264
ssI287
(dp297
g9
F0.12362636481483591
sg10
F0.4138714724517649
ssI288
(dp298
g9
F0.6336523219536158
sg10
F0.6448476408788593
ssI289
(dp299
g9
F0.5460431418792889
sg10
F0.9528861526763994
ssI290
(dp300
g9
F0.8124270903805063
sg10
F0.9554250753846599
ssI291
(dp301
g9
F0.08706257849823318
sg10
F0.45343425864499454
ssI292
(dp302
g9
F0.6059511416472214
sg10
F0.7470237529808434
ssI293
(dp303
g9
F0.2462322582511024
sg10
F0.39935969022364726
ssI294
(dp304
g9
F0.031725478500918225
sg10
F0.3430434330421537
ssI295
(dp305
g9
F0.45575008002982775
sg10
F0.770298011040485
ssI296
(dp306
g9
F0.9549669548996355
sg10
F0.021758766949402708
ssI297
(dp307
g9
F0.025127624152360806
sg10
F0.48482511345015766
ssI298
(dp308
g9
F0.0018537915160814489
sg10
F0.1090920236378079
ssI299
(dp309
g9
F0.8850568246206869
sg10
F0.4423395838833948
sssS'node_dict_factory'
p310
c__builtin__
dict
p311
sS'edge_attr_dict_factory'
p312
g311
sS'edge'
p313
(dp314
I0
(dp315
sI1
(dp316
sI2
(dp317
sI3
(dp318
sI4
(dp319
sI5
(dp320
sI6
(dp321
sI7
(dp322
sI8
(dp323
sI9
(dp324
sI10
(dp325
sI11
(dp326
sI12
(dp327
sI13
(dp328
sI14
(dp329
sI15
(dp330
sI16
(dp331
sI17
(dp332
sI18
(dp333
sI19
(dp334
sI20
(dp335
sI21
(dp336
sI22
(dp337
sI23
(dp338
sI24
(dp339
sI25
(dp340
sI26
(dp341
sI27
(dp342
sI28
(dp343
sI29
(dp344
sI30
(dp345
sI31
(dp346
sI32
(dp347
sI33
(dp348
sI34
(dp349
sI35
(dp350
sI36
(dp351
sI37
(dp352
sI38
(dp353
sI39
(dp354
sI40
(dp355
sI41
(dp356
sI42
(dp357
sI43
(dp358
sI44
(dp359
sI45
(dp360
sI46
(dp361
sI47
(dp362
sI48
(dp363
sI49
(dp364
sI50
(dp365
sI51
(dp366
sI52
(dp367
sI53
(dp368
sI54
(dp369
sI55
(dp370
sI56
(dp371
sI57
(dp372
sI58
(dp373
sI59
(dp374
sI60
(dp375
sI61
(dp376
sI62
(dp377
sI63
(dp378
sI64
(dp379
sI65
(dp380
sI66
(dp381
sI67
(dp382
sI68
(dp383
sI69
(dp384
sI70
(dp385
sI71
(dp386
sI72
(dp387
sI73
(dp388
sI74
(dp389
sI75
(dp390
sI76
(dp391
sI77
(dp392
sI78
(dp393
sI79
(dp394
sI80
(dp395
sI81
(dp396
sI82
(dp397
sI83
(dp398
sI84
(dp399
sI85
(dp400
sI86
(dp401
sI87
(dp402
sI88
(dp403
sI89
(dp404
sI90
(dp405
sI91
(dp406
sI92
(dp407
sI93
(dp408
sI94
(dp409
sI95
(dp410
sI96
(dp411
sI97
(dp412
sI98
(dp413
sI99
(dp414
sI100
(dp415
sI101
(dp416
sI102
(dp417
sI103
(dp418
sI104
(dp419
sI105
(dp420
sI106
(dp421
sI107
(dp422
sI108
(dp423
sI109
(dp424
sI110
(dp425
sI111
(dp426
sI112
(dp427
sI113
(dp428
sI114
(dp429
sI115
(dp430
sI116
(dp431
sI117
(dp432
sI118
(dp433
sI119
(dp434
sI120
(dp435
sI121
(dp436
sI122
(dp437
sI123
(dp438
sI124
(dp439
sI125
(dp440
sI126
(dp441
sI127
(dp442
sI128
(dp443
sI129
(dp444
sI130
(dp445
sI131
(dp446
sI132
(dp447
sI133
(dp448
sI134
(dp449
sI135
(dp450
sI136
(dp451
sI137
(dp452
sI138
(dp453
sI139
(dp454
sI140
(dp455
sI141
(dp456
sI142
(dp457
sI143
(dp458
sI144
(dp459
sI145
(dp460
sI146
(dp461
sI147
(dp462
sI148
(dp463
sI149
(dp464
sI150
(dp465
sI151
(dp466
sI152
(dp467
sI153
(dp468
sI154
(dp469
sI155
(dp470
sI156
(dp471
sI157
(dp472
sI158
(dp473
sI159
(dp474
sI160
(dp475
sI161
(dp476
sI162
(dp477
sI163
(dp478
sI164
(dp479
sI165
(dp480
sI166
(dp481
sI167
(dp482
sI168
(dp483
sI169
(dp484
sI170
(dp485
sI171
(dp486
sI172
(dp487
sI173
(dp488
sI174
(dp489
sI175
(dp490
sI176
(dp491
sI177
(dp492
sI178
(dp493
sI179
(dp494
sI180
(dp495
sI181
(dp496
sI182
(dp497
sI183
(dp498
sI184
(dp499
sI185
(dp500
sI186
(dp501
sI187
(dp502
sI188
(dp503
sI189
(dp504
sI190
(dp505
sI191
(dp506
sI192
(dp507
sI193
(dp508
sI194
(dp509
sI195
(dp510
sI196
(dp511
sI197
(dp512
sI198
(dp513
sI199
(dp514
sI200
(dp515
sI201
(dp516
sI202
(dp517
sI203
(dp518
sI204
(dp519
sI205
(dp520
sI206
(dp521
sI207
(dp522
sI208
(dp523
sI209
(dp524
sI210
(dp525
sI211
(dp526
sI212
(dp527
sI213
(dp528
sI214
(dp529
sI215
(dp530
sI216
(dp531
sI217
(dp532
sI218
(dp533
sI219
(dp534
sI220
(dp535
sI221
(dp536
sI222
(dp537
sI223
(dp538
sI224
(dp539
sI225
(dp540
sI226
(dp541
sI227
(dp542
sI228
(dp543
sI229
(dp544
sI230
(dp545
sI231
(dp546
sI232
(dp547
sI233
(dp548
sI234
(dp549
sI235
(dp550
sI236
(dp551
sI237
(dp552
sI238
(dp553
sI239
(dp554
sI240
(dp555
sI241
(dp556
sI242
(dp557
sI243
(dp558
sI244
(dp559
sI245
(dp560
sI246
(dp561
sI247
(dp562
sI248
(dp563
sI249
(dp564
sI250
(dp565
sI251
(dp566
sI252
(dp567
sI253
(dp568
sI254
(dp569
sI255
(dp570
sI256
(dp571
sI257
(dp572
sI258
(dp573
sI259
(dp574
sI260
(dp575
sI261
(dp576
sI262
(dp577
sI263
(dp578
sI264
(dp579
sI265
(dp580
sI266
(dp581
sI267
(dp582
sI268
(dp583
sI269
(dp584
sI270
(dp585
sI271
(dp586
sI272
(dp587
sI273
(dp588
sI274
(dp589
sI275
(dp590
sI276
(dp591
sI277
(dp592
sI278
(dp593
sI279
(dp594
sI280
(dp595
sI281
(dp596
sI282
(dp597
sI283
(dp598
sI284
(dp599
sI285
(dp600
sI286
(dp601
sI287
(dp602
sI288
(dp603
sI289
(dp604
sI290
(dp605
sI291
(dp606
sI292
(dp607
sI293
(dp608
sI294
(dp609
sI295
(dp610
sI296
(dp611
sI297
(dp612
sI298
(dp613
sI299
(dp614
ssS'graph'
p615
(dp616
sS'adjlist_dict_factory'
p617
g311
sS'adj'
p618
g314
sb.