ccopy_reg
_reconstructor
p0
(cnetworkx.classes.graph
Graph
p1
c__builtin__
object
p2
Ntp3
Rp4
(dp5
S'node'
p6
(dp7
I0
(dp8
S'pos_x'
p9
F0.10241990008207169
sS'pos_y'
p10
F0.4641575704785993
ssI1
(dp11
g9
F0.4963636350245525
sg10
F0.2544409963819241
ssI2
(dp12
g9
F0.3327443124111671
sg10
F0.8530816601392718
ssI3
(dp13
g9
F0.9549628462290622
sg10
F0.35205947208011357
ssI4
(dp14
g9
F0.6339987777171967
sg10
F0.6543364646435242
ssI5
(dp15
g9
F0.3855580149697505
sg10
F0.713257968874597
ssI6
(dp16
g9
F0.6476158924708931
sg10
F0.5073906153391761
ssI7
(dp17
g9
F0.12412703812457437
sg10
F0.31348698565447985
ssI8
(dp18
g9
F0.8015062085078023
sg10
F0.9025995568003496
ssI9
(dp19
g9
F0.989305061800031
sg10
F0.008151882674437338
ssI10
(dp20
g9
F0.025990189937251107
sg10
F0.21763435233182504
ssI11
(dp21
g9
F0.10348186752075361
sg10
F0.7062873627946866
ssI12
(dp22
g9
F0.4096268664879129
sg10
F0.4735402277134112
ssI13
(dp23
g9
F0.4923452045436265
sg10
F0.6309826751892161
ssI14
(dp24
g9
F0.47403816681852473
sg10
F0.04444816558459208
ssI15
(dp25
g9
F0.6706718588092176
sg10
F0.8646371528074149
ssI16
(dp26
g9
F0.9908994874869596
sg10
F0.21990677097823796
ssI17
(dp27
g9
F0.49304372965122845
sg10
F0.5711548626493179
ssI18
(dp28
g9
F0.10155043525976692
sg10
F0.6331765743780597
ssI19
(dp29
g9
F0.6428396716708903
sg10
F0.6585938378980666
ssI20
(dp30
g9
F0.9712168013039612
sg10
F0.9992039423050774
ssI21
(dp31
g9
F0.9034351201423426
sg10
F0.5712596983335119
ssI22
(dp32
g9
F0.8065156171057231
sg10
F0.22727478985356575
ssI23
(dp33
g9
F0.7454760289425956
sg10
F0.36560276440415385
ssI24
(dp34
g9
F0.9576705211138389
sg10
F0.3634700331271238
ssI25
(dp35
g9
F0.35693442915209983
sg10
F0.9331160146833613
ssI26
(dp36
g9
F0.6128866789622777
sg10
F0.21591464323612752
ssI27
(dp37
g9
F0.1767838772552407
sg10
F0.12744774232247136
ssI28
(dp38
g9
F0.4049690214443785
sg10
F0.8647650365754231
ssI29
(dp39
g9
F0.658596580997059
sg10
F0.8424807086010243
ssI30
(dp40
g9
F0.17464284579535905
sg10
F0.23582291649021248
ssI31
(dp41
g9
F0.1921178026192013
sg10
F0.6003843185807064
ssI32
(dp42
g9
F0.2393699285360973
sg10
F0.0003471329608483176
ssI33
(dp43
g9
F0.901263694129758
sg10
F0.6228343282045389
ssI34
(dp44
g9
F0.10071973232437859
sg10
F0.22774605731501707
ssI35
(dp45
g9
F0.8507008217548049
sg10
F0.4586658383798211
ssI36
(dp46
g9
F0.36068795506264417
sg10
F0.49098099375055515
ssI37
(dp47
g9
F0.25640652235336847
sg10
F0.5337437123888459
ssI38
(dp48
g9
F0.26864871737167784
sg10
F0.7383044483555594
ssI39
(dp49
g9
F0.31614580316088325
sg10
F0.2244569476165199
ssI40
(dp50
g9
F0.7664556845819481
sg10
F0.03604280531379356
ssI41
(dp51
g9
F0.7553558204287013
sg10
F0.9751356017402892
ssI42
(dp52
g9
F0.2789504209578937
sg10
F0.8585352924946927
ssI43
(dp53
g9
F0.6607664431914366
sg10
F0.43368054793308364
ssI44
(dp54
g9
F0.5690962584976814
sg10
F0.4424010883178099
ssI45
(dp55
g9
F0.687130657752949
sg10
F0.9600461125226957
ssI46
(dp56
g9
F0.4958712887694764
sg10
F0.41543174145571493
ssI47
(dp57
g9
F0.04383640743340478
sg10
F0.41229393076910625
ssI48
(dp58
g9
F0.29323427966110016
sg10
F0.3878321715963685
ssI49
(dp59
g9
F0.12615626233732458
sg10
F0.4637110573754314
ssI50
(dp60
g9
F0.8633063146331448
sg10
F0.9742220087925323
ssI51
(dp61
g9
F0.578845134900941
sg10
F0.9999353222622255
ssI52
(dp62
g9
F0.9520622379529567
sg10
F0.2180737253377183
ssI53
(dp63
g9
F0.8861309374275128
sg10
F0.2933814601199639
ssI54
(dp64
g9
F0.3300531131597062
sg10
F0.08753085160538288
ssI55
(dp65
g9
F0.6164393394379567
sg10
F0.9482881017877267
ssI56
(dp66
g9
F0.7035782124572412
sg10
F0.7003699738932296
ssI57
(dp67
g9
F0.13957261841536728
sg10
F0.9021267448668785
ssI58
(dp68
g9
F0.8461836810301463
sg10
F0.9913031933893653
ssI59
(dp69
g9
F0.47778840378110277
sg10
F0.18644080980545508
ssI60
(dp70
g9
F0.23249346648501434
sg10
F0.5869963770650627
ssI61
(dp71
g9
F0.7166673741876413
sg10
F0.07616835960790291
ssI62
(dp72
g9
F0.2583756766457104
sg10
F0.9883492729460754
ssI63
(dp73
g9
F0.9521954507242015
sg10
F0.3162946876552455
ssI64
(dp74
g9
F0.3506891284037915
sg10
F0.7650575061598446
ssI65
(dp75
g9
F0.6289363923435147
sg10
F0.5912952345183672
ssI66
(dp76
g9
F0.023002468975645618
sg10
F0.9853286830587459
ssI67
(dp77
g9
F0.12815421343687206
sg10
F0.5837657986619328
ssI68
(dp78
g9
F0.930650229829234
sg10
F0.8819954105362342
ssI69
(dp79
g9
F0.9939291561386447
sg10
F0.8461953456817235
ssI70
(dp80
g9
F0.5299694590133704
sg10
F0.4576574806178939
ssI71
(dp81
g9
F0.9137530121114145
sg10
F0.11370154031581681
ssI72
(dp82
g9
F0.8542167490960054
sg10
F0.32090797668743
ssI73
(dp83
g9
F0.9611808065170921
sg10
F0.9728710149181988
ssI74
(dp84
g9
F0.5012980383843468
sg10
F0.08999837879412864
ssI75
(dp85
g9
F0.7819126590182967
sg10
F0.18650785960742955
ssI76
(dp86
g9
F0.47849024414009345
sg10
F0.7456087917087639
ssI77
(dp87
g9
F0.3553245331549293
sg10
F0.639056294985764
ssI78
(dp88
g9
F0.540508856790284
sg10
F0.15618787352080366
ssI79
(dp89
g9
F0.5983193734596878
sg10
F0.922512419564684
ssI80
(dp90
g9
F0.4568250112769854
sg10
F0.7503803926380709
ssI81
(dp91
g9
F0.07113848903226616
sg10
F0.3445111403066812
ssI82
(dp92
g9
F0.4415162723350192
sg10
F0.9062174111017243
ssI83
(dp93
g9
F0.32646859006570295
sg10
F0.9014444332018495
ssI84
(dp94
g9
F0.3777707140052966
sg10
F0.7042465673247992
ssI85
(dp95
g9
F0.09317967051074538
sg10
F0.09514555837499616
ssI86
(dp96
g9
F0.7117648658822728
sg10
F0.1368473194932931
ssI87
(dp97
g9
F0.6469508188250256
sg10
F0.935444371157184
ssI88
(dp98
g9
F0.2789915416250235
sg10
F0.9275472589048037
ssI89
(dp99
g9
F0.09843197860124231
sg10
F0.4431126460847884
ssI90
(dp100
g9
F0.4071244681147299
sg10
F0.7500512909220768
ssI91
(dp101
g9
F0.5476388322357255
sg10
F0.5023676632215138
ssI92
(dp102
g9
F0.44978381235691367
sg10
F0.10935918487331675
ssI93
(dp103
g9
F0.40396028449049315
sg10
F0.8095950000408028
ssI94
(dp104
g9
F0.7530444129775488
sg10
F0.5131541929822276
ssI95
(dp105
g9
F0.5590834454287726
sg10
F0.6108058468498018
ssI96
(dp106
g9
F0.3586795546045114
sg10
F0.981683424879115
ssI97
(dp107
g9
F0.4725411033350658
sg10
F0.4650853173481193
ssI98
(dp108
g9
F0.8943278729275633
sg10
F0.33519343438752813
ssI99
(dp109
g9
F0.16876214892602848
sg10
F0.6272598998462346
ssI100
(dp110
g9
F0.12420572841101618
sg10
F0.9641113425446891
ssI101
(dp111
g9
F0.5853516766939315
sg10
F0.33586107445136737
ssI102
(dp112
g9
F0.6451120618708529
sg10
F0.004421990249638075
ssI103
(dp113
g9
F0.6186058669091156
sg10
F0.6950969849177077
ssI104
(dp114
g9
F0.6777806733367283
sg10
F0.3451910588485839
ssI105
(dp115
g9
F0.49992743609671875
sg10
F0.6059006376464952
ssI106
(dp116
g9
F0.7553721713324192
sg10
F0.1823325901288011
ssI107
(dp117
g9
F0.6993500218674273
sg10
F0.5309684717697288
ssI108
(dp118
g9
F0.4824042598309486
sg10
F0.9053154219611738
ssI109
(dp119
g9
F0.4564835069227642
sg10
F0.12120827544685275
ssI110
(dp120
g9
F0.13592856770504735
sg10
F0.7902496031547539
ssI111
(dp121
g9
F0.5579186553193817
sg10
F0.8576467076827369
ssI112
(dp122
g9
F0.6169870167646794
sg10
F0.32133122808514814
ssI113
(dp123
g9
F0.34451526398410404
sg10
F0.399449186229199
ssI114
(dp124
g9
F0.7247098134002293
sg10
F0.9458590811218343
ssI115
(dp125
g9
F0.5138486481038336
sg10
F0.7644144717486336
ssI116
(dp126
g9
F0.23638404319367023
sg10
F0.4608215319772555
ssI117
(dp127
g9
F0.8947288568947658
sg10
F0.5794235454030309
ssI118
(dp128
g9
F0.8294721232866452
sg10
F0.025516353525348645
ssI119
(dp129
g9
F0.442878734843384
sg10
F0.300891950225196
ssI120
(dp130
g9
F0.7911000120913867
sg10
F0.7225162877321331
ssI121
(dp131
g9
F0.18047838077492961
sg10
F0.11614222990151812
ssI122
(dp132
g9
F0.8027386744984321
sg10
F0.8667748886405144
ssI123
(dp133
g9
F0.25863997317886034
sg10
F0.9428556961067037
ssI124
(dp134
g9
F0.08409439654825468
sg10
F0.0028614282546882697
ssI125
(dp135
g9
F0.2436111601688704
sg10
F0.25198516864882936
ssI126
(dp136
g9
F0.8554467639986144
sg10
F0.7950416328379927
ssI127
(dp137
g9
F0.8836090053392814
sg10
F0.8328076699716424
ssI128
(dp138
g9
F0.4406257894523705
sg10
F0.58731438512802
ssI129
(dp139
g9
F0.4797760256708705
sg10
F0.10929916868424494
ssI130
(dp140
g9
F0.3219938504445
sg10
F0.6948129385587729
ssI131
(dp141
g9
F0.7216216182289744
sg10
F0.7826942258161078
ssI132
(dp142
g9
F0.7234560227649323
sg10
F0.4107544490835465
ssI133
(dp143
g9
F0.10000736325687831
sg10
F0.3349787066824289
ssI134
(dp144
g9
F0.7396926722543934
sg10
F0.16619498185721138
ssI135
(dp145
g9
F0.5578661451270587
sg10
F0.14994683457786795
ssI136
(dp146
g9
F0.6270277306037902
sg10
F0.7420274011440043
ssI137
(dp147
g9
F0.25597718565852745
sg10
F0.0739759610872952
ssI138
(dp148
g9
F0.12474280494227197
sg10
F0.7218748829435171
ssI139
(dp149
g9
F0.6563461512215276
sg10
F0.9978110866708101
ssI140
(dp150
g9
F0.19688575567606248
sg10
F0.6399679385829495
ssI141
(dp151
g9
F0.11673161907215301
sg10
F0.731445589616673
ssI142
(dp152
g9
F0.6827440476410619
sg10
F0.7963339878725527
ssI143
(dp153
g9
F0.46492218899656856
sg10
F0.3143656598921536
ssI144
(dp154
g9
F0.4450472159320904
sg10
F0.5509888390370653
ssI145
(dp155
g9
F0.7958039942914167
sg10
F0.5120158628149989
ssI146
(dp156
g9
F0.6191242341868521
sg10
F0.6295754886220065
ssI147
(dp157
g9
F0.9897435945868708
sg10
F0.3720038561183372
ssI148
(dp158
g9
F0.9103884120373841
sg10
F0.20754434727033833
ssI149
(dp159
g9
F0.224520062268741
sg10
F0.9065013578195124
ssI150
(dp160
g9
F0.9981388523275464
sg10
F0.5641828365120434
ssI151
(dp161
g9
F0.2389572439191433
sg10
F0.6349130580775001
ssI152
(dp162
g9
F0.94338531357549
sg10
F0.9151345735644156
ssI153
(dp163
g9
F0.2421323799770364
sg10
F0.1872050688237782
ssI154
(dp164
g9
F0.32588252390959016
sg10
F0.6016081842383344
ssI155
(dp165
g9
F0.5979787336720304
sg10
F0.6324996435629414
ssI156
(dp166
g9
F0.7632834890893592
sg10
F0.03897467306988045
ssI157
(dp167
g9
F0.08061859709312014
sg10
F0.810960765869117
ssI158
(dp168
g9
F0.7891963656160909
sg10
F0.34533074690717647
ssI159
(dp169
g9
F0.6587034017754669
sg10
F0.6556613145772775
ssI160
(dp170
g9
F0.5370912770006339
sg10
F0.5230161951490396
ssI161
(dp171
g9
F0.4925307992781881
sg10
F0.30314620672911075
ssI162
(dp172
g9
F0.32264549007462007
sg10
F0.04713756547746217
ssI163
(dp173
g9
F0.5597942730244022
sg10
F0.9865796981558784
ssI164
(dp174
g9
F0.5666971367031574
sg10
F0.4340750770539876
ssI165
(dp175
g9
F0.116509448921846
sg10
F0.5431494828856513
ssI166
(dp176
g9
F0.7551484669962018
sg10
F0.9284923601822569
ssI167
(dp177
g9
F0.6830644464314836
sg10
F0.5709616370932409
ssI168
(dp178
g9
F0.16592095503537385
sg10
F0.813506167613381
ssI169
(dp179
g9
F0.4546131888912339
sg10
F0.43758610870549386
ssI170
(dp180
g9
F0.24579567447508666
sg10
F0.6749419074853826
ssI171
(dp181
g9
F0.42448439662828574
sg10
F0.9688776987608178
ssI172
(dp182
g9
F0.6065474007837044
sg10
F0.5702259647137311
ssI173
(dp183
g9
F0.5874586292375321
sg10
F0.3275310412147794
ssI174
(dp184
g9
F0.7751004549362276
sg10
F0.19181733094688524
ssI175
(dp185
g9
F0.39845291151604156
sg10
F0.10918254615731982
ssI176
(dp186
g9
F0.3245115377422948
sg10
F0.5521760813612907
ssI177
(dp187
g9
F0.6962352673438555
sg10
F0.003111901829861874
ssI178
(dp188
g9
F0.5808188739069908
sg10
F0.6916343697346147
ssI179
(dp189
g9
F0.27667008146936034
sg10
F0.32922122926548847
ssI180
(dp190
g9
F0.8356008879814131
sg10
F0.6078593734949723
ssI181
(dp191
g9
F0.3811688184470803
sg10
F0.832668991679141
ssI182
(dp192
g9
F0.07802135559900303
sg10
F0.7176226402648864
ssI183
(dp193
g9
F0.21878677574625938
sg10
F0.20645768950426413
ssI184
(dp194
g9
F0.7104787901098067
sg10
F0.7084997042758625
ssI185
(dp195
g9
F0.8348500040806438
sg10
F0.24008762831142538
ssI186
(dp196
g9
F0.06429782629530012
sg10
F0.6085382920330383
ssI187
(dp197
g9
F0.9406235832470332
sg10
F0.7209697614219747
ssI188
(dp198
g9
F0.5103898754899385
sg10
F0.41910560772442396
ssI189
(dp199
g9
F0.4796690493145145
sg10
F0.3693996355649959
ssI190
(dp200
g9
F0.6669427205431738
sg10
F0.7032390187306462
ssI191
(dp201
g9
F0.3851893345276357
sg10
F0.1582507130038351
ssI192
(dp202
g9
F0.9937577719975004
sg10
F0.1524563959421419
ssI193
(dp203
g9
F0.8736325252549175
sg10
F0.7351652433947694
ssI194
(dp204
g9
F0.4406101550995567
sg10
F0.6435486770321476
ssI195
(dp205
g9
F0.18300716273633788
sg10
F0.549349115482191
ssI196
(dp206
g9
F0.7572537657060961
sg10
F0.64717657565983
ssI197
(dp207
g9
F0.9956065402571801
sg10
F0.21640993216415727
ssI198
(dp208
g9
F0.8759357720975548
sg10
F0.9304694891516082
ssI199
(dp209
g9
F0.5722786843845296
sg10
F0.46461787790020836
ssI200
(dp210
g9
F0.2963391833674138
sg10
F0.659373005920152
ssI201
(dp211
g9
F0.4806931532857437
sg10
F0.20049256284329586
ssI202
(dp212
g9
F0.10739445688936411
sg10
F0.17822827369835392
ssI203
(dp213
g9
F0.789041685462159
sg10
F0.19836272471783034
ssI204
(dp214
g9
F0.6706629601645999
sg10
F0.467603157476547
ssI205
(dp215
g9
F0.5281804373333674
sg10
F0.18196896700741672
ssI206
(dp216
g9
F0.6146605882711703
sg10
F0.6042722766854172
ssI207
(dp217
g9
F0.1376872027295749
sg10
F0.4368672983960322
ssI208
(dp218
g9
F0.4294779122895591
sg10
F0.9532754358665375
ssI209
(dp219
g9
F0.7404804961475968
sg10
F0.3895975202780062
ssI210
(dp220
g9
F0.2927587322533439
sg10
F0.8647141434353842
ssI211
(dp221
g9
F0.8324084196945721
sg10
F0.11976728351944976
ssI212
(dp222
g9
F0.8140437969406981
sg10
F0.2981196712694776
ssI213
(dp223
g9
F0.19046897193242562
sg10
F0.4138250174708925
ssI214
(dp224
g9
F0.4286075104032533
sg10
F0.4387869819288074
ssI215
(dp225
g9
F0.9559770188001402
sg10
F0.6068435085674126
ssI216
(dp226
g9
F0.3341215161876816
sg10
F0.8975508574819823
ssI217
(dp227
g9
F0.9443227086629566
sg10
F0.21930781380502962
ssI218
(dp228
g9
F0.7209257403551177
sg10
F0.2373643892994559
ssI219
(dp229
g9
F0.8793799090513239
sg10
F0.10597709177982206
ssI220
(dp230
g9
F0.8754982067525158
sg10
F0.3798568801942812
ssI221
(dp231
g9
F0.5704139677897939
sg10
F0.4830129643801174
ssI222
(dp232
g9
F0.6287583045391107
sg10
F0.6845561371724184
ssI223
(dp233
g9
F0.385721903411107
sg10
F0.2452883041586379
ssI224
(dp234
g9
F0.8146542876548821
sg10
F0.3620765697088857
ssI225
(dp235
g9
F0.8572469326901306
sg10
F0.8356909544769622
ssI226
(dp236
g9
F0.18551384903123824
sg10
F0.5855858298853902
ssI227
(dp237
g9
F0.7902917421957646
sg10
F0.6433852620186725
ssI228
(dp238
g9
F0.24555617786096318
sg10
F0.5716555603869653
ssI229
(dp239
g9
F0.22645863922322151
sg10
F0.14510614908355812
ssI230
(dp240
g9
F0.5509998134288862
sg10
F0.07695521216713441
ssI231
(dp241
g9
F0.845484406351924
sg10
F0.46112705620282723
ssI232
(dp242
g9
F0.1606191403553141
sg10
F0.9851887733427416
ssI233
(dp243
g9
F0.3370636781441293
sg10
F0.3265497846057952
ssI234
(dp244
g9
F0.04244926449132724
sg10
F0.2812321197913321
ssI235
(dp245
g9
F0.1799225807693262
sg10
F0.26621527347910734
ssI236
(dp246
g9
F0.36964178377982326
sg10
F0.14838750093560216
ssI237
(dp247
g9
F0.0555074518361075
sg10
F0.38591518151763726
ssI238
(dp248
g9
F0.049414153787682324
sg10
F0.04293449963877605
ssI239
(dp249
g9
F0.554762576402109
sg10
F0.5876989742182105
ssI240
(dp250
g9
F0.8360497302417049
sg10
F0.23863277574249298
ssI241
(dp251
g9
F0.6922347655107786
sg10
F0.9196109799713388
ssI242
(dp252
g9
F0.6751517835665339
sg10
F0.646196290287487
ssI243
(dp253
g9
F0.3156673381620415
sg10
F0.6169854592269924
ssI244
(dp254
g9
F0.5510097862714074
sg10
F0.9508049113908872
ssI245
(dp255
g9
F0.8948208637346498
sg10
F0.1800078393942376
ssI246
(dp256
g9
F0.8580929129738525
sg10
F0.9432188487209363
ssI247
(dp257
g9
F0.8841403697726679
sg10
F0.9550918172720415
ssI248
(dp258
g9
F0.9773412652815162
sg10
F0.31566157644280324
ssI249
(dp259
g9
F0.7944093335952552
sg10
F0.38041456407707785
ssI250
(dp260
g9
F0.5363707705125542
sg10
F0.26791369327426673
ssI251
(dp261
g9
F0.6177459547870673
sg10
F0.34796981237894087
ssI252
(dp262
g9
F0.9251120935513274
sg10
F0.6439354433951423
ssI253
(dp263
g9
F0.0012303771447834677
sg10
F0.7193088401478763
ssI254
(dp264
g9
F0.7312553246134181
sg10
F0.5974102144463249
ssI255
(dp265
g9
F0.926003481671628
sg10
F0.6262146726702129
ssI256
(dp266
g9
F0.7173220412001498
sg10
F0.41611534564380614
ssI257
(dp267
g9
F0.5438802048485151
sg10
F0.5561167522261109
ssI258
(dp268
g9
F0.6799673065476749
sg10
F0.7774328263499368
ssI259
(dp269
g9
F0.9602332604018109
sg10
F0.8789431590517504
ssI260
(dp270
g9
F0.19091764996143312
sg10
F0.16234273931575915
ssI261
(dp271
g9
F0.7496811263391405
sg10
F0.6690348240987474
ssI262
(dp272
g9
F0.841879172221417
sg10
F0.8105957962637912
ssI263
(dp273
g9
F0.13853913797888961
sg10
F0.5362628441662415
ssI264
(dp274
g9
F0.7556759946291259
sg10
F0.2756302586717374
ssI265
(dp275
g9
F0.09947285302778053
sg10
F0.3684042171366805
ssI266
(dp276
g9
F0.4210842053726419
sg10
F0.038987942366008554
ssI267
(dp277
g9
F0.6086202250019611
sg10
F0.5252077595018473
ssI268
(dp278
g9
F0.26298499707629774
sg10
F0.3785535848390883
ssI269
(dp279
g9
F0.7290235246065973
sg10
F0.14498613814643257
ssI270
(dp280
g9
F0.7891632382638345
sg10
F0.32302885304880147
ssI271
(dp281
g9
F0.6954454731529869
sg10
F0.8999888115308073
ssI272
(dp282
g9
F0.9117437058442424
sg10
F0.811763783542292
ssI273
(dp283
g9
F0.5161419200893105
sg10
F0.05227008408567824
ssI274
(dp284
g9
F0.094315834885076
sg10
F0.9323485837482828
ssI275
(dp285
g9
F0.07838729214896134
sg10
F0.8814790185202492
ssI276
(dp286
g9
F0.23402751195013538
sg10
F0.5668522086009647
ssI277
(dp287
g9
F0.35114933507907
sg10
F0.5110006330444344
ssI278
(dp288
g9
F0.7302568781402642
sg10
F0.5245437152245246
ssI279
(dp289
g9
F0.11099391737164399
sg10
F0.4096839964791099
ssI280
(dp290
g9
F0.1751935586324841
sg10
F0.7302100070741755
ssI281
(dp291
g9
F0.39968094625582107
sg10
F0.06011646337792309
ssI282
(dp292
g9
F0.10491893695637688
sg10
F0.5097869173804913
ssI283
(dp293
g9
F0.06029657644854136
sg10
F0.27026436451976565
ssI284
(dp294
g9
F0.4631381147846363
sg10
F0.20017395361818557
ssI285
(dp295
g9
F0.6772182365159807
sg10
F0.20185358201546433
ssI286
(dp296
g9
F0.6273428990602771
sg10
F0.9637355313586902
ssI287
(dp297
g9
F0.8394791754586852
sg10
F0.1499975462820875
ssI288
(dp298
g9
F0.674823926726181
sg10
F0.021502069738494778
ssI289
(dp299
g9
F0.16436787614868142
sg10
F0.20845501070380368
ssI290
(dp300
g9
F0.9782384026858173
sg10
F0.3064346903908639
ssI291
(dp301
g9
F0.5227596639315184
sg10
F0.509371225882288
ssI292
(dp302
g9
F0.1010823143540509
sg10
F0.37326339570394296
ssI293
(dp303
g9
F0.024492580650790408
sg10
F0.9137033616676343
ssI294
(dp304
g9
F0.8488991125391357
sg10
F0.343430119755456
ssI295
(dp305
g9
F0.5411565662973112
sg10
F0.6953243002615472
ssI296
(dp306
g9
F0.9621152032929025
sg10
F0.7462766574411244
ssI297
(dp307
g9
F0.47405073461321157
sg10
F0.5388992552952748
ssI298
(dp308
g9
F0.8102934536379295
sg10
F0.6173548671805513
ssI299
(dp309
g9
F0.4001085824706896
sg10
F0.16873563909867484
sssS'node_dict_factory'
p310
c__builtin__
dict
p311
sS'edge_attr_dict_factory'
p312
g311
sS'edge'
p313
(dp314
I0
(dp315
sI1
(dp316
sI2
(dp317
sI3
(dp318
sI4
(dp319
sI5
(dp320
sI6
(dp321
sI7
(dp322
sI8
(dp323
sI9
(dp324
sI10
(dp325
sI11
(dp326
sI12
(dp327
sI13
(dp328
sI14
(dp329
sI15
(dp330
sI16
(dp331
sI17
(dp332
sI18
(dp333
sI19
(dp334
sI20
(dp335
sI21
(dp336
sI22
(dp337
sI23
(dp338
sI24
(dp339
sI25
(dp340
sI26
(dp341
sI27
(dp342
sI28
(dp343
sI29
(dp344
sI30
(dp345
sI31
(dp346
sI32
(dp347
sI33
(dp348
sI34
(dp349
sI35
(dp350
sI36
(dp351
sI37
(dp352
sI38
(dp353
sI39
(dp354
sI40
(dp355
sI41
(dp356
sI42
(dp357
sI43
(dp358
sI44
(dp359
sI45
(dp360
sI46
(dp361
sI47
(dp362
sI48
(dp363
sI49
(dp364
sI50
(dp365
sI51
(dp366
sI52
(dp367
sI53
(dp368
sI54
(dp369
sI55
(dp370
sI56
(dp371
sI57
(dp372
sI58
(dp373
sI59
(dp374
sI60
(dp375
sI61
(dp376
sI62
(dp377
sI63
(dp378
sI64
(dp379
sI65
(dp380
sI66
(dp381
sI67
(dp382
sI68
(dp383
sI69
(dp384
sI70
(dp385
sI71
(dp386
sI72
(dp387
sI73
(dp388
sI74
(dp389
sI75
(dp390
sI76
(dp391
sI77
(dp392
sI78
(dp393
sI79
(dp394
sI80
(dp395
sI81
(dp396
sI82
(dp397
sI83
(dp398
sI84
(dp399
sI85
(dp400
sI86
(dp401
sI87
(dp402
sI88
(dp403
sI89
(dp404
sI90
(dp405
sI91
(dp406
sI92
(dp407
sI93
(dp408
sI94
(dp409
sI95
(dp410
sI96
(dp411
sI97
(dp412
sI98
(dp413
sI99
(dp414
sI100
(dp415
sI101
(dp416
sI102
(dp417
sI103
(dp418
sI104
(dp419
sI105
(dp420
sI106
(dp421
sI107
(dp422
sI108
(dp423
sI109
(dp424
sI110
(dp425
sI111
(dp426
sI112
(dp427
sI113
(dp428
sI114
(dp429
sI115
(dp430
sI116
(dp431
sI117
(dp432
sI118
(dp433
sI119
(dp434
sI120
(dp435
sI121
(dp436
sI122
(dp437
sI123
(dp438
sI124
(dp439
sI125
(dp440
sI126
(dp441
sI127
(dp442
sI128
(dp443
sI129
(dp444
sI130
(dp445
sI131
(dp446
sI132
(dp447
sI133
(dp448
sI134
(dp449
sI135
(dp450
sI136
(dp451
sI137
(dp452
sI138
(dp453
sI139
(dp454
sI140
(dp455
sI141
(dp456
sI142
(dp457
sI143
(dp458
sI144
(dp459
sI145
(dp460
sI146
(dp461
sI147
(dp462
sI148
(dp463
sI149
(dp464
sI150
(dp465
sI151
(dp466
sI152
(dp467
sI153
(dp468
sI154
(dp469
sI155
(dp470
sI156
(dp471
sI157
(dp472
sI158
(dp473
sI159
(dp474
sI160
(dp475
sI161
(dp476
sI162
(dp477
sI163
(dp478
sI164
(dp479
sI165
(dp480
sI166
(dp481
sI167
(dp482
sI168
(dp483
sI169
(dp484
sI170
(dp485
sI171
(dp486
sI172
(dp487
sI173
(dp488
sI174
(dp489
sI175
(dp490
sI176
(dp491
sI177
(dp492
sI178
(dp493
sI179
(dp494
sI180
(dp495
sI181
(dp496
sI182
(dp497
sI183
(dp498
sI184
(dp499
sI185
(dp500
sI186
(dp501
sI187
(dp502
sI188
(dp503
sI189
(dp504
sI190
(dp505
sI191
(dp506
sI192
(dp507
sI193
(dp508
sI194
(dp509
sI195
(dp510
sI196
(dp511
sI197
(dp512
sI198
(dp513
sI199
(dp514
sI200
(dp515
sI201
(dp516
sI202
(dp517
sI203
(dp518
sI204
(dp519
sI205
(dp520
sI206
(dp521
sI207
(dp522
sI208
(dp523
sI209
(dp524
sI210
(dp525
sI211
(dp526
sI212
(dp527
sI213
(dp528
sI214
(dp529
sI215
(dp530
sI216
(dp531
sI217
(dp532
sI218
(dp533
sI219
(dp534
sI220
(dp535
sI221
(dp536
sI222
(dp537
sI223
(dp538
sI224
(dp539
sI225
(dp540
sI226
(dp541
sI227
(dp542
sI228
(dp543
sI229
(dp544
sI230
(dp545
sI231
(dp546
sI232
(dp547
sI233
(dp548
sI234
(dp549
sI235
(dp550
sI236
(dp551
sI237
(dp552
sI238
(dp553
sI239
(dp554
sI240
(dp555
sI241
(dp556
sI242
(dp557
sI243
(dp558
sI244
(dp559
sI245
(dp560
sI246
(dp561
sI247
(dp562
sI248
(dp563
sI249
(dp564
sI250
(dp565
sI251
(dp566
sI252
(dp567
sI253
(dp568
sI254
(dp569
sI255
(dp570
sI256
(dp571
sI257
(dp572
sI258
(dp573
sI259
(dp574
sI260
(dp575
sI261
(dp576
sI262
(dp577
sI263
(dp578
sI264
(dp579
sI265
(dp580
sI266
(dp581
sI267
(dp582
sI268
(dp583
sI269
(dp584
sI270
(dp585
sI271
(dp586
sI272
(dp587
sI273
(dp588
sI274
(dp589
sI275
(dp590
sI276
(dp591
sI277
(dp592
sI278
(dp593
sI279
(dp594
sI280
(dp595
sI281
(dp596
sI282
(dp597
sI283
(dp598
sI284
(dp599
sI285
(dp600
sI286
(dp601
sI287
(dp602
sI288
(dp603
sI289
(dp604
sI290
(dp605
sI291
(dp606
sI292
(dp607
sI293
(dp608
sI294
(dp609
sI295
(dp610
sI296
(dp611
sI297
(dp612
sI298
(dp613
sI299
(dp614
ssS'graph'
p615
(dp616
sS'adjlist_dict_factory'
p617
g311
sS'adj'
p618
g314
sb.