ccopy_reg
_reconstructor
p0
(cnetworkx.classes.graph
Graph
p1
c__builtin__
object
p2
Ntp3
Rp4
(dp5
S'node'
p6
(dp7
I0
(dp8
S'pos_x'
p9
F0.9854945547158096
sS'pos_y'
p10
F0.25245066697805707
ssI1
(dp11
g9
F0.04757876968891961
sg10
F0.6918774418120014
ssI2
(dp12
g9
F0.3715269327256091
sg10
F0.475019754276667
ssI3
(dp13
g9
F0.5523376141073729
sg10
F0.15613385541066382
ssI4
(dp14
g9
F0.060642880787065034
sg10
F0.11246414707649699
ssI5
(dp15
g9
F0.6858260771246896
sg10
F0.8593861082745671
ssI6
(dp16
g9
F0.30564613930581275
sg10
F0.5354484412938648
ssI7
(dp17
g9
F0.4812719976625338
sg10
F0.8306057945975303
ssI8
(dp18
g9
F0.28877057932691164
sg10
F0.0571395182861868
ssI9
(dp19
g9
F0.8076089505788298
sg10
F0.20489192169861614
ssI10
(dp20
g9
F0.447250101014801
sg10
F0.17641006723091546
ssI11
(dp21
g9
F0.6165056125260553
sg10
F0.9464905076131441
ssI12
(dp22
g9
F0.40188140504294767
sg10
F0.17641944196461934
ssI13
(dp23
g9
F0.6113525639819718
sg10
F0.04678804308537132
ssI14
(dp24
g9
F0.6241706218301883
sg10
F0.7806074345891988
ssI15
(dp25
g9
F0.5049494745614309
sg10
F0.30954046438801086
ssI16
(dp26
g9
F0.6467755030915775
sg10
F0.757588486903623
ssI17
(dp27
g9
F0.27553756620320236
sg10
F0.3683460742855281
ssI18
(dp28
g9
F0.5320996716458338
sg10
F0.04715780884546894
ssI19
(dp29
g9
F0.1865135430085325
sg10
F0.2774012054117936
ssI20
(dp30
g9
F0.3659500555598948
sg10
F0.4980704439654534
ssI21
(dp31
g9
F0.797194695595473
sg10
F0.8311418376875821
ssI22
(dp32
g9
F0.5780234436539005
sg10
F0.0654177328404425
ssI23
(dp33
g9
F0.36230380218619307
sg10
F0.23651722386865315
ssI24
(dp34
g9
F0.742012225056099
sg10
F0.41868657702716583
ssI25
(dp35
g9
F0.4760470427659451
sg10
F0.34959825846861436
ssI26
(dp36
g9
F0.926780099118816
sg10
F0.5523390156976357
ssI27
(dp37
g9
F0.5611971312040869
sg10
F0.17999357005717032
ssI28
(dp38
g9
F0.21451624612691333
sg10
F0.22118784806749137
ssI29
(dp39
g9
F0.3042715061434196
sg10
F0.6239695760457624
ssI30
(dp40
g9
F0.9802724027164187
sg10
F0.8336564887976614
ssI31
(dp41
g9
F0.7436527537369894
sg10
F0.6624338843990984
ssI32
(dp42
g9
F0.6603292660488679
sg10
F0.6853398911789085
ssI33
(dp43
g9
F0.41761505843957003
sg10
F0.3746956704187364
ssI34
(dp44
g9
F0.19332663237018244
sg10
F0.45002860706417047
ssI35
(dp45
g9
F0.324228237320601
sg10
F0.6695009220893213
ssI36
(dp46
g9
F0.01748361018775002
sg10
F0.9189883330329863
ssI37
(dp47
g9
F0.6889878672850409
sg10
F0.854981320754655
ssI38
(dp48
g9
F0.9428698257134438
sg10
F0.4349428505969992
ssI39
(dp49
g9
F0.3029392234941344
sg10
F0.09093004774313829
ssI40
(dp50
g9
F0.5056977924209568
sg10
F0.13933956987870466
ssI41
(dp51
g9
F0.41995694805576567
sg10
F0.8891004200994524
ssI42
(dp52
g9
F0.46455888366898157
sg10
F0.0867332656507005
ssI43
(dp53
g9
F0.11494493591916921
sg10
F0.0925754100476397
ssI44
(dp54
g9
F0.21289890466718375
sg10
F0.9666954034076773
ssI45
(dp55
g9
F0.7835840703373521
sg10
F0.5070368705024527
ssI46
(dp56
g9
F0.3506797615153955
sg10
F0.4230288367612315
ssI47
(dp57
g9
F0.10665422461826335
sg10
F0.18295550584183307
ssI48
(dp58
g9
F0.500443789906205
sg10
F0.4880472435759663
ssI49
(dp59
g9
F0.16146413997779296
sg10
F0.8157306926333184
ssI50
(dp60
g9
F0.9298398571470383
sg10
F0.35438260047713654
ssI51
(dp61
g9
F0.6582435059081995
sg10
F0.6095901719485028
ssI52
(dp62
g9
F0.3321186484549079
sg10
F0.9941087358668727
ssI53
(dp63
g9
F0.6570662776820914
sg10
F0.8575351173467103
ssI54
(dp64
g9
F0.5199973461514058
sg10
F0.36820888613974
ssI55
(dp65
g9
F0.44166570745294476
sg10
F0.868451449844897
ssI56
(dp66
g9
F0.1992407095873292
sg10
F0.05585697964022851
ssI57
(dp67
g9
F0.702158090849877
sg10
F0.6783342779152318
ssI58
(dp68
g9
F0.4270009074244294
sg10
F0.19008897634305644
ssI59
(dp69
g9
F0.269949082661902
sg10
F0.03298646773866698
ssI60
(dp70
g9
F0.7972657326784582
sg10
F0.6377836285042966
ssI61
(dp71
g9
F0.15651781341491044
sg10
F0.2116253451971809
ssI62
(dp72
g9
F0.035921978378120945
sg10
F0.6712297514986992
ssI63
(dp73
g9
F0.6473343083111164
sg10
F0.9991540035041782
ssI64
(dp74
g9
F0.1728413016576088
sg10
F0.6334642093970336
ssI65
(dp75
g9
F0.8556845207828445
sg10
F0.09625851832313592
ssI66
(dp76
g9
F0.03650786207729251
sg10
F0.4066903132423004
ssI67
(dp77
g9
F0.20350980998233925
sg10
F0.693797708870814
ssI68
(dp78
g9
F0.0062254801034835605
sg10
F0.6094666488548077
ssI69
(dp79
g9
F0.35922602369154333
sg10
F0.17925351474846785
ssI70
(dp80
g9
F0.3194292358999895
sg10
F0.1883815304439893
ssI71
(dp81
g9
F0.8014038935230277
sg10
F0.6958940453026
ssI72
(dp82
g9
F0.09275727408391987
sg10
F0.08266216041791152
ssI73
(dp83
g9
F0.8124646345832889
sg10
F0.4938530580250565
ssI74
(dp84
g9
F0.07863465163000904
sg10
F0.6929811835658142
ssI75
(dp85
g9
F0.4905393969549485
sg10
F0.04782673979678931
ssI76
(dp86
g9
F0.658307663746101
sg10
F0.4396980083148896
ssI77
(dp87
g9
F0.573732163808385
sg10
F0.2673945853586087
ssI78
(dp88
g9
F0.5202688387997549
sg10
F0.14816621356567872
ssI79
(dp89
g9
F0.9914997226425529
sg10
F0.2630821898018042
ssI80
(dp90
g9
F0.49204369909448875
sg10
F0.14197034377153606
ssI81
(dp91
g9
F0.1499667727163656
sg10
F0.39807172713496286
ssI82
(dp92
g9
F0.21066909775802067
sg10
F0.03858030116301503
ssI83
(dp93
g9
F0.428370428695085
sg10
F0.5508212860214319
ssI84
(dp94
g9
F0.8902916499518696
sg10
F0.6865332850292141
ssI85
(dp95
g9
F0.602631585477323
sg10
F0.4761389193494544
ssI86
(dp96
g9
F0.4392568297897472
sg10
F0.7466922376354803
ssI87
(dp97
g9
F0.21737490598544806
sg10
F0.2880490129777591
ssI88
(dp98
g9
F0.6453132491633828
sg10
F0.7934660421413976
ssI89
(dp99
g9
F0.030910548404150195
sg10
F0.864509162013777
ssI90
(dp100
g9
F0.6200194078168291
sg10
F0.9696246534150087
ssI91
(dp101
g9
F0.6243631647973144
sg10
F0.6581226358451195
ssI92
(dp102
g9
F0.21597081909375426
sg10
F0.09683711489691238
ssI93
(dp103
g9
F0.39466980700107757
sg10
F0.5212574327938481
ssI94
(dp104
g9
F0.48596707985053933
sg10
F0.7068633726561107
ssI95
(dp105
g9
F0.43544299428090216
sg10
F0.9922407602721641
ssI96
(dp106
g9
F0.15594285765496296
sg10
F0.7749283606151568
ssI97
(dp107
g9
F0.8386714474361205
sg10
F0.5439491590561636
ssI98
(dp108
g9
F0.870255202900234
sg10
F0.36620423419373627
ssI99
(dp109
g9
F0.866857996251964
sg10
F0.579966398141509
ssI100
(dp110
g9
F0.10763807180899654
sg10
F0.29943944805408895
ssI101
(dp111
g9
F0.42018659841030614
sg10
F0.7140697527899545
ssI102
(dp112
g9
F0.43104476290354876
sg10
F0.6435045219053666
ssI103
(dp113
g9
F0.2456259192446576
sg10
F0.09491509998287184
ssI104
(dp114
g9
F0.2748753656959103
sg10
F0.25039807151546356
ssI105
(dp115
g9
F0.12208056367853726
sg10
F0.2993866022104986
ssI106
(dp116
g9
F0.6800910305673622
sg10
F0.8130284495358611
ssI107
(dp117
g9
F0.602954668291783
sg10
F0.26454515691360647
ssI108
(dp118
g9
F0.5452025066858193
sg10
F0.037191919939294826
ssI109
(dp119
g9
F0.28098305724088735
sg10
F0.8271881281135148
ssI110
(dp120
g9
F0.38847013400834207
sg10
F0.0042054017303814195
ssI111
(dp121
g9
F0.6714805180058353
sg10
F0.19742468009288527
ssI112
(dp122
g9
F0.8366470547620447
sg10
F0.7483233689516753
ssI113
(dp123
g9
F0.7696652098590594
sg10
F0.6195139292077713
ssI114
(dp124
g9
F0.5122079925453166
sg10
F0.8931490530390908
ssI115
(dp125
g9
F0.08999743529704585
sg10
F0.6154246246600817
ssI116
(dp126
g9
F0.3906105007210505
sg10
F0.418006321728594
ssI117
(dp127
g9
F0.8829869344053765
sg10
F0.4238664635290018
ssI118
(dp128
g9
F0.3721324986474336
sg10
F0.746233156130273
ssI119
(dp129
g9
F0.5539871142255108
sg10
F0.03823396263111012
ssI120
(dp130
g9
F0.6089871819121179
sg10
F0.10011734008243944
ssI121
(dp131
g9
F0.484899578551527
sg10
F0.5345231466706164
ssI122
(dp132
g9
F0.5291169317007877
sg10
F0.42037125585289725
ssI123
(dp133
g9
F0.5452303684460225
sg10
F0.6622400770257079
ssI124
(dp134
g9
F0.9337941704123676
sg10
F0.1817695021831387
ssI125
(dp135
g9
F0.6838178202493765
sg10
F0.7425066059314956
ssI126
(dp136
g9
F0.9786769932782832
sg10
F0.883170029517413
ssI127
(dp137
g9
F0.613276620150744
sg10
F0.08815943683227256
ssI128
(dp138
g9
F0.8222400932991961
sg10
F0.28330068128071884
ssI129
(dp139
g9
F0.27536172349627863
sg10
F0.4352696717906811
ssI130
(dp140
g9
F0.4085954544933028
sg10
F0.9524538668812421
ssI131
(dp141
g9
F0.38823606907954356
sg10
F0.6696942248854919
ssI132
(dp142
g9
F0.8589179436738726
sg10
F0.16568113436091048
ssI133
(dp143
g9
F0.6336681010607312
sg10
F0.8398790993218521
ssI134
(dp144
g9
F0.8890030144746512
sg10
F0.3630795865411791
ssI135
(dp145
g9
F0.7084329564145275
sg10
F0.07419036778564614
ssI136
(dp146
g9
F0.5816820489320114
sg10
F0.8704427968873368
ssI137
(dp147
g9
F0.6731192707873992
sg10
F0.34087898147282003
ssI138
(dp148
g9
F0.13726561343157262
sg10
F0.2312290878432941
ssI139
(dp149
g9
F0.7058879940796531
sg10
F0.3751592010820114
ssI140
(dp150
g9
F0.7847764331056781
sg10
F0.5323303639583148
ssI141
(dp151
g9
F0.4118436642920078
sg10
F0.19495539291563713
ssI142
(dp152
g9
F0.6021221421627516
sg10
F0.9864135613330299
ssI143
(dp153
g9
F0.8941048951302146
sg10
F0.996412972953087
ssI144
(dp154
g9
F0.9878670700416295
sg10
F0.8876461736852496
ssI145
(dp155
g9
F0.9232638493740178
sg10
F0.8952881550090372
ssI146
(dp156
g9
F0.5244472382728111
sg10
F0.0675919220974005
ssI147
(dp157
g9
F0.9472042800464183
sg10
F0.25926917705127805
ssI148
(dp158
g9
F0.3578417708341345
sg10
F0.43695879446118735
ssI149
(dp159
g9
F0.0639038686019805
sg10
F0.32014331002483865
ssI150
(dp160
g9
F0.571062058519879
sg10
F0.4550831804860649
ssI151
(dp161
g9
F0.5124696809499721
sg10
F0.5137904167667585
ssI152
(dp162
g9
F0.059716913853957054
sg10
F0.03205502990751541
ssI153
(dp163
g9
F0.15575797169216643
sg10
F0.4266916143190781
ssI154
(dp164
g9
F0.7281889370437843
sg10
F0.09983058886029239
ssI155
(dp165
g9
F0.8693364802002699
sg10
F0.7864591037229283
ssI156
(dp166
g9
F0.1807202983289392
sg10
F0.02701956081035517
ssI157
(dp167
g9
F0.45934478085914165
sg10
F0.6256479067390366
ssI158
(dp168
g9
F0.40575627064045894
sg10
F0.6775163872695205
ssI159
(dp169
g9
F0.8951243297771536
sg10
F0.9347284828809411
ssI160
(dp170
g9
F0.06797049816400635
sg10
F0.53680199602612
ssI161
(dp171
g9
F0.12026431593810771
sg10
F0.9454349505541776
ssI162
(dp172
g9
F0.31694626446235274
sg10
F0.9155790708634856
ssI163
(dp173
g9
F0.7668897234543172
sg10
F0.6010603400595144
ssI164
(dp174
g9
F0.5499863865229816
sg10
F0.6595742836236955
ssI165
(dp175
g9
F0.6744698233332015
sg10
F0.3833130740967253
ssI166
(dp176
g9
F0.5280137463104184
sg10
F0.9563666921935338
ssI167
(dp177
g9
F0.8774333201795952
sg10
F0.6101759472399868
ssI168
(dp178
g9
F0.1385179794302348
sg10
F0.422457397241367
ssI169
(dp179
g9
F0.8483823219756425
sg10
F0.6827765980114877
ssI170
(dp180
g9
F0.3881149586845525
sg10
F0.1283536686843495
ssI171
(dp181
g9
F0.22290473138903844
sg10
F0.011504246433349019
ssI172
(dp182
g9
F0.5860614568691089
sg10
F0.3040333563324972
ssI173
(dp183
g9
F0.03740396571419591
sg10
F0.7574664132234777
ssI174
(dp184
g9
F0.9007737144882354
sg10
F0.9994764394805767
ssI175
(dp185
g9
F0.07279194116496568
sg10
F0.5623315836481317
ssI176
(dp186
g9
F0.05451474077703322
sg10
F0.7783338222281884
ssI177
(dp187
g9
F0.25026173503931803
sg10
F0.960789130015898
ssI178
(dp188
g9
F0.7369343721515655
sg10
F0.8516888790272813
ssI179
(dp189
g9
F0.2540683012107141
sg10
F0.3522685173088901
ssI180
(dp190
g9
F0.24591192318595634
sg10
F0.1542861646660032
ssI181
(dp191
g9
F0.8485787482706451
sg10
F0.2263592522823562
ssI182
(dp192
g9
F0.5569089117665862
sg10
F0.9019179169191593
ssI183
(dp193
g9
F0.21943364581787672
sg10
F0.6472967413084428
ssI184
(dp194
g9
F0.3497071122239125
sg10
F0.5641133293471021
ssI185
(dp195
g9
F0.6845926147567325
sg10
F0.04347004538510779
ssI186
(dp196
g9
F0.5966464416359526
sg10
F0.009279152273080182
ssI187
(dp197
g9
F0.08374377896251994
sg10
F0.5185991770347357
ssI188
(dp198
g9
F0.7841229543678496
sg10
F0.7447559648430251
ssI189
(dp199
g9
F0.6424895047440006
sg10
F0.3802782697393967
ssI190
(dp200
g9
F0.20050993696865982
sg10
F0.20694981853826766
ssI191
(dp201
g9
F0.5942375949899447
sg10
F0.5929036840047577
ssI192
(dp202
g9
F0.9802176390489856
sg10
F0.3519795155866857
ssI193
(dp203
g9
F0.17601360708107328
sg10
F0.2979507486523194
ssI194
(dp204
g9
F0.8235164259460048
sg10
F0.7712759922229596
ssI195
(dp205
g9
F0.6199287402743622
sg10
F0.12409233940183761
ssI196
(dp206
g9
F0.3167839124979941
sg10
F0.15521804451019416
ssI197
(dp207
g9
F0.38122607150869725
sg10
F0.8070573846490253
ssI198
(dp208
g9
F0.8124623012328372
sg10
F0.32154203821341965
ssI199
(dp209
g9
F0.42778432192778415
sg10
F0.7314079342777257
ssI200
(dp210
g9
F0.050251716555940074
sg10
F0.3635636302225138
ssI201
(dp211
g9
F0.7031676592990809
sg10
F0.47513564728934854
ssI202
(dp212
g9
F0.23515097692629638
sg10
F0.04331497790078742
ssI203
(dp213
g9
F0.696061363940778
sg10
F0.9585987296032075
ssI204
(dp214
g9
F0.46405331399964
sg10
F0.31193716827536955
ssI205
(dp215
g9
F0.9508535756429488
sg10
F0.7465329805060653
ssI206
(dp216
g9
F0.9822298741415592
sg10
F0.051009005438208854
ssI207
(dp217
g9
F0.4868733778042432
sg10
F0.21292773808947563
ssI208
(dp218
g9
F0.518234995640759
sg10
F0.04169627593146319
ssI209
(dp219
g9
F0.3362738689752198
sg10
F0.9706504418211935
ssI210
(dp220
g9
F0.6181635705532479
sg10
F0.29762801837420716
ssI211
(dp221
g9
F0.47356778933431176
sg10
F0.648746934083458
ssI212
(dp222
g9
F0.8015839286466994
sg10
F0.34801251426715996
ssI213
(dp223
g9
F0.22954275044572547
sg10
F0.4444059175470745
ssI214
(dp224
g9
F0.30319416936844745
sg10
F0.21789369028620442
ssI215
(dp225
g9
F0.7433170821737977
sg10
F0.1894127463701667
ssI216
(dp226
g9
F0.6739750850541909
sg10
F0.35491512229076927
ssI217
(dp227
g9
F0.903660648620539
sg10
F0.4714114481075389
ssI218
(dp228
g9
F0.02439942042135257
sg10
F0.23090139858499026
ssI219
(dp229
g9
F0.4546196225911364
sg10
F0.17676588423357165
ssI220
(dp230
g9
F0.5754709344458789
sg10
F0.4903634432018704
ssI221
(dp231
g9
F0.605571314465277
sg10
F0.03931690919015007
ssI222
(dp232
g9
F0.01667268849588477
sg10
F0.4900756251643299
ssI223
(dp233
g9
F0.04097224294502888
sg10
F0.9498341795765964
ssI224
(dp234
g9
F0.516573369848435
sg10
F0.6301170464508883
ssI225
(dp235
g9
F0.782884510961992
sg10
F0.16612691038699512
ssI226
(dp236
g9
F0.4871182864319554
sg10
F0.33349976090955524
ssI227
(dp237
g9
F0.8067197627985898
sg10
F0.9372521009703774
ssI228
(dp238
g9
F0.16898310322065302
sg10
F0.8168295841058361
ssI229
(dp239
g9
F0.47238080616891454
sg10
F0.09784149875424486
ssI230
(dp240
g9
F0.34328371365180477
sg10
F0.2996098420013341
ssI231
(dp241
g9
F0.2511292769387117
sg10
F0.047063055323034786
ssI232
(dp242
g9
F0.10304571325765444
sg10
F0.5834233405309267
ssI233
(dp243
g9
F0.5439837210255304
sg10
F0.8724992283458335
ssI234
(dp244
g9
F0.1937747000327832
sg10
F0.22157726393664334
ssI235
(dp245
g9
F0.7289700933897548
sg10
F0.291216450294673
ssI236
(dp246
g9
F0.878151555256781
sg10
F0.9810776885964756
ssI237
(dp247
g9
F0.5524920148968191
sg10
F0.3035503364642457
ssI238
(dp248
g9
F0.7924879454517956
sg10
F0.09388835736575984
ssI239
(dp249
g9
F0.9538480971821546
sg10
F0.498079144692674
ssI240
(dp250
g9
F0.4774720652373512
sg10
F0.849661805239561
ssI241
(dp251
g9
F0.9272707463692147
sg10
F0.3314457714824508
ssI242
(dp252
g9
F0.6558672043603234
sg10
F0.44838153087860333
ssI243
(dp253
g9
F0.714188451158082
sg10
F0.3965820917294002
ssI244
(dp254
g9
F0.5489713022711902
sg10
F0.848520611795017
ssI245
(dp255
g9
F0.723299168893945
sg10
F0.9969680523872676
ssI246
(dp256
g9
F0.3396720512466401
sg10
F0.8618713581451236
ssI247
(dp257
g9
F0.4169095755299319
sg10
F0.08474830244019538
ssI248
(dp258
g9
F0.2898452243367694
sg10
F0.638912008642057
ssI249
(dp259
g9
F0.7273725173602794
sg10
F0.14858928242169656
ssI250
(dp260
g9
F0.25222467514936275
sg10
F0.8860509796076429
ssI251
(dp261
g9
F0.33546683139683997
sg10
F0.9681850683783381
ssI252
(dp262
g9
F0.7999566080219231
sg10
F0.3913921562335628
ssI253
(dp263
g9
F0.4812228109398924
sg10
F0.8249724661280321
ssI254
(dp264
g9
F0.9785544704013478
sg10
F0.980154102257713
ssI255
(dp265
g9
F0.8742302403884309
sg10
F0.4274274215988316
ssI256
(dp266
g9
F0.8888840884882524
sg10
F0.477037885369369
ssI257
(dp267
g9
F0.3639660474234808
sg10
F0.17677040130312338
ssI258
(dp268
g9
F0.49542696795962393
sg10
F0.49072573549251375
ssI259
(dp269
g9
F0.37344681943511315
sg10
F0.9881326197132466
ssI260
(dp270
g9
F0.9420352169404004
sg10
F0.08186566553324182
ssI261
(dp271
g9
F0.7328553106297314
sg10
F0.06909631358663226
ssI262
(dp272
g9
F0.2277253655921614
sg10
F0.9471282762641767
ssI263
(dp273
g9
F0.5120207043781696
sg10
F0.804503588387016
ssI264
(dp274
g9
F0.7124977240500622
sg10
F0.870782352162279
ssI265
(dp275
g9
F0.4753608378061158
sg10
F0.9701466070176672
ssI266
(dp276
g9
F0.7172897185275487
sg10
F0.6494290162386795
ssI267
(dp277
g9
F0.5015215802387107
sg10
F0.6894777110688403
ssI268
(dp278
g9
F0.502472839007742
sg10
F0.5010303070235709
ssI269
(dp279
g9
F0.7675512912074418
sg10
F0.6436981999490164
ssI270
(dp280
g9
F0.5801209890756368
sg10
F0.9867763759019086
ssI271
(dp281
g9
F0.35406953297196686
sg10
F0.4583267557651025
ssI272
(dp282
g9
F0.3685109320535138
sg10
F0.38689146346847136
ssI273
(dp283
g9
F0.49756509380470393
sg10
F0.9928393155364217
ssI274
(dp284
g9
F0.533355159502582
sg10
F0.7495925475048818
ssI275
(dp285
g9
F0.8787192777250433
sg10
F0.038573279329863874
ssI276
(dp286
g9
F0.8033728058683445
sg10
F0.3782700353239834
ssI277
(dp287
g9
F0.0011996855570202136
sg10
F0.7977486433900713
ssI278
(dp288
g9
F0.6436722626165938
sg10
F0.6075732272814759
ssI279
(dp289
g9
F0.3589493237057987
sg10
F0.07221905548180096
ssI280
(dp290
g9
F0.20792466918714003
sg10
F0.8630653283830348
ssI281
(dp291
g9
F0.3637678386003096
sg10
F0.367209855451041
ssI282
(dp292
g9
F0.21238699602667999
sg10
F0.17673431307681087
ssI283
(dp293
g9
F0.9752051704949457
sg10
F0.8313916228573365
ssI284
(dp294
g9
F0.0994337966292066
sg10
F0.1161891759581446
ssI285
(dp295
g9
F0.2166673184540735
sg10
F0.3095886986504607
ssI286
(dp296
g9
F0.9111887670300981
sg10
F0.27826447219954864
ssI287
(dp297
g9
F0.7184397862007018
sg10
F0.3903560289309458
ssI288
(dp298
g9
F0.2917465371677115
sg10
F0.8553350214613281
ssI289
(dp299
g9
F0.954377273145479
sg10
F0.9157532440721257
ssI290
(dp300
g9
F0.8587351665103148
sg10
F0.5898763006912815
ssI291
(dp301
g9
F0.9971186295250819
sg10
F0.8096451396379947
ssI292
(dp302
g9
F0.8214715681142594
sg10
F0.5812223973296621
ssI293
(dp303
g9
F0.7710668622549318
sg10
F0.044833934234106754
ssI294
(dp304
g9
F0.2987870897385051
sg10
F0.8411931445342834
ssI295
(dp305
g9
F0.03734665668800574
sg10
F0.3714192247123923
ssI296
(dp306
g9
F0.46430242149280976
sg10
F0.9729144076821693
ssI297
(dp307
g9
F0.568927521327533
sg10
F0.10541578813407226
ssI298
(dp308
g9
F0.07435474869935521
sg10
F0.5544997437440798
ssI299
(dp309
g9
F0.9262428474669852
sg10
F0.48659673135406045
sssS'node_dict_factory'
p310
c__builtin__
dict
p311
sS'edge_attr_dict_factory'
p312
g311
sS'edge'
p313
(dp314
I0
(dp315
sI1
(dp316
sI2
(dp317
sI3
(dp318
sI4
(dp319
sI5
(dp320
sI6
(dp321
sI7
(dp322
sI8
(dp323
sI9
(dp324
sI10
(dp325
sI11
(dp326
sI12
(dp327
sI13
(dp328
sI14
(dp329
sI15
(dp330
sI16
(dp331
sI17
(dp332
sI18
(dp333
sI19
(dp334
sI20
(dp335
sI21
(dp336
sI22
(dp337
sI23
(dp338
sI24
(dp339
sI25
(dp340
sI26
(dp341
sI27
(dp342
sI28
(dp343
sI29
(dp344
sI30
(dp345
sI31
(dp346
sI32
(dp347
sI33
(dp348
sI34
(dp349
sI35
(dp350
sI36
(dp351
sI37
(dp352
sI38
(dp353
sI39
(dp354
sI40
(dp355
sI41
(dp356
sI42
(dp357
sI43
(dp358
sI44
(dp359
sI45
(dp360
sI46
(dp361
sI47
(dp362
sI48
(dp363
sI49
(dp364
sI50
(dp365
sI51
(dp366
sI52
(dp367
sI53
(dp368
sI54
(dp369
sI55
(dp370
sI56
(dp371
sI57
(dp372
sI58
(dp373
sI59
(dp374
sI60
(dp375
sI61
(dp376
sI62
(dp377
sI63
(dp378
sI64
(dp379
sI65
(dp380
sI66
(dp381
sI67
(dp382
sI68
(dp383
sI69
(dp384
sI70
(dp385
sI71
(dp386
sI72
(dp387
sI73
(dp388
sI74
(dp389
sI75
(dp390
sI76
(dp391
sI77
(dp392
sI78
(dp393
sI79
(dp394
sI80
(dp395
sI81
(dp396
sI82
(dp397
sI83
(dp398
sI84
(dp399
sI85
(dp400
sI86
(dp401
sI87
(dp402
sI88
(dp403
sI89
(dp404
sI90
(dp405
sI91
(dp406
sI92
(dp407
sI93
(dp408
sI94
(dp409
sI95
(dp410
sI96
(dp411
sI97
(dp412
sI98
(dp413
sI99
(dp414
sI100
(dp415
sI101
(dp416
sI102
(dp417
sI103
(dp418
sI104
(dp419
sI105
(dp420
sI106
(dp421
sI107
(dp422
sI108
(dp423
sI109
(dp424
sI110
(dp425
sI111
(dp426
sI112
(dp427
sI113
(dp428
sI114
(dp429
sI115
(dp430
sI116
(dp431
sI117
(dp432
sI118
(dp433
sI119
(dp434
sI120
(dp435
sI121
(dp436
sI122
(dp437
sI123
(dp438
sI124
(dp439
sI125
(dp440
sI126
(dp441
sI127
(dp442
sI128
(dp443
sI129
(dp444
sI130
(dp445
sI131
(dp446
sI132
(dp447
sI133
(dp448
sI134
(dp449
sI135
(dp450
sI136
(dp451
sI137
(dp452
sI138
(dp453
sI139
(dp454
sI140
(dp455
sI141
(dp456
sI142
(dp457
sI143
(dp458
sI144
(dp459
sI145
(dp460
sI146
(dp461
sI147
(dp462
sI148
(dp463
sI149
(dp464
sI150
(dp465
sI151
(dp466
sI152
(dp467
sI153
(dp468
sI154
(dp469
sI155
(dp470
sI156
(dp471
sI157
(dp472
sI158
(dp473
sI159
(dp474
sI160
(dp475
sI161
(dp476
sI162
(dp477
sI163
(dp478
sI164
(dp479
sI165
(dp480
sI166
(dp481
sI167
(dp482
sI168
(dp483
sI169
(dp484
sI170
(dp485
sI171
(dp486
sI172
(dp487
sI173
(dp488
sI174
(dp489
sI175
(dp490
sI176
(dp491
sI177
(dp492
sI178
(dp493
sI179
(dp494
sI180
(dp495
sI181
(dp496
sI182
(dp497
sI183
(dp498
sI184
(dp499
sI185
(dp500
sI186
(dp501
sI187
(dp502
sI188
(dp503
sI189
(dp504
sI190
(dp505
sI191
(dp506
sI192
(dp507
sI193
(dp508
sI194
(dp509
sI195
(dp510
sI196
(dp511
sI197
(dp512
sI198
(dp513
sI199
(dp514
sI200
(dp515
sI201
(dp516
sI202
(dp517
sI203
(dp518
sI204
(dp519
sI205
(dp520
sI206
(dp521
sI207
(dp522
sI208
(dp523
sI209
(dp524
sI210
(dp525
sI211
(dp526
sI212
(dp527
sI213
(dp528
sI214
(dp529
sI215
(dp530
sI216
(dp531
sI217
(dp532
sI218
(dp533
sI219
(dp534
sI220
(dp535
sI221
(dp536
sI222
(dp537
sI223
(dp538
sI224
(dp539
sI225
(dp540
sI226
(dp541
sI227
(dp542
sI228
(dp543
sI229
(dp544
sI230
(dp545
sI231
(dp546
sI232
(dp547
sI233
(dp548
sI234
(dp549
sI235
(dp550
sI236
(dp551
sI237
(dp552
sI238
(dp553
sI239
(dp554
sI240
(dp555
sI241
(dp556
sI242
(dp557
sI243
(dp558
sI244
(dp559
sI245
(dp560
sI246
(dp561
sI247
(dp562
sI248
(dp563
sI249
(dp564
sI250
(dp565
sI251
(dp566
sI252
(dp567
sI253
(dp568
sI254
(dp569
sI255
(dp570
sI256
(dp571
sI257
(dp572
sI258
(dp573
sI259
(dp574
sI260
(dp575
sI261
(dp576
sI262
(dp577
sI263
(dp578
sI264
(dp579
sI265
(dp580
sI266
(dp581
sI267
(dp582
sI268
(dp583
sI269
(dp584
sI270
(dp585
sI271
(dp586
sI272
(dp587
sI273
(dp588
sI274
(dp589
sI275
(dp590
sI276
(dp591
sI277
(dp592
sI278
(dp593
sI279
(dp594
sI280
(dp595
sI281
(dp596
sI282
(dp597
sI283
(dp598
sI284
(dp599
sI285
(dp600
sI286
(dp601
sI287
(dp602
sI288
(dp603
sI289
(dp604
sI290
(dp605
sI291
(dp606
sI292
(dp607
sI293
(dp608
sI294
(dp609
sI295
(dp610
sI296
(dp611
sI297
(dp612
sI298
(dp613
sI299
(dp614
ssS'graph'
p615
(dp616
sS'adjlist_dict_factory'
p617
g311
sS'adj'
p618
g314
sb.