ccopy_reg
_reconstructor
p0
(cnetworkx.classes.graph
Graph
p1
c__builtin__
object
p2
Ntp3
Rp4
(dp5
S'node'
p6
(dp7
I0
(dp8
S'pos_x'
p9
F0.46583864937106634
sS'pos_y'
p10
F0.9534731315129142
ssI1
(dp11
g9
F0.6737710217680186
sg10
F0.547609797594081
ssI2
(dp12
g9
F0.4094069247163893
sg10
F0.18843847392483903
ssI3
(dp13
g9
F0.9212382050610103
sg10
F0.10573957689808955
ssI4
(dp14
g9
F0.8387307186798046
sg10
F0.6847364295845484
ssI5
(dp15
g9
F0.8748964923723895
sg10
F0.7607498996001076
ssI6
(dp16
g9
F0.38806303997164093
sg10
F0.033177901831653145
ssI7
(dp17
g9
F0.7370216411908419
sg10
F0.4622963363093747
ssI8
(dp18
g9
F0.9343831046400186
sg10
F0.6343878873939287
ssI9
(dp19
g9
F0.422973556132364
sg10
F0.8792444935269002
ssI10
(dp20
g9
F0.9549451716646287
sg10
F0.7640692198841349
ssI11
(dp21
g9
F0.0848015151314786
sg10
F0.7795878463765068
ssI12
(dp22
g9
F0.6014462483236754
sg10
F0.29700755191074457
ssI13
(dp23
g9
F0.956948280851178
sg10
F0.46896353488369524
ssI14
(dp24
g9
F0.10068482530010947
sg10
F0.6428101723053845
ssI15
(dp25
g9
F0.8490833818146964
sg10
F0.14908561592203806
ssI16
(dp26
g9
F0.8521710271210211
sg10
F0.6764999766763945
ssI17
(dp27
g9
F0.09380677085859068
sg10
F0.12098271580424214
ssI18
(dp28
g9
F0.2787523237797571
sg10
F0.667552710408988
ssI19
(dp29
g9
F0.6938406543316007
sg10
F0.2387409154894915
ssI20
(dp30
g9
F0.10640256021253014
sg10
F0.8739869718432204
ssI21
(dp31
g9
F0.04970559331266655
sg10
F0.6489411222719093
ssI22
(dp32
g9
F0.37270074398415287
sg10
F0.17752937059013219
ssI23
(dp33
g9
F0.38876253716407305
sg10
F0.26670003326584835
ssI24
(dp34
g9
F0.946390647847382
sg10
F0.16318950156749168
ssI25
(dp35
g9
F0.019280937975833523
sg10
F0.13839386158073896
ssI26
(dp36
g9
F0.6322962943296694
sg10
F0.667550385299079
ssI27
(dp37
g9
F0.3272055317837673
sg10
F0.030480765966979018
ssI28
(dp38
g9
F0.6540403658678735
sg10
F0.4694825156952661
ssI29
(dp39
g9
F0.3444342867321091
sg10
F0.5233294132692298
ssI30
(dp40
g9
F0.3791157162180282
sg10
F0.42711280658629536
ssI31
(dp41
g9
F0.9244563799162248
sg10
F0.07996500941519247
ssI32
(dp42
g9
F0.4324698075198842
sg10
F0.32642583828476224
ssI33
(dp43
g9
F0.05501263025387959
sg10
F0.8112659106455689
ssI34
(dp44
g9
F0.7231606702464204
sg10
F0.2368435773558415
ssI35
(dp45
g9
F0.8062210867663762
sg10
F0.104968319006283
ssI36
(dp46
g9
F0.4565415363056817
sg10
F0.7685654493056886
ssI37
(dp47
g9
F0.5021391844282057
sg10
F0.15095660337447148
ssI38
(dp48
g9
F0.5313998480379521
sg10
F0.5287458578160628
ssI39
(dp49
g9
F0.11456471483667008
sg10
F0.08942337951677137
ssI40
(dp50
g9
F0.8524195424225204
sg10
F0.8260852906287198
ssI41
(dp51
g9
F0.11521841065658889
sg10
F0.3788031938018499
ssI42
(dp52
g9
F0.21919930951900546
sg10
F0.8447169110517497
ssI43
(dp53
g9
F0.34018990442147723
sg10
F0.1870045457874232
ssI44
(dp54
g9
F0.6956159138051667
sg10
F0.26830921430356325
ssI45
(dp55
g9
F0.9212639778135184
sg10
F0.269224629167107
ssI46
(dp56
g9
F0.20346176112660008
sg10
F0.7675598400099175
ssI47
(dp57
g9
F0.6306638500884963
sg10
F0.22293609140582638
ssI48
(dp58
g9
F0.6058017215763597
sg10
F0.908626797220074
ssI49
(dp59
g9
F0.7887288707171469
sg10
F0.30109327109034656
sssS'node_dict_factory'
p60
c__builtin__
dict
p61
sS'edge_attr_dict_factory'
p62
g61
sS'edge'
p63
(dp64
I0
(dp65
sI1
(dp66
sI2
(dp67
sI3
(dp68
sI4
(dp69
sI5
(dp70
sI6
(dp71
sI7
(dp72
sI8
(dp73
sI9
(dp74
sI10
(dp75
sI11
(dp76
sI12
(dp77
sI13
(dp78
sI14
(dp79
sI15
(dp80
sI16
(dp81
sI17
(dp82
sI18
(dp83
sI19
(dp84
sI20
(dp85
sI21
(dp86
sI22
(dp87
sI23
(dp88
sI24
(dp89
sI25
(dp90
sI26
(dp91
sI27
(dp92
sI28
(dp93
sI29
(dp94
sI30
(dp95
sI31
(dp96
sI32
(dp97
sI33
(dp98
sI34
(dp99
sI35
(dp100
sI36
(dp101
sI37
(dp102
sI38
(dp103
sI39
(dp104
sI40
(dp105
sI41
(dp106
sI42
(dp107
sI43
(dp108
sI44
(dp109
sI45
(dp110
sI46
(dp111
sI47
(dp112
sI48
(dp113
sI49
(dp114
ssS'graph'
p115
(dp116
sS'adjlist_dict_factory'
p117
g61
sS'adj'
p118
g64
sb.