ccopy_reg
_reconstructor
p0
(cnetworkx.classes.graph
Graph
p1
c__builtin__
object
p2
Ntp3
Rp4
(dp5
S'node'
p6
(dp7
I0
(dp8
S'pos_x'
p9
F0.17402762180808684
sS'pos_y'
p10
F0.2928689642054989
ssI1
(dp11
g9
F0.6636656272009186
sg10
F0.7818286259077899
ssI2
(dp12
g9
F0.4181646278011045
sg10
F0.6631073803997157
ssI3
(dp13
g9
F0.9828482078454408
sg10
F0.6220918379528326
ssI4
(dp14
g9
F0.6864436944084102
sg10
F0.9750999502792168
ssI5
(dp15
g9
F0.6389773586127164
sg10
F0.9049089803513551
ssI6
(dp16
g9
F0.99586613913031
sg10
F0.055422059192343
ssI7
(dp17
g9
F0.8391557995876907
sg10
F0.3051681744141913
ssI8
(dp18
g9
F0.21024046217801473
sg10
F0.39698619955896064
ssI9
(dp19
g9
F0.24912682978779443
sg10
F0.4830779932118262
ssI10
(dp20
g9
F0.3208233574474819
sg10
F0.39515805410419647
ssI11
(dp21
g9
F0.9549510603789619
sg10
F0.5314209539741296
ssI12
(dp22
g9
F0.673424389892309
sg10
F0.5962992040207111
ssI13
(dp23
g9
F0.3205695935276395
sg10
F0.46094987406545995
ssI14
(dp24
g9
F0.35075448045115476
sg10
F0.8483044670500145
ssI15
(dp25
g9
F0.25540240497931865
sg10
F0.141098809067845
ssI16
(dp26
g9
F0.45718785145149665
sg10
F0.972089952027067
ssI17
(dp27
g9
F0.5434719581683474
sg10
F0.9802071080977195
ssI18
(dp28
g9
F0.7025614519878889
sg10
F0.5847461173386251
ssI19
(dp29
g9
F0.5347015702408283
sg10
F0.10808679055635828
ssI20
(dp30
g9
F0.6380031735988696
sg10
F0.8482263248250912
ssI21
(dp31
g9
F0.5916412748664883
sg10
F0.7623655811085258
ssI22
(dp32
g9
F0.7343627359674785
sg10
F0.08900313377933045
ssI23
(dp33
g9
F0.27823686254441726
sg10
F0.7995111919479315
ssI24
(dp34
g9
F0.35419100403102655
sg10
F0.07204508737777315
ssI25
(dp35
g9
F0.375215883595988
sg10
F0.8060764745945752
ssI26
(dp36
g9
F0.5472991991587766
sg10
F0.48931280115593523
ssI27
(dp37
g9
F0.21061135735644632
sg10
F0.028512252107219083
ssI28
(dp38
g9
F0.41710784957890257
sg10
F0.7876014507922894
ssI29
(dp39
g9
F0.27729101769424436
sg10
F0.9041634926631951
ssI30
(dp40
g9
F0.006676698157397798
sg10
F0.45999114720209133
ssI31
(dp41
g9
F0.980306319393784
sg10
F0.9049782197788566
ssI32
(dp42
g9
F0.33082852242592087
sg10
F0.24568543933222908
ssI33
(dp43
g9
F0.9328186824419336
sg10
F0.1087648087588049
ssI34
(dp44
g9
F0.6864426978819501
sg10
F0.08031957786957378
ssI35
(dp45
g9
F0.5919195590227491
sg10
F0.2079829430835788
ssI36
(dp46
g9
F0.9097831192302891
sg10
F0.7936873863721328
ssI37
(dp47
g9
F0.3170306945203277
sg10
F0.9734174373151715
ssI38
(dp48
g9
F0.178593910468396
sg10
F0.09634307706037382
ssI39
(dp49
g9
F0.223062854712052
sg10
F0.5946296244466396
ssI40
(dp50
g9
F0.3167259315075086
sg10
F0.24825034473424967
ssI41
(dp51
g9
F0.0208474957268745
sg10
F0.31129193070364736
ssI42
(dp52
g9
F0.14245354528007503
sg10
F0.7992581487929461
ssI43
(dp53
g9
F0.9027850154436817
sg10
F0.7294061425135525
ssI44
(dp54
g9
F0.0009387685389478095
sg10
F0.715268908398092
ssI45
(dp55
g9
F0.7996374366450087
sg10
F0.441235004688206
ssI46
(dp56
g9
F0.8406676182575399
sg10
F0.7947136723218273
ssI47
(dp57
g9
F0.7176029856421655
sg10
F0.794373438720499
ssI48
(dp58
g9
F0.13125340783328443
sg10
F0.2385738085118061
ssI49
(dp59
g9
F0.281910777887181
sg10
F0.33538071645290357
sssS'node_dict_factory'
p60
c__builtin__
dict
p61
sS'edge_attr_dict_factory'
p62
g61
sS'edge'
p63
(dp64
I0
(dp65
sI1
(dp66
sI2
(dp67
sI3
(dp68
sI4
(dp69
sI5
(dp70
sI6
(dp71
sI7
(dp72
sI8
(dp73
sI9
(dp74
sI10
(dp75
sI11
(dp76
sI12
(dp77
sI13
(dp78
sI14
(dp79
sI15
(dp80
sI16
(dp81
sI17
(dp82
sI18
(dp83
sI19
(dp84
sI20
(dp85
sI21
(dp86
sI22
(dp87
sI23
(dp88
sI24
(dp89
sI25
(dp90
sI26
(dp91
sI27
(dp92
sI28
(dp93
sI29
(dp94
sI30
(dp95
sI31
(dp96
sI32
(dp97
sI33
(dp98
sI34
(dp99
sI35
(dp100
sI36
(dp101
sI37
(dp102
sI38
(dp103
sI39
(dp104
sI40
(dp105
sI41
(dp106
sI42
(dp107
sI43
(dp108
sI44
(dp109
sI45
(dp110
sI46
(dp111
sI47
(dp112
sI48
(dp113
sI49
(dp114
ssS'graph'
p115
(dp116
sS'adjlist_dict_factory'
p117
g61
sS'adj'
p118
g64
sb.