ccopy_reg
_reconstructor
p0
(cnetworkx.classes.graph
Graph
p1
c__builtin__
object
p2
Ntp3
Rp4
(dp5
S'node'
p6
(dp7
I0
(dp8
S'pos_x'
p9
F0.1422684011315376
sS'pos_y'
p10
F0.8371474337158724
ssI1
(dp11
g9
F0.27903684264232087
sg10
F0.5896513375326697
ssI2
(dp12
g9
F0.34027917705549515
sg10
F0.6346805525240985
ssI3
(dp13
g9
F0.3685188900519023
sg10
F0.5862107541865216
ssI4
(dp14
g9
F0.9494115479636991
sg10
F0.6491576973261717
ssI5
(dp15
g9
F0.7182146694115589
sg10
F0.3829674534078086
ssI6
(dp16
g9
F0.1796370776712537
sg10
F0.837106154376974
ssI7
(dp17
g9
F0.11301142086216986
sg10
F0.9502925889900035
ssI8
(dp18
g9
F0.09537007940378817
sg10
F0.3247632287067477
ssI9
(dp19
g9
F0.7336699263427465
sg10
F0.18775121505079262
ssI10
(dp20
g9
F0.3974497481617415
sg10
F0.404916396359822
ssI11
(dp21
g9
F0.3973042626102621
sg10
F0.1742715866162915
ssI12
(dp22
g9
F0.00993523869500168
sg10
F0.3084396007838235
ssI13
(dp23
g9
F0.7084751944815685
sg10
F0.008387748048085508
ssI14
(dp24
g9
F0.5368218833325419
sg10
F0.640491125359356
ssI15
(dp25
g9
F0.6453624884834782
sg10
F0.2822559450172575
ssI16
(dp26
g9
F0.32066638813782833
sg10
F0.6085661935147779
ssI17
(dp27
g9
F0.3408341071377188
sg10
F0.32986124982226384
ssI18
(dp28
g9
F0.3190043863990245
sg10
F0.8758587184756136
ssI19
(dp29
g9
F0.7997758065163427
sg10
F0.806921072952401
ssI20
(dp30
g9
F0.10985821973460841
sg10
F0.008661128969020493
ssI21
(dp31
g9
F0.5071558287848916
sg10
F0.7513275653372204
ssI22
(dp32
g9
F0.2797804824240294
sg10
F0.9639175810482811
ssI23
(dp33
g9
F0.7137876859866489
sg10
F0.5862899502287375
ssI24
(dp34
g9
F0.5158842780336143
sg10
F0.7840153928393304
ssI25
(dp35
g9
F0.5621908153148296
sg10
F0.6426661589788625
ssI26
(dp36
g9
F0.1693123803124048
sg10
F0.2256154808513563
ssI27
(dp37
g9
F0.06282763996554419
sg10
F0.7533167965045023
ssI28
(dp38
g9
F0.04440469640162292
sg10
F0.4950269250505489
ssI29
(dp39
g9
F0.6044568892758495
sg10
F0.21579725058890065
ssI30
(dp40
g9
F0.8152750524421504
sg10
F0.5693820170125872
ssI31
(dp41
g9
F0.5621201175833203
sg10
F0.07049850539258651
ssI32
(dp42
g9
F0.5672222313218959
sg10
F0.48451048823532694
ssI33
(dp43
g9
F0.7871820349924924
sg10
F0.5439385212630852
ssI34
(dp44
g9
F0.663191879910517
sg10
F0.10754773041565935
ssI35
(dp45
g9
F0.24531561200691343
sg10
F0.8625855136447105
ssI36
(dp46
g9
F0.7058788177587274
sg10
F0.9626703572353789
ssI37
(dp47
g9
F0.3527270586787995
sg10
F0.5080135213254839
ssI38
(dp48
g9
F0.2918436817382728
sg10
F0.6929849795119696
ssI39
(dp49
g9
F0.33367800452071117
sg10
F0.14991051075718365
ssI40
(dp50
g9
F0.6271744393681361
sg10
F0.7070881573007552
ssI41
(dp51
g9
F0.7742624763249926
sg10
F0.6432550412858892
ssI42
(dp52
g9
F0.9216145408488382
sg10
F0.608740687316204
ssI43
(dp53
g9
F0.47182518894317715
sg10
F0.1672874744585583
ssI44
(dp54
g9
F0.2929092656451807
sg10
F0.27961968844695184
ssI45
(dp55
g9
F0.9562598329083585
sg10
F0.8901749462216866
ssI46
(dp56
g9
F0.05768885131923818
sg10
F0.8937103519248112
ssI47
(dp57
g9
F0.6163980713810325
sg10
F0.6810041709372971
ssI48
(dp58
g9
F0.7729384516384571
sg10
F0.13868949649350015
ssI49
(dp59
g9
F0.8612381967631314
sg10
F0.010437562335970596
sssS'node_dict_factory'
p60
c__builtin__
dict
p61
sS'edge_attr_dict_factory'
p62
g61
sS'edge'
p63
(dp64
I0
(dp65
sI1
(dp66
sI2
(dp67
sI3
(dp68
sI4
(dp69
sI5
(dp70
sI6
(dp71
sI7
(dp72
sI8
(dp73
sI9
(dp74
sI10
(dp75
sI11
(dp76
sI12
(dp77
sI13
(dp78
sI14
(dp79
sI15
(dp80
sI16
(dp81
sI17
(dp82
sI18
(dp83
sI19
(dp84
sI20
(dp85
sI21
(dp86
sI22
(dp87
sI23
(dp88
sI24
(dp89
sI25
(dp90
sI26
(dp91
sI27
(dp92
sI28
(dp93
sI29
(dp94
sI30
(dp95
sI31
(dp96
sI32
(dp97
sI33
(dp98
sI34
(dp99
sI35
(dp100
sI36
(dp101
sI37
(dp102
sI38
(dp103
sI39
(dp104
sI40
(dp105
sI41
(dp106
sI42
(dp107
sI43
(dp108
sI44
(dp109
sI45
(dp110
sI46
(dp111
sI47
(dp112
sI48
(dp113
sI49
(dp114
ssS'graph'
p115
(dp116
sS'adjlist_dict_factory'
p117
g61
sS'adj'
p118
g64
sb.