ccopy_reg
_reconstructor
p0
(cnetworkx.classes.graph
Graph
p1
c__builtin__
object
p2
Ntp3
Rp4
(dp5
S'node'
p6
(dp7
I0
(dp8
S'pos_x'
p9
F0.7148118306259321
sS'pos_y'
p10
F0.39015363756370613
ssI1
(dp11
g9
F0.9287913959666095
sg10
F0.8951602822884845
ssI2
(dp12
g9
F0.6725312134178559
sg10
F0.9363754620212864
ssI3
(dp13
g9
F0.6272326265189023
sg10
F0.6357843125036232
ssI4
(dp14
g9
F0.5176810759300534
sg10
F0.4457502310758449
ssI5
(dp15
g9
F0.5140738922544833
sg10
F0.7076557876515183
ssI6
(dp16
g9
F0.9633191134669371
sg10
F0.5461684502351964
ssI7
(dp17
g9
F0.019193147697324164
sg10
F0.7897803186971154
ssI8
(dp18
g9
F0.8145876391345312
sg10
F0.5749330464444486
ssI9
(dp19
g9
F0.9600855318736834
sg10
F0.26566863022845
ssI10
(dp20
g9
F0.4100357233361507
sg10
F0.03872262521824432
ssI11
(dp21
g9
F0.009135253474074845
sg10
F0.7294393491349193
ssI12
(dp22
g9
F0.19239994874987654
sg10
F0.22161298564790866
ssI13
(dp23
g9
F0.025679177574783996
sg10
F0.44876774533392216
ssI14
(dp24
g9
F0.6809767639656074
sg10
F0.3403955419696003
ssI15
(dp25
g9
F0.2984218107996327
sg10
F0.5770024599578524
ssI16
(dp26
g9
F0.769713867589838
sg10
F0.2610785910820633
ssI17
(dp27
g9
F0.9942696768663433
sg10
F0.15173035837076165
ssI18
(dp28
g9
F0.8689170309888065
sg10
F0.8608287493135146
ssI19
(dp29
g9
F0.4795232619216133
sg10
F0.5096515433453662
ssI20
(dp30
g9
F0.19764939295498907
sg10
F0.5610338448606558
ssI21
(dp31
g9
F0.123252792549567
sg10
F0.08044511758154749
ssI22
(dp32
g9
F0.9346702060299741
sg10
F0.061883122237047616
ssI23
(dp33
g9
F0.880414052298578
sg10
F0.542595066904056
ssI24
(dp34
g9
F0.41909846897237424
sg10
F0.6551239340200617
ssI25
(dp35
g9
F0.024376900192114803
sg10
F0.17948522332705796
ssI26
(dp36
g9
F0.8902741370141216
sg10
F0.853464558664431
ssI27
(dp37
g9
F0.21941712112920442
sg10
F0.311499666856735
ssI28
(dp38
g9
F0.16145585402753293
sg10
F0.5177360250026157
ssI29
(dp39
g9
F0.706030166491838
sg10
F0.5783939381599841
ssI30
(dp40
g9
F0.5745951146777895
sg10
F0.9019092297807348
ssI31
(dp41
g9
F0.8504744090040471
sg10
F0.058575837318974755
ssI32
(dp42
g9
F0.4408110948027333
sg10
F0.34822040575504687
ssI33
(dp43
g9
F0.6107882773634075
sg10
F0.167791688658384
ssI34
(dp44
g9
F0.410404084683216
sg10
F0.3402271323063917
ssI35
(dp45
g9
F0.2462099953213417
sg10
F0.6388831286639843
ssI36
(dp46
g9
F0.3267017943241616
sg10
F0.229538436812598
ssI37
(dp47
g9
F0.9290141389007901
sg10
F0.8636919282349681
ssI38
(dp48
g9
F0.14127787224823796
sg10
F0.2650233295614931
ssI39
(dp49
g9
F0.8088975674834983
sg10
F0.42027144559665597
ssI40
(dp50
g9
F0.017933976421123488
sg10
F0.7144238848389419
ssI41
(dp51
g9
F0.6554312186002111
sg10
F0.4256281527115715
ssI42
(dp52
g9
F0.2851966126620442
sg10
F0.9359973832106576
ssI43
(dp53
g9
F0.7146478211462547
sg10
F0.5746097239449888
ssI44
(dp54
g9
F0.16415564489150336
sg10
F0.16435903495791515
ssI45
(dp55
g9
F0.27176138890571244
sg10
F0.17995727901740888
ssI46
(dp56
g9
F0.22133491212426382
sg10
F0.8812993829745023
ssI47
(dp57
g9
F0.6068192996196491
sg10
F0.9556690390501098
ssI48
(dp58
g9
F0.7634388295219388
sg10
F0.30500944475308533
ssI49
(dp59
g9
F0.8859606742760886
sg10
F0.6192196305600998
sssS'node_dict_factory'
p60
c__builtin__
dict
p61
sS'edge_attr_dict_factory'
p62
g61
sS'edge'
p63
(dp64
I0
(dp65
sI1
(dp66
sI2
(dp67
sI3
(dp68
sI4
(dp69
sI5
(dp70
sI6
(dp71
sI7
(dp72
sI8
(dp73
sI9
(dp74
sI10
(dp75
sI11
(dp76
sI12
(dp77
sI13
(dp78
sI14
(dp79
sI15
(dp80
sI16
(dp81
sI17
(dp82
sI18
(dp83
sI19
(dp84
sI20
(dp85
sI21
(dp86
sI22
(dp87
sI23
(dp88
sI24
(dp89
sI25
(dp90
sI26
(dp91
sI27
(dp92
sI28
(dp93
sI29
(dp94
sI30
(dp95
sI31
(dp96
sI32
(dp97
sI33
(dp98
sI34
(dp99
sI35
(dp100
sI36
(dp101
sI37
(dp102
sI38
(dp103
sI39
(dp104
sI40
(dp105
sI41
(dp106
sI42
(dp107
sI43
(dp108
sI44
(dp109
sI45
(dp110
sI46
(dp111
sI47
(dp112
sI48
(dp113
sI49
(dp114
ssS'graph'
p115
(dp116
sS'adjlist_dict_factory'
p117
g61
sS'adj'
p118
g64
sb.