ccopy_reg
_reconstructor
p0
(cnetworkx.classes.graph
Graph
p1
c__builtin__
object
p2
Ntp3
Rp4
(dp5
S'node'
p6
(dp7
I0
(dp8
S'pos_x'
p9
F0.08908937286849405
sS'pos_y'
p10
F0.8394412346745774
ssI1
(dp11
g9
F0.5629634047317221
sg10
F0.4384450998400886
ssI2
(dp12
g9
F0.6508526447461953
sg10
F0.7718553524525121
ssI3
(dp13
g9
F0.16229506406449257
sg10
F0.5339890175569282
ssI4
(dp14
g9
F0.6090681748663423
sg10
F0.899895158912348
ssI5
(dp15
g9
F0.8636567876750033
sg10
F0.2547074429177153
ssI6
(dp16
g9
F0.7719016625456759
sg10
F0.8661903613474142
ssI7
(dp17
g9
F0.7572781777569939
sg10
F0.10480523222090588
ssI8
(dp18
g9
F0.646310101074543
sg10
F0.6075639320021824
ssI9
(dp19
g9
F0.1894236279538657
sg10
F0.4697979514838163
ssI10
(dp20
g9
F0.6630835886446048
sg10
F0.029507079105405842
ssI11
(dp21
g9
F0.12425895620298633
sg10
F0.41623565130060836
ssI12
(dp22
g9
F0.40901628101546095
sg10
F0.9684006547329247
ssI13
(dp23
g9
F0.464025947618241
sg10
F0.40780115132125605
ssI14
(dp24
g9
F0.6443268893852643
sg10
F0.451635402232868
ssI15
(dp25
g9
F0.3421705584045738
sg10
F0.6774762970739812
ssI16
(dp26
g9
F0.08910525466056596
sg10
F0.919799031121393
ssI17
(dp27
g9
F0.22882928849540862
sg10
F0.6905601529397501
ssI18
(dp28
g9
F0.8167595659168875
sg10
F0.5398902185708393
ssI19
(dp29
g9
F0.013220104317007486
sg10
F0.19163435811300344
ssI20
(dp30
g9
F0.8662247308608036
sg10
F0.47382971905816607
ssI21
(dp31
g9
F0.8812422184092074
sg10
F0.058832715690269266
ssI22
(dp32
g9
F0.6739203402915088
sg10
F0.24683911665741554
ssI23
(dp33
g9
F0.985970936405701
sg10
F0.644707800437268
ssI24
(dp34
g9
F0.09969635613002514
sg10
F0.9447692284412168
ssI25
(dp35
g9
F0.13068451728987995
sg10
F0.11781677898375653
ssI26
(dp36
g9
F0.5201059902976709
sg10
F0.2970789935147238
ssI27
(dp37
g9
F0.3930344363865934
sg10
F0.8929691364153747
ssI28
(dp38
g9
F0.7783925734538902
sg10
F0.5197384931988207
ssI29
(dp39
g9
F0.5497191656742733
sg10
F0.5739881219283053
ssI30
(dp40
g9
F0.19656077418934736
sg10
F0.027474611377935276
ssI31
(dp41
g9
F0.24942465809257008
sg10
F0.21808492095404108
ssI32
(dp42
g9
F0.7353887942213189
sg10
F0.023115107632495913
ssI33
(dp43
g9
F0.32832214103494195
sg10
F0.6827503868269349
ssI34
(dp44
g9
F0.7224855084104621
sg10
F0.27152789890896845
ssI35
(dp45
g9
F0.715258201494541
sg10
F0.7628106647601517
ssI36
(dp46
g9
F0.030930303808355708
sg10
F0.9360925079419821
ssI37
(dp47
g9
F0.83489162363232
sg10
F0.648536565551005
ssI38
(dp48
g9
F0.4729264257695305
sg10
F0.36777974704378746
ssI39
(dp49
g9
F0.9038882011711422
sg10
F0.15993967297308365
ssI40
(dp50
g9
F0.39681075344687544
sg10
F0.4033812551426089
ssI41
(dp51
g9
F0.7219681284990729
sg10
F0.020149778439435773
ssI42
(dp52
g9
F0.21994177978599072
sg10
F0.24273944819764814
ssI43
(dp53
g9
F0.7732061645288056
sg10
F0.7567016173188094
ssI44
(dp54
g9
F0.8682198954734479
sg10
F0.716060715606645
ssI45
(dp55
g9
F0.5038562535931447
sg10
F0.5271425807371953
ssI46
(dp56
g9
F0.2312326777837065
sg10
F0.9460431924028412
ssI47
(dp57
g9
F0.5923555923125527
sg10
F0.6934263055445391
ssI48
(dp58
g9
F0.48924803939566186
sg10
F0.8245770373729451
ssI49
(dp59
g9
F0.17018055378815622
sg10
F0.026932791682432344
sssS'node_dict_factory'
p60
c__builtin__
dict
p61
sS'edge_attr_dict_factory'
p62
g61
sS'edge'
p63
(dp64
I0
(dp65
sI1
(dp66
sI2
(dp67
sI3
(dp68
sI4
(dp69
sI5
(dp70
sI6
(dp71
sI7
(dp72
sI8
(dp73
sI9
(dp74
sI10
(dp75
sI11
(dp76
sI12
(dp77
sI13
(dp78
sI14
(dp79
sI15
(dp80
sI16
(dp81
sI17
(dp82
sI18
(dp83
sI19
(dp84
sI20
(dp85
sI21
(dp86
sI22
(dp87
sI23
(dp88
sI24
(dp89
sI25
(dp90
sI26
(dp91
sI27
(dp92
sI28
(dp93
sI29
(dp94
sI30
(dp95
sI31
(dp96
sI32
(dp97
sI33
(dp98
sI34
(dp99
sI35
(dp100
sI36
(dp101
sI37
(dp102
sI38
(dp103
sI39
(dp104
sI40
(dp105
sI41
(dp106
sI42
(dp107
sI43
(dp108
sI44
(dp109
sI45
(dp110
sI46
(dp111
sI47
(dp112
sI48
(dp113
sI49
(dp114
ssS'graph'
p115
(dp116
sS'adjlist_dict_factory'
p117
g61
sS'adj'
p118
g64
sb.