ccopy_reg
_reconstructor
p0
(cnetworkx.classes.graph
Graph
p1
c__builtin__
object
p2
Ntp3
Rp4
(dp5
S'node'
p6
(dp7
I0
(dp8
S'pos_x'
p9
F0.2809855283205762
sS'pos_y'
p10
F0.691723651137509
ssI1
(dp11
g9
F0.11394735011316737
sg10
F0.7295689349628602
ssI2
(dp12
g9
F0.11131266246316174
sg10
F0.9751323297214217
ssI3
(dp13
g9
F0.7478602991320987
sg10
F0.9478939838462043
ssI4
(dp14
g9
F0.2375837500262079
sg10
F0.6258246123614035
ssI5
(dp15
g9
F0.6399614775394245
sg10
F0.3237614557325976
ssI6
(dp16
g9
F0.4681774934217835
sg10
F0.8081024017913467
ssI7
(dp17
g9
F0.19871295293821345
sg10
F0.6307317633048742
ssI8
(dp18
g9
F0.499621332909838
sg10
F0.05739398588485278
ssI9
(dp19
g9
F0.04553237207665306
sg10
F0.28092081993139495
ssI10
(dp20
g9
F0.8572564044799613
sg10
F0.5028593969210411
ssI11
(dp21
g9
F0.6784275361887114
sg10
F0.5186747754463129
ssI12
(dp22
g9
F0.934586625903211
sg10
F0.8968468949286053
ssI13
(dp23
g9
F0.7302071986249701
sg10
F0.9179644816115929
ssI14
(dp24
g9
F0.9272309676237509
sg10
F0.36100803573406426
ssI15
(dp25
g9
F0.1026328993976644
sg10
F0.9964638925715414
ssI16
(dp26
g9
F0.8297016580508092
sg10
F0.5924418253754327
ssI17
(dp27
g9
F0.8090495864201686
sg10
F0.6787301441700422
ssI18
(dp28
g9
F0.412085791753646
sg10
F0.9363200915065737
ssI19
(dp29
g9
F0.1496372807942622
sg10
F0.9587780547036641
ssI20
(dp30
g9
F0.5197047784803652
sg10
F0.23116092388749487
ssI21
(dp31
g9
F0.0014073790984744372
sg10
F0.004142603118134969
ssI22
(dp32
g9
F0.5838627143864555
sg10
F0.6097099068843332
ssI23
(dp33
g9
F0.5770634104976665
sg10
F0.12295292662106083
ssI24
(dp34
g9
F0.6965797007554776
sg10
F0.3583593019512288
ssI25
(dp35
g9
F0.26193135456603767
sg10
F0.18138302822908858
ssI26
(dp36
g9
F0.21540963330076401
sg10
F0.8100628801819849
ssI27
(dp37
g9
F0.1458586091817412
sg10
F0.993180284881792
ssI28
(dp38
g9
F0.03440698477373627
sg10
F0.49273641197899476
ssI29
(dp39
g9
F0.1637786188761604
sg10
F0.2825386097401904
ssI30
(dp40
g9
F0.4620036570674444
sg10
F0.2031352684915445
ssI31
(dp41
g9
F0.6007049994779448
sg10
F0.7068423650604105
ssI32
(dp42
g9
F0.9237792953797722
sg10
F0.11991968667885433
ssI33
(dp43
g9
F0.498912088242362
sg10
F0.6508163540337116
ssI34
(dp44
g9
F0.5478451230795052
sg10
F0.39181818856392914
ssI35
(dp45
g9
F0.3402546573169385
sg10
F0.5373203571400785
ssI36
(dp46
g9
F0.015688446822135327
sg10
F0.172340436202699
ssI37
(dp47
g9
F0.05626329279089748
sg10
F0.8234280711132794
ssI38
(dp48
g9
F0.30802645694210595
sg10
F0.5046806149160467
ssI39
(dp49
g9
F0.7070132864060094
sg10
F0.14435737928528258
ssI40
(dp50
g9
F0.29679321000103287
sg10
F0.33517940512845523
ssI41
(dp51
g9
F0.4347571781018801
sg10
F0.5532671975897908
ssI42
(dp52
g9
F0.6045453963919224
sg10
F0.8870598343147648
ssI43
(dp53
g9
F0.029115922901248315
sg10
F0.8119951783544392
ssI44
(dp54
g9
F0.8489414388121481
sg10
F0.2804625912454115
ssI45
(dp55
g9
F0.5914474077212435
sg10
F0.27311160182683325
ssI46
(dp56
g9
F0.9479654634827501
sg10
F0.2055027718223662
ssI47
(dp57
g9
F0.12932599869375438
sg10
F0.5541336675254608
ssI48
(dp58
g9
F0.46944334078281225
sg10
F0.7359964464243636
ssI49
(dp59
g9
F0.91999627688686
sg10
F0.9439477964632793
sssS'node_dict_factory'
p60
c__builtin__
dict
p61
sS'edge_attr_dict_factory'
p62
g61
sS'edge'
p63
(dp64
I0
(dp65
sI1
(dp66
sI2
(dp67
sI3
(dp68
sI4
(dp69
sI5
(dp70
sI6
(dp71
sI7
(dp72
sI8
(dp73
sI9
(dp74
sI10
(dp75
sI11
(dp76
sI12
(dp77
sI13
(dp78
sI14
(dp79
sI15
(dp80
sI16
(dp81
sI17
(dp82
sI18
(dp83
sI19
(dp84
sI20
(dp85
sI21
(dp86
sI22
(dp87
sI23
(dp88
sI24
(dp89
sI25
(dp90
sI26
(dp91
sI27
(dp92
sI28
(dp93
sI29
(dp94
sI30
(dp95
sI31
(dp96
sI32
(dp97
sI33
(dp98
sI34
(dp99
sI35
(dp100
sI36
(dp101
sI37
(dp102
sI38
(dp103
sI39
(dp104
sI40
(dp105
sI41
(dp106
sI42
(dp107
sI43
(dp108
sI44
(dp109
sI45
(dp110
sI46
(dp111
sI47
(dp112
sI48
(dp113
sI49
(dp114
ssS'graph'
p115
(dp116
sS'adjlist_dict_factory'
p117
g61
sS'adj'
p118
g64
sb.