ccopy_reg
_reconstructor
p0
(cnetworkx.classes.graph
Graph
p1
c__builtin__
object
p2
Ntp3
Rp4
(dp5
S'node'
p6
(dp7
I0
(dp8
S'pos_x'
p9
F0.3223602331391733
sS'pos_y'
p10
F0.0931827550093105
ssI1
(dp11
g9
F0.251754381345872
sg10
F0.1941200778500244
ssI2
(dp12
g9
F0.6726490195853478
sg10
F0.3739488981228012
ssI3
(dp13
g9
F0.524200044324239
sg10
F0.1657648177486033
ssI4
(dp14
g9
F0.6023659965629782
sg10
F0.7865033183475449
ssI5
(dp15
g9
F0.6184534156664984
sg10
F0.7647485835592763
ssI6
(dp16
g9
F0.46628056601899004
sg10
F0.5712083948131274
ssI7
(dp17
g9
F0.6885477991051914
sg10
F0.7376541227208494
ssI8
(dp18
g9
F0.49367764704397255
sg10
F0.5181859393521381
ssI9
(dp19
g9
F0.15272375733879462
sg10
F0.7729142405959417
ssI10
(dp20
g9
F0.789425087987271
sg10
F0.9606637122876578
ssI11
(dp21
g9
F0.8400029276773123
sg10
F0.32021372579502405
ssI12
(dp22
g9
F0.7310804690739439
sg10
F0.3268183495367203
ssI13
(dp23
g9
F0.33007475148893595
sg10
F0.999446745662922
ssI14
(dp24
g9
F0.23391529554443913
sg10
F0.7349307860540417
ssI15
(dp25
g9
F0.1905632827055137
sg10
F0.7823383755976047
ssI16
(dp26
g9
F0.5390809495518792
sg10
F0.9996191343226396
ssI17
(dp27
g9
F0.5070392294196248
sg10
F0.13544665718250215
ssI18
(dp28
g9
F0.13089702773315426
sg10
F0.7905641411464186
ssI19
(dp29
g9
F0.5391665667813449
sg10
F0.2199578442115292
ssI20
(dp30
g9
F0.39958148655536063
sg10
F0.07045735123763497
ssI21
(dp31
g9
F0.27848728836713044
sg10
F0.16749899129727408
ssI22
(dp32
g9
F0.5823755244093191
sg10
F0.09341688144822535
ssI23
(dp33
g9
F0.13884234683555885
sg10
F0.6594026699595614
ssI24
(dp34
g9
F0.9781428358075445
sg10
F0.7108574678354069
ssI25
(dp35
g9
F0.9459220877298286
sg10
F0.9141368234635968
ssI26
(dp36
g9
F0.5042793617717067
sg10
F0.3301735387860857
ssI27
(dp37
g9
F0.6743869335596195
sg10
F0.16065757428884897
ssI28
(dp38
g9
F0.7874212461458567
sg10
F0.45670816050106244
ssI29
(dp39
g9
F0.3282665926884356
sg10
F0.07728606177793806
ssI30
(dp40
g9
F0.6885901080705134
sg10
F0.5183323425574161
ssI31
(dp41
g9
F0.05656403110372488
sg10
F0.1966573190602391
ssI32
(dp42
g9
F0.7865724614021157
sg10
F0.3136446010488335
ssI33
(dp43
g9
F0.020877796121339443
sg10
F0.09859379749820596
ssI34
(dp44
g9
F0.8715727247372327
sg10
F0.9924933067264122
ssI35
(dp45
g9
F0.028796909482358135
sg10
F0.2631031503264196
ssI36
(dp46
g9
F0.8507565326221569
sg10
F0.4864615530613682
ssI37
(dp47
g9
F0.6595379888599775
sg10
F0.8061470534365374
ssI38
(dp48
g9
F0.1477296811063138
sg10
F0.03848986974707336
ssI39
(dp49
g9
F0.5958612221616374
sg10
F0.3259363039233396
ssI40
(dp50
g9
F0.10142365393305286
sg10
F0.6212903168588956
ssI41
(dp51
g9
F0.9303766316899835
sg10
F0.3509868061584913
ssI42
(dp52
g9
F0.8926873952800637
sg10
F0.3561015057239457
ssI43
(dp53
g9
F0.5234998916283201
sg10
F0.8705159255689523
ssI44
(dp54
g9
F0.9667087483160042
sg10
F0.6794639877676939
ssI45
(dp55
g9
F0.93948511606192
sg10
F0.7320505061991059
ssI46
(dp56
g9
F0.77592536174787
sg10
F0.196295245800168
ssI47
(dp57
g9
F0.492073287450306
sg10
F0.3008564617615914
ssI48
(dp58
g9
F0.6124205150216637
sg10
F0.24624287134410472
ssI49
(dp59
g9
F0.4145964942072302
sg10
F0.4605494967036472
sssS'node_dict_factory'
p60
c__builtin__
dict
p61
sS'edge_attr_dict_factory'
p62
g61
sS'edge'
p63
(dp64
I0
(dp65
sI1
(dp66
sI2
(dp67
sI3
(dp68
sI4
(dp69
sI5
(dp70
sI6
(dp71
sI7
(dp72
sI8
(dp73
sI9
(dp74
sI10
(dp75
sI11
(dp76
sI12
(dp77
sI13
(dp78
sI14
(dp79
sI15
(dp80
sI16
(dp81
sI17
(dp82
sI18
(dp83
sI19
(dp84
sI20
(dp85
sI21
(dp86
sI22
(dp87
sI23
(dp88
sI24
(dp89
sI25
(dp90
sI26
(dp91
sI27
(dp92
sI28
(dp93
sI29
(dp94
sI30
(dp95
sI31
(dp96
sI32
(dp97
sI33
(dp98
sI34
(dp99
sI35
(dp100
sI36
(dp101
sI37
(dp102
sI38
(dp103
sI39
(dp104
sI40
(dp105
sI41
(dp106
sI42
(dp107
sI43
(dp108
sI44
(dp109
sI45
(dp110
sI46
(dp111
sI47
(dp112
sI48
(dp113
sI49
(dp114
ssS'graph'
p115
(dp116
sS'adjlist_dict_factory'
p117
g61
sS'adj'
p118
g64
sb.