ccopy_reg
_reconstructor
p0
(cnetworkx.classes.graph
Graph
p1
c__builtin__
object
p2
Ntp3
Rp4
(dp5
S'node'
p6
(dp7
I0
(dp8
S'pos_x'
p9
F0.754779000025359
sS'pos_y'
p10
F0.9292206119742197
ssI1
(dp11
g9
F0.19535914333035453
sg10
F0.917902919753324
ssI2
(dp12
g9
F0.5220290670295878
sg10
F0.0042354756251855585
ssI3
(dp13
g9
F0.8041131573795848
sg10
F0.11894636863570263
ssI4
(dp14
g9
F0.5922035590592348
sg10
F0.3296367084329278
ssI5
(dp15
g9
F0.27675859695647853
sg10
F0.2638848639702731
ssI6
(dp16
g9
F0.927185060921672
sg10
F0.7070854162390089
ssI7
(dp17
g9
F0.9774261692247181
sg10
F0.9970467005089306
ssI8
(dp18
g9
F0.8823922238186663
sg10
F0.19484436785119963
ssI9
(dp19
g9
F0.5832919412389408
sg10
F0.605262497148802
ssI10
(dp20
g9
F0.7350913476647908
sg10
F0.6863576009910681
ssI11
(dp21
g9
F0.9061693414768346
sg10
F0.22372165369733765
ssI12
(dp22
g9
F0.20511532989847536
sg10
F0.4166030787672248
ssI13
(dp23
g9
F0.4590367910900762
sg10
F0.8708019799569061
ssI14
(dp24
g9
F0.827153806980676
sg10
F0.4555659817102189
ssI15
(dp25
g9
F0.2894093968274084
sg10
F0.11170767062442966
ssI16
(dp26
g9
F0.7571115494715324
sg10
F0.4074143024004825
ssI17
(dp27
g9
F0.48412277738751053
sg10
F0.1566260088287712
ssI18
(dp28
g9
F0.1798052211800656
sg10
F0.43372805845668994
ssI19
(dp29
g9
F0.14869576192006417
sg10
F0.11791746644063483
ssI20
(dp30
g9
F0.9909346300785384
sg10
F0.31364679355088165
ssI21
(dp31
g9
F0.9324881801564352
sg10
F0.870656934946452
ssI22
(dp32
g9
F0.7173268735450397
sg10
F0.7514709973206019
ssI23
(dp33
g9
F0.41493939406646285
sg10
F0.6852470127191675
ssI24
(dp34
g9
F0.9042279007457341
sg10
F0.8812555107420724
ssI25
(dp35
g9
F0.6399256553141109
sg10
F0.9486674093241176
ssI26
(dp36
g9
F0.9324862217600632
sg10
F0.13133170179222686
ssI27
(dp37
g9
F0.06268001789244926
sg10
F0.8905690259963858
ssI28
(dp38
g9
F0.7932464697388069
sg10
F0.22722567221404488
ssI29
(dp39
g9
F0.7253065865353119
sg10
F0.652597545093271
ssI30
(dp40
g9
F0.37283630538715085
sg10
F0.10842507105181898
ssI31
(dp41
g9
F0.7548825460453514
sg10
F0.41380994208200006
ssI32
(dp42
g9
F0.9893468965158331
sg10
F0.2944263020563709
ssI33
(dp43
g9
F0.32337468014855975
sg10
F0.5234861177466836
ssI34
(dp44
g9
F0.2617584559294025
sg10
F0.7374661221278483
ssI35
(dp45
g9
F0.6073805557777407
sg10
F0.0016088961508415878
ssI36
(dp46
g9
F0.616933626485313
sg10
F0.9309974057582553
ssI37
(dp47
g9
F0.01451725093652989
sg10
F0.5280384372383673
ssI38
(dp48
g9
F0.30106528045239356
sg10
F0.689985639580961
ssI39
(dp49
g9
F0.02473295169222023
sg10
F0.29799358060738124
ssI40
(dp50
g9
F0.4894401449114112
sg10
F0.7276431223273215
ssI41
(dp51
g9
F0.8777841518667243
sg10
F0.939889106082801
ssI42
(dp52
g9
F0.04857743514833046
sg10
F0.28026939545623075
ssI43
(dp53
g9
F0.7402365051762012
sg10
F0.7412693777698468
ssI44
(dp54
g9
F0.20834737633992306
sg10
F0.5097160560304624
ssI45
(dp55
g9
F0.2109979077860178
sg10
F0.5670767791748433
ssI46
(dp56
g9
F0.927611150541677
sg10
F0.9619006823669726
ssI47
(dp57
g9
F0.5688779618868193
sg10
F0.7861802876564222
ssI48
(dp58
g9
F0.3572981673615472
sg10
F0.4829654780947187
ssI49
(dp59
g9
F0.6347371551788117
sg10
F0.8533950506571655
sssS'node_dict_factory'
p60
c__builtin__
dict
p61
sS'edge_attr_dict_factory'
p62
g61
sS'edge'
p63
(dp64
I0
(dp65
sI1
(dp66
sI2
(dp67
sI3
(dp68
sI4
(dp69
sI5
(dp70
sI6
(dp71
sI7
(dp72
sI8
(dp73
sI9
(dp74
sI10
(dp75
sI11
(dp76
sI12
(dp77
sI13
(dp78
sI14
(dp79
sI15
(dp80
sI16
(dp81
sI17
(dp82
sI18
(dp83
sI19
(dp84
sI20
(dp85
sI21
(dp86
sI22
(dp87
sI23
(dp88
sI24
(dp89
sI25
(dp90
sI26
(dp91
sI27
(dp92
sI28
(dp93
sI29
(dp94
sI30
(dp95
sI31
(dp96
sI32
(dp97
sI33
(dp98
sI34
(dp99
sI35
(dp100
sI36
(dp101
sI37
(dp102
sI38
(dp103
sI39
(dp104
sI40
(dp105
sI41
(dp106
sI42
(dp107
sI43
(dp108
sI44
(dp109
sI45
(dp110
sI46
(dp111
sI47
(dp112
sI48
(dp113
sI49
(dp114
ssS'graph'
p115
(dp116
sS'adjlist_dict_factory'
p117
g61
sS'adj'
p118
g64
sb.