ccopy_reg
_reconstructor
p0
(cnetworkx.classes.graph
Graph
p1
c__builtin__
object
p2
Ntp3
Rp4
(dp5
S'node'
p6
(dp7
I0
(dp8
S'pos_x'
p9
F0.6596739000839806
sS'pos_y'
p10
F0.11206264465476046
ssI1
(dp11
g9
F0.287363879169126
sg10
F0.4691405021912016
ssI2
(dp12
g9
F0.7434469987791391
sg10
F0.7306674218642112
ssI3
(dp13
g9
F0.2723185501174695
sg10
F0.8612716470352124
ssI4
(dp14
g9
F0.3463351135362631
sg10
F0.2895130964132544
ssI5
(dp15
g9
F0.16015796756868006
sg10
F0.29697692977600443
ssI6
(dp16
g9
F0.19153313205759992
sg10
F0.2912298822348668
ssI7
(dp17
g9
F0.21583006728056664
sg10
F0.20419162260839774
ssI8
(dp18
g9
F0.42079060789609224
sg10
F0.9625800306290518
ssI9
(dp19
g9
F0.51581040854372
sg10
F0.4150812615762681
ssI10
(dp20
g9
F0.762558720910349
sg10
F0.8056625789771162
ssI11
(dp21
g9
F0.0857864429584464
sg10
F0.3908688969081868
ssI12
(dp22
g9
F0.3759738348308739
sg10
F0.3739143771578285
ssI13
(dp23
g9
F0.5192810648070412
sg10
F0.6902466668507072
ssI14
(dp24
g9
F0.3049886959459085
sg10
F0.13203253352441235
ssI15
(dp25
g9
F0.6468814359844608
sg10
F0.06536071841097912
ssI16
(dp26
g9
F0.32804923885824855
sg10
F0.7274331202843762
ssI17
(dp27
g9
F0.923523240769093
sg10
F0.5499767622124266
ssI18
(dp28
g9
F0.6605954063451618
sg10
F0.8201634122097764
ssI19
(dp29
g9
F0.3391919749693013
sg10
F0.971906727275304
ssI20
(dp30
g9
F0.44473385325774384
sg10
F0.9435140460342489
ssI21
(dp31
g9
F0.8309200669747739
sg10
F0.9566595467739144
ssI22
(dp32
g9
F0.6777167414398126
sg10
F0.6442901110844295
ssI23
(dp33
g9
F0.34303958990747196
sg10
F0.6039121127971447
ssI24
(dp34
g9
F0.2633897313273066
sg10
F0.174995973944034
ssI25
(dp35
g9
F0.8397423510606399
sg10
F0.6809797522304207
ssI26
(dp36
g9
F0.6472572248906729
sg10
F0.6490310914530432
ssI27
(dp37
g9
F0.3754358571419806
sg10
F0.4371325600263317
ssI28
(dp38
g9
F0.6410625077312514
sg10
F0.5094443460227971
ssI29
(dp39
g9
F0.9840887894398751
sg10
F0.3455048680999224
ssI30
(dp40
g9
F0.5947557648167282
sg10
F0.6150401752018196
ssI31
(dp41
g9
F0.5050647020166412
sg10
F0.7790534062507833
ssI32
(dp42
g9
F0.697790270633203
sg10
F0.32885770195004516
ssI33
(dp43
g9
F0.17647594374453723
sg10
F0.5084859848245267
ssI34
(dp44
g9
F0.16305456004242092
sg10
F0.7334019721135367
ssI35
(dp45
g9
F0.01199684452264771
sg10
F0.5850429812370255
ssI36
(dp46
g9
F0.8420878700352853
sg10
F0.44784617768674295
ssI37
(dp47
g9
F0.5680076331992264
sg10
F0.2551002196522708
ssI38
(dp48
g9
F0.4098258733753487
sg10
F0.23069175034186917
ssI39
(dp49
g9
F0.6948008833828502
sg10
F0.5702202095213368
ssI40
(dp50
g9
F0.24368448223037664
sg10
F0.4571797271231547
ssI41
(dp51
g9
F0.297341883091666
sg10
F0.9463985982830085
ssI42
(dp52
g9
F0.8078006297066337
sg10
F0.6621552164190669
ssI43
(dp53
g9
F0.5858671512436602
sg10
F0.059613184600730285
ssI44
(dp54
g9
F0.3060093654719209
sg10
F0.8524774214471743
ssI45
(dp55
g9
F0.5265311306523994
sg10
F0.5286957122408993
ssI46
(dp56
g9
F0.886440329454821
sg10
F0.4475007621997664
ssI47
(dp57
g9
F0.4612741847160523
sg10
F0.17365861773717817
ssI48
(dp58
g9
F0.8807730058101237
sg10
F0.6769569065470515
ssI49
(dp59
g9
F0.9423327050260308
sg10
F0.12439431155186076
sssS'node_dict_factory'
p60
c__builtin__
dict
p61
sS'edge_attr_dict_factory'
p62
g61
sS'edge'
p63
(dp64
I0
(dp65
sI1
(dp66
sI2
(dp67
sI3
(dp68
sI4
(dp69
sI5
(dp70
sI6
(dp71
sI7
(dp72
sI8
(dp73
sI9
(dp74
sI10
(dp75
sI11
(dp76
sI12
(dp77
sI13
(dp78
sI14
(dp79
sI15
(dp80
sI16
(dp81
sI17
(dp82
sI18
(dp83
sI19
(dp84
sI20
(dp85
sI21
(dp86
sI22
(dp87
sI23
(dp88
sI24
(dp89
sI25
(dp90
sI26
(dp91
sI27
(dp92
sI28
(dp93
sI29
(dp94
sI30
(dp95
sI31
(dp96
sI32
(dp97
sI33
(dp98
sI34
(dp99
sI35
(dp100
sI36
(dp101
sI37
(dp102
sI38
(dp103
sI39
(dp104
sI40
(dp105
sI41
(dp106
sI42
(dp107
sI43
(dp108
sI44
(dp109
sI45
(dp110
sI46
(dp111
sI47
(dp112
sI48
(dp113
sI49
(dp114
ssS'graph'
p115
(dp116
sS'adjlist_dict_factory'
p117
g61
sS'adj'
p118
g64
sb.