ccopy_reg
_reconstructor
p0
(cnetworkx.classes.graph
Graph
p1
c__builtin__
object
p2
Ntp3
Rp4
(dp5
S'node'
p6
(dp7
I0
(dp8
S'pos_x'
p9
F0.11405799905787628
sS'pos_y'
p10
F0.35443219396548475
ssI1
(dp11
g9
F0.29751366547196956
sg10
F0.8252974694752929
ssI2
(dp12
g9
F0.7688662461583153
sg10
F0.4008653019704561
ssI3
(dp13
g9
F0.8450187374007594
sg10
F0.2936607646684506
ssI4
(dp14
g9
F0.787148578218756
sg10
F0.10009668566578567
ssI5
(dp15
g9
F0.21824909341367305
sg10
F0.5909243003955187
ssI6
(dp16
g9
F0.7998902846824567
sg10
F0.3782605910917731
ssI7
(dp17
g9
F0.6863798997582728
sg10
F0.4572342507931555
ssI8
(dp18
g9
F0.40256143101896824
sg10
F0.11321292379699954
ssI9
(dp19
g9
F0.5928231704555619
sg10
F0.09154343152064282
ssI10
(dp20
g9
F0.11762828650909363
sg10
F0.9505440663701025
ssI11
(dp21
g9
F0.5360395664727594
sg10
F0.14106504729197922
ssI12
(dp22
g9
F0.4423196711126417
sg10
F0.8123492707471233
ssI13
(dp23
g9
F0.48504533589454013
sg10
F0.2829192214559666
ssI14
(dp24
g9
F0.15324312763494563
sg10
F0.857470602623367
ssI15
(dp25
g9
F0.7714698549537939
sg10
F0.617976330688003
ssI16
(dp26
g9
F0.5745707449925315
sg10
F0.15394814747378238
ssI17
(dp27
g9
F0.24321429841266407
sg10
F0.4728299355706038
ssI18
(dp28
g9
F0.02619671523213918
sg10
F0.7649330964714799
ssI19
(dp29
g9
F0.3126465098364668
sg10
F0.3119339796405143
ssI20
(dp30
g9
F0.8869216604050666
sg10
F0.49691673161350847
ssI21
(dp31
g9
F0.03662928675357957
sg10
F0.13530426788491123
ssI22
(dp32
g9
F0.2944973965358144
sg10
F0.9220200522117173
ssI23
(dp33
g9
F0.9345016561351015
sg10
F0.9903553291396358
ssI24
(dp34
g9
F0.9062667147270637
sg10
F0.8210659736475345
ssI25
(dp35
g9
F0.0890854958538424
sg10
F0.44333926092282994
ssI26
(dp36
g9
F0.02997714542908625
sg10
F0.8808522273933319
ssI27
(dp37
g9
F0.6653993717039051
sg10
F0.9656575423754743
ssI28
(dp38
g9
F0.8157336144430702
sg10
F0.1543283480013139
ssI29
(dp39
g9
F0.6282832994925497
sg10
F0.8403028902723179
ssI30
(dp40
g9
F0.9718295710844739
sg10
F0.8468157400293503
ssI31
(dp41
g9
F0.1487543754055809
sg10
F0.467441551815735
ssI32
(dp42
g9
F0.6271848662054953
sg10
F0.09820528700372666
ssI33
(dp43
g9
F0.6356379211038884
sg10
F0.28745687563191735
ssI34
(dp44
g9
F0.9467629293328177
sg10
F0.6151485041840886
ssI35
(dp45
g9
F0.028246831962484675
sg10
F0.9952894170641571
ssI36
(dp46
g9
F0.981179497504124
sg10
F0.3923880396914884
ssI37
(dp47
g9
F0.9547147270274764
sg10
F0.8876575208233524
ssI38
(dp48
g9
F0.305853104565463
sg10
F0.5327652288342304
ssI39
(dp49
g9
F0.08242542818053866
sg10
F0.30373713011426773
ssI40
(dp50
g9
F0.7075120025612929
sg10
F0.06158737765110134
ssI41
(dp51
g9
F0.9342666860052707
sg10
F0.3967875299288708
ssI42
(dp52
g9
F0.703938058456342
sg10
F0.37149261095578323
ssI43
(dp53
g9
F0.7037631465805572
sg10
F0.08340158725803326
ssI44
(dp54
g9
F0.05566764685264136
sg10
F0.535079825344964
ssI45
(dp55
g9
F0.24241102644161028
sg10
F0.8341327288296156
ssI46
(dp56
g9
F0.5640452943716926
sg10
F0.5706968015756498
ssI47
(dp57
g9
F0.07670467209761955
sg10
F0.9109631350049664
ssI48
(dp58
g9
F0.40857484086196194
sg10
F0.2788177245866841
ssI49
(dp59
g9
F0.3876058903210846
sg10
F0.693348765274706
sssS'node_dict_factory'
p60
c__builtin__
dict
p61
sS'edge_attr_dict_factory'
p62
g61
sS'edge'
p63
(dp64
I0
(dp65
sI1
(dp66
sI2
(dp67
sI3
(dp68
sI4
(dp69
sI5
(dp70
sI6
(dp71
sI7
(dp72
sI8
(dp73
sI9
(dp74
sI10
(dp75
sI11
(dp76
sI12
(dp77
sI13
(dp78
sI14
(dp79
sI15
(dp80
sI16
(dp81
sI17
(dp82
sI18
(dp83
sI19
(dp84
sI20
(dp85
sI21
(dp86
sI22
(dp87
sI23
(dp88
sI24
(dp89
sI25
(dp90
sI26
(dp91
sI27
(dp92
sI28
(dp93
sI29
(dp94
sI30
(dp95
sI31
(dp96
sI32
(dp97
sI33
(dp98
sI34
(dp99
sI35
(dp100
sI36
(dp101
sI37
(dp102
sI38
(dp103
sI39
(dp104
sI40
(dp105
sI41
(dp106
sI42
(dp107
sI43
(dp108
sI44
(dp109
sI45
(dp110
sI46
(dp111
sI47
(dp112
sI48
(dp113
sI49
(dp114
ssS'graph'
p115
(dp116
sS'adjlist_dict_factory'
p117
g61
sS'adj'
p118
g64
sb.